Binsize chosen = 10000
MC time = 0, E = 1.94939, Nwalker = 1000, acc = 1
MC time = 0, E = 1.94939, Nwalker = 1000, acc = 1
MC time = 1000, E = 0.515216, Nwalker = 1006, acc = 0.999604
MC time = 1000, E = 0.516302, Nwalker = 1000, acc = 0.999604
MC time = 2000, E = 0.520524, Nwalker = 997, acc = 0.999605
MC time = 2000, E = 0.519487, Nwalker = 1000, acc = 0.999605
MC time = 3000, E = 0.513152, Nwalker = 1010, acc = 0.999599
MC time = 3000, E = 0.512648, Nwalker = 1000, acc = 0.999599
MC time = 4000, E = 0.493643, Nwalker = 999, acc = 0.999602
MC time = 4000, E = 0.494108, Nwalker = 1000, acc = 0.999602
MC time = 5000, E = 0.489002, Nwalker = 1007, acc = 0.999598
MC time = 5000, E = 0.488371, Nwalker = 1000, acc = 0.999598
MC time = 6000, E = 0.507329, Nwalker = 1000, acc = 0.999595
MC time = 6000, E = 0.507329, Nwalker = 1000, acc = 0.999595
MC time = 7000, E = 0.517834, Nwalker = 1005, acc = 0.999589
MC time = 7000, E = 0.517103, Nwalker = 1000, acc = 0.999589
MC time = 8000, E = 0.497009, Nwalker = 992, acc = 0.999584
MC time = 8000, E = 0.499049, Nwalker = 1000, acc = 0.999584
MC time = 9000, E = 0.498909, Nwalker = 1001, acc = 0.999585
MC time = 9000, E = 0.49915, Nwalker = 1000, acc = 0.999585
MC time = 10000, E = 0.479327, Nwalker = 985, acc = 0.999585
MC time = 10000, E = 0.479707, Nwalker = 1000, acc = 0.999585
MC time = 11000, E = 0.510207, Nwalker = 1000, acc = 0.999589
MC time = 11000, E = 0.510207, Nwalker = 1000, acc = 0.999589
MC time = 12000, E = 0.488075, Nwalker = 995, acc = 0.999589
MC time = 12000, E = 0.488408, Nwalker = 1000, acc = 0.999589
MC time = 13000, E = 0.508921, Nwalker = 997, acc = 0.999587
MC time = 13000, E = 0.508909, Nwalker = 1000, acc = 0.999587
MC time = 14000, E = 0.502617, Nwalker = 1012, acc = 0.999587
MC time = 14000, E = 0.504276, Nwalker = 1000, acc = 0.999587
MC time = 15000, E = 0.501064, Nwalker = 995, acc = 0.999587
MC time = 15000, E = 0.50152, Nwalker = 1000, acc = 0.999587
MC time = 16000, E = 0.526988, Nwalker = 1000, acc = 0.99959
MC time = 16000, E = 0.526988, Nwalker = 1000, acc = 0.99959
