Binsize chosen = 10000
MC time = 0, E = 2.02329, Nwalker = 1005, acc = 1
MC time = 0, E = 2.02725, Nwalker = 1000, acc = 1
MC time = 1000, E = 0.512052, Nwalker = 1005, acc = 1
MC time = 1000, E = 0.512819, Nwalker = 1000, acc = 1
MC time = 2000, E = 0.499592, Nwalker = 997, acc = 1
MC time = 2000, E = 0.498504, Nwalker = 1000, acc = 1
MC time = 3000, E = 0.492818, Nwalker = 1000, acc = 1
MC time = 3000, E = 0.492818, Nwalker = 1000, acc = 1
MC time = 4000, E = 0.446085, Nwalker = 997, acc = 1
MC time = 4000, E = 0.444777, Nwalker = 1000, acc = 1
MC time = 5000, E = 0.491325, Nwalker = 1002, acc = 1
MC time = 5000, E = 0.492253, Nwalker = 1000, acc = 1
MC time = 6000, E = 0.472392, Nwalker = 994, acc = 1
MC time = 6000, E = 0.472619, Nwalker = 1000, acc = 1
MC time = 7000, E = 0.521032, Nwalker = 994, acc = 1
MC time = 7000, E = 0.521799, Nwalker = 1000, acc = 1
MC time = 8000, E = 0.513854, Nwalker = 992, acc = 1
MC time = 8000, E = 0.516076, Nwalker = 1000, acc = 1
MC time = 9000, E = 0.509366, Nwalker = 1006, acc = 1
MC time = 9000, E = 0.508931, Nwalker = 1000, acc = 1
MC time = 10000, E = 0.508543, Nwalker = 1006, acc = 1
MC time = 10000, E = 0.509224, Nwalker = 1000, acc = 1
MC time = 11000, E = 0.545548, Nwalker = 1006, acc = 1
MC time = 11000, E = 0.540296, Nwalker = 1000, acc = 1
MC time = 12000, E = 0.482572, Nwalker = 999, acc = 1
MC time = 12000, E = 0.483951, Nwalker = 1000, acc = 1
MC time = 13000, E = 0.535006, Nwalker = 996, acc = 1
MC time = 13000, E = 0.535934, Nwalker = 1000, acc = 1
MC time = 14000, E = 0.540533, Nwalker = 1006, acc = 1
MC time = 14000, E = 0.541049, Nwalker = 1000, acc = 1
MC time = 15000, E = 0.501864, Nwalker = 1000, acc = 1
MC time = 15000, E = 0.501864, Nwalker = 1000, acc = 1
MC time = 16000, E = 0.521502, Nwalker = 1010, acc = 1
MC time = 16000, E = 0.522291, Nwalker = 1000, acc = 1
