Binsize chosen = 10000
MC time = 0, E = 2.12081, Nwalker = 997, acc = 1
MC time = 0, E = 2.12081, Nwalker = 997, acc = 1
MC time = 1000, E = 0.494872, Nwalker = 998, acc = 1
MC time = 1000, E = 0.496835, Nwalker = 1000, acc = 1
MC time = 2000, E = 0.50655, Nwalker = 1001, acc = 1
MC time = 2000, E = 0.505995, Nwalker = 1000, acc = 1
MC time = 3000, E = 0.492993, Nwalker = 1007, acc = 1
MC time = 3000, E = 0.491539, Nwalker = 1000, acc = 1
MC time = 4000, E = 0.494913, Nwalker = 1001, acc = 1
MC time = 4000, E = 0.495192, Nwalker = 1000, acc = 1
MC time = 5000, E = 0.557211, Nwalker = 997, acc = 1
MC time = 5000, E = 0.556297, Nwalker = 1000, acc = 1
MC time = 6000, E = 0.518843, Nwalker = 986, acc = 1
MC time = 6000, E = 0.517493, Nwalker = 1000, acc = 1
MC time = 7000, E = 0.513952, Nwalker = 998, acc = 1
MC time = 7000, E = 0.513272, Nwalker = 1000, acc = 1
MC time = 8000, E = 0.533867, Nwalker = 998, acc = 1
MC time = 8000, E = 0.533057, Nwalker = 1000, acc = 1
MC time = 9000, E = 0.504444, Nwalker = 997, acc = 1
MC time = 9000, E = 0.506977, Nwalker = 1000, acc = 1
MC time = 10000, E = 0.518319, Nwalker = 998, acc = 1
MC time = 10000, E = 0.518016, Nwalker = 1000, acc = 1
MC time = 11000, E = 0.510744, Nwalker = 1006, acc = 1
MC time = 11000, E = 0.51278, Nwalker = 1000, acc = 1
MC time = 12000, E = 0.492088, Nwalker = 999, acc = 1
MC time = 12000, E = 0.49161, Nwalker = 1000, acc = 1
MC time = 13000, E = 0.508797, Nwalker = 1008, acc = 1
MC time = 13000, E = 0.507274, Nwalker = 1000, acc = 1
MC time = 14000, E = 0.471681, Nwalker = 996, acc = 1
MC time = 14000, E = 0.470812, Nwalker = 1000, acc = 1
MC time = 15000, E = 0.506656, Nwalker = 1010, acc = 1
MC time = 15000, E = 0.505297, Nwalker = 1000, acc = 1
MC time = 16000, E = 0.512431, Nwalker = 1003, acc = 1
MC time = 16000, E = 0.513377, Nwalker = 1000, acc = 1
