%!PS-Adobe-2.0 EPSF-2.0
%%Title: ./time_harmonic_gauss_a_1_Ntherm_0.dat.tex
%%Creator: gnuplot 4.6 patchlevel 1
%%CreationDate: Sat Dec  7 17:43:40 2013
%%DocumentFonts: 
%%BoundingBox: 50 50 410 302
%%EndComments
%%BeginProlog
/gnudict 256 dict def
gnudict begin
%
% The following true/false flags may be edited by hand if desired.
% The unit line width and grayscale image gamma correction may also be changed.
%
/Color true def
/Blacktext false def
/Solid false def
/Dashlength 1 def
/Landscape false def
/Level1 false def
/Rounded false def
/ClipToBoundingBox false def
/SuppressPDFMark false def
/TransparentPatterns false def
/gnulinewidth 5.000 def
/userlinewidth gnulinewidth def
/Gamma 1.0 def
/BackgroundColor {-1.000 -1.000 -1.000} def
%
/vshift -73 def
/dl1 {
  10.0 Dashlength mul mul
  Rounded { currentlinewidth 0.75 mul sub dup 0 le { pop 0.01 } if } if
} def
/dl2 {
  10.0 Dashlength mul mul
  Rounded { currentlinewidth 0.75 mul add } if
} def
/hpt_ 31.5 def
/vpt_ 31.5 def
/hpt hpt_ def
/vpt vpt_ def
/doclip {
  ClipToBoundingBox {
    newpath 50 50 moveto 410 50 lineto 410 302 lineto 50 302 lineto closepath
    clip
  } if
} def
%
% Gnuplot Prolog Version 4.6 (September 2012)
%
%/SuppressPDFMark true def
%
/M {moveto} bind def
/L {lineto} bind def
/R {rmoveto} bind def
/V {rlineto} bind def
/N {newpath moveto} bind def
/Z {closepath} bind def
/C {setrgbcolor} bind def
/f {rlineto fill} bind def
/g {setgray} bind def
/Gshow {show} def   % May be redefined later in the file to support UTF-8
/vpt2 vpt 2 mul def
/hpt2 hpt 2 mul def
/Lshow {currentpoint stroke M 0 vshift R 
	Blacktext {gsave 0 setgray show grestore} {show} ifelse} def
/Rshow {currentpoint stroke M dup stringwidth pop neg vshift R
	Blacktext {gsave 0 setgray show grestore} {show} ifelse} def
/Cshow {currentpoint stroke M dup stringwidth pop -2 div vshift R 
	Blacktext {gsave 0 setgray show grestore} {show} ifelse} def
/UP {dup vpt_ mul /vpt exch def hpt_ mul /hpt exch def
  /hpt2 hpt 2 mul def /vpt2 vpt 2 mul def} def
/DL {Color {setrgbcolor Solid {pop []} if 0 setdash}
 {pop pop pop 0 setgray Solid {pop []} if 0 setdash} ifelse} def
/BL {stroke userlinewidth 2 mul setlinewidth
	Rounded {1 setlinejoin 1 setlinecap} if} def
/AL {stroke userlinewidth 2 div setlinewidth
	Rounded {1 setlinejoin 1 setlinecap} if} def
/UL {dup gnulinewidth mul /userlinewidth exch def
	dup 1 lt {pop 1} if 10 mul /udl exch def} def
/PL {stroke userlinewidth setlinewidth
	Rounded {1 setlinejoin 1 setlinecap} if} def
3.8 setmiterlimit
% Default Line colors
/LCw {1 1 1} def
/LCb {0 0 0} def
/LCa {0 0 0} def
/LC0 {1 0 0} def
/LC1 {0 1 0} def
/LC2 {0 0 1} def
/LC3 {1 0 1} def
/LC4 {0 1 1} def
/LC5 {1 1 0} def
/LC6 {0 0 0} def
/LC7 {1 0.3 0} def
/LC8 {0.5 0.5 0.5} def
% Default Line Types
/LTw {PL [] 1 setgray} def
/LTb {BL [] LCb DL} def
/LTa {AL [1 udl mul 2 udl mul] 0 setdash LCa setrgbcolor} def
/LT0 {PL [] LC0 DL} def
/LT1 {PL [4 dl1 2 dl2] LC1 DL} def
/LT2 {PL [2 dl1 3 dl2] LC2 DL} def
/LT3 {PL [1 dl1 1.5 dl2] LC3 DL} def
/LT4 {PL [6 dl1 2 dl2 1 dl1 2 dl2] LC4 DL} def
/LT5 {PL [3 dl1 3 dl2 1 dl1 3 dl2] LC5 DL} def
/LT6 {PL [2 dl1 2 dl2 2 dl1 6 dl2] LC6 DL} def
/LT7 {PL [1 dl1 2 dl2 6 dl1 2 dl2 1 dl1 2 dl2] LC7 DL} def
/LT8 {PL [2 dl1 2 dl2 2 dl1 2 dl2 2 dl1 2 dl2 2 dl1 4 dl2] LC8 DL} def
/Pnt {stroke [] 0 setdash gsave 1 setlinecap M 0 0 V stroke grestore} def
/Dia {stroke [] 0 setdash 2 copy vpt add M
  hpt neg vpt neg V hpt vpt neg V
  hpt vpt V hpt neg vpt V closepath stroke
  Pnt} def
/Pls {stroke [] 0 setdash vpt sub M 0 vpt2 V
  currentpoint stroke M
  hpt neg vpt neg R hpt2 0 V stroke
 } def
/Box {stroke [] 0 setdash 2 copy exch hpt sub exch vpt add M
  0 vpt2 neg V hpt2 0 V 0 vpt2 V
  hpt2 neg 0 V closepath stroke
  Pnt} def
/Crs {stroke [] 0 setdash exch hpt sub exch vpt add M
  hpt2 vpt2 neg V currentpoint stroke M
  hpt2 neg 0 R hpt2 vpt2 V stroke} def
/TriU {stroke [] 0 setdash 2 copy vpt 1.12 mul add M
  hpt neg vpt -1.62 mul V
  hpt 2 mul 0 V
  hpt neg vpt 1.62 mul V closepath stroke
  Pnt} def
/Star {2 copy Pls Crs} def
/BoxF {stroke [] 0 setdash exch hpt sub exch vpt add M
  0 vpt2 neg V hpt2 0 V 0 vpt2 V
  hpt2 neg 0 V closepath fill} def
/TriUF {stroke [] 0 setdash vpt 1.12 mul add M
  hpt neg vpt -1.62 mul V
  hpt 2 mul 0 V
  hpt neg vpt 1.62 mul V closepath fill} def
/TriD {stroke [] 0 setdash 2 copy vpt 1.12 mul sub M
  hpt neg vpt 1.62 mul V
  hpt 2 mul 0 V
  hpt neg vpt -1.62 mul V closepath stroke
  Pnt} def
/TriDF {stroke [] 0 setdash vpt 1.12 mul sub M
  hpt neg vpt 1.62 mul V
  hpt 2 mul 0 V
  hpt neg vpt -1.62 mul V closepath fill} def
/DiaF {stroke [] 0 setdash vpt add M
  hpt neg vpt neg V hpt vpt neg V
  hpt vpt V hpt neg vpt V closepath fill} def
/Pent {stroke [] 0 setdash 2 copy gsave
  translate 0 hpt M 4 {72 rotate 0 hpt L} repeat
  closepath stroke grestore Pnt} def
/PentF {stroke [] 0 setdash gsave
  translate 0 hpt M 4 {72 rotate 0 hpt L} repeat
  closepath fill grestore} def
/Circle {stroke [] 0 setdash 2 copy
  hpt 0 360 arc stroke Pnt} def
/CircleF {stroke [] 0 setdash hpt 0 360 arc fill} def
/C0 {BL [] 0 setdash 2 copy moveto vpt 90 450 arc} bind def
/C1 {BL [] 0 setdash 2 copy moveto
	2 copy vpt 0 90 arc closepath fill
	vpt 0 360 arc closepath} bind def
/C2 {BL [] 0 setdash 2 copy moveto
	2 copy vpt 90 180 arc closepath fill
	vpt 0 360 arc closepath} bind def
/C3 {BL [] 0 setdash 2 copy moveto
	2 copy vpt 0 180 arc closepath fill
	vpt 0 360 arc closepath} bind def
/C4 {BL [] 0 setdash 2 copy moveto
	2 copy vpt 180 270 arc closepath fill
	vpt 0 360 arc closepath} bind def
/C5 {BL [] 0 setdash 2 copy moveto
	2 copy vpt 0 90 arc
	2 copy moveto
	2 copy vpt 180 270 arc closepath fill
	vpt 0 360 arc} bind def
/C6 {BL [] 0 setdash 2 copy moveto
	2 copy vpt 90 270 arc closepath fill
	vpt 0 360 arc closepath} bind def
/C7 {BL [] 0 setdash 2 copy moveto
	2 copy vpt 0 270 arc closepath fill
	vpt 0 360 arc closepath} bind def
/C8 {BL [] 0 setdash 2 copy moveto
	2 copy vpt 270 360 arc closepath fill
	vpt 0 360 arc closepath} bind def
/C9 {BL [] 0 setdash 2 copy moveto
	2 copy vpt 270 450 arc closepath fill
	vpt 0 360 arc closepath} bind def
/C10 {BL [] 0 setdash 2 copy 2 copy moveto vpt 270 360 arc closepath fill
	2 copy moveto
	2 copy vpt 90 180 arc closepath fill
	vpt 0 360 arc closepath} bind def
/C11 {BL [] 0 setdash 2 copy moveto
	2 copy vpt 0 180 arc closepath fill
	2 copy moveto
	2 copy vpt 270 360 arc closepath fill
	vpt 0 360 arc closepath} bind def
/C12 {BL [] 0 setdash 2 copy moveto
	2 copy vpt 180 360 arc closepath fill
	vpt 0 360 arc closepath} bind def
/C13 {BL [] 0 setdash 2 copy moveto
	2 copy vpt 0 90 arc closepath fill
	2 copy moveto
	2 copy vpt 180 360 arc closepath fill
	vpt 0 360 arc closepath} bind def
/C14 {BL [] 0 setdash 2 copy moveto
	2 copy vpt 90 360 arc closepath fill
	vpt 0 360 arc} bind def
/C15 {BL [] 0 setdash 2 copy vpt 0 360 arc closepath fill
	vpt 0 360 arc closepath} bind def
/Rec {newpath 4 2 roll moveto 1 index 0 rlineto 0 exch rlineto
	neg 0 rlineto closepath} bind def
/Square {dup Rec} bind def
/Bsquare {vpt sub exch vpt sub exch vpt2 Square} bind def
/S0 {BL [] 0 setdash 2 copy moveto 0 vpt rlineto BL Bsquare} bind def
/S1 {BL [] 0 setdash 2 copy vpt Square fill Bsquare} bind def
/S2 {BL [] 0 setdash 2 copy exch vpt sub exch vpt Square fill Bsquare} bind def
/S3 {BL [] 0 setdash 2 copy exch vpt sub exch vpt2 vpt Rec fill Bsquare} bind def
/S4 {BL [] 0 setdash 2 copy exch vpt sub exch vpt sub vpt Square fill Bsquare} bind def
/S5 {BL [] 0 setdash 2 copy 2 copy vpt Square fill
	exch vpt sub exch vpt sub vpt Square fill Bsquare} bind def
/S6 {BL [] 0 setdash 2 copy exch vpt sub exch vpt sub vpt vpt2 Rec fill Bsquare} bind def
/S7 {BL [] 0 setdash 2 copy exch vpt sub exch vpt sub vpt vpt2 Rec fill
	2 copy vpt Square fill Bsquare} bind def
/S8 {BL [] 0 setdash 2 copy vpt sub vpt Square fill Bsquare} bind def
/S9 {BL [] 0 setdash 2 copy vpt sub vpt vpt2 Rec fill Bsquare} bind def
/S10 {BL [] 0 setdash 2 copy vpt sub vpt Square fill 2 copy exch vpt sub exch vpt Square fill
	Bsquare} bind def
/S11 {BL [] 0 setdash 2 copy vpt sub vpt Square fill 2 copy exch vpt sub exch vpt2 vpt Rec fill
	Bsquare} bind def
/S12 {BL [] 0 setdash 2 copy exch vpt sub exch vpt sub vpt2 vpt Rec fill Bsquare} bind def
/S13 {BL [] 0 setdash 2 copy exch vpt sub exch vpt sub vpt2 vpt Rec fill
	2 copy vpt Square fill Bsquare} bind def
/S14 {BL [] 0 setdash 2 copy exch vpt sub exch vpt sub vpt2 vpt Rec fill
	2 copy exch vpt sub exch vpt Square fill Bsquare} bind def
/S15 {BL [] 0 setdash 2 copy Bsquare fill Bsquare} bind def
/D0 {gsave translate 45 rotate 0 0 S0 stroke grestore} bind def
/D1 {gsave translate 45 rotate 0 0 S1 stroke grestore} bind def
/D2 {gsave translate 45 rotate 0 0 S2 stroke grestore} bind def
/D3 {gsave translate 45 rotate 0 0 S3 stroke grestore} bind def
/D4 {gsave translate 45 rotate 0 0 S4 stroke grestore} bind def
/D5 {gsave translate 45 rotate 0 0 S5 stroke grestore} bind def
/D6 {gsave translate 45 rotate 0 0 S6 stroke grestore} bind def
/D7 {gsave translate 45 rotate 0 0 S7 stroke grestore} bind def
/D8 {gsave translate 45 rotate 0 0 S8 stroke grestore} bind def
/D9 {gsave translate 45 rotate 0 0 S9 stroke grestore} bind def
/D10 {gsave translate 45 rotate 0 0 S10 stroke grestore} bind def
/D11 {gsave translate 45 rotate 0 0 S11 stroke grestore} bind def
/D12 {gsave translate 45 rotate 0 0 S12 stroke grestore} bind def
/D13 {gsave translate 45 rotate 0 0 S13 stroke grestore} bind def
/D14 {gsave translate 45 rotate 0 0 S14 stroke grestore} bind def
/D15 {gsave translate 45 rotate 0 0 S15 stroke grestore} bind def
/DiaE {stroke [] 0 setdash vpt add M
  hpt neg vpt neg V hpt vpt neg V
  hpt vpt V hpt neg vpt V closepath stroke} def
/BoxE {stroke [] 0 setdash exch hpt sub exch vpt add M
  0 vpt2 neg V hpt2 0 V 0 vpt2 V
  hpt2 neg 0 V closepath stroke} def
/TriUE {stroke [] 0 setdash vpt 1.12 mul add M
  hpt neg vpt -1.62 mul V
  hpt 2 mul 0 V
  hpt neg vpt 1.62 mul V closepath stroke} def
/TriDE {stroke [] 0 setdash vpt 1.12 mul sub M
  hpt neg vpt 1.62 mul V
  hpt 2 mul 0 V
  hpt neg vpt -1.62 mul V closepath stroke} def
/PentE {stroke [] 0 setdash gsave
  translate 0 hpt M 4 {72 rotate 0 hpt L} repeat
  closepath stroke grestore} def
/CircE {stroke [] 0 setdash 
  hpt 0 360 arc stroke} def
/Opaque {gsave closepath 1 setgray fill grestore 0 setgray closepath} def
/DiaW {stroke [] 0 setdash vpt add M
  hpt neg vpt neg V hpt vpt neg V
  hpt vpt V hpt neg vpt V Opaque stroke} def
/BoxW {stroke [] 0 setdash exch hpt sub exch vpt add M
  0 vpt2 neg V hpt2 0 V 0 vpt2 V
  hpt2 neg 0 V Opaque stroke} def
/TriUW {stroke [] 0 setdash vpt 1.12 mul add M
  hpt neg vpt -1.62 mul V
  hpt 2 mul 0 V
  hpt neg vpt 1.62 mul V Opaque stroke} def
/TriDW {stroke [] 0 setdash vpt 1.12 mul sub M
  hpt neg vpt 1.62 mul V
  hpt 2 mul 0 V
  hpt neg vpt -1.62 mul V Opaque stroke} def
/PentW {stroke [] 0 setdash gsave
  translate 0 hpt M 4 {72 rotate 0 hpt L} repeat
  Opaque stroke grestore} def
/CircW {stroke [] 0 setdash 
  hpt 0 360 arc Opaque stroke} def
/BoxFill {gsave Rec 1 setgray fill grestore} def
/Density {
  /Fillden exch def
  currentrgbcolor
  /ColB exch def /ColG exch def /ColR exch def
  /ColR ColR Fillden mul Fillden sub 1 add def
  /ColG ColG Fillden mul Fillden sub 1 add def
  /ColB ColB Fillden mul Fillden sub 1 add def
  ColR ColG ColB setrgbcolor} def
/BoxColFill {gsave Rec PolyFill} def
/PolyFill {gsave Density fill grestore grestore} def
/h {rlineto rlineto rlineto gsave closepath fill grestore} bind def
%
% PostScript Level 1 Pattern Fill routine for rectangles
% Usage: x y w h s a XX PatternFill
%	x,y = lower left corner of box to be filled
%	w,h = width and height of box
%	  a = angle in degrees between lines and x-axis
%	 XX = 0/1 for no/yes cross-hatch
%
/PatternFill {gsave /PFa [ 9 2 roll ] def
  PFa 0 get PFa 2 get 2 div add PFa 1 get PFa 3 get 2 div add translate
  PFa 2 get -2 div PFa 3 get -2 div PFa 2 get PFa 3 get Rec
  TransparentPatterns {} {gsave 1 setgray fill grestore} ifelse
  clip
  currentlinewidth 0.5 mul setlinewidth
  /PFs PFa 2 get dup mul PFa 3 get dup mul add sqrt def
  0 0 M PFa 5 get rotate PFs -2 div dup translate
  0 1 PFs PFa 4 get div 1 add floor cvi
	{PFa 4 get mul 0 M 0 PFs V} for
  0 PFa 6 get ne {
	0 1 PFs PFa 4 get div 1 add floor cvi
	{PFa 4 get mul 0 2 1 roll M PFs 0 V} for
 } if
  stroke grestore} def
%
/languagelevel where
 {pop languagelevel} {1} ifelse
 2 lt
	{/InterpretLevel1 true def}
	{/InterpretLevel1 Level1 def}
 ifelse
%
% PostScript level 2 pattern fill definitions
%
/Level2PatternFill {
/Tile8x8 {/PaintType 2 /PatternType 1 /TilingType 1 /BBox [0 0 8 8] /XStep 8 /YStep 8}
	bind def
/KeepColor {currentrgbcolor [/Pattern /DeviceRGB] setcolorspace} bind def
<< Tile8x8
 /PaintProc {0.5 setlinewidth pop 0 0 M 8 8 L 0 8 M 8 0 L stroke} 
>> matrix makepattern
/Pat1 exch def
<< Tile8x8
 /PaintProc {0.5 setlinewidth pop 0 0 M 8 8 L 0 8 M 8 0 L stroke
	0 4 M 4 8 L 8 4 L 4 0 L 0 4 L stroke}
>> matrix makepattern
/Pat2 exch def
<< Tile8x8
 /PaintProc {0.5 setlinewidth pop 0 0 M 0 8 L
	8 8 L 8 0 L 0 0 L fill}
>> matrix makepattern
/Pat3 exch def
<< Tile8x8
 /PaintProc {0.5 setlinewidth pop -4 8 M 8 -4 L
	0 12 M 12 0 L stroke}
>> matrix makepattern
/Pat4 exch def
<< Tile8x8
 /PaintProc {0.5 setlinewidth pop -4 0 M 8 12 L
	0 -4 M 12 8 L stroke}
>> matrix makepattern
/Pat5 exch def
<< Tile8x8
 /PaintProc {0.5 setlinewidth pop -2 8 M 4 -4 L
	0 12 M 8 -4 L 4 12 M 10 0 L stroke}
>> matrix makepattern
/Pat6 exch def
<< Tile8x8
 /PaintProc {0.5 setlinewidth pop -2 0 M 4 12 L
	0 -4 M 8 12 L 4 -4 M 10 8 L stroke}
>> matrix makepattern
/Pat7 exch def
<< Tile8x8
 /PaintProc {0.5 setlinewidth pop 8 -2 M -4 4 L
	12 0 M -4 8 L 12 4 M 0 10 L stroke}
>> matrix makepattern
/Pat8 exch def
<< Tile8x8
 /PaintProc {0.5 setlinewidth pop 0 -2 M 12 4 L
	-4 0 M 12 8 L -4 4 M 8 10 L stroke}
>> matrix makepattern
/Pat9 exch def
/Pattern1 {PatternBgnd KeepColor Pat1 setpattern} bind def
/Pattern2 {PatternBgnd KeepColor Pat2 setpattern} bind def
/Pattern3 {PatternBgnd KeepColor Pat3 setpattern} bind def
/Pattern4 {PatternBgnd KeepColor Landscape {Pat5} {Pat4} ifelse setpattern} bind def
/Pattern5 {PatternBgnd KeepColor Landscape {Pat4} {Pat5} ifelse setpattern} bind def
/Pattern6 {PatternBgnd KeepColor Landscape {Pat9} {Pat6} ifelse setpattern} bind def
/Pattern7 {PatternBgnd KeepColor Landscape {Pat8} {Pat7} ifelse setpattern} bind def
} def
%
%
%End of PostScript Level 2 code
%
/PatternBgnd {
  TransparentPatterns {} {gsave 1 setgray fill grestore} ifelse
} def
%
% Substitute for Level 2 pattern fill codes with
% grayscale if Level 2 support is not selected.
%
/Level1PatternFill {
/Pattern1 {0.250 Density} bind def
/Pattern2 {0.500 Density} bind def
/Pattern3 {0.750 Density} bind def
/Pattern4 {0.125 Density} bind def
/Pattern5 {0.375 Density} bind def
/Pattern6 {0.625 Density} bind def
/Pattern7 {0.875 Density} bind def
} def
%
% Now test for support of Level 2 code
%
Level1 {Level1PatternFill} {Level2PatternFill} ifelse
%
/Symbol-Oblique /Symbol findfont [1 0 .167 1 0 0] makefont
dup length dict begin {1 index /FID eq {pop pop} {def} ifelse} forall
currentdict end definefont pop
Level1 SuppressPDFMark or 
{} {
/SDict 10 dict def
systemdict /pdfmark known not {
  userdict /pdfmark systemdict /cleartomark get put
} if
SDict begin [
  /Title (./time_harmonic_gauss_a_1_Ntherm_0.dat.tex)
  /Subject (gnuplot plot)
  /Creator (gnuplot 4.6 patchlevel 1)
  /Author (malte_b)
%  /Producer (gnuplot)
%  /Keywords ()
  /CreationDate (Sat Dec  7 17:43:40 2013)
  /DOCINFO pdfmark
end
} ifelse
end
%%EndProlog
%%Page: 1 1
gnudict begin
gsave
doclip
50 50 translate
0.050 0.050 scale
0 setgray
newpath
1.000 UL
LTb
LCb setrgbcolor
946 704 M
63 0 V
5794 0 R
-63 0 V
stroke
LTb
946 1383 M
63 0 V
5794 0 R
-63 0 V
946 2061 M
63 0 V
5794 0 R
-63 0 V
946 2740 M
63 0 V
5794 0 R
-63 0 V
946 3418 M
63 0 V
5794 0 R
-63 0 V
946 4097 M
63 0 V
5794 0 R
-63 0 V
946 4775 M
63 0 V
5794 0 R
-63 0 V
946 704 M
0 63 V
0 4008 R
0 -63 V
1597 704 M
0 63 V
0 4008 R
0 -63 V
2248 704 M
0 63 V
0 4008 R
0 -63 V
2898 704 M
0 63 V
0 4008 R
0 -63 V
3549 704 M
0 63 V
0 4008 R
0 -63 V
4200 704 M
0 63 V
0 4008 R
0 -63 V
4851 704 M
0 63 V
0 4008 R
0 -63 V
5501 704 M
0 63 V
0 4008 R
0 -63 V
6152 704 M
0 63 V
0 4008 R
0 -63 V
6803 704 M
0 63 V
0 4008 R
0 -63 V
stroke
946 4775 N
946 704 L
5857 0 V
0 4071 V
-5857 0 V
Z stroke
1.000 UP
1.000 UL
LTb
1.000 UL
LT0
LC0 setrgbcolor
LCb setrgbcolor
LT0
LC0 setrgbcolor
5948 4602 M
591 0 V
946 3289 M
0 -79 V
1 -103 V
0 -133 V
0 -118 V
1 -131 V
0 -141 V
0 -156 V
1 -168 V
0 -205 V
0 -150 V
1 -166 V
0 -128 V
0 -103 V
1 -137 V
0 -83 V
0 -31 V
1 -16 V
0 14 V
0 26 V
1 8 V
0 38 V
0 42 V
0 38 V
1 42 V
0 50 V
0 52 V
1 69 V
0 54 V
0 54 V
1 57 V
0 58 V
0 54 V
1 57 V
0 39 V
0 49 V
1 65 V
0 52 V
0 53 V
1 55 V
0 58 V
0 47 V
1 48 V
0 36 V
0 37 V
1 46 V
0 26 V
0 45 V
1 28 V
0 43 V
0 28 V
1 35 V
0 36 V
0 35 V
1 27 V
0 28 V
0 31 V
1 34 V
0 27 V
0 29 V
1 23 V
0 26 V
0 14 V
0 23 V
1 24 V
0 26 V
0 24 V
1 18 V
0 14 V
0 24 V
1 20 V
0 17 V
0 19 V
1 14 V
0 24 V
0 27 V
1 20 V
0 22 V
0 16 V
1 26 V
0 17 V
0 14 V
1 17 V
0 18 V
0 21 V
1 13 V
0 10 V
0 16 V
1 10 V
0 15 V
0 14 V
1 5 V
0 15 V
0 13 V
1 14 V
0 11 V
0 11 V
1 15 V
0 8 V
0 13 V
1 6 V
0 -1 V
0 13 V
stroke 979 3700 M
1 8 V
0 6 V
0 9 V
0 12 V
1 10 V
0 10 V
0 7 V
1 14 V
0 7 V
0 10 V
1 8 V
0 13 V
0 6 V
1 8 V
0 10 V
0 6 V
1 6 V
0 9 V
0 6 V
1 9 V
0 9 V
0 10 V
1 7 V
0 7 V
0 6 V
1 3 V
0 6 V
0 4 V
1 6 V
0 4 V
0 3 V
1 7 V
0 3 V
0 2 V
1 5 V
0 5 V
0 2 V
1 3 V
0 3 V
0 5 V
1 5 V
0 5 V
0 6 V
1 6 V
0 4 V
0 8 V
0 5 V
1 3 V
0 3 V
0 7 V
1 4 V
0 2 V
0 3 V
1 5 V
0 4 V
1 3 V
0 1 V
0 2 V
1 2 V
0 4 V
1 3 V
0 3 V
0 3 V
1 2 V
0 3 V
0 2 V
1 3 V
0 1 V
1 3 V
0 2 V
0 1 V
1 3 V
0 1 V
0 4 V
1 0 V
0 2 V
0 2 V
1 1 V
0 -3 V
0 -2 V
1 3 V
0 2 V
0 2 V
0 2 V
1 -1 V
0 1 V
1 1 V
0 3 V
0 2 V
1 2 V
0 2 V
1 -1 V
0 2 V
0 4 V
1 2 V
0 1 V
1 2 V
0 3 V
0 2 V
1 2 V
0 1 V
0 2 V
1 1 V
0 -1 V
stroke 1015 4129 M
1 1 V
0 -2 V
0 1 V
1 1 V
0 3 V
1 2 V
0 -1 V
0 1 V
1 -1 V
0 3 V
1 0 V
0 1 V
1 1 V
0 -1 V
0 1 V
0 1 V
1 1 V
0 3 V
0 -1 V
1 0 V
0 1 V
0 -1 V
1 1 V
0 1 V
1 1 V
0 -1 V
1 3 V
0 2 V
0 -1 V
1 1 V
0 -1 V
0 -2 V
1 1 V
0 -1 V
1 3 V
0 1 V
1 0 V
0 1 V
1 0 V
0 -1 V
1 -1 V
0 -1 V
0 1 V
1 1 V
1 -1 V
0 1 V
0 1 V
1 1 V
0 -2 V
1 -2 V
0 2 V
1 2 V
0 -1 V
0 1 V
1 -1 V
0 -1 V
1 0 V
0 3 V
0 -2 V
1 0 V
0 1 V
1 -1 V
0 1 V
0 1 V
1 1 V
0 1 V
0 -1 V
1 0 V
1 0 V
0 1 V
0 2 V
1 -1 V
0 1 V
1 2 V
0 1 V
1 -1 V
0 1 V
1 -1 V
0 1 V
0 -1 V
0 1 V
1 2 V
1 1 V
0 -1 V
1 1 V
0 1 V
1 1 V
1 0 V
0 -1 V
0 1 V
1 1 V
0 -1 V
1 0 V
0 -1 V
1 0 V
1 0 V
0 1 V
1 1 V
0 -1 V
1 -2 V
0 -1 V
0 -1 V
1 -1 V
0 1 V
stroke 1060 4162 M
1 1 V
0 2 V
0 -1 V
1 1 V
0 1 V
0 -1 V
1 1 V
0 1 V
1 -1 V
0 -1 V
0 1 V
1 0 V
0 1 V
0 1 V
1 0 V
0 -1 V
0 2 V
1 -1 V
0 1 V
1 0 V
1 -1 V
0 1 V
0 1 V
1 0 V
1 -1 V
1 0 V
0 2 V
1 0 V
0 -2 V
0 -1 V
1 0 V
1 -1 V
0 -1 V
1 0 V
1 -1 V
0 1 V
0 -1 V
1 0 V
0 2 V
1 0 V
1 1 V
0 -1 V
0 2 V
1 0 V
0 1 V
0 2 V
1 0 V
0 -1 V
1 0 V
1 0 V
1 1 V
1 0 V
0 1 V
0 -1 V
1 0 V
0 -1 V
0 -2 V
1 0 V
0 -2 V
1 -1 V
0 1 V
0 -1 V
0 1 V
1 -1 V
0 1 V
0 -1 V
1 -2 V
0 1 V
1 1 V
0 1 V
0 -3 V
1 0 V
1 0 V
0 1 V
0 1 V
1 0 V
0 -2 V
1 -2 V
1 -1 V
0 -2 V
1 1 V
1 0 V
1 -1 V
0 1 V
1 1 V
0 2 V
1 1 V
1 -1 V
0 2 V
0 -1 V
0 -1 V
1 -1 V
1 1 V
0 -2 V
0 -1 V
1 0 V
0 -2 V
0 1 V
1 -1 V
0 1 V
0 1 V
1 0 V
0 -1 V
1 1 V
stroke 1109 4160 M
0 2 V
1 -2 V
0 -1 V
1 0 V
0 1 V
1 1 V
0 1 V
0 1 V
1 0 V
0 -1 V
1 0 V
0 -1 V
1 -2 V
0 1 V
1 -1 V
0 1 V
0 -1 V
1 -1 V
0 -1 V
1 0 V
0 -1 V
1 0 V
0 -1 V
0 1 V
1 1 V
0 1 V
1 0 V
0 -1 V
1 1 V
0 1 V
1 1 V
0 1 V
0 -2 V
1 0 V
0 1 V
1 1 V
0 1 V
1 -1 V
0 -1 V
1 0 V
1 1 V
0 1 V
1 0 V
0 -1 V
0 2 V
1 -1 V
0 2 V
0 -1 V
1 -1 V
1 0 V
0 -1 V
1 0 V
0 2 V
1 -1 V
0 1 V
0 -1 V
1 0 V
0 1 V
1 -1 V
0 1 V
1 0 V
0 1 V
1 0 V
1 1 V
1 -1 V
0 -1 V
0 -1 V
1 -1 V
0 1 V
1 0 V
0 -1 V
0 1 V
1 0 V
1 -1 V
0 1 V
1 1 V
0 1 V
1 -1 V
0 1 V
1 0 V
1 -1 V
0 -1 V
1 1 V
1 1 V
0 -1 V
1 1 V
0 -1 V
1 0 V
0 -1 V
1 1 V
0 1 V
1 0 V
0 1 V
1 0 V
0 -1 V
1 1 V
0 1 V
0 -1 V
1 1 V
0 1 V
0 1 V
1 0 V
0 1 V
0 -1 V
stroke 1158 4168 M
0 1 V
1 0 V
0 1 V
1 1 V
0 -1 V
0 2 V
1 0 V
1 0 V
0 -1 V
1 -3 V
0 1 V
1 1 V
0 -1 V
0 1 V
1 -1 V
0 1 V
1 1 V
0 -1 V
0 1 V
1 -1 V
0 -1 V
1 -1 V
0 -2 V
0 1 V
1 1 V
0 -1 V
1 1 V
0 1 V
0 1 V
1 0 V
0 1 V
0 -1 V
1 0 V
1 0 V
0 -1 V
0 1 V
1 0 V
0 -1 V
1 0 V
0 1 V
0 1 V
1 0 V
0 1 V
0 -1 V
1 -1 V
0 1 V
0 -1 V
1 -1 V
1 0 V
0 -1 V
0 1 V
1 -1 V
0 -1 V
1 -2 V
0 1 V
1 1 V
0 1 V
1 0 V
1 0 V
0 -1 V
1 0 V
0 1 V
0 2 V
0 1 V
1 -1 V
0 -1 V
0 1 V
1 0 V
0 1 V
1 -1 V
0 -1 V
1 0 V
0 -1 V
1 2 V
0 1 V
1 -1 V
0 -2 V
1 -1 V
0 -1 V
1 1 V
0 -1 V
1 1 V
1 1 V
1 0 V
0 1 V
1 -2 V
0 1 V
0 3 V
1 -1 V
0 -1 V
0 1 V
1 0 V
0 -1 V
1 0 V
0 -1 V
1 2 V
0 2 V
1 0 V
0 1 V
0 -1 V
1 -1 V
0 -2 V
1 0 V
0 -1 V
stroke 1204 4168 M
1 0 V
0 1 V
1 0 V
0 -1 V
0 1 V
1 -2 V
1 0 V
0 1 V
1 -1 V
0 1 V
0 1 V
1 0 V
0 -1 V
1 -2 V
1 0 V
0 2 V
0 1 V
0 -2 V
1 0 V
0 -2 V
1 1 V
0 -1 V
1 1 V
1 -1 V
0 1 V
0 1 V
1 0 V
0 -1 V
1 -1 V
0 1 V
1 -1 V
1 0 V
1 0 V
0 1 V
0 -1 V
1 0 V
0 1 V
1 -1 V
0 -1 V
0 1 V
1 0 V
0 -1 V
0 1 V
1 -1 V
0 2 V
1 0 V
0 -2 V
0 1 V
1 0 V
0 2 V
1 0 V
0 1 V
0 1 V
1 0 V
1 0 V
1 0 V
0 -1 V
1 0 V
0 1 V
0 1 V
1 0 V
0 -1 V
1 -1 V
0 -1 V
0 1 V
1 -1 V
0 -1 V
1 -1 V
0 -1 V
1 -2 V
0 1 V
0 -2 V
1 1 V
0 2 V
1 1 V
0 -1 V
1 0 V
0 -1 V
1 1 V
1 0 V
0 -1 V
1 -1 V
0 1 V
1 1 V
0 1 V
0 1 V
1 1 V
0 1 V
1 -1 V
0 -1 V
1 0 V
0 -1 V
1 -1 V
0 -1 V
1 1 V
0 -1 V
0 1 V
1 -1 V
0 -1 V
1 -1 V
0 -1 V
0 -1 V
1 -1 V
0 1 V
stroke 1252 4159 M
0 -1 V
1 -1 V
0 1 V
1 -1 V
0 2 V
1 1 V
0 -1 V
1 0 V
0 1 V
1 -2 V
0 1 V
1 0 V
1 0 V
0 1 V
1 1 V
0 -1 V
0 -1 V
1 0 V
0 -1 V
0 2 V
1 0 V
0 1 V
0 1 V
1 0 V
0 -1 V
1 1 V
0 -2 V
0 2 V
1 0 V
0 2 V
1 -1 V
0 1 V
1 1 V
0 -1 V
0 2 V
1 0 V
0 1 V
0 1 V
1 -1 V
0 -1 V
0 -2 V
1 1 V
0 1 V
0 1 V
1 -1 V
0 1 V
1 1 V
0 1 V
1 1 V
0 1 V
0 -1 V
1 0 V
0 -1 V
0 1 V
1 0 V
0 -1 V
1 1 V
0 -1 V
1 0 V
0 1 V
1 -1 V
0 -1 V
1 1 V
0 -2 V
1 1 V
0 -1 V
0 -2 V
1 1 V
0 -1 V
1 -2 V
0 -3 V
1 1 V
0 -1 V
1 2 V
0 -1 V
0 2 V
1 0 V
0 2 V
0 1 V
1 -1 V
0 -1 V
0 1 V
1 0 V
0 1 V
1 -1 V
0 1 V
0 1 V
1 0 V
0 1 V
1 1 V
0 1 V
1 -1 V
0 -1 V
1 0 V
0 -1 V
1 -1 V
0 -1 V
1 -1 V
0 1 V
0 1 V
1 -1 V
0 1 V
0 -1 V
1 -2 V
stroke 1296 4163 M
0 -1 V
0 2 V
1 0 V
0 1 V
0 -2 V
1 1 V
0 -1 V
0 1 V
1 1 V
0 -1 V
0 -1 V
1 0 V
0 1 V
1 2 V
1 0 V
0 1 V
1 0 V
0 -1 V
0 1 V
1 0 V
1 -1 V
1 -1 V
0 1 V
1 -2 V
0 1 V
1 0 V
0 1 V
0 -1 V
0 1 V
1 0 V
0 -1 V
1 0 V
0 1 V
1 1 V
0 -1 V
0 1 V
1 0 V
0 1 V
1 1 V
0 -1 V
0 -1 V
1 -3 V
1 1 V
0 -1 V
0 2 V
1 -1 V
1 1 V
0 -1 V
1 1 V
1 2 V
0 2 V
1 -1 V
0 -1 V
1 0 V
0 -1 V
1 0 V
0 1 V
1 -1 V
0 -1 V
1 -1 V
1 0 V
0 -1 V
1 1 V
0 1 V
1 1 V
1 0 V
0 1 V
0 1 V
1 0 V
1 0 V
1 -1 V
1 2 V
0 1 V
1 -1 V
1 0 V
0 -1 V
1 0 V
0 1 V
0 1 V
1 1 V
0 -1 V
0 -1 V
1 0 V
0 1 V
1 0 V
0 1 V
0 -1 V
1 1 V
0 1 V
1 0 V
1 -1 V
1 -1 V
0 -1 V
1 -1 V
0 1 V
0 -1 V
1 0 V
0 -2 V
1 0 V
1 0 V
0 -1 V
0 1 V
1 1 V
1 0 V
stroke 1348 4168 M
1 -1 V
0 1 V
0 -3 V
1 -1 V
1 0 V
0 1 V
0 -1 V
1 -1 V
0 1 V
1 0 V
0 1 V
1 0 V
0 1 V
0 1 V
1 -1 V
0 1 V
1 1 V
0 -1 V
1 -1 V
0 1 V
0 -1 V
1 0 V
1 0 V
0 1 V
1 0 V
0 -1 V
1 0 V
0 -1 V
1 0 V
0 -1 V
0 1 V
1 0 V
0 -1 V
1 0 V
0 1 V
1 0 V
0 1 V
1 0 V
0 1 V
0 -1 V
1 -1 V
0 -1 V
0 -1 V
1 -1 V
0 1 V
0 -1 V
1 -1 V
0 -1 V
0 1 V
1 -1 V
0 1 V
1 -2 V
0 1 V
0 1 V
1 0 V
0 1 V
1 -2 V
0 1 V
1 0 V
0 1 V
1 1 V
0 2 V
1 -1 V
0 -1 V
1 0 V
0 -1 V
0 -1 V
1 1 V
0 2 V
1 1 V
0 1 V
1 0 V
0 -1 V
1 -1 V
0 1 V
1 0 V
0 1 V
1 0 V
0 -1 V
1 -1 V
0 -1 V
0 -2 V
1 0 V
0 1 V
1 -1 V
0 1 V
1 -1 V
0 2 V
0 1 V
1 1 V
0 -1 V
1 1 V
0 -1 V
1 1 V
0 -1 V
1 1 V
0 1 V
1 1 V
0 1 V
1 -1 V
0 -1 V
0 1 V
1 1 V
0 1 V
stroke 1394 4169 M
1 0 V
0 1 V
1 -1 V
0 1 V
1 -1 V
0 -1 V
1 -1 V
0 -1 V
0 2 V
1 -1 V
0 1 V
0 -1 V
1 -1 V
0 1 V
1 1 V
0 -1 V
1 1 V
0 1 V
0 1 V
1 1 V
0 -1 V
0 1 V
1 -1 V
1 -1 V
0 -1 V
0 1 V
1 -1 V
1 0 V
1 0 V
0 -2 V
1 0 V
0 1 V
1 0 V
1 0 V
0 1 V
1 -1 V
0 -1 V
0 1 V
1 0 V
0 -1 V
0 1 V
1 1 V
0 1 V
1 -1 V
0 1 V
1 1 V
0 1 V
1 0 V
0 -1 V
0 -2 V
0 2 V
1 -1 V
0 1 V
1 1 V
0 -1 V
1 0 V
0 -2 V
0 2 V
1 -1 V
1 0 V
0 -1 V
0 -1 V
1 -1 V
0 1 V
1 1 V
0 -2 V
0 -1 V
1 -2 V
0 1 V
1 0 V
1 0 V
0 1 V
1 1 V
0 1 V
0 -1 V
1 -1 V
1 1 V
0 1 V
0 1 V
1 2 V
0 -2 V
0 -1 V
1 -2 V
0 -1 V
0 -1 V
1 1 V
1 0 V
0 -1 V
0 2 V
1 0 V
1 0 V
0 -1 V
1 0 V
0 1 V
1 0 V
0 -1 V
1 -1 V
0 -1 V
1 0 V
0 1 V
0 1 V
1 -1 V
0 -1 V
0 1 V
stroke 1441 4163 M
1 0 V
0 -1 V
1 0 V
0 1 V
0 -2 V
1 -1 V
0 1 V
1 0 V
1 -1 V
0 -1 V
0 1 V
1 1 V
0 -1 V
1 2 V
1 1 V
0 -1 V
1 -1 V
0 -1 V
0 1 V
1 -1 V
0 1 V
1 1 V
0 -1 V
1 0 V
0 -1 V
1 -1 V
0 1 V
0 1 V
1 -1 V
0 1 V
1 1 V
0 1 V
1 -1 V
0 -2 V
1 1 V
1 2 V
0 -1 V
1 -1 V
0 1 V
0 1 V
1 0 V
0 -2 V
0 1 V
1 0 V
1 1 V
0 -1 V
0 2 V
1 -1 V
0 -2 V
1 3 V
0 1 V
0 1 V
1 1 V
1 0 V
1 -2 V
1 -1 V
0 1 V
1 1 V
0 -1 V
1 -1 V
1 0 V
0 -1 V
1 0 V
0 1 V
1 -1 V
0 -1 V
0 2 V
1 2 V
1 -1 V
1 0 V
0 -2 V
1 0 V
0 1 V
0 1 V
1 0 V
0 -1 V
1 2 V
0 -1 V
1 0 V
1 1 V
0 2 V
1 1 V
0 -1 V
0 -2 V
1 -2 V
0 -1 V
1 0 V
0 1 V
0 -2 V
0 1 V
1 -1 V
0 1 V
1 0 V
0 -1 V
1 1 V
0 1 V
1 0 V
0 -1 V
0 2 V
1 -1 V
0 1 V
1 0 V
0 1 V
1 1 V
stroke 1492 4167 M
1 1 V
1 2 V
0 1 V
1 -2 V
0 2 V
0 -1 V
1 -1 V
0 1 V
1 0 V
0 -1 V
0 -1 V
1 0 V
0 1 V
0 -1 V
1 0 V
0 -1 V
0 1 V
0 -1 V
1 0 V
0 -1 V
1 1 V
0 -2 V
0 1 V
1 0 V
1 -1 V
0 1 V
1 0 V
1 0 V
0 -1 V
1 0 V
0 1 V
1 -1 V
0 1 V
0 -2 V
1 0 V
0 1 V
1 1 V
1 -1 V
0 1 V
1 1 V
0 1 V
1 -1 V
0 -1 V
1 0 V
0 -1 V
1 0 V
1 0 V
0 1 V
1 0 V
1 -2 V
0 1 V
1 -1 V
1 1 V
1 0 V
0 1 V
1 0 V
0 1 V
1 -2 V
0 -1 V
1 -1 V
0 -2 V
0 -1 V
1 1 V
0 2 V
1 -2 V
0 1 V
0 -1 V
1 2 V
0 1 V
1 0 V
0 -1 V
0 1 V
1 2 V
0 -1 V
0 2 V
1 -2 V
0 1 V
1 0 V
0 -2 V
1 0 V
0 1 V
0 -1 V
1 1 V
0 2 V
0 2 V
1 -2 V
0 -1 V
0 -2 V
1 0 V
0 1 V
1 -2 V
1 -1 V
0 1 V
1 -1 V
0 2 V
1 1 V
0 -1 V
1 0 V
1 0 V
0 1 V
1 -1 V
0 2 V
1 0 V
1 -2 V
stroke 1543 4164 M
0 1 V
1 0 V
0 1 V
1 0 V
0 1 V
1 -1 V
0 1 V
1 0 V
0 1 V
1 1 V
0 1 V
0 -1 V
1 0 V
0 -1 V
1 -1 V
0 -1 V
1 0 V
0 -2 V
0 1 V
1 0 V
0 1 V
1 0 V
0 -1 V
1 -1 V
0 -2 V
0 1 V
1 -1 V
0 1 V
1 1 V
0 1 V
0 -1 V
1 0 V
1 1 V
0 1 V
0 2 V
1 0 V
0 -1 V
0 1 V
1 1 V
1 -2 V
0 -1 V
1 1 V
0 -2 V
1 1 V
0 1 V
1 -1 V
0 -1 V
1 0 V
0 -1 V
0 2 V
1 -1 V
0 1 V
0 -1 V
1 1 V
0 -1 V
0 -1 V
1 2 V
0 -1 V
0 -1 V
1 -1 V
0 1 V
0 -1 V
1 0 V
0 1 V
1 0 V
0 -1 V
1 -2 V
1 -1 V
0 -1 V
1 0 V
0 -1 V
1 0 V
0 -2 V
1 -2 V
0 -1 V
0 1 V
1 0 V
0 -1 V
1 -1 V
0 -1 V
0 -2 V
1 1 V
0 -1 V
0 1 V
1 1 V
0 2 V
1 0 V
0 1 V
1 0 V
0 2 V
1 1 V
1 -1 V
0 1 V
1 1 V
0 2 V
0 -1 V
1 -1 V
1 2 V
0 -2 V
0 1 V
1 -1 V
1 0 V
0 1 V
1 1 V
stroke 1590 4160 M
0 1 V
1 0 V
1 0 V
0 1 V
1 0 V
1 0 V
0 1 V
1 0 V
0 1 V
0 -1 V
1 1 V
0 1 V
1 -1 V
1 -1 V
0 -1 V
0 -1 V
1 0 V
0 1 V
1 -1 V
1 1 V
1 -2 V
0 -1 V
1 -1 V
1 -1 V
0 1 V
1 0 V
0 2 V
0 -2 V
1 1 V
0 1 V
1 1 V
0 -1 V
0 -1 V
1 0 V
0 -2 V
0 1 V
1 -1 V
0 1 V
1 0 V
0 1 V
1 -2 V
0 1 V
1 -1 V
1 0 V
1 0 V
0 -1 V
0 -2 V
1 1 V
0 1 V
0 -1 V
1 0 V
0 1 V
0 -1 V
1 1 V
0 -1 V
0 1 V
1 -1 V
0 2 V
1 1 V
0 -1 V
1 1 V
0 -1 V
0 -1 V
1 1 V
0 -1 V
0 -2 V
1 2 V
0 1 V
0 -1 V
1 -1 V
0 3 V
1 1 V
1 -1 V
1 0 V
0 -2 V
0 -1 V
1 1 V
0 -2 V
0 2 V
1 0 V
0 1 V
0 -2 V
1 0 V
0 2 V
0 -1 V
1 -1 V
0 1 V
1 0 V
0 -1 V
0 1 V
1 -1 V
0 1 V
1 0 V
0 1 V
0 -1 V
1 2 V
0 -2 V
1 0 V
0 1 V
1 -2 V
0 1 V
1 -1 V
0 1 V
1 0 V
stroke 1638 4156 M
0 -1 V
1 0 V
0 1 V
1 0 V
0 1 V
1 0 V
0 2 V
1 2 V
0 1 V
1 0 V
0 -1 V
0 -1 V
1 1 V
0 -2 V
0 1 V
1 1 V
0 1 V
0 -1 V
1 1 V
0 -1 V
0 3 V
1 0 V
0 1 V
0 -2 V
1 2 V
0 1 V
0 -2 V
1 -1 V
0 -1 V
0 -1 V
1 0 V
0 -1 V
1 0 V
0 2 V
1 1 V
1 0 V
0 -1 V
0 1 V
1 -1 V
0 -1 V
1 -2 V
0 1 V
0 -1 V
1 1 V
1 0 V
0 -1 V
0 -1 V
1 -1 V
0 -1 V
0 1 V
1 1 V
1 0 V
0 -2 V
1 0 V
0 1 V
0 -1 V
1 2 V
0 -1 V
1 -1 V
0 1 V
0 2 V
1 1 V
0 1 V
0 2 V
1 -2 V
0 1 V
1 0 V
0 1 V
1 0 V
0 1 V
1 0 V
0 1 V
1 0 V
0 -2 V
1 0 V
0 -1 V
0 1 V
1 1 V
1 0 V
0 1 V
0 2 V
1 1 V
0 1 V
1 -1 V
0 -1 V
0 1 V
1 -1 V
0 -1 V
1 -1 V
0 -1 V
0 1 V
0 1 V
1 0 V
0 1 V
1 0 V
1 0 V
0 1 V
1 1 V
0 1 V
0 -1 V
1 0 V
0 -1 V
1 0 V
0 1 V
stroke 1682 4169 M
0 -1 V
1 -1 V
1 -1 V
0 -1 V
1 0 V
0 1 V
1 0 V
1 0 V
0 1 V
0 -2 V
1 0 V
1 2 V
0 1 V
1 -1 V
0 -1 V
1 0 V
1 -1 V
0 -1 V
1 1 V
0 1 V
0 -1 V
1 0 V
0 -1 V
1 2 V
1 0 V
0 1 V
0 -1 V
1 1 V
0 1 V
1 0 V
0 -1 V
1 0 V
0 1 V
0 2 V
1 -1 V
0 1 V
1 -1 V
0 -3 V
0 1 V
1 1 V
0 -1 V
1 0 V
0 1 V
1 -1 V
0 1 V
0 -1 V
0 1 V
1 -1 V
0 1 V
0 -1 V
1 -1 V
0 1 V
1 0 V
0 -1 V
1 -1 V
0 -1 V
1 0 V
0 1 V
1 0 V
0 1 V
1 0 V
0 -2 V
0 1 V
1 0 V
0 -1 V
1 1 V
0 1 V
1 1 V
0 -1 V
1 1 V
0 1 V
1 0 V
0 -1 V
1 0 V
0 -1 V
0 -1 V
1 -1 V
0 -1 V
0 1 V
1 0 V
0 -1 V
0 1 V
1 -1 V
0 -1 V
0 3 V
1 -1 V
0 -2 V
0 2 V
1 -1 V
0 2 V
0 1 V
1 0 V
1 1 V
0 -1 V
0 1 V
1 -1 V
0 -1 V
0 1 V
1 0 V
0 1 V
0 2 V
1 -1 V
0 -1 V
0 -1 V
stroke 1727 4166 M
1 1 V
1 -1 V
0 -1 V
1 1 V
0 -1 V
1 0 V
0 1 V
1 1 V
0 -1 V
0 -1 V
1 0 V
0 1 V
0 2 V
1 0 V
1 0 V
0 2 V
1 -1 V
0 1 V
0 1 V
1 -1 V
0 -1 V
1 0 V
1 -2 V
0 -2 V
1 -1 V
0 1 V
1 1 V
0 -1 V
1 -1 V
1 1 V
0 -2 V
1 1 V
0 -1 V
1 0 V
0 1 V
1 0 V
0 -1 V
0 1 V
1 -2 V
0 2 V
0 1 V
1 1 V
1 0 V
1 0 V
0 -1 V
0 1 V
1 0 V
0 1 V
0 -1 V
1 -1 V
1 -1 V
0 1 V
1 0 V
0 1 V
1 1 V
0 -2 V
1 -1 V
0 1 V
0 -1 V
1 1 V
0 -2 V
0 1 V
1 -1 V
0 1 V
0 -1 V
1 -1 V
0 1 V
0 -2 V
1 1 V
0 -1 V
1 0 V
0 1 V
0 -3 V
1 0 V
0 -2 V
1 0 V
0 -1 V
0 -1 V
1 1 V
0 -1 V
0 -1 V
1 -2 V
0 1 V
0 1 V
1 1 V
0 -2 V
1 -2 V
1 -1 V
0 -1 V
1 0 V
1 2 V
0 -1 V
0 -1 V
1 1 V
1 1 V
0 -1 V
0 -1 V
1 2 V
0 -1 V
0 1 V
1 0 V
1 2 V
0 1 V
0 -1 V
stroke 1775 4153 M
1 0 V
0 -1 V
1 -1 V
0 1 V
1 1 V
0 -1 V
1 0 V
0 1 V
0 -1 V
1 1 V
0 -1 V
0 1 V
1 1 V
0 1 V
0 -2 V
1 1 V
0 1 V
0 -1 V
1 0 V
0 -1 V
1 0 V
0 1 V
0 1 V
1 0 V
0 1 V
0 -1 V
1 2 V
0 1 V
0 1 V
1 -1 V
0 2 V
0 -1 V
1 1 V
0 -1 V
0 -1 V
1 0 V
0 1 V
0 -1 V
1 0 V
0 1 V
1 -1 V
0 1 V
1 0 V
0 -1 V
0 1 V
1 2 V
0 -1 V
1 0 V
0 1 V
1 0 V
1 0 V
0 2 V
1 -1 V
0 -1 V
1 1 V
0 2 V
1 -1 V
0 1 V
0 1 V
1 1 V
0 1 V
0 1 V
1 0 V
0 1 V
1 0 V
0 -1 V
1 -1 V
0 1 V
0 -1 V
1 -2 V
0 2 V
1 -1 V
0 1 V
0 -2 V
1 -1 V
0 1 V
1 0 V
0 1 V
0 -1 V
1 -1 V
0 1 V
1 1 V
1 0 V
0 -2 V
0 -1 V
1 0 V
0 2 V
1 2 V
0 -1 V
1 0 V
0 -1 V
1 1 V
1 0 V
0 1 V
0 1 V
1 0 V
0 -1 V
0 1 V
1 -1 V
0 -1 V
0 1 V
1 -2 V
0 1 V
0 -1 V
stroke 1818 4165 M
1 2 V
0 1 V
1 1 V
0 -1 V
1 0 V
1 -1 V
0 1 V
0 -1 V
1 1 V
0 -1 V
0 1 V
1 -1 V
0 -2 V
1 -1 V
0 1 V
1 -1 V
0 1 V
1 0 V
0 1 V
1 1 V
0 -1 V
1 -1 V
0 -2 V
0 1 V
1 2 V
0 1 V
1 1 V
1 0 V
0 -2 V
1 0 V
0 -1 V
0 -1 V
1 0 V
1 0 V
0 -1 V
1 0 V
1 2 V
0 1 V
1 0 V
0 1 V
1 2 V
0 -1 V
1 1 V
0 -1 V
0 1 V
1 -1 V
0 2 V
0 -1 V
1 2 V
0 1 V
1 0 V
0 -2 V
0 -1 V
1 1 V
0 -1 V
1 -1 V
1 0 V
1 -1 V
0 -1 V
0 -1 V
1 0 V
0 -1 V
0 1 V
1 0 V
0 -1 V
0 1 V
1 0 V
0 1 V
1 1 V
0 -1 V
0 -1 V
1 0 V
0 1 V
1 -1 V
0 1 V
1 1 V
0 -2 V
0 1 V
1 0 V
0 1 V
1 -1 V
0 -1 V
0 -1 V
1 -2 V
0 -1 V
1 1 V
0 -1 V
1 -2 V
0 -1 V
1 2 V
0 2 V
1 -2 V
1 0 V
1 1 V
0 1 V
0 1 V
1 1 V
0 -1 V
0 1 V
1 -2 V
0 2 V
0 -1 V
1 -1 V
0 1 V
stroke 1866 4163 M
0 -2 V
1 1 V
1 0 V
0 1 V
0 -1 V
1 -1 V
0 -3 V
0 1 V
1 0 V
0 -1 V
1 0 V
0 1 V
1 -2 V
0 1 V
1 1 V
0 1 V
1 -1 V
0 1 V
0 1 V
1 0 V
1 0 V
1 0 V
0 -1 V
0 1 V
1 0 V
0 1 V
0 1 V
1 2 V
0 -1 V
1 1 V
1 -1 V
0 -2 V
0 1 V
0 -2 V
1 1 V
0 -1 V
1 -1 V
0 2 V
1 1 V
0 2 V
1 0 V
0 -1 V
1 1 V
0 1 V
0 -1 V
1 0 V
0 -1 V
1 0 V
0 1 V
0 1 V
1 0 V
0 -1 V
1 -1 V
0 -1 V
1 1 V
0 1 V
0 1 V
1 0 V
0 -1 V
0 2 V
1 -1 V
0 2 V
1 -1 V
0 -2 V
1 -1 V
0 -2 V
0 1 V
1 -2 V
0 1 V
0 -1 V
1 1 V
0 1 V
0 1 V
1 0 V
0 1 V
0 -1 V
1 0 V
0 1 V
1 0 V
0 -1 V
1 0 V
0 -1 V
1 0 V
0 1 V
0 -1 V
1 1 V
0 1 V
0 1 V
1 0 V
0 2 V
1 0 V
0 1 V
0 -1 V
1 0 V
0 1 V
0 -2 V
1 0 V
0 1 V
1 -1 V
0 1 V
0 -1 V
1 1 V
0 -1 V
0 1 V
stroke 1909 4168 M
0 -1 V
1 1 V
0 1 V
0 1 V
1 0 V
0 1 V
1 -1 V
1 -1 V
0 1 V
1 0 V
0 -1 V
1 2 V
1 -1 V
1 0 V
0 1 V
1 1 V
0 -1 V
1 0 V
0 1 V
1 -1 V
1 0 V
1 1 V
0 -1 V
0 1 V
0 -1 V
1 0 V
0 -1 V
0 1 V
1 0 V
0 1 V
0 -2 V
1 0 V
0 -1 V
1 1 V
0 1 V
0 -1 V
1 -1 V
0 -1 V
1 0 V
0 -1 V
1 1 V
0 -1 V
0 1 V
1 0 V
0 1 V
0 -1 V
1 1 V
1 0 V
0 -1 V
0 1 V
1 -1 V
0 1 V
0 -1 V
1 -1 V
0 -1 V
1 -1 V
0 2 V
1 0 V
0 1 V
0 1 V
1 -1 V
0 2 V
0 -1 V
1 -2 V
0 1 V
1 0 V
0 -1 V
0 -1 V
1 -1 V
0 1 V
0 1 V
1 0 V
1 -1 V
0 1 V
0 -2 V
1 0 V
0 -1 V
0 1 V
1 -2 V
0 1 V
0 -1 V
1 0 V
0 1 V
0 -1 V
1 0 V
0 1 V
0 1 V
1 0 V
0 1 V
1 0 V
0 1 V
0 1 V
1 0 V
0 -1 V
0 -1 V
0 1 V
1 1 V
0 2 V
1 -2 V
1 0 V
1 1 V
1 1 V
0 -1 V
1 0 V
stroke 1955 4169 M
1 -1 V
0 -1 V
1 0 V
0 -2 V
0 1 V
1 -1 V
0 1 V
1 2 V
0 -2 V
0 1 V
1 0 V
0 1 V
1 0 V
0 -1 V
1 1 V
0 -1 V
0 1 V
1 -1 V
0 -1 V
1 0 V
0 1 V
0 2 V
1 0 V
0 1 V
1 0 V
0 -1 V
1 -1 V
0 -2 V
0 1 V
1 0 V
0 -1 V
1 2 V
1 0 V
0 1 V
0 -1 V
1 1 V
1 1 V
0 -1 V
1 0 V
0 -1 V
0 -1 V
1 -1 V
1 1 V
0 1 V
1 0 V
1 0 V
0 -1 V
0 2 V
0 -1 V
1 1 V
1 -1 V
0 1 V
1 0 V
1 0 V
0 -1 V
1 1 V
1 -1 V
0 1 V
1 0 V
0 1 V
1 0 V
0 1 V
1 -1 V
0 -1 V
0 -1 V
1 0 V
0 2 V
0 -1 V
1 0 V
0 1 V
0 1 V
1 1 V
0 -1 V
1 1 V
0 -1 V
0 1 V
1 -1 V
0 -1 V
1 1 V
0 -1 V
1 1 V
1 0 V
0 -1 V
0 -1 V
1 1 V
1 0 V
0 -1 V
1 0 V
1 0 V
0 2 V
1 0 V
0 -1 V
1 0 V
0 1 V
0 -1 V
1 -1 V
0 -1 V
0 -1 V
1 0 V
0 1 V
1 0 V
0 1 V
0 1 V
1 1 V
stroke 2004 4171 M
0 -1 V
1 0 V
0 1 V
0 1 V
1 0 V
0 1 V
1 -1 V
0 1 V
1 0 V
1 -1 V
0 1 V
1 0 V
0 2 V
1 0 V
0 1 V
1 0 V
0 -1 V
0 -1 V
1 0 V
0 -1 V
1 0 V
0 -1 V
1 1 V
0 -1 V
0 1 V
1 -1 V
0 -1 V
0 1 V
1 0 V
0 -1 V
1 1 V
0 -1 V
0 1 V
1 -2 V
1 -1 V
0 1 V
1 -1 V
0 -1 V
1 -1 V
0 1 V
0 -1 V
1 1 V
0 -1 V
0 -1 V
1 -1 V
0 -1 V
0 1 V
1 0 V
0 -1 V
1 0 V
1 -1 V
0 1 V
1 1 V
0 1 V
1 -1 V
0 -2 V
0 1 V
1 -1 V
0 -1 V
1 -1 V
0 1 V
0 -2 V
0 1 V
1 1 V
0 1 V
0 -1 V
1 0 V
0 -2 V
0 1 V
1 -1 V
0 1 V
0 1 V
1 -1 V
0 1 V
0 -1 V
1 0 V
0 -2 V
1 0 V
0 -1 V
0 -1 V
1 1 V
0 2 V
0 1 V
1 0 V
0 -1 V
1 0 V
0 -1 V
0 1 V
1 -1 V
0 -1 V
0 1 V
1 1 V
0 1 V
1 1 V
1 0 V
0 1 V
1 0 V
0 -2 V
0 -1 V
0 1 V
1 1 V
0 1 V
1 -2 V
0 -1 V
stroke 2047 4160 M
1 1 V
0 -1 V
1 -1 V
0 1 V
1 0 V
0 1 V
1 0 V
0 -1 V
1 0 V
0 -1 V
1 0 V
0 1 V
1 1 V
0 -1 V
0 1 V
1 1 V
0 1 V
0 -2 V
1 0 V
0 1 V
1 0 V
0 -1 V
0 2 V
1 0 V
0 -2 V
0 1 V
1 1 V
0 -2 V
1 -2 V
0 1 V
1 0 V
0 1 V
0 -1 V
1 0 V
0 -1 V
1 -2 V
0 -1 V
1 1 V
0 -1 V
0 -1 V
1 -1 V
1 0 V
0 -2 V
0 1 V
1 0 V
0 1 V
1 1 V
0 -1 V
0 1 V
1 -2 V
0 -1 V
1 2 V
0 -1 V
0 -1 V
1 0 V
0 -2 V
0 1 V
1 0 V
0 -1 V
0 1 V
1 3 V
0 2 V
1 1 V
0 1 V
1 1 V
0 2 V
1 0 V
0 -1 V
1 -2 V
0 1 V
1 1 V
0 1 V
1 1 V
0 -1 V
1 0 V
0 -1 V
0 -1 V
1 -1 V
0 -1 V
1 1 V
0 1 V
1 -1 V
0 1 V
0 1 V
1 -1 V
0 -2 V
1 0 V
0 1 V
1 -1 V
0 1 V
0 -2 V
0 1 V
1 -1 V
0 1 V
1 -1 V
0 -1 V
1 -1 V
0 1 V
1 1 V
0 1 V
0 1 V
1 3 V
1 1 V
0 -1 V
stroke 2092 4161 M
1 2 V
0 -1 V
1 0 V
1 0 V
0 1 V
0 2 V
1 1 V
0 -1 V
1 0 V
0 2 V
1 2 V
0 -1 V
1 0 V
0 1 V
1 -1 V
0 -1 V
1 0 V
0 -1 V
0 -1 V
1 0 V
0 -1 V
1 -1 V
0 -1 V
1 1 V
1 1 V
0 -1 V
0 -1 V
1 0 V
0 1 V
0 -1 V
1 -2 V
0 1 V
0 1 V
1 0 V
0 1 V
1 0 V
0 -1 V
0 -3 V
1 -1 V
0 1 V
1 0 V
1 2 V
0 -1 V
0 1 V
1 0 V
0 1 V
0 -1 V
1 0 V
1 -2 V
0 1 V
1 0 V
0 1 V
0 -1 V
1 -2 V
0 -1 V
0 -1 V
1 -1 V
0 -1 V
1 1 V
0 1 V
1 2 V
0 1 V
1 1 V
0 1 V
0 1 V
1 0 V
0 1 V
1 0 V
0 2 V
0 -2 V
1 0 V
0 1 V
0 -1 V
1 1 V
0 2 V
1 0 V
1 1 V
0 1 V
1 0 V
0 -1 V
0 1 V
1 0 V
0 -1 V
0 1 V
1 0 V
0 1 V
0 1 V
1 -1 V
0 1 V
1 -1 V
1 0 V
0 -1 V
1 0 V
0 1 V
1 -2 V
1 1 V
0 -1 V
0 1 V
1 0 V
1 0 V
0 -1 V
1 -1 V
0 2 V
0 -1 V
stroke 2139 4167 M
1 0 V
0 -1 V
0 1 V
1 0 V
0 2 V
0 -2 V
1 1 V
0 1 V
1 1 V
0 -1 V
0 1 V
1 -1 V
0 1 V
0 -1 V
1 0 V
1 0 V
0 1 V
1 0 V
1 1 V
0 -1 V
0 1 V
1 0 V
0 1 V
1 -1 V
0 -1 V
0 -1 V
1 0 V
0 1 V
0 -1 V
1 -2 V
0 1 V
0 1 V
1 -1 V
1 0 V
0 -1 V
0 1 V
0 1 V
1 0 V
0 -1 V
1 2 V
0 1 V
0 1 V
1 1 V
0 -1 V
1 -1 V
0 -1 V
0 -1 V
1 -1 V
1 1 V
0 -1 V
1 -2 V
0 2 V
1 0 V
0 -1 V
1 0 V
0 -1 V
0 1 V
1 -1 V
0 2 V
1 -1 V
0 1 V
1 0 V
1 2 V
0 -1 V
1 3 V
0 1 V
0 1 V
0 2 V
1 -1 V
0 -1 V
1 0 V
1 -2 V
0 -1 V
0 -1 V
1 0 V
0 -1 V
0 -1 V
1 0 V
0 -1 V
1 0 V
0 1 V
0 -2 V
1 0 V
0 -1 V
0 1 V
1 1 V
0 -1 V
1 1 V
1 -3 V
1 1 V
0 -1 V
0 1 V
1 0 V
0 -2 V
1 1 V
0 -1 V
0 -1 V
1 0 V
0 1 V
0 -2 V
1 -1 V
1 -1 V
0 1 V
0 -1 V
stroke 2184 4159 M
1 1 V
0 -1 V
0 1 V
1 0 V
0 1 V
0 -2 V
1 1 V
0 -1 V
1 0 V
0 1 V
0 -1 V
1 -1 V
0 2 V
1 0 V
0 1 V
1 -1 V
0 2 V
0 1 V
1 -1 V
0 1 V
1 -2 V
1 0 V
0 1 V
1 1 V
0 1 V
0 1 V
1 1 V
0 1 V
1 0 V
0 1 V
1 -1 V
0 -1 V
1 -1 V
0 -2 V
1 1 V
0 -1 V
0 2 V
1 1 V
1 0 V
0 1 V
0 -2 V
1 0 V
0 1 V
0 1 V
1 1 V
0 1 V
1 1 V
0 -1 V
1 1 V
0 -1 V
1 0 V
0 1 V
1 1 V
0 -1 V
1 1 V
0 1 V
0 -1 V
1 -1 V
0 -1 V
0 -2 V
1 1 V
0 1 V
1 0 V
0 1 V
1 -1 V
0 -2 V
0 -1 V
1 -1 V
0 2 V
0 1 V
1 -1 V
0 1 V
1 -2 V
0 1 V
1 -1 V
0 1 V
1 1 V
0 -1 V
1 0 V
0 -1 V
0 1 V
1 1 V
0 1 V
1 0 V
1 -1 V
0 -2 V
0 -1 V
1 -1 V
0 -1 V
1 2 V
0 1 V
0 1 V
1 -1 V
0 1 V
1 -2 V
0 -2 V
0 -1 V
1 0 V
0 1 V
0 -2 V
1 0 V
0 1 V
1 -2 V
0 -1 V
stroke 2229 4159 M
0 -2 V
1 1 V
0 -4 V
0 -1 V
1 -1 V
1 0 V
0 2 V
1 -2 V
0 -1 V
0 -4 V
1 -1 V
0 2 V
1 1 V
0 1 V
1 -4 V
1 0 V
0 -1 V
0 -1 V
1 0 V
0 2 V
0 1 V
1 1 V
0 2 V
0 2 V
1 -1 V
0 -1 V
1 0 V
0 -1 V
0 -2 V
1 1 V
0 -2 V
1 1 V
0 1 V
0 2 V
1 1 V
0 -1 V
1 0 V
1 1 V
0 1 V
0 -2 V
1 0 V
0 1 V
1 0 V
0 2 V
1 2 V
0 1 V
0 -1 V
1 2 V
0 -1 V
0 1 V
1 -2 V
0 1 V
0 2 V
1 0 V
1 -2 V
0 -1 V
1 -2 V
0 1 V
0 -1 V
1 2 V
0 -1 V
1 2 V
1 0 V
0 -1 V
1 0 V
0 2 V
0 1 V
1 -2 V
0 1 V
1 -1 V
0 1 V
0 2 V
1 0 V
0 -1 V
1 2 V
0 -2 V
0 1 V
1 1 V
0 1 V
0 1 V
1 1 V
0 -2 V
0 1 V
1 -1 V
0 1 V
1 0 V
0 -1 V
1 1 V
0 -3 V
1 0 V
0 2 V
0 -1 V
1 2 V
0 1 V
1 1 V
1 -1 V
0 1 V
0 1 V
1 0 V
1 1 V
0 1 V
1 -1 V
0 -1 V
1 0 V
stroke 2275 4165 M
1 2 V
0 -1 V
0 1 V
1 0 V
0 -1 V
0 -1 V
1 0 V
0 1 V
1 1 V
0 1 V
0 1 V
1 1 V
0 -1 V
0 2 V
1 -1 V
0 -1 V
1 0 V
0 -1 V
0 1 V
1 1 V
0 -1 V
0 1 V
1 -1 V
1 -1 V
1 -1 V
0 -1 V
1 0 V
0 1 V
0 -1 V
1 -1 V
0 1 V
0 -1 V
1 -1 V
0 1 V
1 1 V
0 -1 V
1 -1 V
0 1 V
0 -1 V
0 1 V
1 1 V
1 -3 V
0 1 V
1 1 V
1 0 V
0 1 V
0 1 V
1 2 V
0 -1 V
0 -1 V
1 -1 V
0 1 V
1 -1 V
0 -1 V
0 -1 V
1 1 V
0 1 V
0 1 V
1 0 V
0 -1 V
0 1 V
1 1 V
0 1 V
1 -1 V
0 1 V
0 -1 V
1 -1 V
0 -1 V
1 1 V
0 1 V
1 0 V
1 -1 V
0 -2 V
1 0 V
0 -1 V
1 -2 V
0 1 V
0 -1 V
1 2 V
0 1 V
1 1 V
0 -2 V
1 -1 V
0 2 V
1 1 V
0 -1 V
1 0 V
0 -2 V
0 -1 V
1 2 V
0 1 V
1 0 V
0 -1 V
1 0 V
1 -1 V
0 2 V
0 -1 V
1 0 V
0 -2 V
1 1 V
1 0 V
0 1 V
0 -1 V
1 1 V
stroke 2321 4164 M
0 -1 V
0 3 V
1 1 V
0 1 V
0 1 V
1 0 V
0 -1 V
1 -1 V
0 1 V
1 0 V
0 2 V
1 0 V
0 1 V
1 0 V
0 -1 V
1 0 V
0 1 V
1 0 V
0 1 V
0 -1 V
1 1 V
0 -1 V
1 0 V
1 0 V
0 1 V
1 1 V
0 1 V
0 -1 V
1 1 V
0 -1 V
1 -1 V
0 -1 V
0 1 V
1 1 V
0 -1 V
1 0 V
1 -2 V
0 -1 V
0 -1 V
1 0 V
0 -1 V
1 0 V
1 0 V
0 1 V
0 -1 V
1 1 V
0 1 V
1 0 V
0 1 V
0 -1 V
1 0 V
0 -1 V
1 0 V
0 1 V
0 -1 V
0 1 V
1 0 V
0 -2 V
1 -1 V
1 0 V
0 1 V
0 -1 V
1 2 V
0 1 V
0 -1 V
1 0 V
0 1 V
1 -1 V
0 -1 V
1 0 V
0 1 V
0 -1 V
1 0 V
1 0 V
0 1 V
1 2 V
0 -1 V
1 1 V
0 -1 V
1 0 V
0 1 V
0 -2 V
1 1 V
0 -2 V
0 1 V
1 -2 V
0 -2 V
0 2 V
1 -1 V
0 1 V
0 1 V
1 0 V
0 -1 V
1 1 V
0 -2 V
0 -1 V
1 0 V
0 -1 V
0 -1 V
1 1 V
0 -1 V
1 1 V
0 -1 V
1 -1 V
stroke 2366 4161 M
0 1 V
1 0 V
0 1 V
1 0 V
1 -1 V
0 -1 V
1 0 V
0 1 V
1 1 V
0 1 V
1 -2 V
0 2 V
1 -2 V
0 1 V
0 -1 V
0 1 V
1 0 V
0 -1 V
1 0 V
0 -1 V
1 -1 V
0 -1 V
1 -1 V
0 1 V
0 -1 V
1 0 V
1 -2 V
0 1 V
1 3 V
0 -1 V
1 1 V
0 -1 V
1 0 V
0 1 V
1 2 V
0 -2 V
1 -1 V
0 1 V
1 0 V
0 1 V
0 2 V
1 0 V
0 -1 V
0 1 V
1 -1 V
1 -1 V
0 -1 V
1 0 V
0 -2 V
1 0 V
0 -1 V
0 -1 V
1 0 V
0 2 V
1 0 V
0 1 V
1 1 V
0 1 V
0 1 V
1 0 V
0 -1 V
0 1 V
1 0 V
0 1 V
1 0 V
0 -1 V
1 0 V
0 1 V
0 -1 V
1 -1 V
0 1 V
1 0 V
0 -1 V
0 1 V
1 1 V
0 2 V
0 -1 V
0 1 V
1 -1 V
0 1 V
1 0 V
0 2 V
1 -1 V
0 1 V
1 0 V
1 1 V
1 1 V
1 0 V
0 1 V
1 0 V
0 1 V
0 1 V
1 -1 V
0 -1 V
0 1 V
1 0 V
1 0 V
0 -1 V
1 -2 V
0 -2 V
0 1 V
1 1 V
0 1 V
1 2 V
stroke 2414 4171 M
0 1 V
0 2 V
1 -1 V
0 -1 V
1 1 V
0 -1 V
1 -2 V
1 0 V
0 1 V
0 1 V
1 -1 V
0 -1 V
1 -2 V
0 1 V
1 0 V
0 -1 V
1 1 V
0 2 V
0 -1 V
1 1 V
0 1 V
0 -1 V
1 0 V
1 0 V
0 1 V
0 1 V
1 -1 V
0 -1 V
0 1 V
1 -2 V
0 1 V
0 1 V
0 1 V
1 0 V
0 1 V
1 -1 V
0 -1 V
1 0 V
0 -1 V
0 1 V
1 -1 V
0 -1 V
0 -1 V
1 1 V
0 1 V
1 0 V
0 -1 V
1 1 V
0 1 V
0 -1 V
1 1 V
1 1 V
1 0 V
0 -1 V
1 -1 V
0 -1 V
1 1 V
0 1 V
1 -1 V
0 -1 V
0 1 V
1 -1 V
1 0 V
0 -2 V
1 0 V
0 -1 V
1 -2 V
0 -1 V
0 1 V
1 -1 V
0 1 V
1 1 V
1 3 V
0 -1 V
0 2 V
1 0 V
0 -1 V
0 1 V
1 1 V
0 -1 V
0 1 V
1 -1 V
0 -1 V
1 0 V
0 -1 V
1 -1 V
0 -1 V
1 -1 V
1 0 V
0 -1 V
1 2 V
0 1 V
0 -1 V
1 -1 V
1 -1 V
0 1 V
0 1 V
1 -1 V
0 -1 V
1 0 V
0 1 V
0 1 V
1 1 V
0 -1 V
stroke 2460 4166 M
1 1 V
1 -1 V
0 -1 V
1 0 V
0 -1 V
0 1 V
1 0 V
1 2 V
0 -1 V
0 2 V
1 0 V
1 -1 V
0 1 V
1 -2 V
0 1 V
0 1 V
1 0 V
0 -1 V
0 1 V
1 -1 V
0 -1 V
0 1 V
1 0 V
0 -1 V
1 2 V
1 -2 V
0 -1 V
0 -1 V
1 1 V
0 1 V
0 -2 V
1 1 V
0 1 V
1 -2 V
0 1 V
1 -1 V
0 2 V
1 -1 V
0 1 V
1 -1 V
0 1 V
0 1 V
1 -1 V
0 -1 V
0 1 V
1 0 V
0 1 V
1 -1 V
0 1 V
0 -2 V
0 -1 V
1 1 V
0 -2 V
0 1 V
1 1 V
0 2 V
1 -1 V
0 -1 V
0 1 V
1 1 V
0 1 V
0 1 V
1 -1 V
0 1 V
1 -1 V
0 1 V
0 -1 V
1 2 V
0 -1 V
1 0 V
0 -1 V
1 1 V
0 -1 V
0 1 V
1 0 V
0 -1 V
1 0 V
0 -1 V
0 -1 V
1 1 V
0 -1 V
1 1 V
1 0 V
0 -2 V
0 2 V
1 -2 V
1 1 V
0 1 V
1 -1 V
0 -1 V
0 1 V
1 0 V
1 -1 V
0 1 V
1 0 V
0 -1 V
1 1 V
1 -1 V
0 1 V
1 0 V
1 1 V
0 -1 V
1 -1 V
0 -1 V
stroke 2507 4164 M
1 -1 V
1 0 V
0 1 V
0 2 V
1 -1 V
1 0 V
0 1 V
0 1 V
1 1 V
0 -1 V
0 1 V
1 0 V
0 1 V
1 1 V
0 -1 V
0 -1 V
1 1 V
0 1 V
1 0 V
0 -1 V
1 -1 V
0 -1 V
0 1 V
1 1 V
1 1 V
0 1 V
0 1 V
1 0 V
1 -2 V
0 -1 V
0 2 V
1 1 V
1 1 V
0 -1 V
0 -1 V
1 1 V
1 1 V
0 -1 V
1 1 V
0 -1 V
1 1 V
0 2 V
0 -1 V
1 -1 V
1 0 V
0 -1 V
1 -1 V
0 -3 V
0 1 V
1 0 V
0 -1 V
1 0 V
1 0 V
0 -1 V
1 1 V
0 -1 V
1 0 V
0 -1 V
0 -1 V
1 2 V
0 -1 V
1 0 V
0 1 V
1 0 V
0 -1 V
1 -1 V
1 1 V
0 -1 V
1 1 V
0 2 V
1 0 V
0 -1 V
0 -1 V
1 0 V
0 1 V
1 -1 V
1 0 V
1 -1 V
0 -1 V
1 0 V
0 2 V
0 1 V
1 -1 V
0 2 V
0 1 V
1 0 V
1 -1 V
0 1 V
0 -1 V
1 0 V
0 -1 V
0 -1 V
1 0 V
0 2 V
1 0 V
1 0 V
0 -1 V
1 -1 V
0 -1 V
1 -2 V
0 -1 V
1 0 V
0 1 V
1 2 V
stroke 2558 4165 M
0 -2 V
0 1 V
1 0 V
0 -1 V
1 -1 V
0 -1 V
0 1 V
1 0 V
0 1 V
0 -1 V
1 0 V
0 1 V
1 0 V
0 -1 V
1 1 V
0 1 V
0 -1 V
1 1 V
1 -1 V
0 -1 V
1 -1 V
0 -1 V
1 -1 V
0 1 V
0 1 V
1 -2 V
0 -1 V
0 2 V
1 1 V
0 -2 V
1 1 V
0 1 V
0 -2 V
1 -1 V
0 2 V
1 0 V
0 2 V
1 0 V
0 -2 V
1 1 V
1 1 V
0 2 V
1 1 V
1 0 V
0 -1 V
0 1 V
1 -1 V
0 3 V
1 -1 V
0 -1 V
1 1 V
0 -1 V
1 -1 V
0 1 V
1 0 V
0 -2 V
0 -1 V
1 0 V
0 -1 V
1 1 V
0 1 V
1 0 V
0 1 V
0 1 V
1 -1 V
0 -1 V
0 1 V
1 0 V
0 -1 V
1 0 V
0 -1 V
1 -1 V
0 -1 V
1 0 V
0 2 V
1 1 V
0 -1 V
0 -1 V
1 1 V
0 1 V
0 -1 V
1 -1 V
0 -1 V
1 -1 V
1 -1 V
1 0 V
0 1 V
0 2 V
1 -1 V
0 2 V
1 -1 V
0 1 V
1 0 V
0 1 V
0 -1 V
1 0 V
0 1 V
0 -2 V
1 1 V
1 2 V
0 -1 V
0 1 V
1 1 V
0 1 V
stroke 2604 4166 M
1 -1 V
0 -1 V
0 -1 V
1 -1 V
0 -1 V
0 -2 V
1 0 V
0 1 V
1 0 V
0 -1 V
1 1 V
1 0 V
0 1 V
1 0 V
0 2 V
1 -1 V
0 2 V
1 0 V
0 1 V
1 -1 V
0 1 V
1 1 V
0 1 V
1 0 V
0 2 V
0 -1 V
1 -1 V
0 1 V
0 2 V
1 -1 V
0 1 V
0 1 V
1 -1 V
1 1 V
0 1 V
0 -1 V
1 1 V
0 1 V
0 1 V
1 -2 V
0 -1 V
1 1 V
1 0 V
0 -2 V
1 1 V
0 1 V
1 0 V
0 1 V
1 -1 V
0 1 V
1 0 V
0 -1 V
0 -1 V
1 1 V
0 -2 V
0 1 V
1 1 V
1 0 V
1 -1 V
0 -2 V
0 1 V
1 1 V
0 -1 V
1 -2 V
0 1 V
0 2 V
1 -1 V
0 1 V
0 -1 V
1 0 V
1 -2 V
0 -2 V
0 -1 V
1 1 V
0 -1 V
1 0 V
1 -1 V
0 -1 V
1 -1 V
0 -1 V
1 0 V
0 -1 V
1 0 V
1 0 V
1 0 V
1 0 V
0 1 V
1 2 V
0 1 V
0 1 V
1 0 V
0 1 V
1 -2 V
1 0 V
0 1 V
1 1 V
0 1 V
1 0 V
0 -1 V
1 0 V
0 1 V
1 0 V
1 0 V
1 0 V
stroke 2656 4167 M
0 1 V
1 0 V
1 -1 V
1 0 V
0 -1 V
1 0 V
0 3 V
0 -3 V
1 -1 V
1 0 V
0 -2 V
1 0 V
0 -2 V
1 -1 V
0 -2 V
0 1 V
1 -1 V
0 -1 V
0 2 V
1 2 V
0 2 V
1 -2 V
0 1 V
0 -1 V
1 0 V
0 -1 V
0 -1 V
1 0 V
0 -1 V
1 0 V
0 -1 V
0 -3 V
1 -1 V
0 -3 V
1 0 V
0 -1 V
1 0 V
0 1 V
0 -1 V
0 1 V
1 -2 V
0 1 V
0 2 V
1 0 V
0 2 V
1 -1 V
0 -1 V
0 1 V
1 2 V
0 -1 V
0 1 V
1 1 V
0 1 V
0 2 V
1 0 V
0 1 V
1 1 V
0 -1 V
1 1 V
0 1 V
0 1 V
1 1 V
0 -1 V
1 0 V
1 -2 V
0 -1 V
1 0 V
0 -1 V
1 -1 V
0 1 V
1 -1 V
0 2 V
0 -2 V
1 0 V
0 -1 V
0 1 V
1 -1 V
0 2 V
1 0 V
0 1 V
1 1 V
0 1 V
0 1 V
1 -1 V
0 -1 V
1 1 V
0 1 V
0 -1 V
1 2 V
0 1 V
1 2 V
0 1 V
1 0 V
0 2 V
1 -1 V
1 1 V
0 -1 V
1 -1 V
0 -1 V
1 0 V
0 1 V
0 -1 V
1 0 V
1 0 V
stroke 2702 4166 M
0 -1 V
0 1 V
1 0 V
0 -1 V
1 -1 V
0 1 V
1 1 V
1 0 V
1 -1 V
0 1 V
1 0 V
0 2 V
1 0 V
1 -2 V
0 1 V
1 0 V
0 -1 V
0 1 V
1 0 V
0 -1 V
1 0 V
0 1 V
1 1 V
0 -3 V
0 1 V
0 1 V
1 -2 V
1 1 V
0 1 V
0 1 V
1 0 V
0 2 V
0 -1 V
1 1 V
1 0 V
1 1 V
0 -1 V
1 -1 V
0 1 V
0 -1 V
1 1 V
0 1 V
0 1 V
1 -2 V
0 2 V
1 0 V
0 1 V
1 0 V
0 -1 V
0 1 V
1 -1 V
0 -1 V
1 0 V
0 1 V
0 -1 V
1 1 V
0 -1 V
1 0 V
0 1 V
1 -1 V
0 1 V
0 -2 V
1 1 V
1 -1 V
1 0 V
0 -1 V
1 1 V
0 -1 V
1 -2 V
0 1 V
1 -2 V
1 -1 V
0 -1 V
0 1 V
1 0 V
1 0 V
0 -1 V
1 1 V
1 1 V
0 1 V
1 0 V
0 -1 V
1 2 V
0 2 V
0 -1 V
1 0 V
0 1 V
1 -1 V
0 -1 V
0 1 V
1 1 V
0 1 V
0 1 V
1 0 V
0 -2 V
0 -1 V
1 1 V
0 -1 V
1 -1 V
0 1 V
0 1 V
1 0 V
0 1 V
0 -1 V
stroke 2750 4170 M
1 0 V
0 1 V
1 0 V
1 0 V
0 -1 V
1 0 V
0 -1 V
0 1 V
1 -1 V
0 2 V
1 -1 V
1 0 V
0 -1 V
1 1 V
0 -1 V
0 -1 V
1 -1 V
0 -1 V
1 1 V
0 -1 V
1 0 V
0 -1 V
1 1 V
0 -2 V
0 -1 V
1 0 V
1 2 V
0 2 V
1 0 V
0 1 V
0 -1 V
1 -1 V
0 1 V
1 -2 V
0 -1 V
1 0 V
1 0 V
0 1 V
1 1 V
1 -1 V
0 -1 V
1 0 V
0 1 V
0 -2 V
1 0 V
0 1 V
1 1 V
1 1 V
0 1 V
1 1 V
0 1 V
1 1 V
0 -2 V
1 0 V
0 -1 V
0 2 V
1 0 V
0 -1 V
1 0 V
0 1 V
1 0 V
0 1 V
1 0 V
0 -1 V
0 -1 V
1 0 V
0 1 V
0 2 V
1 0 V
1 0 V
1 0 V
0 1 V
1 2 V
1 -1 V
0 -1 V
1 0 V
0 -2 V
0 -1 V
1 1 V
1 -1 V
1 0 V
0 -1 V
1 0 V
0 1 V
0 1 V
1 0 V
0 1 V
0 1 V
1 -1 V
0 -2 V
1 0 V
0 1 V
0 1 V
1 0 V
0 1 V
0 -1 V
1 -1 V
0 1 V
0 -1 V
1 0 V
1 0 V
0 -1 V
1 1 V
0 -2 V
stroke 2801 4168 M
1 1 V
0 -1 V
1 -1 V
0 1 V
1 -1 V
0 1 V
1 -1 V
0 -1 V
1 0 V
0 1 V
1 0 V
0 -1 V
0 1 V
1 1 V
1 1 V
0 1 V
1 0 V
0 -1 V
0 1 V
1 1 V
1 -1 V
0 -1 V
1 1 V
0 -1 V
0 -1 V
1 0 V
0 1 V
0 -2 V
1 -1 V
0 1 V
0 1 V
1 1 V
1 0 V
0 -2 V
1 0 V
0 -1 V
1 -1 V
0 -1 V
1 0 V
0 2 V
0 1 V
1 1 V
0 -1 V
1 1 V
0 1 V
0 -1 V
1 0 V
0 1 V
0 1 V
1 1 V
0 -1 V
0 -1 V
1 -1 V
0 -1 V
1 1 V
0 1 V
1 0 V
0 -1 V
1 0 V
0 -1 V
1 1 V
0 -2 V
1 1 V
1 0 V
1 0 V
1 -1 V
0 -2 V
1 0 V
0 -1 V
1 2 V
1 0 V
0 -1 V
0 -1 V
1 1 V
0 1 V
0 1 V
0 -1 V
1 0 V
1 -1 V
0 -1 V
0 2 V
1 -1 V
0 1 V
1 1 V
0 1 V
1 1 V
0 -1 V
0 1 V
1 -1 V
0 1 V
0 -1 V
1 -1 V
0 -1 V
1 -1 V
0 1 V
1 1 V
0 1 V
0 1 V
1 -1 V
0 -1 V
0 -3 V
1 1 V
0 2 V
1 -1 V
stroke 2849 4165 M
0 -2 V
1 1 V
1 0 V
0 -3 V
0 1 V
0 1 V
1 0 V
0 -1 V
1 1 V
1 1 V
1 0 V
0 2 V
0 -1 V
1 0 V
0 1 V
1 -1 V
0 -1 V
1 0 V
0 -1 V
0 1 V
1 -1 V
0 1 V
1 0 V
0 2 V
0 1 V
1 0 V
0 -1 V
1 0 V
0 1 V
1 0 V
0 -2 V
0 1 V
1 2 V
0 1 V
0 -1 V
1 1 V
0 -1 V
1 0 V
0 -1 V
1 0 V
1 1 V
0 1 V
1 0 V
0 1 V
1 0 V
0 -1 V
0 1 V
1 -1 V
0 2 V
0 -1 V
1 0 V
0 -1 V
1 0 V
0 1 V
1 0 V
0 -1 V
1 0 V
0 1 V
1 -1 V
0 -1 V
1 0 V
0 1 V
1 -1 V
0 2 V
0 -2 V
1 1 V
0 -1 V
1 1 V
0 -1 V
0 -1 V
1 -1 V
0 1 V
0 -1 V
1 1 V
1 0 V
0 1 V
1 1 V
0 1 V
0 -1 V
1 -1 V
0 1 V
1 -1 V
0 -1 V
0 -1 V
1 1 V
0 -1 V
1 0 V
0 -2 V
0 1 V
1 -1 V
1 0 V
0 -1 V
1 -1 V
0 -1 V
1 2 V
0 -2 V
0 1 V
1 1 V
0 -2 V
1 -1 V
0 1 V
0 2 V
1 1 V
1 0 V
stroke 2896 4164 M
0 1 V
1 0 V
0 -1 V
0 -1 V
1 0 V
0 -1 V
1 0 V
1 -1 V
0 -1 V
1 0 V
0 -1 V
1 -1 V
0 1 V
1 -1 V
0 -1 V
1 -1 V
0 1 V
0 1 V
1 2 V
0 2 V
0 -1 V
0 -1 V
1 0 V
1 0 V
1 -1 V
0 1 V
1 -1 V
1 1 V
0 -1 V
0 1 V
1 1 V
0 2 V
1 0 V
0 1 V
1 0 V
0 1 V
1 1 V
1 0 V
1 -1 V
0 -1 V
1 1 V
0 -1 V
1 0 V
0 1 V
1 -1 V
0 -1 V
1 1 V
1 -1 V
0 -3 V
0 1 V
1 -2 V
0 -1 V
0 1 V
1 2 V
0 1 V
0 -1 V
1 -1 V
0 3 V
1 -1 V
0 -1 V
0 1 V
1 1 V
0 1 V
0 2 V
1 0 V
0 -1 V
0 -1 V
1 1 V
0 -2 V
1 1 V
0 -1 V
1 -1 V
0 2 V
0 -1 V
1 -1 V
1 1 V
0 -1 V
0 1 V
0 1 V
1 0 V
0 1 V
1 -1 V
0 1 V
0 1 V
1 1 V
1 0 V
0 -1 V
0 1 V
1 0 V
0 1 V
1 1 V
0 -1 V
0 1 V
1 0 V
0 -1 V
1 1 V
0 -1 V
1 0 V
0 1 V
0 1 V
1 0 V
0 1 V
1 1 V
0 -1 V
stroke 2943 4171 M
0 1 V
1 0 V
0 1 V
1 -1 V
0 1 V
1 -1 V
0 1 V
1 0 V
0 -1 V
1 0 V
0 1 V
1 1 V
0 -1 V
0 1 V
1 0 V
0 1 V
1 1 V
0 1 V
0 -1 V
1 1 V
0 -1 V
1 0 V
0 -1 V
1 -1 V
0 -1 V
1 0 V
0 1 V
1 -1 V
0 -1 V
1 1 V
1 -1 V
1 0 V
0 -1 V
1 1 V
0 1 V
0 1 V
1 -2 V
1 -1 V
0 -1 V
0 1 V
1 0 V
0 1 V
0 -1 V
1 0 V
0 1 V
0 -1 V
1 1 V
0 -1 V
0 1 V
1 0 V
1 0 V
0 1 V
1 -1 V
0 -1 V
1 0 V
0 -1 V
0 -1 V
1 -2 V
0 1 V
0 1 V
1 0 V
1 0 V
0 -1 V
1 0 V
0 -2 V
1 1 V
0 -1 V
0 -2 V
1 1 V
1 1 V
0 -2 V
1 -1 V
0 -1 V
0 -1 V
1 -1 V
0 1 V
0 -1 V
1 0 V
0 -2 V
0 1 V
1 0 V
1 1 V
0 -1 V
1 1 V
0 -2 V
0 1 V
1 -1 V
0 -1 V
1 -1 V
0 -4 V
1 1 V
0 1 V
0 -1 V
1 -1 V
0 -3 V
0 1 V
1 0 V
0 1 V
0 2 V
1 0 V
0 1 V
0 -2 V
1 1 V
0 -2 V
stroke 2989 4151 M
0 1 V
1 -1 V
0 -2 V
0 2 V
1 0 V
0 3 V
1 0 V
0 2 V
1 -2 V
0 -1 V
0 -1 V
1 0 V
0 -1 V
0 -2 V
1 0 V
0 -1 V
1 1 V
0 1 V
1 0 V
0 1 V
0 -1 V
1 0 V
0 1 V
0 1 V
1 0 V
0 2 V
0 -1 V
1 0 V
0 1 V
1 -2 V
0 2 V
0 2 V
1 -2 V
0 1 V
1 1 V
1 1 V
0 2 V
0 1 V
1 1 V
1 -1 V
0 1 V
1 0 V
0 1 V
0 1 V
1 0 V
0 -1 V
0 1 V
1 -2 V
0 1 V
0 1 V
1 0 V
0 -1 V
1 -1 V
1 1 V
1 1 V
0 -1 V
1 1 V
0 -2 V
1 1 V
1 -1 V
0 1 V
0 -1 V
1 0 V
0 1 V
1 0 V
0 1 V
1 -1 V
0 2 V
0 1 V
1 0 V
0 -1 V
0 1 V
1 0 V
0 -1 V
0 -1 V
1 0 V
0 1 V
0 -1 V
1 2 V
0 -1 V
0 1 V
1 2 V
0 -1 V
1 0 V
0 1 V
1 0 V
0 1 V
0 2 V
1 0 V
0 -1 V
1 1 V
0 -2 V
0 1 V
1 -1 V
1 1 V
0 -1 V
1 -1 V
0 -1 V
0 -1 V
1 -1 V
0 1 V
0 2 V
1 0 V
1 -1 V
stroke 3034 4166 M
1 -1 V
0 -1 V
1 -1 V
1 -2 V
0 2 V
0 1 V
1 0 V
0 -1 V
1 0 V
0 -1 V
0 -1 V
1 0 V
0 -1 V
1 -2 V
0 1 V
1 -2 V
0 -1 V
0 2 V
1 1 V
0 -1 V
0 -1 V
1 0 V
0 1 V
0 -2 V
1 1 V
0 -1 V
1 0 V
0 -1 V
0 1 V
1 1 V
0 -1 V
1 0 V
0 -1 V
1 -1 V
1 1 V
0 -1 V
0 -2 V
1 1 V
0 1 V
1 1 V
0 -1 V
1 1 V
0 3 V
0 -2 V
1 1 V
0 -1 V
1 1 V
0 2 V
1 -1 V
0 -1 V
1 0 V
0 1 V
0 1 V
1 -1 V
0 1 V
0 1 V
1 0 V
1 -1 V
0 1 V
1 0 V
0 1 V
0 1 V
1 -1 V
0 1 V
1 0 V
0 -2 V
0 -2 V
1 -2 V
0 -1 V
1 1 V
0 -2 V
1 1 V
0 1 V
1 0 V
0 -1 V
0 -1 V
1 1 V
0 2 V
1 0 V
0 2 V
1 1 V
0 1 V
0 -1 V
1 -1 V
0 1 V
1 -1 V
0 1 V
1 -2 V
0 1 V
1 1 V
0 1 V
0 1 V
1 -2 V
1 0 V
0 -1 V
1 0 V
0 -1 V
0 1 V
1 -1 V
0 -1 V
1 -1 V
1 1 V
0 -2 V
1 1 V
stroke 3081 4156 M
0 2 V
0 -1 V
1 1 V
0 -1 V
0 1 V
1 0 V
0 -1 V
0 1 V
1 1 V
0 1 V
0 -1 V
1 0 V
0 -1 V
1 0 V
0 1 V
1 0 V
1 -1 V
1 -2 V
0 -1 V
1 0 V
0 -1 V
0 -1 V
1 2 V
0 1 V
1 0 V
0 -1 V
1 2 V
0 -1 V
1 -1 V
0 -1 V
1 1 V
0 1 V
1 0 V
1 0 V
0 -1 V
1 -1 V
0 1 V
0 1 V
1 1 V
1 2 V
0 1 V
0 1 V
1 0 V
0 -1 V
1 1 V
0 1 V
1 1 V
0 -1 V
1 0 V
0 1 V
0 1 V
1 1 V
0 -1 V
0 -2 V
1 1 V
1 1 V
0 -2 V
1 1 V
0 -2 V
1 0 V
0 -1 V
1 0 V
0 -1 V
0 1 V
1 1 V
0 -1 V
1 2 V
0 1 V
0 1 V
1 0 V
0 -1 V
1 -1 V
1 -1 V
0 -1 V
0 1 V
1 0 V
0 -1 V
1 1 V
0 -1 V
1 0 V
0 -1 V
1 0 V
0 1 V
0 1 V
1 0 V
1 1 V
0 2 V
0 1 V
1 1 V
0 -2 V
0 1 V
1 0 V
1 -2 V
0 -1 V
1 0 V
0 -1 V
1 -1 V
1 0 V
1 0 V
0 3 V
1 0 V
0 1 V
1 2 V
0 1 V
stroke 3130 4167 M
1 -1 V
0 1 V
1 -1 V
0 -1 V
1 1 V
0 -1 V
0 1 V
1 0 V
0 -1 V
0 1 V
1 -2 V
1 0 V
0 -1 V
1 0 V
0 1 V
0 -1 V
1 0 V
0 1 V
1 0 V
0 -2 V
0 1 V
1 1 V
0 1 V
0 1 V
1 0 V
0 1 V
1 -1 V
0 1 V
1 0 V
0 1 V
1 0 V
0 1 V
1 0 V
0 1 V
1 0 V
0 1 V
0 -1 V
1 1 V
1 0 V
0 -1 V
1 -1 V
0 -1 V
1 -1 V
1 -1 V
0 1 V
0 -1 V
1 1 V
1 -1 V
0 2 V
0 1 V
1 0 V
1 -1 V
1 0 V
0 -1 V
0 2 V
1 -2 V
0 2 V
0 -3 V
1 1 V
0 1 V
0 -1 V
1 1 V
0 -1 V
0 1 V
1 -2 V
0 1 V
0 1 V
1 1 V
0 1 V
1 0 V
0 -1 V
1 0 V
0 1 V
1 0 V
0 -1 V
1 0 V
0 -1 V
0 1 V
1 0 V
1 0 V
1 -1 V
0 -1 V
1 0 V
0 1 V
1 0 V
0 1 V
0 -1 V
1 1 V
0 -1 V
1 0 V
0 1 V
1 1 V
0 -1 V
0 1 V
1 0 V
0 1 V
0 1 V
1 1 V
1 -1 V
0 -1 V
1 1 V
0 1 V
1 -1 V
0 -2 V
stroke 3178 4170 M
0 1 V
1 0 V
0 -1 V
1 -2 V
1 -1 V
0 2 V
1 -2 V
0 1 V
1 1 V
1 0 V
0 -1 V
1 0 V
0 1 V
0 -1 V
1 0 V
0 1 V
0 1 V
1 -2 V
1 0 V
0 -1 V
1 1 V
0 1 V
0 -2 V
1 1 V
0 -1 V
0 -1 V
1 3 V
0 -1 V
0 -1 V
1 1 V
0 -3 V
1 0 V
0 1 V
1 -2 V
0 -1 V
1 -1 V
0 -1 V
1 1 V
0 -1 V
1 2 V
1 0 V
0 -1 V
1 1 V
0 -1 V
0 -2 V
1 -1 V
0 -1 V
1 1 V
0 2 V
1 0 V
0 1 V
0 -1 V
1 1 V
0 -2 V
1 0 V
0 1 V
0 -1 V
1 -1 V
1 0 V
0 -1 V
1 1 V
0 1 V
0 -2 V
1 0 V
0 1 V
1 -2 V
0 1 V
0 -1 V
1 -1 V
0 -1 V
1 0 V
0 1 V
1 2 V
0 -1 V
0 2 V
1 -2 V
0 2 V
1 -2 V
0 1 V
0 -2 V
1 0 V
0 -1 V
1 3 V
0 -1 V
1 0 V
0 -1 V
0 2 V
1 0 V
0 1 V
0 -1 V
1 0 V
0 1 V
1 0 V
0 -2 V
1 2 V
0 -2 V
1 0 V
0 -1 V
0 1 V
1 1 V
0 2 V
1 1 V
0 1 V
0 1 V
stroke 3224 4163 M
1 -1 V
0 1 V
1 1 V
0 1 V
0 1 V
1 0 V
1 1 V
0 1 V
0 1 V
1 -1 V
1 -2 V
0 -1 V
0 1 V
1 0 V
0 2 V
0 -1 V
1 0 V
0 -1 V
1 2 V
0 -1 V
0 1 V
0 1 V
1 0 V
1 0 V
0 1 V
1 -1 V
0 1 V
1 0 V
0 1 V
1 -1 V
1 -1 V
0 -1 V
1 1 V
0 1 V
1 -1 V
0 -1 V
1 -1 V
0 1 V
1 0 V
0 1 V
0 -3 V
1 0 V
0 -1 V
1 0 V
0 1 V
1 -1 V
0 2 V
0 2 V
1 1 V
0 -1 V
1 1 V
0 -1 V
1 0 V
0 1 V
1 1 V
0 -2 V
0 2 V
1 -1 V
0 -1 V
1 1 V
0 -1 V
0 1 V
1 0 V
0 -2 V
1 1 V
0 1 V
1 1 V
1 1 V
1 1 V
0 -1 V
1 0 V
1 0 V
1 0 V
0 -3 V
1 0 V
0 -1 V
1 1 V
1 -1 V
0 -2 V
0 -1 V
1 -1 V
0 1 V
1 -1 V
0 -1 V
0 -1 V
1 -1 V
0 -1 V
0 -2 V
1 0 V
0 -1 V
0 -2 V
1 -1 V
1 0 V
0 1 V
1 -1 V
0 -1 V
1 1 V
0 -2 V
0 2 V
1 1 V
0 1 V
0 1 V
1 1 V
0 -1 V
stroke 3273 4157 M
1 -2 V
0 -1 V
0 1 V
0 -1 V
1 -1 V
0 1 V
0 -1 V
1 2 V
0 -1 V
0 1 V
1 0 V
0 -1 V
0 2 V
1 0 V
1 0 V
1 -2 V
0 -1 V
1 2 V
0 2 V
0 1 V
1 -2 V
0 1 V
1 0 V
0 3 V
0 1 V
1 0 V
1 2 V
1 0 V
0 -2 V
0 2 V
1 -3 V
0 2 V
1 0 V
1 0 V
0 -1 V
1 0 V
1 0 V
1 1 V
0 1 V
1 0 V
0 -1 V
0 -1 V
1 1 V
0 -1 V
0 -1 V
1 -3 V
1 -1 V
0 1 V
1 -2 V
1 2 V
0 1 V
0 1 V
1 0 V
0 1 V
1 1 V
0 1 V
1 1 V
0 -1 V
0 1 V
1 1 V
0 -1 V
1 -1 V
0 -1 V
0 1 V
1 0 V
0 -1 V
1 0 V
0 1 V
1 0 V
1 -1 V
0 2 V
1 -2 V
1 1 V
0 2 V
0 -1 V
1 0 V
1 -1 V
0 -2 V
0 1 V
1 -1 V
0 1 V
0 2 V
1 -1 V
0 -1 V
1 0 V
0 -1 V
1 0 V
0 -1 V
0 1 V
1 1 V
0 -1 V
1 -2 V
0 1 V
1 1 V
1 0 V
0 1 V
1 0 V
0 1 V
1 0 V
0 -1 V
1 -2 V
0 1 V
0 1 V
1 0 V
stroke 3323 4161 M
0 1 V
0 -2 V
1 2 V
0 -1 V
1 -1 V
0 -2 V
1 0 V
0 2 V
0 -1 V
1 -1 V
1 -1 V
0 1 V
0 1 V
1 -1 V
1 1 V
0 1 V
1 1 V
0 1 V
1 -1 V
0 1 V
1 1 V
0 -1 V
1 1 V
0 1 V
1 1 V
0 1 V
0 -1 V
1 -1 V
0 1 V
1 1 V
0 -1 V
1 0 V
1 -4 V
0 1 V
1 1 V
0 1 V
1 0 V
0 1 V
1 0 V
0 -2 V
0 1 V
1 0 V
1 0 V
0 1 V
1 0 V
0 1 V
1 -2 V
0 -1 V
1 0 V
1 -1 V
0 1 V
1 1 V
0 1 V
1 0 V
0 -1 V
1 0 V
0 -1 V
1 1 V
0 -1 V
0 1 V
1 0 V
0 1 V
0 1 V
1 2 V
0 1 V
0 -1 V
1 1 V
0 -2 V
1 0 V
0 -1 V
0 1 V
1 0 V
1 0 V
0 -1 V
1 0 V
1 0 V
0 1 V
1 0 V
1 1 V
0 -1 V
0 -2 V
1 0 V
1 -1 V
0 -2 V
1 0 V
0 -1 V
1 -1 V
0 -1 V
0 1 V
1 -2 V
0 1 V
0 1 V
1 1 V
0 -2 V
1 0 V
1 1 V
0 1 V
0 -1 V
1 0 V
0 -1 V
0 -2 V
1 1 V
0 1 V
1 0 V
stroke 3373 4159 M
0 1 V
1 -1 V
0 -1 V
1 -1 V
0 -1 V
1 0 V
0 2 V
1 1 V
0 1 V
0 -1 V
1 1 V
0 1 V
1 0 V
0 -1 V
0 2 V
1 1 V
0 1 V
1 -1 V
0 -1 V
0 1 V
1 0 V
0 -2 V
1 1 V
0 -1 V
0 1 V
0 -1 V
1 2 V
0 1 V
1 -1 V
0 -1 V
1 0 V
0 1 V
1 1 V
0 1 V
0 -1 V
1 0 V
0 1 V
1 -1 V
0 1 V
1 0 V
1 -2 V
0 1 V
1 -1 V
0 2 V
1 -1 V
1 -2 V
0 1 V
0 -2 V
1 1 V
0 2 V
1 1 V
0 1 V
1 0 V
0 -2 V
0 1 V
1 0 V
0 -1 V
0 1 V
1 0 V
1 0 V
0 1 V
0 -1 V
1 0 V
0 -2 V
1 1 V
0 1 V
1 -1 V
0 -1 V
1 0 V
0 -1 V
1 1 V
1 -2 V
0 1 V
1 0 V
0 -1 V
1 1 V
0 -1 V
1 -1 V
0 1 V
1 -1 V
0 2 V
0 -2 V
1 -2 V
0 1 V
1 1 V
0 1 V
1 -1 V
0 -1 V
1 0 V
0 1 V
1 1 V
0 1 V
0 1 V
1 0 V
0 1 V
1 0 V
0 -2 V
1 -1 V
0 -1 V
1 -1 V
0 2 V
0 -2 V
1 0 V
0 -1 V
stroke 3420 4158 M
1 -1 V
0 -4 V
1 0 V
0 2 V
1 1 V
1 1 V
0 2 V
0 -1 V
1 1 V
0 1 V
1 0 V
0 -1 V
1 0 V
0 1 V
0 1 V
1 2 V
0 1 V
0 2 V
1 0 V
0 -1 V
1 0 V
0 -1 V
0 -1 V
1 -2 V
0 1 V
0 1 V
1 0 V
0 1 V
0 1 V
1 -2 V
0 -1 V
1 0 V
0 1 V
0 -1 V
1 0 V
1 0 V
0 1 V
1 0 V
1 1 V
0 -2 V
0 1 V
0 -1 V
1 -1 V
0 1 V
1 0 V
0 1 V
1 0 V
1 0 V
1 0 V
0 -1 V
1 1 V
0 1 V
1 -1 V
1 0 V
0 -1 V
1 -3 V
0 1 V
0 -2 V
1 0 V
0 1 V
1 1 V
0 1 V
0 -1 V
1 -1 V
1 -1 V
0 1 V
1 0 V
1 -1 V
0 1 V
1 2 V
0 1 V
0 1 V
1 0 V
0 -1 V
0 1 V
1 0 V
1 -1 V
0 1 V
1 0 V
0 1 V
0 1 V
1 0 V
0 -1 V
1 1 V
0 -1 V
1 0 V
0 1 V
1 -2 V
0 -1 V
1 -1 V
0 1 V
0 -1 V
1 0 V
0 1 V
1 -1 V
0 -1 V
1 0 V
1 1 V
1 -1 V
0 1 V
1 0 V
1 1 V
0 -1 V
0 -1 V
stroke 3470 4160 M
1 -2 V
0 1 V
0 1 V
1 0 V
1 0 V
1 0 V
0 -1 V
0 1 V
1 1 V
0 1 V
1 0 V
0 -1 V
1 0 V
0 -1 V
1 -1 V
0 -1 V
0 -1 V
1 1 V
0 -1 V
1 0 V
0 1 V
0 1 V
1 0 V
0 1 V
0 -1 V
1 2 V
0 2 V
0 1 V
1 0 V
1 -1 V
0 2 V
1 -1 V
0 1 V
0 -1 V
1 0 V
0 1 V
1 -1 V
0 -1 V
1 -1 V
0 -1 V
0 2 V
1 1 V
0 -1 V
0 -1 V
1 0 V
0 1 V
1 0 V
0 1 V
0 -1 V
1 1 V
0 -1 V
0 -1 V
1 -1 V
0 -1 V
0 -1 V
1 2 V
1 -1 V
0 1 V
1 0 V
0 2 V
0 -1 V
1 0 V
1 -2 V
0 2 V
1 0 V
0 1 V
0 -2 V
1 1 V
0 -1 V
0 -1 V
1 0 V
0 -1 V
0 1 V
1 0 V
1 -1 V
0 -1 V
0 -1 V
1 3 V
0 -1 V
1 -1 V
1 1 V
0 1 V
1 0 V
1 0 V
0 1 V
1 1 V
1 1 V
1 -1 V
0 1 V
0 1 V
1 -1 V
0 1 V
1 1 V
0 -1 V
0 -1 V
1 -1 V
0 1 V
0 1 V
1 0 V
1 0 V
0 1 V
1 1 V
0 -1 V
0 1 V
stroke 3517 4166 M
1 0 V
0 -1 V
0 -1 V
1 1 V
0 -1 V
1 -1 V
0 -1 V
0 -1 V
0 2 V
1 0 V
0 1 V
1 -1 V
0 1 V
1 0 V
1 0 V
0 -1 V
1 1 V
0 1 V
0 1 V
1 1 V
0 -2 V
1 0 V
0 -1 V
0 -1 V
1 1 V
0 2 V
0 -1 V
1 -1 V
1 -1 V
1 0 V
0 1 V
1 0 V
0 1 V
0 1 V
1 0 V
0 -1 V
0 1 V
1 0 V
0 1 V
0 -1 V
1 2 V
0 1 V
0 1 V
1 -1 V
1 0 V
1 -1 V
0 -1 V
1 0 V
0 1 V
1 2 V
0 -1 V
1 1 V
1 0 V
0 1 V
0 -2 V
1 0 V
1 -1 V
0 -2 V
0 -1 V
1 2 V
0 1 V
1 0 V
0 1 V
1 -1 V
0 -1 V
0 -1 V
1 -1 V
0 1 V
1 1 V
0 1 V
1 1 V
0 -2 V
1 -1 V
0 1 V
0 -1 V
1 -2 V
0 -1 V
1 0 V
0 -1 V
1 0 V
1 -1 V
0 -1 V
0 -2 V
1 -2 V
1 0 V
0 -1 V
0 2 V
1 -1 V
0 -1 V
0 1 V
1 -1 V
0 -1 V
1 0 V
0 -1 V
0 -1 V
1 0 V
0 -1 V
1 2 V
0 -1 V
1 0 V
0 -1 V
0 2 V
1 2 V
0 -1 V
stroke 3564 4154 M
0 1 V
1 0 V
0 -1 V
0 1 V
1 -2 V
0 -1 V
0 -2 V
1 -1 V
0 1 V
0 -1 V
1 0 V
0 -1 V
0 2 V
1 2 V
0 1 V
1 1 V
0 2 V
0 1 V
1 0 V
1 -1 V
0 1 V
0 2 V
1 0 V
0 1 V
0 1 V
1 1 V
1 -1 V
0 1 V
1 1 V
0 1 V
0 1 V
1 0 V
0 1 V
0 1 V
1 0 V
0 -1 V
1 -1 V
0 1 V
1 0 V
0 1 V
1 1 V
0 1 V
0 -2 V
1 -1 V
0 -1 V
1 1 V
0 1 V
1 0 V
0 2 V
1 -1 V
1 0 V
1 1 V
0 -2 V
0 -1 V
1 1 V
0 1 V
1 -1 V
1 -1 V
0 1 V
1 -1 V
0 1 V
0 -1 V
1 0 V
1 1 V
1 1 V
0 1 V
1 -1 V
0 -1 V
1 -1 V
0 2 V
0 1 V
1 0 V
0 1 V
1 0 V
0 2 V
0 -1 V
1 1 V
0 -2 V
1 -1 V
1 1 V
0 2 V
1 0 V
0 2 V
1 1 V
0 -1 V
1 0 V
0 1 V
0 -1 V
1 0 V
1 1 V
1 -1 V
0 -1 V
1 -1 V
0 -1 V
0 -1 V
1 0 V
0 -1 V
1 -1 V
0 -1 V
1 1 V
1 1 V
0 -1 V
1 -1 V
0 1 V
stroke 3613 4168 M
1 -1 V
0 1 V
1 -1 V
0 -1 V
0 -1 V
1 0 V
0 -1 V
1 -1 V
1 1 V
1 0 V
0 1 V
1 1 V
1 0 V
0 -1 V
0 1 V
1 0 V
0 -1 V
1 0 V
1 0 V
0 2 V
1 0 V
1 0 V
0 -1 V
1 -1 V
0 1 V
1 1 V
0 -1 V
0 -1 V
1 0 V
0 -1 V
0 -1 V
1 0 V
0 -2 V
0 1 V
1 0 V
0 1 V
0 -2 V
1 1 V
0 1 V
0 -2 V
1 0 V
0 -1 V
0 1 V
1 0 V
0 1 V
1 0 V
0 -1 V
1 1 V
1 1 V
0 -1 V
0 1 V
1 0 V
0 3 V
1 -1 V
0 -1 V
1 1 V
0 1 V
1 -1 V
0 1 V
1 0 V
0 -1 V
0 1 V
1 -1 V
0 1 V
1 1 V
0 -3 V
1 1 V
0 -1 V
1 0 V
0 1 V
1 0 V
0 1 V
1 -1 V
0 1 V
0 -1 V
1 2 V
1 0 V
0 1 V
1 0 V
0 -1 V
0 -1 V
1 0 V
0 1 V
1 0 V
1 0 V
0 -1 V
1 1 V
1 1 V
0 -1 V
0 -1 V
1 0 V
0 -1 V
1 -1 V
0 1 V
0 -2 V
1 -1 V
1 0 V
0 1 V
0 1 V
1 1 V
0 1 V
1 0 V
0 1 V
1 0 V
stroke 3663 4167 M
0 -1 V
0 1 V
1 0 V
1 0 V
0 1 V
1 2 V
1 0 V
0 -3 V
1 1 V
1 1 V
0 -1 V
0 1 V
1 0 V
0 1 V
1 -1 V
0 -1 V
0 1 V
1 0 V
0 1 V
0 -1 V
1 0 V
0 1 V
1 0 V
1 -1 V
0 1 V
1 -2 V
0 1 V
0 -1 V
1 1 V
1 1 V
0 -1 V
1 -1 V
0 1 V
0 1 V
1 0 V
0 -1 V
1 0 V
0 -1 V
0 2 V
1 0 V
0 1 V
0 1 V
1 1 V
0 1 V
0 -1 V
0 1 V
1 0 V
0 -1 V
1 1 V
0 -2 V
1 1 V
0 2 V
0 1 V
1 0 V
0 1 V
0 -1 V
1 0 V
0 -1 V
1 -1 V
1 -1 V
0 1 V
0 -1 V
1 0 V
1 -1 V
0 -1 V
1 1 V
1 -1 V
0 1 V
1 1 V
0 1 V
0 -1 V
1 0 V
0 1 V
0 -1 V
1 -1 V
0 -1 V
0 -2 V
1 1 V
0 -1 V
0 -1 V
1 0 V
0 1 V
1 1 V
0 1 V
1 0 V
0 1 V
0 1 V
1 0 V
0 -1 V
1 0 V
0 -2 V
0 1 V
1 1 V
0 -1 V
0 -1 V
1 -1 V
0 -1 V
1 -2 V
0 -1 V
1 0 V
0 2 V
0 1 V
1 -1 V
1 -1 V
stroke 3709 4166 M
0 -1 V
0 -1 V
1 0 V
0 1 V
1 0 V
1 0 V
0 1 V
0 -3 V
1 1 V
0 1 V
0 1 V
1 -1 V
0 -1 V
0 1 V
1 0 V
0 -1 V
0 -1 V
1 0 V
1 1 V
0 -2 V
0 -1 V
1 2 V
0 -2 V
1 0 V
0 -1 V
1 1 V
0 -1 V
1 0 V
0 -2 V
0 1 V
1 2 V
0 -3 V
1 0 V
1 1 V
1 1 V
0 1 V
1 -1 V
0 -1 V
1 1 V
0 1 V
1 0 V
0 1 V
0 -1 V
1 -2 V
0 1 V
0 -1 V
1 3 V
0 -1 V
1 1 V
0 -1 V
0 1 V
1 0 V
0 1 V
0 1 V
1 0 V
0 1 V
0 1 V
1 -1 V
1 1 V
0 1 V
0 -1 V
1 0 V
0 1 V
0 1 V
1 0 V
0 -1 V
1 0 V
0 1 V
0 1 V
0 -2 V
1 0 V
0 1 V
1 -1 V
1 1 V
0 2 V
0 -1 V
1 -1 V
0 1 V
1 -1 V
0 2 V
1 -2 V
0 1 V
1 -1 V
0 -1 V
1 2 V
0 -1 V
1 -1 V
0 -1 V
0 -1 V
1 0 V
0 -1 V
0 -1 V
1 -1 V
0 1 V
0 1 V
1 0 V
0 -1 V
1 -1 V
0 -1 V
0 -1 V
1 -1 V
0 1 V
0 -1 V
1 0 V
stroke 3753 4159 M
1 2 V
0 -2 V
0 -1 V
1 -2 V
0 2 V
1 -1 V
1 -2 V
0 2 V
0 2 V
1 1 V
0 -1 V
1 0 V
0 1 V
0 1 V
1 0 V
0 1 V
0 1 V
1 1 V
0 -1 V
0 1 V
1 -1 V
0 2 V
0 -1 V
1 -1 V
0 1 V
1 -1 V
1 0 V
0 -1 V
0 -1 V
1 0 V
0 -1 V
1 0 V
0 1 V
0 1 V
1 0 V
0 2 V
1 0 V
1 0 V
0 -1 V
1 0 V
0 1 V
1 1 V
0 1 V
0 -1 V
1 1 V
0 -1 V
0 -1 V
1 0 V
0 2 V
0 -1 V
1 0 V
0 -1 V
1 -1 V
0 1 V
0 -1 V
1 0 V
0 -1 V
1 -1 V
0 1 V
0 2 V
1 0 V
0 -2 V
1 1 V
0 1 V
1 1 V
0 2 V
1 0 V
0 -1 V
1 -1 V
0 -1 V
0 1 V
1 0 V
0 -1 V
1 -1 V
1 -1 V
1 1 V
1 0 V
0 -1 V
0 -1 V
1 0 V
0 2 V
0 1 V
1 0 V
1 1 V
0 1 V
1 -1 V
0 1 V
1 -1 V
0 -2 V
1 -1 V
1 -1 V
0 -1 V
1 0 V
0 1 V
0 1 V
1 1 V
0 -1 V
1 0 V
1 1 V
0 1 V
1 0 V
0 1 V
1 0 V
0 1 V
stroke 3801 4166 M
1 0 V
0 2 V
0 -1 V
1 0 V
0 -2 V
0 1 V
1 -1 V
0 -2 V
1 -1 V
0 -1 V
0 -1 V
1 0 V
0 -1 V
0 1 V
1 1 V
1 0 V
0 -2 V
1 0 V
1 1 V
0 1 V
1 -2 V
0 1 V
1 0 V
1 0 V
0 1 V
0 2 V
1 -1 V
0 -1 V
0 1 V
1 -1 V
1 0 V
0 1 V
0 1 V
1 0 V
0 -2 V
1 -1 V
1 1 V
0 1 V
1 0 V
0 1 V
0 1 V
1 1 V
1 -1 V
0 1 V
1 1 V
0 1 V
1 0 V
0 1 V
1 0 V
0 -1 V
0 -1 V
1 0 V
0 -1 V
0 -1 V
1 0 V
0 1 V
1 -2 V
0 -1 V
0 1 V
1 0 V
1 -1 V
0 1 V
0 1 V
1 -1 V
0 -1 V
0 2 V
1 -1 V
0 -1 V
1 -1 V
1 0 V
0 1 V
1 0 V
0 1 V
0 -1 V
1 -1 V
0 -1 V
1 -1 V
0 1 V
1 0 V
0 -1 V
0 -1 V
1 0 V
0 -1 V
0 -1 V
1 0 V
0 -1 V
1 2 V
0 1 V
1 0 V
0 1 V
0 1 V
1 0 V
0 1 V
0 -1 V
1 0 V
0 1 V
0 2 V
1 0 V
0 1 V
1 0 V
0 1 V
0 1 V
1 1 V
0 1 V
stroke 3847 4168 M
0 2 V
1 0 V
0 1 V
1 0 V
1 0 V
0 -1 V
0 1 V
1 0 V
0 -1 V
0 -1 V
1 0 V
1 0 V
0 -1 V
1 0 V
0 1 V
1 -1 V
0 1 V
0 1 V
1 0 V
0 -2 V
1 0 V
0 -1 V
0 -1 V
1 0 V
0 -1 V
1 1 V
1 1 V
1 -1 V
0 -1 V
0 -1 V
1 0 V
0 1 V
1 -1 V
0 -1 V
1 1 V
1 1 V
0 -2 V
1 0 V
0 1 V
0 1 V
1 0 V
0 1 V
1 0 V
0 -1 V
1 -1 V
0 1 V
1 0 V
0 -1 V
0 -2 V
1 0 V
0 1 V
1 1 V
0 -1 V
0 1 V
1 1 V
0 1 V
1 -1 V
0 1 V
1 -2 V
0 -1 V
1 0 V
1 -1 V
0 -1 V
0 -1 V
1 -1 V
0 1 V
0 1 V
1 2 V
1 1 V
0 -1 V
1 0 V
1 0 V
1 1 V
0 -1 V
0 2 V
1 -1 V
0 1 V
1 1 V
0 1 V
0 2 V
1 -2 V
0 -2 V
0 -1 V
1 0 V
0 -1 V
1 -1 V
0 2 V
1 1 V
0 1 V
0 1 V
1 0 V
0 -1 V
1 -1 V
0 1 V
1 0 V
0 2 V
1 1 V
0 -2 V
0 -1 V
1 1 V
1 0 V
0 -1 V
1 0 V
0 1 V
stroke 3896 4167 M
1 0 V
0 -1 V
0 2 V
1 0 V
1 -1 V
0 1 V
1 -2 V
0 1 V
0 -2 V
1 -1 V
0 1 V
1 -1 V
1 1 V
0 1 V
1 0 V
0 1 V
1 0 V
0 1 V
0 -1 V
1 1 V
0 2 V
1 0 V
0 -1 V
1 1 V
0 2 V
1 -1 V
0 1 V
1 -1 V
0 2 V
0 1 V
1 -1 V
0 1 V
1 -1 V
0 1 V
1 0 V
0 1 V
1 -1 V
1 -1 V
0 1 V
0 2 V
1 0 V
0 -1 V
1 0 V
0 -1 V
1 0 V
0 1 V
1 0 V
1 0 V
0 -1 V
1 0 V
1 0 V
0 1 V
0 1 V
1 0 V
0 1 V
0 -1 V
1 0 V
1 -2 V
0 -1 V
0 -1 V
1 -1 V
0 -2 V
1 -1 V
0 -1 V
1 0 V
0 -1 V
0 -1 V
1 0 V
0 2 V
0 -2 V
1 1 V
0 1 V
0 1 V
1 1 V
0 -2 V
1 -1 V
0 2 V
1 1 V
1 0 V
0 1 V
1 -2 V
1 0 V
0 2 V
0 -1 V
1 1 V
0 -1 V
0 1 V
1 1 V
0 -1 V
1 1 V
0 1 V
0 -1 V
1 0 V
0 1 V
0 1 V
1 -1 V
1 0 V
0 1 V
1 0 V
0 -1 V
0 -1 V
1 1 V
0 -1 V
1 1 V
stroke 3945 4172 M
0 -1 V
0 -1 V
1 -1 V
0 -1 V
1 -1 V
0 -1 V
1 2 V
0 -1 V
1 1 V
0 -1 V
1 0 V
0 1 V
1 0 V
0 -1 V
1 0 V
0 -1 V
1 1 V
1 0 V
0 1 V
1 0 V
0 -2 V
1 0 V
0 1 V
0 -1 V
1 0 V
1 -1 V
1 0 V
0 -1 V
0 -1 V
1 1 V
0 -1 V
1 0 V
0 1 V
1 -1 V
0 1 V
0 -1 V
1 1 V
0 -1 V
0 1 V
1 0 V
0 -1 V
0 1 V
1 0 V
1 -1 V
1 1 V
1 1 V
0 -1 V
1 1 V
0 -1 V
0 2 V
1 0 V
0 -1 V
0 2 V
1 0 V
0 -1 V
0 1 V
1 0 V
0 1 V
0 1 V
1 0 V
0 1 V
1 0 V
0 -2 V
0 1 V
1 0 V
0 -1 V
1 -1 V
1 1 V
0 -1 V
1 0 V
0 -2 V
0 1 V
1 -1 V
0 1 V
1 -1 V
0 -1 V
0 -1 V
1 -1 V
0 1 V
0 1 V
1 0 V
0 1 V
1 -1 V
0 -1 V
0 -1 V
1 1 V
0 1 V
0 -1 V
1 0 V
0 -1 V
1 0 V
0 -1 V
1 1 V
0 1 V
0 1 V
1 -1 V
0 -2 V
1 -1 V
0 -2 V
0 -1 V
1 0 V
0 -1 V
0 -1 V
1 0 V
stroke 3991 4155 M
0 1 V
1 1 V
0 1 V
0 -2 V
1 1 V
0 -1 V
0 1 V
1 1 V
0 1 V
0 1 V
1 -1 V
0 -2 V
1 0 V
1 2 V
0 1 V
0 1 V
1 0 V
0 2 V
1 -2 V
1 1 V
0 1 V
1 0 V
1 1 V
0 1 V
1 1 V
0 1 V
1 0 V
1 0 V
0 -1 V
1 1 V
0 1 V
0 -1 V
1 0 V
0 -1 V
1 1 V
0 -1 V
1 0 V
0 1 V
0 -1 V
1 1 V
1 1 V
0 -1 V
1 0 V
1 0 V
0 -1 V
0 -1 V
1 0 V
0 -1 V
0 1 V
1 1 V
0 1 V
0 -2 V
1 1 V
0 1 V
1 0 V
0 -1 V
1 0 V
0 1 V
1 1 V
0 1 V
0 -2 V
1 0 V
0 1 V
1 0 V
1 0 V
0 2 V
1 0 V
0 1 V
0 1 V
1 -1 V
0 -1 V
0 1 V
1 -1 V
1 0 V
1 -1 V
0 -1 V
0 1 V
1 -1 V
0 -1 V
0 1 V
1 2 V
1 0 V
1 -2 V
0 1 V
0 -1 V
1 2 V
0 -1 V
1 -1 V
0 -1 V
1 -2 V
0 -1 V
0 2 V
1 -1 V
0 1 V
0 -1 V
1 0 V
0 1 V
1 -1 V
0 -1 V
1 -1 V
0 1 V
0 -1 V
1 -1 V
0 1 V
stroke 4039 4163 M
0 -1 V
1 1 V
0 1 V
1 0 V
0 -1 V
0 1 V
1 0 V
0 2 V
1 0 V
0 2 V
0 1 V
1 1 V
0 -1 V
1 1 V
1 1 V
1 0 V
0 -2 V
1 0 V
0 1 V
1 1 V
0 1 V
1 0 V
0 1 V
1 1 V
1 0 V
0 -1 V
1 -2 V
0 1 V
0 1 V
1 0 V
0 -1 V
1 0 V
0 -1 V
1 -1 V
0 1 V
1 0 V
0 -1 V
1 1 V
0 -1 V
0 -2 V
1 -1 V
1 -1 V
0 2 V
1 2 V
0 1 V
0 -2 V
1 1 V
0 -1 V
1 2 V
0 -1 V
1 0 V
0 -1 V
0 -2 V
1 2 V
1 -1 V
0 1 V
0 -1 V
1 1 V
0 1 V
0 -1 V
1 2 V
0 1 V
1 0 V
0 1 V
1 1 V
0 -1 V
0 -1 V
1 1 V
0 -1 V
0 -1 V
1 0 V
1 0 V
0 -1 V
0 1 V
1 0 V
0 1 V
0 -1 V
1 0 V
0 1 V
1 0 V
0 -1 V
0 1 V
1 0 V
0 -1 V
1 1 V
0 -1 V
0 -1 V
1 -1 V
0 1 V
1 0 V
0 1 V
0 1 V
1 1 V
1 1 V
0 1 V
1 0 V
0 1 V
1 0 V
0 1 V
0 -1 V
1 0 V
1 -1 V
0 1 V
0 -1 V
stroke 4086 4175 M
1 0 V
1 0 V
0 -1 V
0 1 V
1 -1 V
0 1 V
1 -1 V
0 -1 V
1 -1 V
0 1 V
1 1 V
0 -1 V
1 0 V
0 1 V
1 -1 V
0 -1 V
1 0 V
0 -1 V
1 0 V
0 1 V
1 -1 V
0 1 V
0 1 V
1 -1 V
0 -1 V
1 0 V
0 -2 V
1 0 V
0 1 V
0 -1 V
1 1 V
0 -2 V
0 1 V
1 0 V
0 -1 V
1 -1 V
0 1 V
1 -1 V
0 -1 V
0 1 V
1 0 V
0 1 V
0 1 V
1 1 V
0 -1 V
1 -2 V
0 1 V
0 -1 V
1 0 V
0 2 V
1 0 V
1 0 V
0 1 V
1 0 V
0 -1 V
1 1 V
0 -1 V
1 0 V
0 -1 V
0 1 V
1 1 V
0 -2 V
0 -2 V
1 -1 V
0 1 V
0 1 V
1 0 V
0 -1 V
1 1 V
0 -1 V
0 1 V
1 0 V
0 -1 V
1 -2 V
0 -1 V
1 -1 V
0 1 V
1 0 V
0 1 V
1 0 V
0 1 V
1 -1 V
0 1 V
1 1 V
0 1 V
1 1 V
0 1 V
0 -1 V
1 0 V
0 1 V
1 -1 V
0 -1 V
0 1 V
1 0 V
0 1 V
0 -2 V
1 -1 V
0 -1 V
1 1 V
0 -2 V
1 1 V
0 1 V
0 1 V
1 0 V
stroke 4132 4167 M
0 1 V
0 -1 V
1 -2 V
0 -1 V
1 -1 V
0 -2 V
0 -1 V
1 1 V
0 1 V
0 1 V
1 -1 V
0 1 V
1 1 V
0 1 V
1 1 V
0 1 V
0 -1 V
1 -1 V
0 2 V
0 -1 V
1 0 V
0 1 V
1 0 V
0 -1 V
0 1 V
1 -1 V
0 1 V
0 1 V
1 -1 V
1 -1 V
0 1 V
1 -1 V
0 -2 V
0 1 V
1 -1 V
0 -1 V
1 -1 V
0 1 V
1 0 V
0 1 V
1 2 V
0 -1 V
0 -1 V
1 0 V
0 -1 V
0 1 V
1 0 V
0 1 V
0 1 V
1 0 V
0 1 V
1 0 V
0 2 V
0 -2 V
1 1 V
0 -1 V
1 -2 V
1 -1 V
0 1 V
0 -1 V
1 0 V
0 1 V
0 1 V
1 0 V
0 2 V
0 1 V
1 -1 V
0 1 V
0 -1 V
1 -2 V
0 1 V
1 0 V
0 1 V
0 1 V
0 -1 V
1 0 V
0 2 V
0 1 V
1 -1 V
1 1 V
0 1 V
1 0 V
1 0 V
0 -1 V
0 -1 V
1 1 V
0 -1 V
1 -2 V
0 1 V
0 -1 V
1 0 V
1 -2 V
1 -1 V
0 1 V
1 -1 V
0 1 V
1 1 V
0 -1 V
1 0 V
0 2 V
1 -1 V
0 1 V
1 0 V
0 1 V
stroke 4176 4169 M
0 -1 V
1 -1 V
0 -1 V
1 0 V
0 1 V
1 1 V
0 -2 V
0 1 V
1 0 V
0 -1 V
0 -1 V
1 0 V
0 2 V
1 0 V
1 -1 V
0 -1 V
0 -2 V
1 1 V
0 2 V
1 0 V
0 1 V
1 0 V
0 1 V
0 -1 V
1 0 V
0 1 V
0 -1 V
1 1 V
1 -1 V
0 -1 V
0 1 V
1 -1 V
1 -1 V
0 -1 V
1 -1 V
1 1 V
0 -1 V
0 1 V
1 1 V
0 1 V
1 0 V
0 1 V
1 0 V
0 1 V
0 1 V
1 0 V
0 1 V
0 -1 V
1 -1 V
0 -1 V
1 0 V
0 1 V
0 -2 V
1 1 V
1 0 V
0 -1 V
1 1 V
0 -1 V
0 -1 V
1 0 V
1 -1 V
0 -1 V
0 1 V
1 0 V
1 2 V
0 2 V
1 1 V
1 0 V
0 -1 V
0 1 V
1 0 V
1 0 V
0 -1 V
0 1 V
1 1 V
0 1 V
0 -1 V
1 0 V
0 -1 V
0 -1 V
1 0 V
1 0 V
0 1 V
1 -1 V
0 1 V
1 -1 V
0 -1 V
0 1 V
1 1 V
0 -1 V
0 1 V
1 1 V
0 -2 V
0 -1 V
1 0 V
0 -1 V
1 0 V
0 -1 V
1 -1 V
1 1 V
0 -1 V
1 1 V
0 1 V
1 -1 V
stroke 4224 4165 M
1 1 V
1 1 V
0 -1 V
1 -2 V
0 1 V
0 1 V
1 0 V
0 -1 V
0 -1 V
1 0 V
0 -1 V
1 -1 V
0 1 V
0 -1 V
1 -1 V
0 -2 V
1 0 V
0 1 V
1 2 V
0 2 V
1 1 V
0 -1 V
0 1 V
1 0 V
0 1 V
0 1 V
1 1 V
0 -1 V
1 0 V
1 -1 V
0 1 V
1 0 V
0 -1 V
0 2 V
1 2 V
0 -1 V
0 1 V
1 0 V
0 -1 V
1 0 V
0 -1 V
0 2 V
1 0 V
0 -1 V
0 1 V
1 1 V
0 1 V
0 -1 V
1 0 V
0 1 V
1 -1 V
0 -1 V
0 -1 V
1 0 V
0 -1 V
1 -1 V
0 -1 V
1 0 V
0 -1 V
1 -1 V
0 -1 V
0 -1 V
1 0 V
0 1 V
0 -1 V
1 1 V
1 0 V
0 -2 V
1 0 V
0 -1 V
1 1 V
0 1 V
1 1 V
0 -1 V
1 0 V
0 1 V
1 -1 V
0 -1 V
1 2 V
0 -1 V
1 1 V
0 -1 V
0 1 V
1 1 V
0 -1 V
1 -1 V
0 2 V
1 1 V
0 -1 V
1 0 V
1 1 V
1 1 V
0 1 V
1 1 V
0 -1 V
1 0 V
0 -1 V
1 -1 V
0 2 V
0 1 V
1 -1 V
0 1 V
1 1 V
0 -1 V
stroke 4271 4168 M
1 1 V
0 1 V
1 0 V
0 -1 V
1 2 V
0 1 V
1 0 V
0 1 V
1 -2 V
0 1 V
0 -1 V
1 0 V
0 -1 V
1 -1 V
1 -1 V
0 -1 V
1 -1 V
0 -2 V
1 1 V
0 1 V
1 0 V
0 -1 V
0 1 V
1 1 V
1 0 V
0 1 V
1 1 V
0 -1 V
1 0 V
0 -1 V
0 -1 V
1 -1 V
0 1 V
0 -1 V
1 0 V
1 -1 V
0 1 V
0 1 V
1 0 V
1 1 V
0 1 V
1 -1 V
0 1 V
1 -1 V
0 -1 V
0 1 V
1 -2 V
0 -1 V
1 -1 V
0 -1 V
1 -1 V
0 1 V
1 0 V
0 1 V
1 0 V
0 1 V
0 2 V
1 0 V
0 -1 V
1 -1 V
0 1 V
1 0 V
0 1 V
0 -1 V
1 1 V
0 1 V
1 0 V
0 -1 V
1 1 V
0 1 V
1 0 V
0 -1 V
1 1 V
0 -1 V
0 -1 V
1 -1 V
0 2 V
1 1 V
0 -2 V
1 1 V
0 1 V
0 1 V
1 -1 V
0 -1 V
1 0 V
0 1 V
0 1 V
1 0 V
1 1 V
0 -1 V
1 0 V
0 -1 V
1 0 V
0 1 V
1 0 V
0 1 V
1 -1 V
0 -1 V
0 1 V
1 1 V
0 -1 V
1 0 V
0 1 V
0 -1 V
stroke 4319 4169 M
1 0 V
0 -1 V
0 1 V
1 1 V
0 -1 V
1 1 V
0 1 V
1 0 V
1 -2 V
0 1 V
1 -1 V
0 -1 V
0 -1 V
1 -1 V
1 -1 V
0 1 V
1 0 V
0 1 V
1 0 V
0 -1 V
0 1 V
1 1 V
1 -2 V
0 -1 V
1 0 V
0 1 V
1 -1 V
0 -1 V
0 1 V
1 1 V
0 1 V
1 0 V
0 -1 V
0 1 V
1 0 V
0 2 V
1 2 V
0 -1 V
0 1 V
1 -2 V
1 0 V
0 1 V
0 -2 V
1 0 V
0 -2 V
1 0 V
0 -1 V
1 0 V
0 -1 V
1 0 V
1 1 V
0 1 V
1 -1 V
0 -2 V
1 2 V
0 1 V
1 0 V
0 -2 V
0 1 V
1 1 V
0 -1 V
0 2 V
1 0 V
0 -1 V
1 1 V
0 -1 V
1 1 V
0 -1 V
1 1 V
0 -1 V
0 -2 V
1 1 V
0 1 V
1 0 V
0 -1 V
0 1 V
1 1 V
0 1 V
1 0 V
1 1 V
1 0 V
0 1 V
1 0 V
0 -1 V
1 0 V
1 0 V
0 -1 V
0 1 V
1 0 V
0 1 V
1 0 V
0 -1 V
1 -1 V
1 1 V
0 2 V
1 1 V
0 -1 V
0 1 V
0 1 V
1 -1 V
1 0 V
0 -1 V
1 0 V
1 0 V
stroke 4370 4171 M
0 -1 V
0 1 V
1 -2 V
0 -1 V
1 1 V
1 -1 V
0 1 V
0 1 V
1 -1 V
0 -2 V
0 1 V
1 0 V
0 1 V
1 0 V
0 2 V
1 0 V
1 1 V
0 -1 V
1 0 V
0 -2 V
1 0 V
0 -1 V
0 -1 V
1 1 V
0 -1 V
0 -1 V
1 0 V
0 -1 V
1 0 V
0 1 V
0 -1 V
1 -1 V
1 0 V
0 -1 V
1 1 V
0 1 V
1 -1 V
0 1 V
1 0 V
0 1 V
0 1 V
1 0 V
0 1 V
0 1 V
1 0 V
0 1 V
1 0 V
1 -1 V
0 -1 V
1 -1 V
0 1 V
0 1 V
1 1 V
0 -1 V
0 -2 V
1 -1 V
0 -1 V
1 -1 V
0 1 V
0 -1 V
1 -1 V
0 -2 V
0 1 V
1 -2 V
1 1 V
0 -1 V
1 -1 V
0 -1 V
1 1 V
1 1 V
0 -1 V
0 1 V
1 1 V
0 1 V
0 -2 V
1 2 V
0 1 V
1 0 V
0 1 V
0 -1 V
1 0 V
0 -1 V
1 1 V
1 1 V
0 -1 V
1 0 V
0 -1 V
1 -1 V
0 1 V
0 -1 V
1 2 V
1 1 V
0 -2 V
1 0 V
1 1 V
1 2 V
1 1 V
0 1 V
0 -1 V
1 0 V
1 0 V
0 1 V
1 0 V
0 1 V
stroke 4419 4168 M
1 2 V
0 1 V
0 -1 V
1 -1 V
0 1 V
1 -1 V
0 -1 V
1 0 V
1 0 V
1 0 V
1 -1 V
0 -1 V
0 2 V
1 0 V
0 -1 V
0 1 V
1 0 V
0 2 V
0 -1 V
1 1 V
1 -1 V
0 -1 V
1 -1 V
0 1 V
1 0 V
0 1 V
0 -1 V
1 0 V
0 1 V
0 -1 V
1 2 V
0 -1 V
0 -1 V
0 1 V
1 1 V
0 -1 V
0 -1 V
1 1 V
0 -1 V
1 0 V
0 1 V
1 -1 V
0 3 V
0 1 V
1 0 V
0 -1 V
0 -1 V
1 1 V
0 -1 V
1 1 V
1 2 V
0 1 V
1 -1 V
1 0 V
0 -3 V
1 2 V
0 -1 V
1 -1 V
0 1 V
1 -1 V
0 -2 V
0 1 V
1 -1 V
0 1 V
0 1 V
1 0 V
0 1 V
1 0 V
1 0 V
0 -2 V
0 -2 V
1 -1 V
1 1 V
0 2 V
0 1 V
1 0 V
1 1 V
0 -1 V
0 -1 V
1 0 V
1 0 V
0 -1 V
1 2 V
0 1 V
1 1 V
0 1 V
0 1 V
1 1 V
0 -1 V
1 0 V
0 -1 V
1 1 V
0 -1 V
1 0 V
0 -1 V
1 0 V
0 1 V
1 0 V
0 -1 V
0 1 V
1 0 V
1 0 V
0 -1 V
1 -1 V
stroke 4468 4171 M
1 1 V
0 -1 V
0 1 V
1 0 V
0 1 V
0 -1 V
1 1 V
0 1 V
1 -1 V
0 -1 V
0 -1 V
1 -1 V
0 1 V
1 -1 V
0 -1 V
0 1 V
1 -1 V
0 -3 V
0 1 V
0 1 V
1 1 V
0 -3 V
0 -1 V
1 0 V
0 -2 V
1 -1 V
0 -1 V
1 0 V
0 2 V
0 -1 V
1 1 V
1 -1 V
1 0 V
1 -1 V
0 -1 V
0 -2 V
1 -1 V
0 -1 V
1 0 V
0 1 V
1 -1 V
0 1 V
0 -1 V
1 0 V
0 1 V
1 1 V
0 1 V
1 0 V
0 1 V
0 -1 V
1 1 V
1 0 V
0 -2 V
0 -1 V
1 0 V
1 1 V
0 -1 V
1 1 V
0 -2 V
0 -1 V
1 1 V
0 1 V
0 -2 V
1 1 V
0 2 V
1 1 V
0 1 V
0 -1 V
1 1 V
0 -1 V
0 -1 V
1 -1 V
0 -1 V
1 0 V
0 2 V
1 0 V
0 1 V
1 1 V
0 -2 V
1 0 V
0 -1 V
0 1 V
1 1 V
0 1 V
1 0 V
0 1 V
1 1 V
0 1 V
1 1 V
1 -1 V
0 -2 V
1 1 V
0 -1 V
1 1 V
0 1 V
0 1 V
1 0 V
0 -1 V
1 1 V
0 1 V
0 1 V
1 2 V
0 -1 V
0 1 V
stroke 4513 4168 M
1 -1 V
0 -1 V
0 1 V
1 -2 V
0 1 V
0 1 V
1 0 V
1 0 V
0 -2 V
1 0 V
0 -1 V
0 -1 V
1 0 V
0 -1 V
1 1 V
0 1 V
1 1 V
0 -1 V
1 0 V
0 1 V
0 -1 V
1 2 V
0 -1 V
0 2 V
1 -1 V
0 1 V
1 0 V
0 -2 V
1 -1 V
0 -1 V
1 1 V
0 -1 V
0 -1 V
1 -2 V
0 2 V
0 -2 V
1 -2 V
0 1 V
1 -1 V
0 1 V
0 -1 V
1 -1 V
0 1 V
0 -2 V
1 0 V
0 -3 V
1 1 V
0 2 V
1 0 V
0 -1 V
1 0 V
0 1 V
1 1 V
0 1 V
1 0 V
0 1 V
1 -2 V
0 1 V
0 1 V
1 -1 V
0 -2 V
1 -1 V
1 1 V
0 -2 V
1 0 V
0 -2 V
0 1 V
1 -2 V
0 1 V
0 -2 V
0 -1 V
1 -1 V
0 -1 V
0 1 V
1 0 V
0 1 V
0 1 V
1 -1 V
0 1 V
1 0 V
0 2 V
1 -2 V
1 1 V
0 1 V
0 1 V
1 0 V
0 -1 V
1 -1 V
0 -2 V
1 -2 V
0 1 V
0 1 V
1 2 V
0 1 V
1 -1 V
0 1 V
1 1 V
0 1 V
1 -2 V
1 -1 V
0 2 V
1 -2 V
0 -1 V
0 -1 V
stroke 4558 4149 M
1 -2 V
0 1 V
1 0 V
0 -1 V
1 1 V
0 -1 V
1 0 V
0 -1 V
1 0 V
0 -2 V
0 -1 V
1 1 V
0 -1 V
1 -1 V
0 1 V
0 -1 V
1 2 V
0 2 V
1 0 V
1 -1 V
0 1 V
1 -2 V
0 1 V
1 -3 V
0 -1 V
0 1 V
1 0 V
0 2 V
0 1 V
0 2 V
1 1 V
0 -1 V
0 1 V
1 2 V
0 1 V
1 1 V
0 -2 V
0 1 V
1 1 V
1 -1 V
0 1 V
0 1 V
1 0 V
0 1 V
0 2 V
1 -1 V
0 1 V
1 0 V
0 1 V
1 1 V
0 2 V
1 -1 V
0 1 V
0 1 V
1 1 V
0 -1 V
0 2 V
1 1 V
0 -1 V
0 1 V
1 -1 V
0 1 V
0 1 V
0 -1 V
1 1 V
0 1 V
1 0 V
0 1 V
1 0 V
0 1 V
0 -2 V
1 0 V
0 -1 V
1 1 V
0 -1 V
1 0 V
1 -1 V
0 1 V
1 -1 V
0 -1 V
0 1 V
1 -1 V
0 1 V
0 1 V
1 0 V
0 1 V
1 2 V
0 1 V
1 0 V
0 -1 V
0 -2 V
1 0 V
1 -1 V
0 1 V
1 0 V
0 1 V
1 2 V
0 -1 V
0 -1 V
1 1 V
0 -2 V
1 -2 V
0 -1 V
1 0 V
stroke 4603 4163 M
0 -1 V
1 0 V
0 -1 V
0 -1 V
1 0 V
0 1 V
1 -2 V
0 -1 V
0 2 V
1 0 V
0 -1 V
0 1 V
1 1 V
0 1 V
0 -1 V
1 -1 V
1 0 V
0 2 V
0 -1 V
1 0 V
1 0 V
0 -2 V
0 1 V
0 2 V
1 -1 V
0 1 V
1 -1 V
0 1 V
0 1 V
1 0 V
0 1 V
0 -1 V
1 -1 V
0 2 V
0 1 V
1 0 V
0 1 V
0 -2 V
1 1 V
0 1 V
0 1 V
1 -1 V
0 1 V
0 1 V
1 -1 V
0 -1 V
1 1 V
0 -1 V
1 0 V
0 1 V
1 0 V
0 1 V
0 1 V
1 -1 V
0 -1 V
1 1 V
0 1 V
0 1 V
0 -1 V
1 -1 V
0 1 V
0 -1 V
1 1 V
1 0 V
0 -1 V
1 0 V
0 -1 V
1 1 V
1 0 V
0 -1 V
1 0 V
0 -1 V
1 0 V
1 -2 V
0 -1 V
1 2 V
1 1 V
0 -1 V
0 2 V
1 0 V
0 -1 V
0 -2 V
1 0 V
0 1 V
1 0 V
0 3 V
0 -1 V
1 -1 V
0 -1 V
1 1 V
0 -1 V
0 1 V
1 -1 V
0 1 V
1 -2 V
0 -1 V
1 0 V
0 1 V
1 1 V
0 -2 V
0 -2 V
1 0 V
0 2 V
1 -1 V
stroke 4647 4162 M
0 -1 V
0 2 V
1 0 V
1 0 V
1 -4 V
0 1 V
1 1 V
0 -1 V
1 1 V
0 1 V
1 -1 V
0 1 V
1 -2 V
0 -1 V
0 2 V
1 -2 V
1 -1 V
0 1 V
0 -1 V
1 0 V
0 3 V
1 -1 V
0 2 V
1 0 V
0 -1 V
1 1 V
0 -1 V
0 1 V
1 0 V
0 2 V
1 -1 V
0 1 V
1 -1 V
0 1 V
0 -1 V
1 1 V
0 -1 V
0 1 V
1 -1 V
0 -1 V
0 -3 V
1 0 V
0 1 V
1 0 V
0 1 V
0 -1 V
1 1 V
1 1 V
1 2 V
0 -1 V
1 1 V
0 -1 V
1 2 V
0 1 V
1 0 V
0 -3 V
1 2 V
0 1 V
0 1 V
1 -2 V
0 2 V
1 -1 V
0 2 V
0 -2 V
1 0 V
0 1 V
1 0 V
0 1 V
1 -1 V
0 1 V
1 -1 V
0 2 V
0 -1 V
0 1 V
1 -1 V
0 1 V
1 -1 V
0 -3 V
1 -1 V
0 -1 V
1 0 V
0 -1 V
1 -1 V
0 1 V
1 0 V
0 -1 V
1 -3 V
0 1 V
0 1 V
1 1 V
0 1 V
1 -1 V
0 1 V
1 -2 V
1 -2 V
0 -1 V
1 0 V
0 1 V
1 0 V
0 -1 V
0 -1 V
1 1 V
0 1 V
0 1 V
stroke 4694 4159 M
0 1 V
1 -1 V
0 -1 V
0 1 V
1 2 V
0 1 V
1 -1 V
0 1 V
0 2 V
1 0 V
0 1 V
0 1 V
1 0 V
1 0 V
0 -1 V
0 1 V
1 0 V
0 1 V
1 1 V
0 -1 V
0 -1 V
1 1 V
0 1 V
1 0 V
0 -1 V
1 0 V
0 -1 V
0 1 V
1 0 V
1 -1 V
0 2 V
1 -1 V
0 -2 V
1 0 V
0 1 V
1 0 V
1 -1 V
0 -1 V
1 0 V
1 -1 V
0 -1 V
1 -1 V
1 2 V
0 -1 V
1 0 V
0 -1 V
1 1 V
1 0 V
0 2 V
1 0 V
1 1 V
0 -1 V
1 1 V
0 1 V
0 1 V
1 -1 V
0 2 V
0 1 V
1 0 V
0 1 V
0 -1 V
1 -1 V
0 -2 V
1 -1 V
0 -1 V
1 1 V
0 -1 V
0 1 V
1 0 V
0 1 V
1 0 V
0 -1 V
0 -1 V
1 1 V
1 -1 V
0 2 V
1 0 V
0 1 V
1 0 V
0 -1 V
0 -1 V
1 0 V
0 1 V
1 1 V
0 -1 V
0 -1 V
1 0 V
0 1 V
0 -1 V
1 0 V
0 -1 V
1 2 V
0 1 V
0 -1 V
1 -1 V
0 2 V
1 -1 V
1 -1 V
0 1 V
0 -1 V
1 1 V
1 -1 V
0 1 V
1 1 V
stroke 4743 4167 M
1 1 V
0 1 V
0 1 V
1 -1 V
0 1 V
1 -1 V
0 1 V
1 1 V
0 1 V
0 -1 V
1 1 V
0 -1 V
0 -1 V
1 1 V
0 -1 V
0 1 V
1 1 V
1 -1 V
0 -1 V
0 -1 V
1 0 V
0 2 V
1 0 V
0 1 V
0 1 V
1 1 V
1 -1 V
0 -1 V
1 -1 V
0 -1 V
0 -1 V
1 1 V
0 -1 V
0 -1 V
1 2 V
0 -1 V
0 -1 V
1 0 V
0 1 V
0 -1 V
1 0 V
0 -1 V
1 -1 V
0 -1 V
1 0 V
0 -1 V
1 1 V
0 -1 V
1 0 V
0 1 V
0 -1 V
1 0 V
0 1 V
0 1 V
1 -2 V
0 1 V
1 1 V
1 0 V
0 1 V
1 -1 V
0 1 V
1 -1 V
0 -1 V
1 0 V
0 1 V
1 0 V
0 1 V
1 0 V
1 1 V
0 1 V
0 -1 V
1 0 V
0 1 V
1 0 V
0 -1 V
1 0 V
0 1 V
0 -1 V
1 -1 V
1 -1 V
1 0 V
0 2 V
1 0 V
0 -1 V
1 0 V
0 1 V
0 -1 V
1 0 V
1 -1 V
0 -1 V
0 -1 V
1 1 V
0 1 V
0 -1 V
1 1 V
0 -2 V
1 0 V
0 -1 V
0 1 V
1 0 V
1 0 V
0 1 V
1 0 V
0 1 V
stroke 4790 4166 M
0 -1 V
1 1 V
0 1 V
0 1 V
1 0 V
0 -1 V
0 -2 V
1 0 V
0 1 V
1 0 V
0 1 V
0 -1 V
1 0 V
0 -1 V
1 -1 V
0 1 V
0 1 V
1 -1 V
0 1 V
1 0 V
1 0 V
0 1 V
0 1 V
1 0 V
0 1 V
1 2 V
0 1 V
1 0 V
0 -1 V
0 -1 V
1 0 V
0 1 V
0 -1 V
1 1 V
0 1 V
1 0 V
1 -1 V
0 -1 V
0 1 V
1 0 V
0 1 V
1 -1 V
0 -1 V
1 0 V
0 1 V
0 1 V
1 -1 V
0 -1 V
1 1 V
0 -3 V
0 1 V
1 -1 V
0 1 V
1 -1 V
0 1 V
1 0 V
1 1 V
0 -1 V
1 -1 V
0 1 V
1 1 V
0 -1 V
0 1 V
0 1 V
1 0 V
0 -1 V
1 -1 V
0 1 V
1 -1 V
0 1 V
0 -1 V
1 0 V
0 1 V
1 1 V
0 1 V
1 1 V
0 -3 V
1 -2 V
0 1 V
1 2 V
0 -1 V
0 1 V
1 -1 V
0 -2 V
0 1 V
1 -1 V
0 1 V
1 0 V
0 2 V
1 0 V
0 1 V
0 -1 V
1 -1 V
1 -1 V
0 1 V
0 1 V
1 1 V
0 1 V
1 0 V
0 1 V
1 0 V
1 1 V
1 -2 V
0 2 V
stroke 4836 4175 M
0 -1 V
1 1 V
1 0 V
0 -1 V
0 1 V
1 0 V
0 1 V
0 -1 V
1 -2 V
0 -1 V
0 1 V
1 -1 V
0 -2 V
1 1 V
1 1 V
0 -1 V
1 0 V
0 -1 V
0 2 V
0 1 V
1 0 V
0 -1 V
1 -1 V
0 -2 V
1 1 V
0 1 V
0 -1 V
1 -1 V
0 -1 V
0 -1 V
1 0 V
0 -1 V
1 1 V
0 -2 V
1 1 V
0 -1 V
0 2 V
1 0 V
0 -1 V
0 1 V
1 1 V
1 -1 V
0 1 V
0 1 V
1 0 V
1 0 V
0 -1 V
0 -1 V
1 1 V
0 2 V
0 1 V
1 1 V
0 -1 V
1 -1 V
1 0 V
0 -1 V
1 1 V
0 -2 V
1 1 V
0 -1 V
1 0 V
0 -1 V
1 0 V
0 2 V
0 -1 V
1 0 V
0 -1 V
0 1 V
1 0 V
1 -1 V
0 -2 V
1 -1 V
0 -1 V
0 -1 V
1 0 V
0 1 V
0 -2 V
1 1 V
0 1 V
1 0 V
0 2 V
1 -1 V
0 1 V
1 0 V
0 2 V
0 1 V
1 -1 V
0 2 V
1 -2 V
1 1 V
0 -1 V
1 1 V
0 -1 V
1 2 V
0 -1 V
0 1 V
1 0 V
0 -2 V
0 -1 V
1 0 V
1 -3 V
0 1 V
0 -1 V
1 -1 V
stroke 4882 4162 M
1 -1 V
0 2 V
0 1 V
1 -1 V
0 1 V
1 1 V
0 -1 V
0 -1 V
1 1 V
0 -1 V
0 1 V
1 2 V
0 1 V
1 1 V
0 -1 V
1 0 V
0 1 V
1 0 V
0 1 V
0 -1 V
1 -1 V
0 1 V
0 -1 V
1 0 V
0 1 V
1 1 V
0 2 V
0 -1 V
1 -1 V
0 1 V
1 -1 V
0 1 V
0 1 V
1 0 V
0 -1 V
1 0 V
0 -2 V
0 -1 V
1 0 V
0 -1 V
1 0 V
1 1 V
1 0 V
0 -1 V
0 -1 V
1 1 V
1 -1 V
0 1 V
0 -1 V
1 -1 V
1 1 V
1 -1 V
0 1 V
1 1 V
0 1 V
1 1 V
0 -1 V
0 -1 V
1 0 V
1 -2 V
0 1 V
0 -1 V
1 1 V
0 2 V
1 0 V
0 1 V
1 2 V
0 1 V
1 0 V
0 -1 V
1 -1 V
0 -1 V
1 -1 V
0 -1 V
1 0 V
0 1 V
0 -1 V
1 1 V
0 -2 V
0 1 V
1 -2 V
0 -2 V
1 1 V
1 0 V
0 1 V
0 -1 V
1 -1 V
0 -1 V
0 -1 V
1 1 V
1 1 V
1 2 V
0 1 V
1 -2 V
0 -1 V
1 1 V
0 1 V
1 0 V
0 1 V
1 1 V
0 -1 V
0 -1 V
1 0 V
0 -1 V
stroke 4930 4163 M
1 1 V
0 -3 V
1 0 V
0 1 V
0 1 V
1 0 V
1 -1 V
0 2 V
0 -2 V
1 0 V
0 -1 V
0 1 V
1 0 V
0 1 V
0 1 V
1 1 V
0 -1 V
1 1 V
0 1 V
0 -1 V
1 -1 V
0 1 V
0 -1 V
1 -2 V
0 -1 V
0 1 V
1 0 V
0 -1 V
0 -2 V
1 -2 V
0 2 V
1 0 V
0 2 V
1 -1 V
0 -1 V
0 1 V
1 0 V
0 1 V
1 -1 V
0 -1 V
1 -2 V
0 2 V
1 2 V
0 -1 V
0 1 V
1 0 V
0 -1 V
0 1 V
1 -1 V
0 2 V
1 0 V
0 1 V
0 -1 V
1 1 V
0 1 V
1 -1 V
0 1 V
0 1 V
1 2 V
0 1 V
1 -1 V
0 1 V
1 1 V
0 -1 V
0 -1 V
1 1 V
0 -1 V
1 0 V
0 -1 V
1 -2 V
0 2 V
0 -1 V
1 0 V
1 0 V
0 1 V
1 1 V
0 -1 V
0 1 V
1 1 V
1 0 V
0 1 V
0 1 V
1 0 V
0 -1 V
1 -1 V
1 0 V
0 -1 V
0 -1 V
1 0 V
0 -1 V
1 1 V
0 1 V
1 0 V
0 -1 V
1 0 V
0 -1 V
0 1 V
1 -1 V
0 -1 V
1 -2 V
0 -1 V
0 1 V
1 0 V
0 1 V
stroke 4974 4163 M
1 0 V
0 -1 V
1 1 V
0 1 V
1 0 V
0 -1 V
1 0 V
0 2 V
0 -1 V
1 1 V
0 1 V
0 -1 V
1 3 V
1 -1 V
0 1 V
1 -1 V
0 1 V
1 1 V
0 -1 V
1 -2 V
0 1 V
1 1 V
1 0 V
1 -3 V
0 -2 V
0 1 V
1 0 V
0 -1 V
1 0 V
0 -1 V
1 -2 V
1 -1 V
0 1 V
0 -1 V
1 0 V
1 -2 V
0 1 V
1 1 V
0 -1 V
0 1 V
1 1 V
0 -1 V
0 -1 V
1 1 V
0 -1 V
1 0 V
0 -1 V
1 0 V
0 -2 V
0 -2 V
1 1 V
1 0 V
0 2 V
0 -1 V
1 -1 V
0 1 V
0 1 V
1 0 V
0 -1 V
0 1 V
1 0 V
0 1 V
1 1 V
0 -1 V
0 1 V
1 2 V
0 -1 V
0 -1 V
1 0 V
0 1 V
1 0 V
0 1 V
1 1 V
0 2 V
1 -1 V
0 -1 V
1 0 V
0 -1 V
0 -1 V
1 2 V
0 -1 V
0 -1 V
1 0 V
0 -1 V
0 -1 V
1 0 V
0 -1 V
1 0 V
0 -2 V
1 0 V
0 2 V
0 -2 V
1 1 V
0 2 V
0 1 V
1 -1 V
0 1 V
1 1 V
0 1 V
0 -1 V
1 2 V
0 -1 V
1 1 V
0 1 V
stroke 5020 4162 M
1 -1 V
0 1 V
0 -1 V
0 1 V
1 1 V
1 0 V
0 1 V
0 1 V
1 0 V
0 1 V
1 -1 V
1 0 V
0 1 V
1 0 V
0 -1 V
1 1 V
0 -2 V
0 1 V
1 1 V
0 -1 V
0 -1 V
1 -1 V
0 -2 V
1 1 V
1 -1 V
0 -1 V
0 -3 V
1 1 V
0 -1 V
0 -1 V
1 1 V
0 -1 V
1 1 V
0 -1 V
0 -1 V
0 1 V
1 -1 V
0 -1 V
1 -1 V
0 -2 V
0 1 V
1 1 V
0 -2 V
0 -2 V
1 2 V
0 1 V
0 1 V
1 -1 V
0 1 V
1 0 V
0 -1 V
1 0 V
0 -1 V
0 1 V
1 -3 V
0 1 V
0 -2 V
1 -2 V
0 2 V
0 -1 V
1 1 V
1 0 V
0 -1 V
0 -1 V
1 -1 V
0 -2 V
0 1 V
1 2 V
0 -1 V
0 1 V
1 0 V
0 -1 V
0 -1 V
1 0 V
1 1 V
0 1 V
1 -1 V
0 -1 V
1 0 V
0 1 V
0 -1 V
1 1 V
0 1 V
0 2 V
1 1 V
0 -2 V
0 -1 V
1 1 V
0 2 V
1 0 V
0 2 V
1 1 V
0 -1 V
0 1 V
1 1 V
0 1 V
1 0 V
0 -1 V
0 1 V
1 2 V
0 2 V
0 1 V
1 0 V
0 -1 V
stroke 5062 4158 M
0 1 V
0 -1 V
1 0 V
0 1 V
1 0 V
0 1 V
1 -1 V
0 -1 V
1 -1 V
1 0 V
0 -1 V
1 -1 V
1 0 V
0 -1 V
1 -1 V
0 2 V
0 2 V
1 0 V
0 -1 V
1 0 V
0 -1 V
0 -1 V
1 0 V
0 -1 V
0 3 V
1 0 V
0 1 V
0 -1 V
1 0 V
0 1 V
1 1 V
0 -1 V
0 -1 V
0 -1 V
1 -3 V
0 2 V
1 0 V
0 1 V
0 1 V
1 1 V
0 -2 V
1 0 V
0 1 V
1 0 V
0 -2 V
1 2 V
0 1 V
1 0 V
0 -1 V
0 -2 V
1 1 V
0 1 V
1 0 V
1 1 V
0 1 V
0 1 V
1 0 V
0 1 V
0 2 V
1 0 V
0 2 V
1 -3 V
0 -1 V
1 0 V
0 1 V
0 -1 V
1 0 V
0 1 V
0 -1 V
1 0 V
0 1 V
1 -1 V
0 1 V
1 0 V
1 0 V
0 1 V
0 1 V
1 1 V
0 -1 V
1 0 V
0 1 V
1 0 V
0 -1 V
0 -1 V
1 0 V
1 1 V
0 -1 V
1 1 V
1 0 V
0 1 V
1 -2 V
0 1 V
0 1 V
1 -1 V
0 -1 V
1 0 V
1 0 V
0 1 V
1 0 V
0 2 V
0 1 V
1 0 V
0 1 V
1 0 V
stroke 5109 4167 M
0 1 V
0 2 V
1 0 V
0 -1 V
1 0 V
0 -1 V
1 1 V
0 1 V
0 -1 V
1 1 V
1 0 V
1 -1 V
1 0 V
1 -1 V
0 2 V
0 1 V
0 -1 V
1 -1 V
1 -1 V
0 1 V
0 1 V
1 0 V
1 0 V
0 -1 V
1 1 V
0 -1 V
1 0 V
1 0 V
0 -1 V
1 1 V
0 -2 V
0 1 V
1 1 V
0 1 V
0 2 V
1 0 V
0 -1 V
1 0 V
0 -1 V
1 -1 V
0 1 V
1 0 V
0 1 V
1 0 V
0 -1 V
0 1 V
1 0 V
0 -1 V
1 0 V
1 0 V
1 -1 V
0 -1 V
1 1 V
0 1 V
1 0 V
0 1 V
0 1 V
1 -1 V
1 0 V
0 -1 V
1 -1 V
0 -1 V
1 0 V
0 1 V
0 -1 V
1 0 V
0 -2 V
1 -1 V
0 1 V
0 -3 V
1 1 V
0 1 V
0 -1 V
0 -1 V
1 1 V
1 0 V
1 1 V
0 -1 V
0 1 V
1 1 V
0 -1 V
0 -1 V
1 0 V
0 1 V
0 -1 V
1 1 V
0 -1 V
0 -1 V
1 0 V
0 1 V
0 -1 V
1 0 V
0 1 V
1 -1 V
0 2 V
0 -1 V
1 2 V
0 1 V
1 1 V
0 -1 V
0 1 V
1 -1 V
0 1 V
1 -2 V
stroke 5157 4166 M
0 2 V
1 -1 V
1 1 V
0 1 V
1 0 V
1 0 V
0 1 V
1 -1 V
0 1 V
1 0 V
1 0 V
1 0 V
0 1 V
0 -1 V
1 0 V
0 2 V
1 -2 V
1 1 V
0 -2 V
1 -1 V
1 1 V
0 -1 V
1 -1 V
0 -2 V
0 -1 V
1 1 V
0 1 V
1 1 V
0 -1 V
1 -1 V
0 1 V
0 -1 V
1 1 V
0 1 V
1 0 V
0 1 V
0 1 V
1 0 V
0 -1 V
1 -1 V
0 -2 V
0 -1 V
1 1 V
1 0 V
0 1 V
0 -1 V
1 0 V
0 2 V
1 0 V
0 1 V
0 -1 V
1 0 V
0 -1 V
1 0 V
1 -1 V
0 1 V
0 1 V
1 -1 V
0 1 V
0 1 V
1 2 V
0 -1 V
1 1 V
1 -1 V
0 -1 V
1 0 V
1 -3 V
0 -2 V
0 -1 V
1 -2 V
0 1 V
1 1 V
0 -1 V
0 1 V
1 0 V
0 1 V
1 -1 V
0 1 V
0 1 V
1 -1 V
0 -1 V
1 -1 V
0 2 V
1 0 V
0 1 V
1 1 V
0 1 V
1 2 V
1 2 V
0 1 V
0 1 V
1 -1 V
0 -1 V
0 -1 V
1 0 V
0 -1 V
0 -1 V
1 1 V
0 1 V
1 -1 V
0 -1 V
0 -2 V
1 0 V
0 -2 V
stroke 5206 4163 M
0 -1 V
1 0 V
0 -3 V
0 1 V
1 1 V
0 1 V
1 0 V
0 1 V
0 -1 V
1 0 V
0 -1 V
1 1 V
0 -1 V
1 1 V
0 -1 V
1 1 V
0 -1 V
0 -1 V
1 0 V
0 1 V
0 -1 V
1 -1 V
1 2 V
0 -1 V
1 0 V
0 -1 V
1 1 V
1 -1 V
0 2 V
1 1 V
1 -1 V
0 -1 V
0 1 V
1 0 V
0 -2 V
1 1 V
0 -1 V
0 -1 V
1 1 V
0 1 V
1 1 V
0 1 V
0 1 V
1 1 V
0 1 V
0 2 V
1 0 V
0 2 V
1 -1 V
1 1 V
0 1 V
0 1 V
1 0 V
0 1 V
1 -2 V
0 2 V
1 0 V
0 -1 V
0 -1 V
1 -1 V
0 1 V
0 -1 V
1 0 V
1 -1 V
1 0 V
1 0 V
0 2 V
1 0 V
0 1 V
1 1 V
0 1 V
0 -1 V
1 0 V
0 1 V
0 1 V
1 0 V
0 1 V
0 -2 V
1 0 V
1 0 V
1 0 V
1 0 V
1 -1 V
1 -1 V
0 1 V
0 1 V
1 0 V
1 0 V
1 1 V
1 0 V
0 1 V
1 0 V
0 -1 V
1 -1 V
0 -1 V
0 2 V
1 0 V
0 2 V
1 -1 V
0 1 V
1 0 V
0 -2 V
1 1 V
0 -1 V
stroke 5257 4174 M
1 -1 V
1 0 V
0 -1 V
0 -2 V
1 1 V
0 -1 V
1 0 V
0 1 V
0 -1 V
1 0 V
0 -1 V
1 0 V
0 -1 V
1 0 V
1 -1 V
0 -3 V
1 1 V
1 0 V
0 -2 V
1 1 V
0 -1 V
1 0 V
0 1 V
1 -4 V
0 1 V
1 -1 V
0 2 V
1 -1 V
0 1 V
1 1 V
0 -2 V
1 1 V
1 1 V
0 1 V
1 0 V
0 -1 V
1 -1 V
0 1 V
1 2 V
0 -1 V
1 0 V
1 -1 V
0 1 V
1 -2 V
0 2 V
1 0 V
0 1 V
1 0 V
1 0 V
0 1 V
0 2 V
1 -2 V
0 -1 V
1 -1 V
0 -1 V
0 1 V
1 0 V
1 0 V
0 2 V
1 0 V
1 -2 V
0 1 V
0 2 V
1 1 V
0 -1 V
0 1 V
1 0 V
0 1 V
1 0 V
0 2 V
1 0 V
0 1 V
1 0 V
0 2 V
1 -1 V
0 -1 V
1 0 V
0 -1 V
1 -1 V
0 -1 V
1 1 V
0 -2 V
0 1 V
1 -1 V
0 1 V
1 0 V
0 2 V
0 -1 V
1 1 V
0 -1 V
1 -1 V
0 -1 V
1 1 V
1 -1 V
0 1 V
1 0 V
1 -1 V
0 1 V
1 -1 V
0 -1 V
0 1 V
1 0 V
0 1 V
1 -1 V
stroke 5310 4168 M
0 1 V
0 -1 V
1 1 V
0 -1 V
1 0 V
0 1 V
1 -2 V
0 1 V
0 1 V
1 -2 V
0 1 V
0 1 V
1 -2 V
0 -1 V
1 0 V
0 -1 V
0 -1 V
1 -1 V
0 1 V
1 0 V
0 1 V
0 1 V
1 0 V
0 -1 V
1 1 V
0 -1 V
0 1 V
1 1 V
0 -1 V
1 1 V
0 1 V
0 -1 V
1 -1 V
1 -1 V
0 2 V
1 2 V
0 1 V
0 -1 V
1 0 V
0 1 V
1 -1 V
1 1 V
0 -1 V
1 0 V
0 -1 V
0 1 V
1 -1 V
0 1 V
1 0 V
0 1 V
1 0 V
0 -1 V
0 1 V
1 0 V
0 -2 V
0 1 V
1 -1 V
0 -1 V
1 0 V
0 1 V
0 1 V
1 1 V
1 0 V
1 -1 V
0 -1 V
1 0 V
0 1 V
0 -1 V
1 1 V
0 -1 V
0 -1 V
1 0 V
0 2 V
0 -1 V
1 0 V
0 -1 V
0 1 V
1 1 V
0 -1 V
1 1 V
1 0 V
0 -1 V
1 0 V
0 -1 V
1 -1 V
0 1 V
1 1 V
0 1 V
0 -1 V
1 1 V
0 -1 V
1 -2 V
1 1 V
0 1 V
0 -2 V
1 -1 V
0 -1 V
0 1 V
1 0 V
0 -1 V
1 0 V
0 -1 V
0 -1 V
1 1 V
stroke 5355 4163 M
0 -2 V
0 2 V
1 0 V
0 -3 V
0 1 V
1 -2 V
0 1 V
1 0 V
0 -1 V
1 0 V
0 1 V
0 2 V
1 0 V
0 1 V
0 -1 V
1 0 V
0 1 V
1 -1 V
0 1 V
0 1 V
1 0 V
0 2 V
0 -1 V
0 1 V
1 0 V
0 1 V
1 0 V
0 -1 V
1 1 V
1 0 V
0 -1 V
1 1 V
1 1 V
1 0 V
0 1 V
1 -1 V
0 -1 V
1 -1 V
0 -2 V
0 1 V
1 0 V
0 1 V
1 1 V
0 -1 V
1 -1 V
0 1 V
1 0 V
0 1 V
0 1 V
0 -1 V
1 0 V
0 1 V
0 1 V
1 0 V
0 -1 V
1 -1 V
0 1 V
1 0 V
1 1 V
0 -1 V
1 1 V
0 -1 V
0 -1 V
1 0 V
0 -1 V
1 1 V
0 -1 V
0 1 V
1 -1 V
0 1 V
1 1 V
0 1 V
1 0 V
0 -1 V
0 1 V
1 -1 V
0 -1 V
1 -2 V
1 0 V
0 1 V
1 0 V
0 -1 V
1 -1 V
0 2 V
0 -1 V
1 0 V
0 1 V
1 -1 V
0 -1 V
0 1 V
1 0 V
0 1 V
1 0 V
0 -1 V
1 0 V
1 2 V
1 0 V
0 -1 V
1 0 V
0 -1 V
1 0 V
0 -2 V
0 2 V
1 0 V
stroke 5402 4165 M
0 1 V
1 -2 V
1 -1 V
0 -1 V
1 -1 V
0 -1 V
1 2 V
0 1 V
0 1 V
1 -1 V
0 1 V
1 0 V
1 2 V
0 -1 V
1 0 V
0 -1 V
1 -1 V
0 -1 V
1 0 V
0 1 V
1 1 V
1 -2 V
0 -1 V
1 1 V
1 0 V
0 1 V
1 0 V
1 0 V
1 1 V
0 1 V
0 -1 V
1 0 V
0 1 V
0 2 V
1 0 V
0 1 V
1 -1 V
0 -1 V
0 1 V
1 -2 V
0 -1 V
1 0 V
1 -2 V
0 1 V
1 1 V
0 -1 V
1 0 V
0 -1 V
1 -1 V
1 -1 V
0 2 V
0 1 V
1 0 V
0 -1 V
0 2 V
1 1 V
0 -1 V
0 -1 V
0 -1 V
1 0 V
0 1 V
0 -1 V
1 0 V
0 1 V
1 0 V
0 1 V
1 0 V
0 1 V
1 -1 V
0 -1 V
1 0 V
0 -2 V
0 -1 V
1 0 V
0 1 V
1 -1 V
0 1 V
0 -1 V
1 1 V
0 -1 V
0 -1 V
1 -2 V
0 -1 V
0 -1 V
1 1 V
0 -1 V
1 1 V
0 1 V
1 0 V
0 1 V
0 -1 V
1 1 V
1 -1 V
0 -1 V
1 -1 V
0 3 V
1 0 V
0 1 V
1 -1 V
0 1 V
0 2 V
1 0 V
0 1 V
1 -1 V
stroke 5451 4161 M
0 -1 V
1 2 V
0 1 V
1 -1 V
0 2 V
0 -1 V
1 0 V
0 1 V
0 -1 V
1 -2 V
0 1 V
1 1 V
0 1 V
0 -1 V
1 1 V
1 1 V
0 -1 V
1 1 V
0 -1 V
1 0 V
0 -1 V
1 1 V
0 1 V
1 1 V
0 -2 V
1 0 V
0 -1 V
0 1 V
1 0 V
0 -1 V
0 2 V
1 -1 V
0 1 V
0 -2 V
1 1 V
0 -1 V
1 0 V
0 -1 V
1 0 V
0 1 V
1 0 V
0 1 V
1 2 V
0 -1 V
0 1 V
1 1 V
0 1 V
1 -1 V
0 1 V
1 0 V
1 -1 V
0 2 V
1 0 V
0 1 V
1 1 V
1 -1 V
1 0 V
1 0 V
1 1 V
0 1 V
0 -1 V
1 0 V
0 1 V
1 -1 V
1 -1 V
0 1 V
0 -1 V
1 0 V
0 -1 V
1 1 V
0 -1 V
0 -1 V
1 0 V
0 1 V
0 -1 V
1 -1 V
0 -1 V
1 -1 V
0 -2 V
0 1 V
1 1 V
0 -1 V
0 1 V
1 0 V
0 1 V
1 0 V
0 -1 V
1 2 V
0 -1 V
0 -1 V
1 2 V
1 2 V
0 -1 V
0 1 V
1 1 V
0 -2 V
1 0 V
0 -1 V
0 1 V
1 1 V
0 -1 V
1 -1 V
0 1 V
1 0 V
stroke 5499 4168 M
0 -1 V
0 1 V
1 0 V
0 -2 V
1 -2 V
0 -1 V
0 -2 V
1 1 V
0 -2 V
0 1 V
1 1 V
0 -1 V
0 -1 V
1 -1 V
0 2 V
0 -1 V
1 -1 V
0 -1 V
1 0 V
0 1 V
1 0 V
0 -1 V
1 0 V
0 -1 V
1 0 V
0 2 V
1 0 V
0 1 V
1 0 V
0 1 V
1 1 V
0 -1 V
1 -2 V
0 1 V
0 1 V
0 -3 V
1 1 V
0 1 V
0 1 V
1 0 V
0 1 V
0 -1 V
1 0 V
1 1 V
0 1 V
1 0 V
0 1 V
1 -1 V
0 1 V
1 1 V
0 -1 V
0 -2 V
1 0 V
0 -1 V
0 1 V
1 0 V
0 -1 V
1 3 V
0 -1 V
1 0 V
0 2 V
0 1 V
1 1 V
0 -1 V
1 0 V
0 -1 V
0 2 V
1 -1 V
1 -1 V
0 1 V
1 1 V
0 -1 V
1 0 V
0 -1 V
0 1 V
1 -2 V
1 2 V
0 1 V
0 -2 V
1 0 V
0 -1 V
0 -2 V
1 2 V
0 -2 V
0 -1 V
1 1 V
0 -2 V
0 -2 V
1 0 V
0 1 V
1 0 V
0 -1 V
0 -1 V
1 -2 V
0 -1 V
1 0 V
0 2 V
1 1 V
0 2 V
1 0 V
0 -1 V
0 1 V
1 -1 V
0 1 V
stroke 5542 4159 M
1 -1 V
0 -1 V
1 0 V
0 -2 V
1 0 V
0 1 V
1 0 V
0 -1 V
1 0 V
1 1 V
0 3 V
0 -3 V
1 -1 V
0 -2 V
0 -4 V
1 0 V
0 1 V
0 1 V
1 1 V
0 -2 V
1 0 V
0 -3 V
0 1 V
1 0 V
0 -1 V
0 1 V
1 1 V
0 1 V
0 -1 V
1 1 V
0 2 V
1 0 V
0 -2 V
0 2 V
1 -1 V
0 1 V
1 -1 V
0 1 V
0 2 V
1 -1 V
0 1 V
1 -2 V
0 1 V
1 -1 V
0 2 V
1 -1 V
0 1 V
1 1 V
0 -1 V
0 -1 V
1 1 V
0 1 V
1 1 V
0 1 V
0 1 V
1 0 V
0 -3 V
1 2 V
0 -1 V
1 0 V
0 2 V
0 2 V
1 -1 V
0 1 V
1 1 V
0 1 V
1 0 V
0 -2 V
0 1 V
1 1 V
0 2 V
1 0 V
1 0 V
0 -1 V
0 2 V
1 0 V
1 1 V
0 2 V
1 0 V
0 2 V
0 1 V
1 0 V
1 -1 V
0 -1 V
1 0 V
0 1 V
0 1 V
1 0 V
0 -1 V
0 1 V
1 -1 V
1 1 V
0 -1 V
1 0 V
0 1 V
0 -1 V
1 2 V
0 -1 V
0 -1 V
1 -2 V
0 -1 V
1 1 V
0 -1 V
1 -1 V
stroke 5588 4166 M
0 -1 V
1 1 V
0 -2 V
1 0 V
0 1 V
1 0 V
0 1 V
1 1 V
1 0 V
1 -1 V
1 1 V
0 1 V
0 1 V
1 1 V
0 1 V
1 -1 V
1 1 V
0 1 V
1 0 V
0 -1 V
1 1 V
0 -2 V
0 -1 V
1 0 V
0 1 V
0 -1 V
1 0 V
0 1 V
1 0 V
0 -1 V
1 -1 V
0 1 V
1 -3 V
0 2 V
1 -1 V
1 0 V
0 1 V
1 0 V
0 1 V
0 -1 V
0 1 V
1 0 V
0 1 V
1 -1 V
0 -1 V
0 1 V
1 1 V
0 1 V
1 -1 V
0 -1 V
0 -1 V
1 -2 V
0 -1 V
0 1 V
1 -1 V
1 -1 V
1 0 V
0 1 V
1 0 V
0 1 V
1 -1 V
0 1 V
0 1 V
1 0 V
0 1 V
1 0 V
0 2 V
0 -1 V
1 0 V
1 0 V
0 1 V
0 1 V
0 -1 V
1 0 V
0 1 V
1 -1 V
0 1 V
0 -1 V
1 0 V
0 1 V
1 -1 V
0 -1 V
0 -1 V
1 0 V
0 2 V
1 0 V
0 1 V
1 -2 V
0 1 V
1 0 V
0 2 V
1 -1 V
1 0 V
0 -1 V
0 1 V
1 -1 V
0 1 V
0 -1 V
1 -1 V
0 -1 V
1 0 V
1 0 V
0 1 V
0 -1 V
stroke 5636 4168 M
0 -1 V
1 2 V
0 1 V
0 -1 V
1 1 V
1 1 V
0 -1 V
1 0 V
0 1 V
1 0 V
0 1 V
1 -2 V
1 0 V
0 -1 V
1 1 V
0 1 V
1 1 V
1 0 V
0 -2 V
1 0 V
0 -1 V
0 -1 V
1 -1 V
0 1 V
1 0 V
0 1 V
1 0 V
0 1 V
0 -1 V
1 1 V
0 -2 V
0 1 V
1 -1 V
0 1 V
0 1 V
1 -1 V
0 -1 V
1 1 V
1 -1 V
1 1 V
0 1 V
1 0 V
1 -1 V
0 -2 V
0 -1 V
1 0 V
0 -1 V
0 1 V
1 2 V
0 -2 V
1 0 V
0 1 V
1 -1 V
0 -1 V
0 2 V
1 -1 V
0 1 V
1 0 V
1 1 V
0 1 V
1 0 V
0 -1 V
1 0 V
0 -1 V
0 1 V
1 0 V
0 1 V
0 -2 V
1 0 V
0 -2 V
1 1 V
1 2 V
0 -1 V
1 0 V
1 -1 V
0 -2 V
0 -1 V
1 -1 V
0 1 V
0 -1 V
1 1 V
1 0 V
1 0 V
0 -1 V
0 -1 V
1 1 V
0 1 V
0 -1 V
1 -1 V
0 1 V
1 -3 V
0 2 V
0 -1 V
1 0 V
0 2 V
0 -1 V
1 3 V
0 -1 V
1 0 V
0 -2 V
0 1 V
1 1 V
0 1 V
1 0 V
stroke 5685 4164 M
0 1 V
1 0 V
1 -2 V
0 2 V
1 0 V
1 0 V
0 1 V
1 1 V
0 1 V
0 1 V
1 0 V
0 -1 V
0 -2 V
1 0 V
0 -1 V
0 1 V
1 0 V
0 -1 V
0 1 V
1 0 V
0 1 V
0 1 V
1 -1 V
0 1 V
0 1 V
1 0 V
0 1 V
1 0 V
0 -2 V
1 1 V
0 -3 V
0 -2 V
1 1 V
0 -1 V
0 -1 V
1 0 V
0 -1 V
1 0 V
0 2 V
0 -2 V
1 0 V
0 -2 V
0 1 V
1 0 V
0 1 V
1 -1 V
0 -1 V
1 -2 V
0 1 V
1 -1 V
0 1 V
1 -1 V
0 2 V
1 1 V
0 2 V
0 -1 V
1 0 V
0 -2 V
1 1 V
0 2 V
0 -1 V
1 0 V
0 2 V
1 0 V
0 1 V
0 1 V
1 -1 V
1 -1 V
0 -2 V
0 -1 V
1 1 V
0 1 V
0 -1 V
1 1 V
1 0 V
0 -1 V
1 0 V
0 1 V
0 1 V
0 -1 V
1 0 V
0 1 V
1 1 V
0 -2 V
1 1 V
0 1 V
1 2 V
0 -1 V
0 -1 V
1 0 V
0 1 V
1 1 V
0 1 V
0 -1 V
1 0 V
0 1 V
1 0 V
0 -1 V
1 0 V
0 3 V
1 0 V
0 1 V
1 0 V
0 -2 V
stroke 5729 4169 M
0 1 V
1 0 V
0 2 V
1 -1 V
0 -1 V
0 1 V
1 -1 V
1 -2 V
1 0 V
0 -1 V
0 -1 V
1 0 V
0 1 V
0 1 V
1 0 V
0 -1 V
0 -1 V
1 2 V
0 1 V
0 -1 V
1 0 V
1 0 V
1 -1 V
0 1 V
1 0 V
0 1 V
0 1 V
1 -1 V
1 0 V
0 -1 V
1 -2 V
0 -2 V
1 -1 V
0 -1 V
1 -1 V
0 -1 V
1 0 V
0 1 V
0 1 V
1 0 V
1 1 V
0 -1 V
0 1 V
1 -2 V
0 1 V
0 1 V
1 -1 V
0 -1 V
1 0 V
0 1 V
0 1 V
1 -1 V
0 -1 V
0 -1 V
1 1 V
0 -1 V
0 -2 V
1 0 V
0 1 V
1 -1 V
1 1 V
0 2 V
1 -2 V
0 1 V
1 0 V
0 1 V
0 1 V
1 0 V
0 -1 V
1 2 V
0 -1 V
0 -1 V
1 0 V
0 -2 V
1 0 V
0 2 V
0 -1 V
1 0 V
0 1 V
0 1 V
1 1 V
0 1 V
1 1 V
0 -1 V
1 1 V
0 1 V
0 -1 V
1 -1 V
0 -1 V
0 -1 V
1 0 V
0 -1 V
1 1 V
0 1 V
1 0 V
0 1 V
1 1 V
0 2 V
0 1 V
1 -1 V
0 -1 V
0 1 V
1 0 V
1 -1 V
stroke 5775 4166 M
0 3 V
0 -1 V
1 1 V
0 2 V
1 0 V
1 -1 V
0 -1 V
1 1 V
0 -1 V
1 0 V
0 -1 V
1 -1 V
0 -1 V
0 -1 V
1 0 V
0 1 V
1 0 V
0 1 V
1 0 V
0 -1 V
1 -1 V
0 -1 V
1 0 V
0 -1 V
0 1 V
1 1 V
0 1 V
0 -1 V
1 0 V
0 1 V
0 2 V
1 -1 V
0 -1 V
0 1 V
1 -1 V
0 -1 V
1 2 V
0 1 V
1 0 V
0 -1 V
1 -1 V
0 -2 V
0 1 V
1 0 V
0 2 V
1 1 V
0 1 V
0 -1 V
1 2 V
0 -2 V
0 1 V
1 0 V
1 1 V
0 -1 V
0 -1 V
1 1 V
0 -2 V
0 2 V
1 0 V
1 1 V
0 1 V
0 1 V
1 -1 V
0 1 V
1 0 V
1 0 V
0 1 V
1 0 V
0 -1 V
0 1 V
1 -1 V
1 1 V
0 1 V
1 0 V
0 -1 V
1 1 V
0 -1 V
1 0 V
0 1 V
0 -2 V
1 1 V
0 1 V
1 -1 V
0 1 V
0 3 V
1 -1 V
0 -1 V
0 1 V
1 0 V
1 -1 V
0 -1 V
1 1 V
0 -1 V
1 0 V
1 1 V
0 -1 V
1 0 V
0 -2 V
1 1 V
0 -2 V
0 1 V
1 -1 V
1 2 V
0 -1 V
stroke 5822 4172 M
1 0 V
0 1 V
0 -2 V
1 0 V
0 -1 V
0 1 V
1 0 V
1 0 V
1 -1 V
0 -1 V
0 -1 V
0 -2 V
1 1 V
0 1 V
0 1 V
1 -1 V
0 1 V
1 0 V
0 2 V
1 0 V
0 1 V
0 1 V
1 0 V
0 1 V
1 -1 V
0 -1 V
1 -1 V
0 -1 V
0 -1 V
1 -2 V
0 -1 V
1 -2 V
0 -1 V
1 1 V
0 -1 V
0 -1 V
1 -2 V
0 1 V
0 -3 V
1 1 V
0 -2 V
1 0 V
0 -1 V
0 -1 V
1 0 V
1 -1 V
0 -1 V
0 1 V
1 0 V
0 1 V
0 -1 V
1 1 V
0 -1 V
0 1 V
1 1 V
0 -1 V
0 -1 V
1 2 V
1 -1 V
0 1 V
0 1 V
1 1 V
0 -1 V
1 -2 V
0 1 V
1 0 V
0 1 V
1 1 V
0 -1 V
1 1 V
1 2 V
0 1 V
1 0 V
0 2 V
0 1 V
0 -2 V
1 0 V
0 1 V
1 1 V
0 1 V
1 1 V
0 -1 V
1 0 V
0 1 V
1 0 V
0 1 V
1 -1 V
1 0 V
0 1 V
0 -1 V
1 -2 V
0 1 V
1 -1 V
0 1 V
1 1 V
0 -1 V
1 2 V
0 1 V
1 1 V
0 -2 V
0 -1 V
1 0 V
0 1 V
1 0 V
stroke 5868 4167 M
0 -2 V
0 1 V
0 1 V
1 1 V
0 -1 V
0 1 V
1 -1 V
0 -2 V
0 1 V
1 -1 V
0 2 V
1 -1 V
0 -1 V
1 0 V
0 2 V
1 0 V
0 1 V
1 -1 V
0 -1 V
1 1 V
0 -1 V
1 1 V
1 -1 V
0 1 V
1 1 V
0 -1 V
1 0 V
0 -1 V
0 -1 V
1 0 V
0 -1 V
0 1 V
1 0 V
0 1 V
0 -1 V
1 0 V
0 -1 V
1 -1 V
1 1 V
0 -1 V
1 0 V
1 0 V
0 -2 V
1 1 V
0 -2 V
1 1 V
0 1 V
0 -1 V
1 1 V
0 1 V
0 -1 V
1 1 V
0 1 V
1 0 V
0 1 V
1 -1 V
0 2 V
0 1 V
1 0 V
1 0 V
0 -1 V
0 -1 V
1 -1 V
0 1 V
1 2 V
0 1 V
1 1 V
0 -1 V
1 0 V
0 1 V
1 1 V
1 -1 V
0 -1 V
1 0 V
0 -1 V
1 0 V
1 0 V
0 1 V
1 -2 V
0 -1 V
0 1 V
1 0 V
0 -1 V
0 1 V
1 0 V
0 1 V
0 1 V
1 0 V
0 -1 V
0 2 V
1 0 V
0 1 V
0 -1 V
1 -1 V
0 -1 V
0 -2 V
1 2 V
0 2 V
1 1 V
1 0 V
0 -1 V
0 2 V
1 0 V
1 0 V
stroke 5915 4171 M
0 -1 V
0 1 V
1 0 V
0 -1 V
0 -1 V
1 2 V
0 -1 V
0 1 V
1 -1 V
0 -1 V
1 1 V
0 2 V
0 1 V
1 0 V
0 1 V
0 1 V
1 0 V
0 -1 V
1 1 V
0 -1 V
0 1 V
1 -1 V
0 -1 V
0 1 V
1 -1 V
0 -1 V
1 -1 V
0 1 V
1 0 V
0 -1 V
0 -1 V
1 -1 V
0 1 V
0 -1 V
1 1 V
0 -1 V
0 1 V
1 0 V
0 1 V
0 -1 V
1 1 V
0 -1 V
0 -2 V
1 -1 V
0 1 V
0 -1 V
1 0 V
0 -1 V
1 -1 V
0 1 V
0 -1 V
1 0 V
0 1 V
1 0 V
1 1 V
0 -1 V
0 -1 V
0 1 V
1 1 V
0 1 V
0 1 V
1 -1 V
0 -1 V
0 -1 V
1 0 V
1 0 V
0 1 V
0 -1 V
1 1 V
0 -1 V
1 1 V
0 1 V
1 0 V
0 1 V
0 1 V
1 -2 V
0 2 V
0 1 V
1 0 V
0 1 V
0 1 V
1 0 V
0 -1 V
0 -1 V
1 0 V
1 0 V
1 0 V
0 -1 V
0 -1 V
1 0 V
1 0 V
0 -2 V
1 1 V
0 -2 V
0 1 V
1 -2 V
0 -1 V
0 1 V
1 2 V
0 -1 V
0 1 V
1 0 V
0 -1 V
0 -1 V
stroke 5955 4165 M
1 0 V
0 -1 V
1 -1 V
0 -1 V
0 -2 V
1 0 V
1 -1 V
0 -1 V
0 1 V
1 -1 V
1 2 V
1 0 V
0 2 V
1 -1 V
0 2 V
0 -1 V
1 1 V
0 2 V
0 1 V
1 0 V
0 -1 V
0 1 V
1 1 V
1 1 V
0 2 V
1 1 V
0 -1 V
0 -1 V
1 0 V
0 -1 V
1 0 V
0 1 V
0 -1 V
1 -2 V
0 1 V
0 -2 V
1 -1 V
1 0 V
0 1 V
0 -1 V
1 2 V
0 1 V
0 -1 V
1 0 V
0 1 V
1 0 V
0 -1 V
1 1 V
0 -1 V
0 2 V
0 -1 V
1 -1 V
1 1 V
0 -1 V
0 1 V
1 -1 V
0 -1 V
1 0 V
0 2 V
1 -2 V
0 1 V
1 0 V
1 -1 V
0 -1 V
1 -1 V
0 1 V
1 0 V
0 -2 V
1 0 V
0 -1 V
1 0 V
0 -1 V
0 1 V
1 1 V
0 2 V
1 0 V
0 2 V
1 -2 V
0 1 V
0 -1 V
1 0 V
1 -1 V
0 2 V
0 -2 V
1 0 V
0 -1 V
0 1 V
1 1 V
0 -1 V
1 1 V
0 -1 V
1 1 V
0 -2 V
1 -1 V
0 -2 V
1 -1 V
0 -1 V
0 2 V
1 0 V
0 1 V
1 -1 V
1 -1 V
0 1 V
1 1 V
stroke 6003 4160 M
1 0 V
0 -1 V
1 -1 V
0 -2 V
0 2 V
1 1 V
0 -1 V
0 1 V
1 -1 V
0 2 V
1 0 V
0 1 V
0 1 V
1 -2 V
0 1 V
1 0 V
0 1 V
1 2 V
1 1 V
0 1 V
0 -1 V
1 -1 V
1 0 V
0 -1 V
0 1 V
1 -1 V
0 2 V
0 -2 V
1 1 V
0 1 V
1 1 V
0 -1 V
1 0 V
0 1 V
0 1 V
0 1 V
1 0 V
0 -1 V
1 0 V
0 1 V
1 0 V
0 1 V
1 -2 V
0 1 V
0 -2 V
1 -1 V
0 -1 V
1 -1 V
0 -1 V
0 1 V
1 1 V
1 0 V
0 -1 V
1 0 V
0 1 V
0 -1 V
1 0 V
0 -1 V
0 -1 V
1 1 V
0 1 V
0 -2 V
1 1 V
0 -1 V
0 2 V
1 0 V
0 1 V
1 0 V
0 1 V
0 -1 V
1 -2 V
0 1 V
1 1 V
1 0 V
0 2 V
1 0 V
0 -1 V
1 -1 V
0 1 V
1 0 V
0 -1 V
0 -1 V
1 3 V
0 -1 V
0 -2 V
1 -2 V
1 2 V
0 1 V
1 1 V
0 1 V
1 0 V
0 -1 V
1 1 V
0 -1 V
1 2 V
0 -1 V
1 0 V
1 -1 V
0 -1 V
1 0 V
0 1 V
0 1 V
1 1 V
0 1 V
stroke 6049 4168 M
1 0 V
0 1 V
0 2 V
1 0 V
0 -1 V
1 1 V
0 -2 V
1 0 V
0 1 V
0 -1 V
1 -1 V
0 1 V
1 1 V
0 -1 V
0 2 V
1 -1 V
0 2 V
1 -1 V
0 1 V
1 -1 V
0 -1 V
0 1 V
1 0 V
0 1 V
0 -1 V
1 -1 V
0 -2 V
0 1 V
1 0 V
0 -1 V
1 0 V
0 -1 V
1 2 V
0 -2 V
0 1 V
1 1 V
0 2 V
0 -1 V
1 0 V
0 1 V
0 -1 V
1 -2 V
0 1 V
0 1 V
1 -1 V
0 1 V
0 1 V
1 0 V
1 -1 V
0 1 V
1 0 V
0 -1 V
1 1 V
1 -2 V
0 -1 V
1 0 V
0 1 V
1 0 V
0 1 V
1 0 V
0 1 V
1 1 V
0 -1 V
0 -1 V
1 0 V
0 1 V
0 -1 V
1 1 V
1 2 V
0 -1 V
1 0 V
0 1 V
0 -2 V
1 1 V
0 -1 V
0 1 V
1 -1 V
0 1 V
0 -1 V
1 -1 V
0 -1 V
1 -2 V
0 1 V
0 -1 V
1 -1 V
0 -1 V
1 0 V
0 1 V
0 -1 V
1 2 V
0 -2 V
1 -1 V
1 -1 V
0 -1 V
1 0 V
0 1 V
1 -1 V
0 1 V
1 -1 V
0 1 V
0 -1 V
1 0 V
0 -1 V
1 2 V
stroke 6094 4163 M
0 -1 V
1 0 V
0 1 V
1 -1 V
1 0 V
0 -1 V
1 1 V
0 -1 V
0 -1 V
1 1 V
0 2 V
0 2 V
1 0 V
0 -1 V
0 1 V
1 0 V
0 1 V
1 0 V
0 -1 V
0 -1 V
1 1 V
0 1 V
0 -1 V
1 0 V
0 1 V
0 1 V
1 1 V
0 1 V
1 1 V
1 0 V
0 -1 V
1 -1 V
0 2 V
1 0 V
0 -1 V
1 0 V
1 -1 V
0 1 V
1 0 V
1 0 V
0 2 V
1 -1 V
0 -1 V
1 -1 V
0 1 V
0 -1 V
1 0 V
0 1 V
1 0 V
1 2 V
0 1 V
1 -1 V
1 0 V
1 0 V
0 -1 V
1 0 V
0 -1 V
1 0 V
0 1 V
1 0 V
0 -1 V
1 0 V
0 -1 V
1 1 V
0 1 V
0 -1 V
1 0 V
0 1 V
0 -1 V
0 1 V
1 1 V
0 1 V
1 1 V
0 1 V
1 -1 V
1 0 V
0 -2 V
0 -1 V
1 0 V
1 0 V
0 1 V
1 -3 V
0 1 V
1 -1 V
0 2 V
1 0 V
0 -1 V
0 1 V
1 0 V
0 2 V
0 1 V
1 0 V
0 -1 V
1 -1 V
0 -1 V
0 1 V
1 0 V
0 1 V
1 -1 V
0 -1 V
1 0 V
0 -1 V
1 -1 V
1 -1 V
stroke 6144 4167 M
1 2 V
0 1 V
1 -2 V
0 -1 V
1 -1 V
0 -1 V
1 2 V
1 -1 V
0 1 V
0 1 V
1 1 V
0 -1 V
1 1 V
0 1 V
0 -1 V
1 -1 V
1 0 V
0 -1 V
1 -1 V
0 1 V
1 -1 V
0 1 V
0 -1 V
1 -1 V
0 -1 V
1 1 V
0 2 V
1 -1 V
0 1 V
0 -1 V
1 1 V
0 -1 V
1 -1 V
0 2 V
1 0 V
1 -1 V
0 -1 V
1 1 V
0 -1 V
1 0 V
0 1 V
1 1 V
0 1 V
1 1 V
1 -1 V
0 1 V
1 0 V
0 1 V
0 -1 V
1 0 V
0 -1 V
0 1 V
1 0 V
0 -1 V
1 -1 V
0 1 V
0 1 V
1 0 V
0 -1 V
1 -1 V
0 1 V
1 1 V
0 -1 V
0 -1 V
1 0 V
0 1 V
1 0 V
0 -1 V
0 -2 V
1 1 V
0 -1 V
1 -2 V
0 1 V
0 1 V
1 1 V
1 -1 V
0 1 V
1 1 V
0 -1 V
1 1 V
0 1 V
1 -1 V
0 -1 V
1 0 V
0 -1 V
1 0 V
1 -1 V
0 1 V
0 -1 V
1 0 V
0 1 V
1 0 V
0 -1 V
0 2 V
1 -1 V
0 2 V
0 -1 V
1 -1 V
0 1 V
1 0 V
0 -1 V
0 -1 V
1 0 V
0 -1 V
stroke 6192 4163 M
1 1 V
1 -1 V
0 1 V
1 0 V
0 -1 V
1 0 V
1 0 V
0 -1 V
0 1 V
1 -1 V
0 1 V
0 -1 V
1 0 V
0 -1 V
1 0 V
0 1 V
0 -1 V
1 1 V
0 1 V
0 -2 V
1 0 V
0 1 V
1 0 V
0 1 V
0 1 V
1 1 V
1 1 V
0 -1 V
0 -1 V
1 -1 V
1 0 V
0 -2 V
1 2 V
0 2 V
1 0 V
0 1 V
0 -2 V
1 0 V
0 -1 V
0 1 V
1 -1 V
0 1 V
1 1 V
0 -1 V
0 -1 V
1 -1 V
1 -1 V
0 2 V
0 -1 V
1 0 V
0 -3 V
0 1 V
1 -3 V
0 1 V
1 -1 V
0 1 V
0 -1 V
1 1 V
0 -1 V
0 2 V
1 -1 V
0 -1 V
1 0 V
0 1 V
1 0 V
0 -1 V
0 -1 V
1 1 V
0 -2 V
0 -1 V
1 0 V
0 -1 V
1 1 V
0 -1 V
0 1 V
1 1 V
0 -1 V
0 1 V
1 -1 V
0 1 V
0 2 V
1 0 V
0 1 V
1 1 V
0 2 V
1 2 V
0 1 V
1 1 V
0 1 V
1 0 V
1 -1 V
0 1 V
1 -1 V
0 1 V
0 1 V
1 0 V
0 1 V
1 -1 V
0 1 V
1 1 V
0 -1 V
1 0 V
1 1 V
1 1 V
stroke 6239 4170 M
0 -1 V
0 1 V
1 -1 V
0 1 V
1 0 V
0 -1 V
1 1 V
0 -2 V
1 0 V
0 -2 V
0 1 V
1 1 V
0 -1 V
1 1 V
0 1 V
1 -2 V
0 1 V
0 1 V
1 0 V
0 1 V
1 -1 V
0 -1 V
1 1 V
0 -1 V
0 -1 V
1 -1 V
0 -1 V
1 0 V
0 -1 V
0 2 V
1 1 V
0 1 V
1 1 V
1 0 V
0 -1 V
0 1 V
1 1 V
0 -2 V
1 0 V
0 -1 V
0 1 V
1 0 V
0 1 V
1 0 V
0 -1 V
1 1 V
0 1 V
0 -1 V
1 0 V
0 1 V
0 -1 V
1 0 V
0 2 V
1 0 V
0 -1 V
0 -1 V
1 0 V
0 1 V
1 0 V
0 -1 V
1 1 V
0 -2 V
1 -1 V
0 -2 V
1 0 V
0 1 V
0 -1 V
1 1 V
0 1 V
1 -2 V
0 -2 V
0 1 V
1 1 V
0 1 V
0 -1 V
1 -1 V
1 -2 V
0 -1 V
0 -1 V
1 1 V
0 -1 V
0 2 V
1 0 V
1 0 V
0 -1 V
1 0 V
0 1 V
1 0 V
stroke
LTb
LCb setrgbcolor
946 4775 N
946 704 L
5857 0 V
0 4071 V
-5857 0 V
Z stroke
1.000 UP
1.000 UL
LTb
stroke
grestore
end
showpage
%%Trailer
