<?xml version="1.0" encoding="utf-8"?>
<!DOCTYPE svg PUBLIC "-//W3C//DTD SVG 1.1//EN" "http://www.w3.org/Graphics/SVG/1.1/DTD/svg11.dtd">
<svg version="1.1" id="FranckHertz_x5F_Aufbau" xmlns="http://www.w3.org/2000/svg" xmlns:xlink="http://www.w3.org/1999/xlink"
	 x="0px" y="0px" width="400px" height="300px" viewBox="0 0 400 300" enable-background="new 0 0 400 300" xml:space="preserve">
<rect id="Hintergrund" fill="#FFFFFF" width="400" height="300"/>
<g id="Schaltelemente">
	<g id="Gleichspannungsquelle">
		<circle fill="none" stroke="#1A171B" cx="50.755" cy="219.344" r="4.5"/>
		<circle fill="#1A171B" stroke="#1A171B" cx="77.755" cy="219.344" r="4.5"/>
		<line fill="none" stroke="#1A171B" x1="82.255" y1="219.344" x2="100.255" y2="219.344"/>
		<line fill="none" stroke="#1A171B" x1="46.255" y1="219.344" x2="28.255" y2="219.344"/>
		<g>
			<path fill="#1A171B" d="M48.31,242.493v1.352h-7.57c-0.011-0.339,0.044-0.664,0.164-0.977c0.192-0.516,0.501-1.023,0.926-1.523
				c0.424-0.5,1.038-1.078,1.84-1.734c1.245-1.021,2.086-1.829,2.523-2.426s0.656-1.16,0.656-1.691c0-0.558-0.199-1.027-0.598-1.41
				s-0.918-0.574-1.559-0.574c-0.677,0-1.219,0.203-1.625,0.609s-0.612,0.969-0.617,1.688l-1.445-0.148
				c0.099-1.078,0.471-1.899,1.117-2.465c0.646-0.565,1.513-0.848,2.602-0.848c1.099,0,1.969,0.305,2.609,0.914
				s0.961,1.364,0.961,2.266c0,0.458-0.094,0.909-0.281,1.352s-0.499,0.909-0.934,1.398c-0.435,0.489-1.158,1.161-2.168,2.016
				c-0.844,0.708-1.386,1.188-1.625,1.441c-0.24,0.253-0.438,0.507-0.594,0.762H48.31z"/>
			<path fill="#1A171B" d="M54.107,240.407v-1.414h4.32v1.414H54.107z"/>
			<path fill="#1A171B" d="M68.544,243.844v-2.742h-4.969v-1.289l5.227-7.422h1.148v7.422h1.547v1.289h-1.547v2.742H68.544z
				 M68.544,239.813v-5.164l-3.586,5.164H68.544z"/>
			<path fill="#1A171B" d="M81.224,243.844l-4.438-11.453h1.641l2.977,8.32c0.239,0.667,0.44,1.292,0.602,1.875
				c0.177-0.625,0.383-1.25,0.617-1.875l3.094-8.32h1.547l-4.484,11.453H81.224z"/>
		</g>
		<g>
			<path d="M77.226,210.543v-2.748h-2.728v-1.148h2.728v-2.728h1.162v2.728h2.728v1.148h-2.728v2.748H77.226z"/>
		</g>
		<g>
			<path d="M48.861,207.823v-1.237h3.78v1.237H48.861z"/>
		</g>
	</g>
	<g id="Gleichspannungsquelle_2_">
		<circle fill="none" stroke="#1A171B" cx="131.01" cy="269.974" r="4.5"/>
		<circle fill="#1A171B" stroke="#1A171B" cx="158.01" cy="269.974" r="4.5"/>
		<line fill="none" stroke="#1A171B" x1="162.51" y1="269.974" x2="180.51" y2="269.974"/>
		<line fill="none" stroke="#1A171B" x1="126.51" y1="269.974" x2="108.51" y2="269.974"/>
		<g>
			<path fill="#1A171B" d="M110.26,283.021h1.516v6.617c0,1.151-0.13,2.065-0.391,2.742c-0.261,0.677-0.73,1.228-1.41,1.652
				s-1.572,0.637-2.676,0.637c-1.073,0-1.951-0.185-2.633-0.555c-0.683-0.37-1.169-0.905-1.461-1.605
				c-0.292-0.7-0.438-1.657-0.438-2.871v-6.617h1.516v6.609c0,0.995,0.092,1.728,0.277,2.199c0.185,0.472,0.502,0.835,0.953,1.09
				c0.45,0.255,1.001,0.383,1.652,0.383c1.114,0,1.909-0.253,2.383-0.758c0.474-0.505,0.711-1.477,0.711-2.914V283.021z"/>
			<path fill="#1A171B" d="M125.963,287.74h-7.563v-1.313h7.563V287.74z M125.963,291.216h-7.563v-1.313h7.563V291.216z"/>
			<path fill="#1A171B" d="M131.963,288.826c0-1.354,0.139-2.444,0.418-3.27c0.278-0.825,0.692-1.462,1.242-1.91
				c0.549-0.448,1.241-0.672,2.074-0.672c0.614,0,1.153,0.124,1.617,0.371c0.463,0.247,0.846,0.604,1.148,1.07
				c0.302,0.466,0.539,1.034,0.711,1.703s0.258,1.571,0.258,2.707c0,1.344-0.138,2.429-0.414,3.254
				c-0.276,0.825-0.689,1.464-1.238,1.914c-0.55,0.45-1.244,0.676-2.082,0.676c-1.104,0-1.972-0.396-2.602-1.188
				C132.341,292.529,131.963,290.977,131.963,288.826z M133.409,288.826c0,1.88,0.22,3.132,0.66,3.754
				c0.44,0.622,0.983,0.934,1.629,0.934c0.646,0,1.188-0.313,1.629-0.938c0.44-0.625,0.66-1.875,0.66-3.75
				c0-1.886-0.22-3.138-0.66-3.758c-0.44-0.62-0.988-0.93-1.645-0.93c-0.646,0-1.162,0.273-1.547,0.82
				C133.651,285.657,133.409,286.946,133.409,288.826z"/>
			<path fill="#1A171B" d="M145.151,291.037v-1.414h4.32v1.414H145.151z"/>
			<path fill="#1A171B" d="M155.088,291.451l1.406-0.188c0.161,0.797,0.436,1.371,0.824,1.723c0.388,0.352,0.86,0.527,1.418,0.527
				c0.661,0,1.22-0.229,1.676-0.688c0.456-0.458,0.684-1.026,0.684-1.703c0-0.646-0.211-1.179-0.633-1.598s-0.958-0.629-1.609-0.629
				c-0.266,0-0.597,0.052-0.992,0.156l0.156-1.234c0.094,0.011,0.169,0.016,0.227,0.016c0.599,0,1.138-0.156,1.617-0.469
				c0.479-0.313,0.719-0.794,0.719-1.445c0-0.516-0.175-0.942-0.523-1.281c-0.349-0.339-0.8-0.508-1.352-0.508
				c-0.547,0-1.003,0.172-1.367,0.516c-0.365,0.344-0.599,0.859-0.703,1.547l-1.406-0.25c0.172-0.942,0.563-1.673,1.172-2.191
				s1.367-0.777,2.273-0.777c0.625,0,1.2,0.134,1.727,0.402c0.526,0.269,0.928,0.634,1.207,1.098
				c0.278,0.464,0.418,0.956,0.418,1.477c0,0.495-0.133,0.945-0.398,1.352s-0.659,0.729-1.18,0.969
				c0.677,0.156,1.203,0.48,1.578,0.973s0.563,1.108,0.563,1.848c0,1-0.365,1.848-1.094,2.543c-0.729,0.695-1.651,1.043-2.766,1.043
				c-1.005,0-1.84-0.3-2.504-0.898S155.182,292.404,155.088,291.451z"/>
			<path fill="#1A171B" d="M163.979,288.826c0-1.354,0.139-2.444,0.418-3.27c0.278-0.825,0.692-1.462,1.242-1.91
				c0.549-0.448,1.241-0.672,2.074-0.672c0.614,0,1.153,0.124,1.617,0.371c0.463,0.247,0.846,0.604,1.148,1.07
				c0.302,0.466,0.539,1.034,0.711,1.703s0.258,1.571,0.258,2.707c0,1.344-0.138,2.429-0.414,3.254
				c-0.276,0.825-0.689,1.464-1.238,1.914c-0.55,0.45-1.244,0.676-2.082,0.676c-1.104,0-1.972-0.396-2.602-1.188
				C164.356,292.529,163.979,290.977,163.979,288.826z M165.424,288.826c0,1.88,0.22,3.132,0.66,3.754
				c0.44,0.622,0.983,0.934,1.629,0.934c0.646,0,1.188-0.313,1.629-0.938c0.44-0.625,0.66-1.875,0.66-3.75
				c0-1.886-0.22-3.138-0.66-3.758c-0.44-0.62-0.988-0.93-1.645-0.93c-0.646,0-1.162,0.273-1.547,0.82
				C165.667,285.657,165.424,286.946,165.424,288.826z"/>
			<path fill="#1A171B" d="M181.167,294.474l-4.438-11.453h1.641l2.977,8.32c0.239,0.667,0.44,1.292,0.602,1.875
				c0.177-0.625,0.383-1.25,0.617-1.875l3.094-8.32h1.547l-4.484,11.453H181.167z"/>
		</g>
		<g>
			<path d="M157.48,261.173v-2.748h-2.728v-1.148h2.728v-2.728h1.162v2.728h2.728v1.148h-2.728v2.748H157.48z"/>
		</g>
		<g>
			<path d="M129.116,258.453v-1.237h3.78v1.237H129.116z"/>
		</g>
	</g>
	<g id="Gleichspannungsquelle_3_">
		<circle fill="none" stroke="#1A171B" cx="341.976" cy="269.974" r="4.5"/>
		<circle fill="#1A171B" stroke="#1A171B" cx="314.976" cy="269.974" r="4.5"/>
		<line fill="none" stroke="#1A171B" x1="310.476" y1="269.974" x2="292.476" y2="269.974"/>
		<line fill="none" stroke="#1A171B" x1="346.476" y1="269.974" x2="364.476" y2="269.974"/>
		<g>
			<path fill="#1A171B" d="M304.436,294.474h-1.406v-8.961c-0.339,0.323-0.783,0.646-1.332,0.969
				c-0.55,0.323-1.043,0.565-1.48,0.727v-1.359c0.786-0.37,1.474-0.817,2.063-1.344c0.588-0.526,1.005-1.036,1.25-1.531h0.906
				V294.474z"/>
			<path fill="#1A171B" d="M312.326,291.037v-1.414h4.32v1.414H312.326z"/>
			<path fill="#1A171B" d="M327.553,294.474h-1.406v-8.961c-0.339,0.323-0.783,0.646-1.332,0.969
				c-0.55,0.323-1.043,0.565-1.48,0.727v-1.359c0.786-0.37,1.474-0.817,2.063-1.344c0.588-0.526,1.005-1.036,1.25-1.531h0.906
				V294.474z"/>
			<path fill="#1A171B" d="M331.912,294.474v-1.602h1.602v1.602c0,0.589-0.104,1.063-0.313,1.426
				c-0.209,0.362-0.539,0.642-0.992,0.84l-0.391-0.602c0.297-0.13,0.516-0.321,0.656-0.574s0.219-0.616,0.234-1.09H331.912z"/>
			<path fill="#1A171B" d="M335.6,291.474l1.477-0.125c0.109,0.719,0.363,1.259,0.762,1.621s0.879,0.543,1.441,0.543
				c0.677,0,1.25-0.255,1.719-0.766s0.703-1.188,0.703-2.031c0-0.802-0.226-1.435-0.676-1.898c-0.451-0.464-1.041-0.695-1.77-0.695
				c-0.453,0-0.862,0.103-1.227,0.309c-0.365,0.206-0.651,0.473-0.859,0.801l-1.32-0.172l1.109-5.883h5.695v1.344h-4.57
				l-0.617,3.078c0.688-0.479,1.408-0.719,2.164-0.719c1,0,1.844,0.347,2.531,1.039s1.031,1.583,1.031,2.672
				c0,1.036-0.303,1.933-0.906,2.688c-0.734,0.927-1.737,1.391-3.008,1.391c-1.042,0-1.893-0.292-2.551-0.875
				C336.069,293.211,335.693,292.438,335.6,291.474z"/>
			<path fill="#1A171B" d="M352.787,294.474l-4.438-11.453h1.641l2.977,8.32c0.239,0.667,0.439,1.292,0.602,1.875
				c0.177-0.625,0.383-1.25,0.617-1.875l3.094-8.32h1.547l-4.484,11.453H352.787z"/>
		</g>
		<g>
			<path d="M314.343,261.173v-2.748h-2.728v-1.148h2.728v-2.728h1.162v2.728h2.728v1.148h-2.728v2.748H314.343z"/>
		</g>
		<g>
			<path d="M340.089,258.453v-1.237h3.78v1.237H340.089z"/>
		</g>
	</g>
	<g id="Gleichspannungsquelle_1_">
		<circle fill="none" stroke="#1A171B" cx="5.5" cy="94.385" r="4.5"/>
		<circle fill="#1A171B" stroke="#1A171B" cx="5.5" cy="121.385" r="4.5"/>
		<polyline fill="none" stroke="#1A171B" points="5.5,125.885 5.5,134.626 13,134.626 		"/>
		<polyline fill="none" stroke="#1A171B" points="5.5,89.885 5.5,81.144 13,81.144 		"/>
	</g>
	<g id="Amperemeter_1_">
		<line fill="none" stroke="#1A171B" x1="381" y1="219.196" x2="381" y2="165.196"/>
		<circle fill="#FFFFFF" stroke="#1A171B" cx="381" cy="192.196" r="18"/>
		<g>
			<path fill="#1A171B" d="M374.298,198.531l5.498-14.316h2.041l5.859,14.316h-2.158l-1.67-4.336h-5.986l-1.572,4.336H374.298z
				 M378.429,192.652h4.854l-1.494-3.965c-0.456-1.204-0.794-2.194-1.016-2.969c-0.183,0.918-0.439,1.829-0.771,2.734
				L378.429,192.652z"/>
		</g>
	</g>
</g>
<g id="FHRoehre">
	
		<radialGradient id="Roehre_1_" cx="202.5" cy="107.8853" r="92.5486" gradientTransform="matrix(-4.371139e-008 -1 3 -1.311342e-007 -121.1558 310.3853)" gradientUnits="userSpaceOnUse">
		<stop  offset="0" style="stop-color:#F1F1F2"/>
		<stop  offset="1" style="stop-color:#BBBDBF"/>
	</radialGradient>
	<path id="Roehre" fill="url(#Roehre_1_)" stroke="#1A171B" stroke-width="0.5" d="M360,134.885c0,45-45,45-45,45H90
		c-45,0-45-45-45-45v-54c0-45,45-45,45-45h225c45,0,45,45,45,45V134.885z"/>
	<rect id="Anode" x="319.5" y="71.885" stroke="#000000" stroke-width="0.5" width="6.5" height="72"/>
	<g id="Gitter1">
		<rect id="Anode_1_" x="126.333" y="151.801" stroke="#000000" stroke-width="0.5" width="6.5" height="12.168"/>
		<rect id="Anode_2_" x="126.333" y="131.802" stroke="#000000" stroke-width="0.5" width="6.5" height="12.167"/>
		<rect id="Anode_3_" x="126.333" y="111.802" stroke="#000000" stroke-width="0.5" width="6.5" height="12.167"/>
		<rect id="Anode_4_" x="126.333" y="91.802" stroke="#000000" stroke-width="0.5" width="6.5" height="12.167"/>
		<rect id="Anode_5_" x="126.333" y="71.802" stroke="#000000" stroke-width="0.5" width="6.5" height="12.167"/>
		<rect id="Anode_6_" x="126.333" y="51.802" stroke="#000000" stroke-width="0.5" width="6.5" height="12.167"/>
	</g>
	<g id="Gitter2">
		<rect id="Anode_12_" x="273.083" y="151.801" stroke="#000000" stroke-width="0.5" width="6.5" height="12.168"/>
		<rect id="Anode_11_" x="273.083" y="131.802" stroke="#000000" stroke-width="0.5" width="6.5" height="12.167"/>
		<rect id="Anode_10_" x="273.083" y="111.802" stroke="#000000" stroke-width="0.5" width="6.5" height="12.167"/>
		<rect id="Anode_9_" x="273.083" y="91.802" stroke="#000000" stroke-width="0.5" width="6.5" height="12.167"/>
		<rect id="Anode_8_" x="273.083" y="71.802" stroke="#000000" stroke-width="0.5" width="6.5" height="12.167"/>
		<rect id="Anode_7_" x="273.083" y="51.802" stroke="#000000" stroke-width="0.5" width="6.5" height="12.167"/>
	</g>
	<g id="Gluehdraht">
		<ellipse fill="none" stroke="#000000" cx="73.435" cy="88.385" rx="8.102" ry="3.241"/>
		<ellipse fill="none" stroke="#000000" cx="73.435" cy="84.385" rx="8.102" ry="3.241"/>
		<ellipse fill="none" stroke="#000000" cx="73.435" cy="91.385" rx="8.102" ry="3.241"/>
		<ellipse fill="none" stroke="#000000" cx="73.435" cy="95.385" rx="8.102" ry="3.241"/>
		<ellipse fill="none" stroke="#000000" cx="73.435" cy="99.385" rx="8.102" ry="3.241"/>
		<ellipse fill="none" stroke="#000000" cx="73.435" cy="103.385" rx="8.102" ry="3.241"/>
		<ellipse fill="none" stroke="#000000" cx="73.435" cy="107.385" rx="8.102" ry="3.241"/>
		<ellipse fill="none" stroke="#000000" cx="73.435" cy="111.385" rx="8.102" ry="3.241"/>
		<ellipse fill="none" stroke="#000000" cx="73.435" cy="115.385" rx="8.102" ry="3.241"/>
		<ellipse fill="none" stroke="#000000" cx="73.435" cy="119.385" rx="8.102" ry="3.241"/>
		<ellipse fill="none" stroke="#000000" cx="73.435" cy="123.385" rx="8.102" ry="3.241"/>
		<ellipse fill="none" stroke="#000000" cx="73.435" cy="127.385" rx="8.102" ry="3.241"/>
		<ellipse fill="none" stroke="#000000" cx="73.435" cy="131.385" rx="8.102" ry="3.241"/>
		<line fill="none" stroke="#000000" x1="73.436" y1="81.144" x2="13" y2="81.144"/>
		<line fill="none" stroke="#000000" x1="73.436" y1="134.626" x2="13" y2="134.626"/>
	</g>
	<g id="Elektronen">
		<circle id="Elektron_3_" fill="#FFF100" stroke="#231F20" stroke-width="0.5" cx="89.627" cy="126.626" r="2.475"/>
		<g id="Pfeil_3_">
			<polygon id="PfeilGerade_3_" points="113.919,126.582 105.119,129.867 105.88,126.626 105.121,123.386 			"/>
			<line fill="none" stroke="#000000" x1="95.398" y1="126.626" x2="109.396" y2="126.626"/>
		</g>
		<circle id="Elektron_1_" fill="#FFF100" stroke="#231F20" stroke-width="0.5" cx="98.627" cy="107.626" r="2.475"/>
		<g id="Pfeil_1_">
			<polygon id="PfeilGerade_1_" points="122.919,107.582 114.119,110.867 114.88,107.626 114.121,104.386 			"/>
			<line fill="none" stroke="#000000" x1="104.398" y1="107.626" x2="118.396" y2="107.626"/>
		</g>
		<circle id="Elektron_4_" fill="#FFF100" stroke="#231F20" stroke-width="0.5" cx="159.627" cy="115.626" r="2.475"/>
		<g id="Pfeil_4_">
			<polygon id="PfeilGerade_4_" points="183.919,115.582 175.119,118.867 175.88,115.626 175.121,112.386 			"/>
			<line fill="none" stroke="#000000" x1="165.398" y1="115.626" x2="179.396" y2="115.626"/>
		</g>
		<circle id="Elektron_2_" fill="#FFF100" stroke="#231F20" stroke-width="0.5" cx="93.627" cy="89.626" r="2.475"/>
		<g id="Pfeil_2_">
			<polygon id="PfeilGerade_2_" points="117.919,89.582 109.119,92.867 109.88,89.626 109.121,86.386 			"/>
			<line fill="none" stroke="#000000" x1="99.398" y1="89.626" x2="113.396" y2="89.626"/>
		</g>
	</g>
</g>
<g id="Schaltung">
	<polyline fill="none" stroke="#1A171B" points="5.5,134.626 5.5,219.331 28.255,219.331 	"/>
	<polyline fill="none" stroke="#1A171B" points="100.255,219.344 129.583,219.344 129.583,163.969 	"/>
	<line fill="none" stroke="#231F20" x1="276.333" y1="163.969" x2="276.333" y2="269.974"/>
	<polyline fill="none" stroke="#231F20" points="381,219.196 381,269.974 364.476,269.974 	"/>
	<polyline fill="none" stroke="#231F20" points="5.5,219.331 5.5,269.974 108.51,269.974 	"/>
	<line fill="none" stroke="#231F20" x1="292.476" y1="269.974" x2="180.51" y2="269.974"/>
	<polyline fill="none" stroke="#231F20" points="381,165.196 381,107.885 326,107.885 	"/>
</g>
<g id="Beschriftung">
	<g>
		<path d="M69.505,23.792V12.338h1.516v5.68l5.688-5.68h2.055l-4.805,4.641l5.016,6.813h-2l-4.078-5.797l-1.875,1.828v3.969H69.505z
			"/>
	</g>
	<g id="G_x5F_1">
		<g>
			<path d="M125.594,17.624V16.28l4.852-0.008v4.25c-0.745,0.594-1.513,1.041-2.305,1.34c-0.792,0.299-1.604,0.449-2.438,0.449
				c-1.125,0-2.147-0.241-3.066-0.723c-0.919-0.481-1.613-1.178-2.082-2.09c-0.469-0.911-0.703-1.93-0.703-3.055
				c0-1.114,0.233-2.155,0.699-3.121c0.466-0.966,1.137-1.684,2.012-2.152s1.883-0.703,3.023-0.703c0.828,0,1.577,0.134,2.246,0.402
				c0.669,0.269,1.194,0.642,1.574,1.121c0.38,0.479,0.669,1.104,0.867,1.875l-1.367,0.375c-0.172-0.583-0.386-1.042-0.641-1.375
				c-0.255-0.333-0.62-0.6-1.094-0.801c-0.474-0.2-1-0.301-1.578-0.301c-0.693,0-1.292,0.105-1.797,0.316
				c-0.505,0.211-0.913,0.488-1.223,0.832c-0.31,0.344-0.551,0.722-0.723,1.133c-0.292,0.708-0.438,1.477-0.438,2.305
				c0,1.021,0.176,1.875,0.527,2.563s0.863,1.198,1.535,1.531c0.672,0.333,1.385,0.5,2.141,0.5c0.656,0,1.297-0.126,1.922-0.379
				c0.625-0.252,1.099-0.522,1.422-0.809v-2.133H125.594z"/>
		</g>
		<g>
			<path d="M138.216,26.116h-1.23v-7.841c-0.296,0.283-0.685,0.565-1.166,0.848s-0.913,0.495-1.295,0.636v-1.189
				c0.688-0.324,1.29-0.715,1.805-1.176s0.879-0.907,1.094-1.34h0.793V26.116z"/>
		</g>
	</g>
	<g id="G_x5F_2">
		<g>
			<path d="M272.06,17.624V16.28l4.852-0.008v4.25c-0.745,0.594-1.513,1.041-2.305,1.34s-1.604,0.449-2.438,0.449
				c-1.125,0-2.147-0.241-3.066-0.723c-0.919-0.481-1.613-1.178-2.082-2.09c-0.469-0.911-0.703-1.93-0.703-3.055
				c0-1.114,0.233-2.155,0.699-3.121c0.466-0.966,1.137-1.684,2.012-2.152s1.883-0.703,3.023-0.703c0.828,0,1.577,0.134,2.246,0.402
				c0.669,0.269,1.194,0.642,1.574,1.121c0.38,0.479,0.669,1.104,0.867,1.875l-1.367,0.375c-0.172-0.583-0.386-1.042-0.641-1.375
				c-0.255-0.333-0.62-0.6-1.094-0.801c-0.474-0.2-1-0.301-1.578-0.301c-0.692,0-1.292,0.105-1.797,0.316s-0.913,0.488-1.223,0.832
				s-0.551,0.722-0.723,1.133c-0.292,0.708-0.438,1.477-0.438,2.305c0,1.021,0.176,1.875,0.527,2.563s0.863,1.198,1.535,1.531
				c0.672,0.333,1.386,0.5,2.141,0.5c0.656,0,1.297-0.126,1.922-0.379c0.625-0.252,1.099-0.522,1.422-0.809v-2.133H272.06z"/>
		</g>
		<g>
			<path d="M286.514,24.933v1.183h-6.624c-0.009-0.296,0.038-0.581,0.144-0.854c0.168-0.451,0.438-0.896,0.811-1.333
				c0.371-0.438,0.908-0.943,1.609-1.518c1.09-0.893,1.825-1.601,2.208-2.123s0.574-1.015,0.574-1.48
				c0-0.488-0.175-0.899-0.522-1.234c-0.35-0.335-0.804-0.502-1.364-0.502c-0.593,0-1.066,0.178-1.422,0.533
				s-0.536,0.848-0.54,1.477l-1.265-0.13c0.087-0.943,0.413-1.662,0.978-2.157s1.324-0.742,2.276-0.742
				c0.962,0,1.723,0.267,2.283,0.8s0.841,1.194,0.841,1.982c0,0.401-0.082,0.795-0.246,1.183s-0.437,0.795-0.816,1.224
				c-0.381,0.428-1.014,1.016-1.897,1.764c-0.738,0.62-1.212,1.04-1.422,1.261s-0.383,0.443-0.52,0.667H286.514z"/>
		</g>
	</g>
	<g>
		<path d="M317.539,23.791l4.398-11.453h1.633l4.688,11.453h-1.727l-1.336-3.469h-4.789l-1.258,3.469H317.539z M320.844,19.088
			h3.883l-1.195-3.172c-0.364-0.963-0.636-1.755-0.813-2.375c-0.146,0.734-0.352,1.463-0.617,2.188L320.844,19.088z"/>
	</g>
	<g>
		<path d="M367.242,222.081v-11.453h1.516v11.453H367.242z"/>
	</g>
	<g>
		<path d="M203.172,81.144l2.398-11.453h1.523l-0.992,4.758h5.938l0.992-4.758h1.531l-2.391,11.453h-1.531l1.125-5.398h-5.93
			l-1.133,5.398H203.172z"/>
		<path d="M214.508,81.894l1.43,0.133c-0.011,0.323,0.028,0.565,0.117,0.727c0.088,0.161,0.229,0.286,0.422,0.375
			c0.255,0.114,0.586,0.172,0.992,0.172c0.854,0,1.469-0.222,1.844-0.664c0.244-0.297,0.471-0.943,0.68-1.938l0.141-0.672
			c-0.734,0.745-1.516,1.117-2.344,1.117c-0.839,0-1.541-0.309-2.105-0.926c-0.565-0.617-0.848-1.491-0.848-2.621
			c0-0.932,0.223-1.789,0.668-2.57s0.975-1.371,1.59-1.77c0.614-0.398,1.247-0.598,1.898-0.598c1.088,0,1.927,0.516,2.516,1.547
			l0.281-1.359h1.297l-1.672,8.008c-0.183,0.88-0.422,1.566-0.719,2.059s-0.71,0.874-1.238,1.145
			c-0.529,0.271-1.14,0.406-1.832,0.406c-0.667,0-1.241-0.086-1.723-0.258c-0.482-0.172-0.842-0.423-1.078-0.754
			c-0.237-0.331-0.355-0.71-0.355-1.137C214.469,82.186,214.481,82.045,214.508,81.894z M216.273,77.472
			c0,0.568,0.055,0.995,0.164,1.281c0.156,0.401,0.379,0.707,0.668,0.918s0.61,0.316,0.965,0.316c0.463,0,0.924-0.163,1.383-0.488
			c0.458-0.325,0.829-0.829,1.113-1.512c0.283-0.682,0.426-1.333,0.426-1.953c0-0.682-0.189-1.225-0.566-1.629
			c-0.378-0.403-0.846-0.605-1.402-0.605c-0.344,0-0.678,0.093-1,0.277c-0.323,0.185-0.624,0.466-0.902,0.844
			c-0.279,0.378-0.49,0.83-0.633,1.355C216.345,76.803,216.273,77.202,216.273,77.472z"/>
	</g>
	<g id="eMinus">
		<g>
			<path d="M151.105,108.184c0.032,1.905,1.232,2.689,2.657,2.689c1.008,0,1.633-0.176,2.145-0.4l0.256,1.008
				c-0.496,0.224-1.36,0.497-2.593,0.497c-2.385,0-3.81-1.585-3.81-3.922s1.376-4.162,3.633-4.162c2.545,0,3.201,2.209,3.201,3.633
				c0,0.288-0.016,0.497-0.048,0.656H151.105z M155.235,107.176c0.016-0.88-0.368-2.273-1.953-2.273
				c-1.441,0-2.049,1.297-2.161,2.273H155.235z"/>
		</g>
		<g>
			<path d="M160.475,102.18v0.768h-2.962v-0.768H160.475z"/>
		</g>
	</g>
</g>
</svg>
