<?xml version="1.0" encoding="UTF-8" standalone="no"?>
<svg
   xmlns:dc="http://purl.org/dc/elements/1.1/"
   xmlns:cc="http://creativecommons.org/ns#"
   xmlns:rdf="http://www.w3.org/1999/02/22-rdf-syntax-ns#"
   xmlns:svg="http://www.w3.org/2000/svg"
   xmlns="http://www.w3.org/2000/svg"
   xmlns:sodipodi="http://sodipodi.sourceforge.net/DTD/sodipodi-0.dtd"
   xmlns:inkscape="http://www.inkscape.org/namespaces/inkscape"
   version="1.1"
   x="0px"
   y="0px"
   width="400px"
   height="290px"
   viewBox="0 0 400 290"
   enable-background="new 0 0 400 290"
   xml:space="preserve"
   id="svg2"
   inkscape:version="0.48.2 r9819"
   sodipodi:docname="Mikroskop.pdf"><metadata
   id="metadata223"><rdf:RDF><cc:Work
       rdf:about=""><dc:format>image/svg+xml</dc:format><dc:type
         rdf:resource="http://purl.org/dc/dcmitype/StillImage" /><dc:title></dc:title></cc:Work></rdf:RDF></metadata><defs
   id="defs221">
	
	
	
	
	

	
	
	

		
		
		
		
	
			
			
			
			
			
			
			
			
			
			
			
			
		
		
		
		
		
		
		
	</defs><sodipodi:namedview
   pagecolor="#ffffff"
   bordercolor="#666666"
   borderopacity="1"
   objecttolerance="10"
   gridtolerance="10"
   guidetolerance="10"
   inkscape:pageopacity="0"
   inkscape:pageshadow="2"
   inkscape:window-width="1097"
   inkscape:window-height="727"
   id="namedview219"
   showgrid="false"
   inkscape:zoom="1.6275862"
   inkscape:cx="200"
   inkscape:cy="145"
   inkscape:window-x="0"
   inkscape:window-y="0"
   inkscape:window-maximized="0"
   inkscape:current-layer="svg2"
   showguides="false"><sodipodi:guide
     position="38.946,128.56"
     orientation="-7.203,0"
     id="guide3413" /><sodipodi:guide
     position="38.946,135.763"
     orientation="0,-1.242"
     id="guide3415" /><sodipodi:guide
     position="37.704,135.763"
     orientation="-1.094,0"
     id="guide3417" /><sodipodi:guide
     position="37.704,136.857"
     orientation="0,1.242"
     id="guide3419" /><sodipodi:guide
     position="38.946,136.857"
     orientation="-0.883,0"
     id="guide3421" /><sodipodi:guide
     position="42.556,140.068"
     orientation="1.227,-0.211"
     id="guide3423" /><sodipodi:guide
     position="40.345,137.623"
     orientation="0.766,0"
     id="guide3425" /><sodipodi:guide
     position="40.345,136.857"
     orientation="0,1.617"
     id="guide3427" /><sodipodi:guide
     position="41.962,136.857"
     orientation="1.094,0"
     id="guide3429" /><sodipodi:guide
     position="41.962,135.763"
     orientation="0,-1.617"
     id="guide3431" /><sodipodi:guide
     position="40.345,135.763"
     orientation="7.203,0"
     id="guide3433" /><sodipodi:guide
     position="40.345,128.56"
     orientation="0,-1.399"
     id="guide3435" /><sodipodi:guide
     position="38.946,128.56"
     orientation="2.8421709e-14,-7.1054274e-15"
     id="guide3437" /><sodipodi:guide
     position="44.232,129.44"
     orientation="2.8421709e-14,0"
     id="guide3439" /><sodipodi:guide
     position="45.6,129.42"
     orientation="-2.8421709e-14,7.1054274e-15"
     id="guide3441" /><sodipodi:guide
     position="56.503,124.56"
     orientation="0,-1.142"
     id="guide3443" /><sodipodi:guide
     position="55.361,124.56"
     orientation="-10.021,0"
     id="guide3445" /><sodipodi:guide
     position="55.361,134.581"
     orientation="0,1.23"
     id="guide3447" /><sodipodi:guide
     position="56.591,134.581"
     orientation="3.575,0"
     id="guide3449" /><sodipodi:guide
     position="56.501,125.467"
     orientation="0.907,0"
     id="guide3451" /><sodipodi:guide
     position="56.501,124.56"
     orientation="2.8421709e-14,0.002"
     id="guide3453" /><sodipodi:guide
     position="56.489,128.244"
     orientation="0,0"
     id="guide3455" /><sodipodi:guide
     position="131.28,128.56"
     orientation="-7.203,0"
     id="guide3457" /><sodipodi:guide
     position="131.28,135.763"
     orientation="0,-1.242"
     id="guide3459" /><sodipodi:guide
     position="130.038,135.763"
     orientation="-1.094,0"
     id="guide3461" /><sodipodi:guide
     position="130.038,136.857"
     orientation="0,1.242"
     id="guide3463" /><sodipodi:guide
     position="131.28,136.857"
     orientation="-0.883,0"
     id="guide3465" /><sodipodi:guide
     position="134.89,140.068"
     orientation="1.227,-0.211"
     id="guide3467" /><sodipodi:guide
     position="132.679,137.623"
     orientation="0.766,0"
     id="guide3469" /><sodipodi:guide
     position="132.679,136.857"
     orientation="0,1.617"
     id="guide3471" /><sodipodi:guide
     position="134.296,136.857"
     orientation="1.094,0"
     id="guide3473" /><sodipodi:guide
     position="134.296,135.763"
     orientation="0,-1.617"
     id="guide3475" /><sodipodi:guide
     position="132.679,135.763"
     orientation="7.203,0"
     id="guide3477" /><sodipodi:guide
     position="132.679,128.56"
     orientation="0,-1.399"
     id="guide3479" /><sodipodi:guide
     position="131.28,128.56"
     orientation="2.8421709e-14,2.8421709e-14"
     id="guide3481" /><sodipodi:guide
     position="136.843,138.091"
     orientation="1.633,0"
     id="guide3483" /><sodipodi:guide
     position="136.843,136.458"
     orientation="0,-1.508"
     id="guide3485" /><sodipodi:guide
     position="135.335,136.458"
     orientation="-1.289,0"
     id="guide3487" /><sodipodi:guide
     position="136.624,140.208"
     orientation="0.547,0.344"
     id="guide3489" /><sodipodi:guide
     position="136.108,138.091"
     orientation="0,0.735"
     id="guide3491" /><sodipodi:guide
     position="136.843,138.091"
     orientation="-2.8421709e-14,2.8421709e-14"
     id="guide3493" /><sodipodi:guide
     position="136.566,129.44"
     orientation="2.8421709e-14,-5.6843419e-14"
     id="guide3495" /><sodipodi:guide
     position="137.934,129.42"
     orientation="-2.8421709e-14,2.8421709e-14"
     id="guide3497" /><sodipodi:guide
     position="148.837,124.56"
     orientation="0,-1.142"
     id="guide3499" /><sodipodi:guide
     position="147.695,124.56"
     orientation="-10.021,0"
     id="guide3501" /><sodipodi:guide
     position="147.695,134.581"
     orientation="0,1.23"
     id="guide3503" /><sodipodi:guide
     position="148.925,134.581"
     orientation="3.575,0"
     id="guide3505" /><sodipodi:guide
     position="148.835,125.467"
     orientation="0.907,0"
     id="guide3507" /><sodipodi:guide
     position="148.835,124.56"
     orientation="2.8421709e-14,0.002"
     id="guide3509" /><sodipodi:guide
     position="148.823,128.244"
     orientation="0,0"
     id="guide3511" /><sodipodi:guide
     position="223.891,88.367"
     orientation="-7.203,0"
     id="guide3513" /><sodipodi:guide
     position="223.891,95.57"
     orientation="0,-1.242"
     id="guide3515" /><sodipodi:guide
     position="222.649,95.57"
     orientation="-1.094,0"
     id="guide3517" /><sodipodi:guide
     position="222.649,96.664"
     orientation="0,1.242"
     id="guide3519" /><sodipodi:guide
     position="223.891,96.664"
     orientation="-0.883,0"
     id="guide3521" /><sodipodi:guide
     position="227.501,99.875"
     orientation="1.227,-0.211"
     id="guide3523" /><sodipodi:guide
     position="225.29,97.43"
     orientation="0.766,0"
     id="guide3525" /><sodipodi:guide
     position="225.29,96.664"
     orientation="0,1.617"
     id="guide3527" /><sodipodi:guide
     position="226.907,96.664"
     orientation="1.094,0"
     id="guide3529" /><sodipodi:guide
     position="226.907,95.57"
     orientation="0,-1.617"
     id="guide3531" /><sodipodi:guide
     position="225.29,95.57"
     orientation="7.203,0"
     id="guide3533" /><sodipodi:guide
     position="225.29,88.367"
     orientation="0,-1.399"
     id="guide3535" /><sodipodi:guide
     position="223.891,88.367"
     orientation="2.8421709e-14,2.8421709e-14"
     id="guide3537" /><sodipodi:guide
     position="229.177,89.248"
     orientation="2.8421709e-14,-5.6843419e-14"
     id="guide3539" /><sodipodi:guide
     position="230.544,89.228"
     orientation="-2.8421709e-14,5.6843419e-14"
     id="guide3541" /><sodipodi:guide
     position="240.319,84.367"
     orientation="-10.021,0"
     id="guide3543" /><sodipodi:guide
     position="240.319,94.388"
     orientation="0,1.23"
     id="guide3545" /><sodipodi:guide
     position="241.549,94.388"
     orientation="5.715,0"
     id="guide3547" /><sodipodi:guide
     position="241.549,88.673"
     orientation="-2.953,2.912"
     id="guide3549" /><sodipodi:guide
     position="244.461,91.626"
     orientation="0,1.593"
     id="guide3551" /><sodipodi:guide
     position="246.054,91.626"
     orientation="2.693,-2.775"
     id="guide3553" /><sodipodi:guide
     position="243.279,88.933"
     orientation="4.566,3.056"
     id="guide3555" /><sodipodi:guide
     position="246.335,84.367"
     orientation="0,-1.518"
     id="guide3557" /><sodipodi:guide
     position="244.817,84.367"
     orientation="-3.712,-2.399"
     id="guide3559" /><sodipodi:guide
     position="242.418,88.079"
     orientation="0.834,-0.868"
     id="guide3561" /><sodipodi:guide
     position="241.55,87.245"
     orientation="2.878,0"
     id="guide3563" /><sodipodi:guide
     position="241.55,84.367"
     orientation="0,-1.231"
     id="guide3565" /><sodipodi:guide
     position="240.319,84.367"
     orientation="-2.8421709e-14,0"
     id="guide3567" /><sodipodi:guide
     position="367.973,88.367"
     orientation="-7.203,0"
     id="guide3569" /><sodipodi:guide
     position="367.973,95.57"
     orientation="0,-1.242"
     id="guide3571" /><sodipodi:guide
     position="366.731,95.57"
     orientation="-1.094,0"
     id="guide3573" /><sodipodi:guide
     position="366.731,96.664"
     orientation="0,1.242"
     id="guide3575" /><sodipodi:guide
     position="367.973,96.664"
     orientation="-0.883,0"
     id="guide3577" /><sodipodi:guide
     position="371.583,99.875"
     orientation="1.227,-0.211"
     id="guide3579" /><sodipodi:guide
     position="369.372,97.43"
     orientation="0.766,0"
     id="guide3581" /><sodipodi:guide
     position="369.372,96.664"
     orientation="0,1.617"
     id="guide3583" /><sodipodi:guide
     position="370.989,96.664"
     orientation="1.094,0"
     id="guide3585" /><sodipodi:guide
     position="370.989,95.57"
     orientation="0,-1.617"
     id="guide3587" /><sodipodi:guide
     position="369.372,95.57"
     orientation="7.203,0"
     id="guide3589" /><sodipodi:guide
     position="369.372,88.367"
     orientation="0,-1.399"
     id="guide3591" /><sodipodi:guide
     position="367.973,88.367"
     orientation="2.8421709e-14,0"
     id="guide3593" /><sodipodi:guide
     position="373.535,97.898"
     orientation="1.633,0"
     id="guide3595" /><sodipodi:guide
     position="373.535,96.265"
     orientation="0,-1.508"
     id="guide3597" /><sodipodi:guide
     position="372.027,96.265"
     orientation="-1.289,0"
     id="guide3599" /><sodipodi:guide
     position="373.316,100.015"
     orientation="0.547,0.344"
     id="guide3601" /><sodipodi:guide
     position="372.8,97.898"
     orientation="0,0.735"
     id="guide3603" /><sodipodi:guide
     position="373.535,97.898"
     orientation="-2.8421709e-14,-5.6843419e-14"
     id="guide3605" /><sodipodi:guide
     position="373.259,89.248"
     orientation="2.8421709e-14,5.6843419e-14"
     id="guide3607" /><sodipodi:guide
     position="374.626,89.228"
     orientation="-2.8421709e-14,-5.6843419e-14"
     id="guide3609" /><sodipodi:guide
     position="384.401,84.367"
     orientation="-10.021,0"
     id="guide3611" /><sodipodi:guide
     position="384.401,94.388"
     orientation="0,1.23"
     id="guide3613" /><sodipodi:guide
     position="385.631,94.388"
     orientation="5.715,0"
     id="guide3615" /><sodipodi:guide
     position="385.631,88.673"
     orientation="-2.953,2.912"
     id="guide3617" /><sodipodi:guide
     position="388.543,91.626"
     orientation="0,1.593"
     id="guide3619" /><sodipodi:guide
     position="390.136,91.626"
     orientation="2.693,-2.775"
     id="guide3621" /><sodipodi:guide
     position="387.361,88.933"
     orientation="4.566,3.056"
     id="guide3623" /><sodipodi:guide
     position="390.417,84.367"
     orientation="0,-1.518"
     id="guide3625" /><sodipodi:guide
     position="388.899,84.367"
     orientation="-3.712,-2.399"
     id="guide3627" /><sodipodi:guide
     position="386.5,88.079"
     orientation="0.834,-0.868"
     id="guide3629" /><sodipodi:guide
     position="385.632,87.245"
     orientation="2.878,0"
     id="guide3631" /><sodipodi:guide
     position="385.632,84.367"
     orientation="0,-1.231"
     id="guide3633" /><sodipodi:guide
     position="384.401,84.367"
     orientation="-2.8421709e-14,-5.6843419e-14"
     id="guide3635" /><sodipodi:guide
     position="19.594,101.992"
     orientation="-1.344,0"
     id="guide3637" /><sodipodi:guide
     position="19.594,103.336"
     orientation="-0.008,4.852"
     id="guide3639" /><sodipodi:guide
     position="24.446,103.344"
     orientation="4.25,0"
     id="guide3641" /><sodipodi:guide
     position="24.273,105.751"
     orientation="0.375,-1.367"
     id="guide3643" /><sodipodi:guide
     position="22.959,99.861"
     orientation="-2.133,0"
     id="guide3645" /><sodipodi:guide
     position="22.959,101.994"
     orientation="0,-3.365"
     id="guide3647" /><sodipodi:guide
     position="19.594,101.994"
     orientation="0.002,7.1054274e-15"
     id="guide3649" /><sodipodi:guide
     position="253.32,114.5"
     orientation="-1.406,0"
     id="guide3651" /><sodipodi:guide
     position="253.32,115.906"
     orientation="-7.336,5.867"
     id="guide3653" /><sodipodi:guide
     position="260.375,124.601"
     orientation="0,-6.391"
     id="guide3655" /><sodipodi:guide
     position="253.984,124.601"
     orientation="-1.352,0"
     id="guide3657" /><sodipodi:guide
     position="253.984,125.953"
     orientation="0,8.203"
     id="guide3659" /><sodipodi:guide
     position="262.187,125.953"
     orientation="1.352,0"
     id="guide3661" /><sodipodi:guide
     position="262.187,124.601"
     orientation="7.945,-6.43"
     id="guide3663" /><sodipodi:guide
     position="255.757,116.656"
     orientation="0.805,-0.695"
     id="guide3665" /><sodipodi:guide
     position="255.062,115.851"
     orientation="0,7.313"
     id="guide3667" /><sodipodi:guide
     position="262.375,115.851"
     orientation="1.352,0"
     id="guide3669" /><sodipodi:guide
     position="262.375,114.499"
     orientation="0,-9.055"
     id="guide3671" /><sodipodi:guide
     position="253.32,114.499"
     orientation="-0.001,0"
     id="guide3673" /><sodipodi:guide
     position="263.945,114.5"
     orientation="-11.453,0"
     id="guide3675" /><sodipodi:guide
     position="263.945,125.953"
     orientation="0,4.297"
     id="guide3677" /><sodipodi:guide
     position="268.312,114.501"
     orientation="0,-4.367"
     id="guide3679" /><sodipodi:guide
     position="263.945,114.501"
     orientation="0.001,-1.1368684e-13"
     id="guide3681" /><sodipodi:guide
     position="265.461,121.141"
     orientation="0,2.477"
     id="guide3683" /><sodipodi:guide
     position="267.751,124.602"
     orientation="0,-2.289"
     id="guide3685" /><sodipodi:guide
     position="265.462,124.602"
     orientation="3.461,0"
     id="guide3687" /><sodipodi:guide
     position="265.462,121.141"
     orientation="-2.8421709e-14,-0.001"
     id="guide3689" /><sodipodi:guide
     position="265.461,115.852"
     orientation="0,2.852"
     id="guide3691" /><sodipodi:guide
     position="268.11,119.79"
     orientation="0,-2.648"
     id="guide3693" /><sodipodi:guide
     position="265.462,119.79"
     orientation="3.938,0"
     id="guide3695" /><sodipodi:guide
     position="265.462,115.852"
     orientation="0,-0.001"
     id="guide3697" /><sodipodi:guide
     position="26.755,193.734"
     orientation="-11.453,0"
     id="guide3699" /><sodipodi:guide
     position="26.755,205.187"
     orientation="0,4.297"
     id="guide3701" /><sodipodi:guide
     position="31.122,193.735"
     orientation="0,-4.367"
     id="guide3703" /><sodipodi:guide
     position="26.755,193.735"
     orientation="0.001,2.1316282e-14"
     id="guide3705" /><sodipodi:guide
     position="28.271,200.375"
     orientation="0,2.477"
     id="guide3707" /><sodipodi:guide
     position="30.561,203.836"
     orientation="0,-2.289"
     id="guide3709" /><sodipodi:guide
     position="28.272,203.836"
     orientation="3.461,0"
     id="guide3711" /><sodipodi:guide
     position="28.272,200.375"
     orientation="0,-0.001"
     id="guide3713" /><sodipodi:guide
     position="28.271,195.086"
     orientation="0,2.852"
     id="guide3715" /><sodipodi:guide
     position="30.92,199.024"
     orientation="0,-2.648"
     id="guide3717" /><sodipodi:guide
     position="28.272,199.024"
     orientation="3.938,0"
     id="guide3719" /><sodipodi:guide
     position="28.272,195.086"
     orientation="0,-0.001"
     id="guide3721" /></sodipodi:namedview>
<g
   id="Pfeile">
		<polygon
   style="fill:#cccccc"
   points="34.583,188.05 30.583,194.05 26.583,188.05 29.25,188.05 29.25,179.828 31.917,179.828 31.917,188.05 "
   id="Pfeil_x5F_G_1_" />
		<polygon
   style="fill:#cccccc"
   points="257.771,160.777 248.521,146.901 239.271,160.777 245.436,160.777 245.436,179.791 251.604,179.791 251.604,160.777 "
   id="Pfeil_x5F_ZB" />
		<polygon
   style="fill:#cccccc"
   points="54.745,82.258 7.292,11.08 3.195,17.202 3.334,179.791 23.106,179.791 23.106,82.258 "
   id="Pfeil_x5F_ZB_1_" />
	</g><g
   id="Achsen_1_">
		<line
   style="fill:none;stroke:#000000"
   y2="179.828"
   x2="395.88901"
   y1="179.828"
   x1="3.3329999"
   id="OptAchse_2_" />
		<line
   style="fill:none;stroke:#000000"
   y2="187.67999"
   x2="50.556"
   y1="172.67999"
   x1="50.556"
   id="f_x5F_Ob1_3_" />
		<line
   style="fill:none;stroke:#000000"
   y2="187.67999"
   x2="142.556"
   y1="172.67999"
   x1="142.556"
   id="f_x5F_Ob2_3_" />
		<line
   style="fill:none;stroke:#000000"
   y2="187.67999"
   x2="234.556"
   y1="172.67999"
   x1="234.556"
   id="f_x5F_Ok1_3_" />
		<line
   style="fill:none;stroke:#000000"
   y2="187.67999"
   x2="378.556"
   y1="172.67999"
   x1="378.556"
   id="f_x5F_Ok2_3_" />
		<line
   style="fill:none;stroke:#fbb03b"
   id="line16"
   y2="147.067"
   x2="306.556"
   y1="147.067"
   x1="248.521" />
		<line
   style="fill:none;stroke:#fbb03b"
   id="line18"
   y2="230.255"
   x2="395.88901"
   y1="10.884"
   x1="7.27" />
		<line
   style="fill:none;stroke:#fbb03b"
   id="line20"
   y2="187.67999"
   x2="395.81299"
   y1="10.891"
   x1="7.27" />
	</g><g
   id="Strahlengang">
		<line
   style="fill:none;stroke:#fcee21"
   id="line23"
   y2="194.05"
   x2="96.556"
   y1="194.05"
   x1="30.583" />
		<line
   style="fill:none;stroke:#fcee21"
   id="line25"
   y2="137.569"
   x2="292.58099"
   y1="194.05"
   x1="30.583" />
		<line
   style="fill:none;stroke:#fcee21"
   id="line27"
   y2="133.161"
   x2="293.5"
   y1="194.05"
   x1="96.556" />
	</g><g
   id="Linsen">
		<g
   id="LinseGr">
			<path
   style="opacity:0.3;fill:#d0d2d3"
   inkscape:connector-curvature="0"
   d="m 306.556,125.79 c -13.5,27 -13.5,81.001 0,108.001 13.5,-27 13.5,-81.001 0,-108.001 z"
   id="Fuellung_1_" />
			<path
   style="fill:none;stroke:#231f20"
   inkscape:connector-curvature="0"
   d="m 306.556,125.79 c -13.5,27 -13.5,81.001 0,108.001 13.5,-27 13.5,-81.001 0,-108.001 z"
   id="Kontur_1_" />
		</g>
		<g
   id="LinseKl">
			<path
   style="opacity:0.3;fill:#d0d2d3"
   inkscape:connector-curvature="0"
   d="m 96.556,147.391 c -8.1,16.2 -8.1,48.601 0,64.801 8.1,-16.201 8.1,-48.602 0,-64.801 z"
   id="Fuellung" />
			<path
   style="fill:none;stroke:#231f20;stroke-width:0.5"
   inkscape:connector-curvature="0"
   d="m 96.556,147.391 c -8.1,16.2 -8.1,48.601 0,64.801 8.1,-16.201 8.1,-48.602 0,-64.801 z"
   id="Kontur" />
		</g>
	</g>
<polyline
   id="Laenge_x5F_Tubus"
   points="142.556,210.179 142.556,218.5 234.556,218.5     234.556,210.179   "
   style="fill:none;stroke:#ff0000" /><polyline
   id="Laenge_x5F_b"
   points="7.27,260.179 7.27,268.5 96.556,268.5 96.556,260.179   "
   style="fill:none;stroke:#ff0000" /><polyline
   id="Laenge_x5F_g"
   points="30.736,138.501 30.736,130.18 96.556,130.18 96.556,138.501       "
   style="fill:none;stroke:#ff0000" /><g
   id="Parameter">
		<g
   id="f_x5F_Ob1_2_">
			<g
   id="g85">
				
			</g>
			<g
   id="g89">
				
				
			</g>
		</g>
		<g
   id="f_x5F_Ob2_2_">
			<g
   id="g96">
				
				
			</g>
			<g
   id="g102">
				
				
			</g>
		</g>
		<g
   id="f_x5F_Ok1_2_">
			<g
   id="g109">
				
			</g>
			<g
   id="g113">
				
				
			</g>
		</g>
		<g
   id="f_x5F_Ok2_2_">
			<g
   id="g120">
				
				
			</g>
			<g
   id="g126">
				
				
			</g>
		</g>
		<g
   id="g132">
			
		</g>
		<g
   id="g136">
			
			
		</g>
		<g
   id="g142">
			
		</g>
	</g>
<text
   xml:space="preserve"
   style="font-size:16px;font-style:normal;font-variant:normal;font-weight:normal;font-stretch:normal;text-align:center;line-height:125%;letter-spacing:0px;word-spacing:0px;text-anchor:middle;fill:#000000;fill-opacity:1;stroke:none;font-family:Arial;-inkscape-font-specification:Arial"
   x="250.15215"
   y="77.415253"
   id="text3373"
   sodipodi:linespacing="125%"><tspan
     sodipodi:role="line"
     id="tspan3375"
     x="250.15215"
     y="77.415253">Zwischenbild</tspan></text>



<text
   xml:space="preserve"
   style="font-size:16px;font-style:normal;font-variant:normal;font-weight:normal;font-stretch:normal;text-align:center;line-height:125%;letter-spacing:0px;word-spacing:0px;text-anchor:middle;fill:#000000;fill-opacity:1;stroke:none;font-family:Arial;-inkscape-font-specification:Arial"
   x="305.92007"
   y="252.52119"
   id="text3377"
   sodipodi:linespacing="125%"><tspan
     sodipodi:role="line"
     id="tspan3379"
     x="305.92007"
     y="252.52119">Okular</tspan></text>



<text
   xml:space="preserve"
   style="font-size:16px;font-style:normal;font-variant:normal;font-weight:normal;font-stretch:normal;text-align:center;line-height:125%;letter-spacing:0px;word-spacing:0px;text-anchor:middle;fill:#000000;fill-opacity:1;stroke:none;font-family:Arial;-inkscape-font-specification:Arial"
   x="96.624931"
   y="246.37712"
   id="text3405"
   sodipodi:linespacing="125%"><tspan
     sodipodi:role="line"
     id="tspan3407"
     x="96.624931"
     y="246.37712">Objektiv</tspan></text>



<text
   xml:space="preserve"
   style="font-size:16px;font-style:normal;font-variant:normal;font-weight:normal;font-stretch:normal;text-align:center;line-height:125%;letter-spacing:0px;word-spacing:0px;text-anchor:middle;fill:#000000;fill-opacity:1;stroke:none;font-family:Arial;-inkscape-font-specification:Arial"
   x="30.670881"
   y="222.41525"
   id="text3409"
   sodipodi:linespacing="125%"><tspan
     sodipodi:role="line"
     id="tspan3411"
     x="30.670881"
     y="222.41525">Objekt</tspan></text>



<text
   xml:space="preserve"
   style="font-size:16px;font-style:normal;font-variant:normal;font-weight:normal;font-stretch:normal;text-align:center;line-height:125%;letter-spacing:0px;word-spacing:0px;text-anchor:middle;fill:#000000;fill-opacity:1;stroke:none;font-family:Arial;-inkscape-font-specification:Arial"
   x="188.6389"
   y="240.84746"
   id="text3208"
   sodipodi:linespacing="125%"><tspan
     sodipodi:role="line"
     id="tspan3210"
     x="188.6389"
     y="240.84746">$t$</tspan></text>


<text
   xml:space="preserve"
   style="font-size:16px;font-style:normal;font-variant:normal;font-weight:normal;font-stretch:normal;text-align:center;line-height:125%;letter-spacing:0px;word-spacing:0px;text-anchor:middle;fill:#000000;fill-opacity:1;stroke:none;font-family:Arial;-inkscape-font-specification:Arial"
   x="62.746632"
   y="119.52171"
   id="text3212"
   sodipodi:linespacing="125%"><tspan
     sodipodi:role="line"
     id="tspan3214"
     x="62.746632"
     y="119.52171">$g$</tspan></text>


<text
   xml:space="preserve"
   style="font-size:16px;font-style:normal;font-variant:normal;font-weight:normal;font-stretch:normal;line-height:125%;letter-spacing:0px;word-spacing:0px;fill:#000000;fill-opacity:1;stroke:none;font-family:Arial;-inkscape-font-specification:Arial;text-anchor:middle;text-align:center"
   x="49.559719"
   y="285.69916"
   id="text3216"
   sodipodi:linespacing="125%"><tspan
     sodipodi:role="line"
     id="tspan3218"
     x="36.864407"
     y="285.69916">$b$</tspan></text>


</svg>