# Phasenverschiebung für Dämpfung 8
100 16.5349111419
200 26.3988421762
300 72.0539961725
400 136.417523195
500 139.4290217
600 136.397989273
350 109.617814733
250 44.0763364845
325 89.9148933807
310 79.0962886796
305 73.6858831442
315 79.1199391102


# Phasenverschiebung für Dämpfung 4
100 22.0716311106
200 14.6056928169
400 133.767182529
500 177.894487801
600 -128.10864924
300 39.0929505269
320 80.957776232
315 68.7382646556
325 92.7797778438
322 85.574893831


# Phasenverschiebung für Dämpfung 6
100 -2.06131019259
200 21.7234400448
300 59.4373660653
400 149.53659556
500 165.945352665
600 144.353814967
350 111.9720149
320 77.6317801152
310 68.8580219897
315 73.8491712492


