# Anregungsfrequenz 0
# Nullpunkt Erreger [ms] 0
# Dämpfung 0
# Dateiname messung0.txt
# Messung d0_f000.dat
# Anzahl Messpunkte 4793
# Amplituden
430.0 153.0
2000.0 -143.0
3509.0 138.0
5043.0 -128.0
6583.0 124.0
8093.0 -114.0
9615.0 110.0
11172.0 -103.0
12668.0 99.0
14175.0 -92.0
15745.0 90.0
17212.0 -83.0
18743.0 81.0
20235.0 -75.0
21731.0 73.0
23225.0 -67.0
24734.0 66.0
26229.0 -61.0
27718.0 60.0
29239.0 -56.0
30764.0 57.0
32232.0 -52.0
33718.0 53.0
35248.0 -49.0
36678.0 50.0
38186.0 -46.0
39669.0 48.0
41179.0 -45.0
42652.0 46.0
44163.0 -43.0
45625.0 38.0


# Anregungsfrequenz 0
# Nullpunkt Erreger [ms] 0
# Dämpfung 4
# Dateiname messung1.txt
# Messung d4_f000.dat
# Anzahl Messpunkte 1070
# Amplituden
262.0 -126.0
1793.0 100.0
3289.0 -76.0
4816.0 62.0
6284.0 -47.0
7738.0 39.0
9229.0 -31.0
10741.0 26.0
12172.0 -20.0
13677.0 17.0
15132.0 -13.0
16596.0 11.0
18211.0 -8.0
21199.0 -5.0


# Anregungsfrequenz 0
# Nullpunkt Erreger [ms] 0
# Dämpfung 6
# Dateiname messung2.txt
# Messung d6_f000
# Anzahl Messpunkte 654
# Amplituden
4.0 81.0
943.0 -102.0
2485.0 66.0
3977.0 -40.0
5414.0 28.0
6901.0 -17.0
8416.0 13.0
9848.0 -7.0
11285.0 5.0
12865.0 -3.0
14115.0 2.0
15683.0 -1.0


# Anregungsfrequenz 0
# Nullpunkt Erreger [ms] 0
# Dämpfung 8
# Dateiname messung3.txt
# Messung d8_f000.dat
# Anzahl Messpunkte 464
# Amplituden
1151.0 172.0
2622.0 -75.0
4140.0 37.0
5629.0 -18.0
7062.0 8.0
8488.0 -4.0
10131.0 2.0


# Anregungsfrequenz 100
# Nullpunkt Erreger [ms] 106698
# Dämpfung 8
# Dateiname messung4.txt
# Messung d8_f100.dat
# Anzahl Messpunkte 772
# Amplituden
388.0 16.0
4577.0 -18.0
9400.0 18.0
14541.0 -18.0
19378.0 18.0
24535.0 -18.0
29345.0 18.0
34500.0 -18.0
39323.0 18.0
44471.0 -18.0
49299.0 18.0
54457.0 -18.0
59270.0 18.0
64432.0 -18.0
69249.0 18.0
74407.0 -18.0
79219.0 18.0
84384.0 -18.0
89193.0 18.0
94356.0 -18.0
99168.0 18.0
104337.0 -18.0


# Anregungsfrequenz 200
# Nullpunkt Erreger [ms] 52428
# Dämpfung 8
# Dateiname messung5.txt
# Messung d8_f200.dat
# Anzahl Messpunkte 1074
# Amplituden
16.0 11.0
1532.0 -23.0
3966.0 24.0
6526.0 -23.0
8949.0 24.0
11517.0 -23.0
13936.0 24.0
16503.0 -23.0
18922.0 24.0
21493.0 -23.0
23908.0 24.0
26481.0 -23.0
28894.0 24.0
31467.0 -23.0
33883.0 24.0
36456.0 -23.0
38868.0 24.0
41447.0 -23.0
43854.0 24.0
46434.0 -23.0
48842.0 24.0
51422.0 -23.0
53827.0 24.0
56409.0 -23.0


# Anregungsfrequenz 300
# Nullpunkt Erreger [ms] 59903
# Dämpfung 8
# Dateiname messung6.txt
# Messung d8_f300.dat
# Anzahl Messpunkte 2702
# Amplituden
43.0 -33.0
1510.0 38.0
3119.0 -36.0
4858.0 38.0
6443.0 -36.0
8148.0 38.0
9771.0 -35.0
11490.0 38.0
13093.0 -36.0
14832.0 37.0
16417.0 -36.0
18119.0 38.0
19748.0 -35.0
21460.0 38.0
23069.0 -35.0
24793.0 38.0
26394.0 -36.0
28092.0 37.0
29724.0 -36.0
31431.0 38.0
33046.0 -35.0
34757.0 38.0
36371.0 -35.0
38060.0 38.0
39701.0 -36.0
41394.0 37.0
43023.0 -36.0
44722.0 38.0
46348.0 -35.0
48029.0 38.0
49679.0 -34.0
51364.0 38.0
53000.0 -36.0
54692.0 37.0
56326.0 -36.0
58000.0 38.0
59656.0 -35.0


# Anregungsfrequenz 400
# Nullpunkt Erreger [ms] 31816
# Dämpfung 8
# Dateiname messung7.txt
# Messung d8_f400.dat
# Anzahl Messpunkte 1283
# Amplituden
9.0 -17.0
857.0 24.0
2095.0 -23.0
3350.0 25.0
4588.0 -23.0
5845.0 25.0
7083.0 -23.0
8339.0 25.0
9577.0 -23.0
10832.0 25.0
12069.0 -23.0
13327.0 25.0
14563.0 -23.0
15819.0 25.0
17058.0 -23.0
18313.0 25.0
19551.0 -22.0
20808.0 25.0
22044.0 -23.0
23300.0 25.0
24539.0 -23.0
25794.0 25.0
27032.0 -23.0
28289.0 25.0
29525.0 -23.0
30781.0 24.0
32020.0 -22.0
33275.0 25.0


# Anregungsfrequenz 500
# Nullpunkt Erreger [ms] 40875
# Dämpfung 8
# Dateiname messung8.txt
# Messung d8_f500.dat
# Anzahl Messpunkte 1019
# Amplituden
261.0 13.0
1258.0 -11.0
2256.0 13.0
3256.0 -11.0
4252.0 12.0
5249.0 -11.0
6245.0 13.0
7247.0 -11.0
8242.0 13.0
9239.0 -11.0
10238.0 13.0
11234.0 -11.0
12231.0 12.0
13228.0 -11.0
14223.0 12.0
15223.0 -11.0
16221.0 13.0
17217.0 -10.0
18214.0 13.0
19214.0 -9.0
20208.0 13.0
21208.0 -10.0
22206.0 13.0
23202.0 -11.0
24198.0 13.0
25200.0 -11.0
26193.0 13.0
27193.0 -11.0
28190.0 13.0
29188.0 -11.0
30183.0 13.0
31184.0 -11.0
32178.0 13.0
33178.0 -11.0
34174.0 13.0
35174.0 -11.0
36168.0 13.0
37170.0 -11.0
38163.0 13.0
39163.0 -11.0
40159.0 13.0
41157.0 -11.0
42152.0 13.0


# Anregungsfrequenz 600
# Nullpunkt Erreger [ms] 32873
# Dämpfung 8
# Dateiname messung9.txt
# Messung d8_f600.dat
# Anzahl Messpunkte 563
# Amplituden
126.0 -4.0
678.0 8.0
1522.0 -6.0
2339.0 8.0
3187.0 -6.0
4000.0 8.0
4849.0 -6.0
5665.0 8.0
6509.0 -6.0
7326.0 8.0
8176.0 -5.0
8988.0 8.0
9836.0 -6.0
10652.0 8.0
11496.0 -6.0
12313.0 8.0
13164.0 -6.0
13976.0 8.0
14823.0 -6.0
15639.0 8.0
16486.0 -5.0
17300.0 8.0
18151.0 -6.0
18962.0 8.0
19811.0 -6.0
20626.0 8.0
21474.0 -6.0
22287.0 8.0
23138.0 -6.0
23950.0 8.0
24799.0 -6.0
25613.0 7.0
26463.0 -6.0
27273.0 8.0
28125.0 -6.0
28937.0 8.0
29787.0 -6.0
30599.0 7.0
31450.0 -6.0
32261.0 8.0
33113.0 -6.0


# Anregungsfrequenz 350
# Nullpunkt Erreger [ms] 42080
# Dämpfung 8
# Dateiname messung10.txt
# Messung d8_f350.dat
# Anzahl Messpunkte 2047
# Amplituden
1.0 -13.0
881.0 35.0
2242.0 -34.0
3643.0 35.0
5115.0 -34.0
6567.0 36.0
7965.0 -34.0
9403.0 35.0
10802.0 -34.0
12264.0 36.0
13671.0 -33.0
15115.0 36.0
16512.0 -33.0
17947.0 36.0
19354.0 -34.0
20799.0 34.0
22203.0 -34.0
23655.0 36.0
25057.0 -32.0
26495.0 36.0
27905.0 -33.0
29351.0 36.0
30755.0 -33.0
32205.0 36.0
33605.0 -34.0
35045.0 34.0
36459.0 -34.0
37894.0 36.0
39305.0 -33.0
40753.0 36.0


# Anregungsfrequenz 250
# Nullpunkt Erreger [ms] 40181
# Dämpfung 8
# Dateiname messung11.txt
# Messung d8_f250.dat
# Anzahl Messpunkte 1291
# Amplituden
33.0 -25.0
1720.0 31.0
3709.0 -29.0
5703.0 31.0
7702.0 -29.0
9699.0 31.0
11690.0 -29.0
13689.0 31.0
15679.0 -29.0
17674.0 30.0
19673.0 -29.0
21666.0 31.0
23658.0 -29.0
25656.0 31.0
27648.0 -29.0
29644.0 31.0
31644.0 -29.0
33634.0 31.0
35627.0 -29.0
37627.0 31.0
39617.0 -29.0
41612.0 31.0


# Anregungsfrequenz 325
# Nullpunkt Erreger [ms] 37924
# Dämpfung 8
# Dateiname messung12.txt
# Messung d8_f325.dat
# Anzahl Messpunkte 1897
# Amplituden
14.0 22.0
985.0 -36.0
2520.0 38.0
4051.0 -36.0
5595.0 38.0
7118.0 -36.0
8673.0 38.0
10185.0 -36.0
11725.0 38.0
13255.0 -35.0
14798.0 37.0
16321.0 -36.0
17873.0 38.0
19483.0 -36.0
20930.0 38.0
22461.0 -35.0
24005.0 38.0
25529.0 -35.0
27083.0 38.0
28708.0 -36.0
30143.0 38.0
31668.0 -35.0
33216.0 38.0
34843.0 -36.0
36290.0 38.0
37887.0 -36.0
39350.0 38.0


# Anregungsfrequenz 310
# Nullpunkt Erreger [ms] 42723
# Dämpfung 8
# Dateiname messung13.txt
# Messung d8_f310.dat
# Anzahl Messpunkte 2011
# Amplituden
1.0 1.0
671.0 -34.0
2290.0 38.0
3892.0 -36.0
5511.0 38.0
7106.0 -36.0
8727.0 38.0
10325.0 -35.0
11938.0 38.0
13547.0 -36.0
15168.0 38.0
16762.0 -36.0
18382.0 37.0
19979.0 -36.0
21594.0 37.0
23200.0 -36.0
24821.0 37.0
26415.0 -36.0
28035.0 37.0
29630.0 -36.0
31245.0 37.0
32852.0 -36.0
34462.0 37.0
36069.0 -36.0
37690.0 37.0
39282.0 -36.0
40898.0 37.0
42502.0 -36.0


# Anregungsfrequenz 305
# Nullpunkt Erreger [ms] 40623
# Dämpfung 8
# Dateiname messung14.txt
# Messung d8_f305.dat
# Anzahl Messpunkte 1958
# Amplituden
12.0 27.0
1131.0 -35.0
2800.0 38.0
4394.0 -35.0
6070.0 38.0
7664.0 -36.0
9333.0 38.0
10938.0 -35.0
12610.0 38.0
14205.0 -34.0
15890.0 38.0
17476.0 -36.0
19151.0 37.0
20753.0 -36.0
22420.0 38.0
24018.0 -35.0
25707.0 38.0
27288.0 -35.0
28965.0 38.0
30559.0 -36.0
32242.0 37.0
33827.0 -36.0
35515.0 36.0
37099.0 -35.0
38777.0 38.0
40371.0 -35.0
42068.0 38.0


# Anregungsfrequenz 315
# Nullpunkt Erreger [ms] 51699
# Dämpfung 8
# Dateiname messung15.txt
# Messung d8_f315.dat
# Anzahl Messpunkte 2445
# Amplituden
8.0 10.0
890.0 -37.0
2404.0 37.0
4053.0 -37.0
5676.0 39.0
7228.0 -36.0
8734.0 38.0
10384.0 -36.0
11903.0 38.0
13541.0 -36.0
15065.0 38.0
16728.0 -37.0
18336.0 38.0
19883.0 -37.0
21479.0 38.0
23046.0 -37.0
24649.0 39.0
26233.0 -37.0
27834.0 39.0
29386.0 -36.0
30903.0 38.0
32541.0 -36.0
34066.0 38.0
35730.0 -36.0
37315.0 39.0
38882.0 -36.0
40398.0 38.0
42047.0 -36.0
43668.0 39.0
45236.0 -36.0
46730.0 37.0
48387.0 -36.0
49990.0 39.0
51553.0 -36.0


# Anregungsfrequenz 100
# Nullpunkt Erreger [ms] 95296
# Dämpfung 6
# Dateiname messung16.txt
# Messung d6_f100.dat
# Anzahl Messpunkte 757
# Amplituden
27.0 9.0
3157.0 -18.0
8085.0 19.0
13133.0 -18.0
18056.0 19.0
23115.0 -18.0
28024.0 19.0
33077.0 -18.0
38003.0 19.0
43078.0 -18.0
47978.0 19.0
53027.0 -18.0
57951.0 19.0
62993.0 -18.0
67922.0 19.0
73007.0 -18.0
77899.0 19.0
82960.0 -18.0
87872.0 19.0
92936.0 -18.0
97840.0 19.0


# Anregungsfrequenz 200
# Nullpunkt Erreger [ms] 72290
# Dämpfung 6
# Dateiname messung17.txt
# Messung d6_f200.dat
# Anzahl Messpunkte 1509
# Amplituden
1478.0 -24.0
3883.0 26.0
6483.0 -24.0
8863.0 26.0
11487.0 -24.0
13847.0 26.0
16452.0 -24.0
18846.0 26.0
21440.0 -24.0
23831.0 26.0
26435.0 -24.0
28814.0 26.0
31412.0 -24.0
33808.0 26.0
36399.0 -24.0
38794.0 26.0
41394.0 -24.0
43777.0 26.0
46396.0 -24.0
48769.0 26.0
51361.0 -24.0
53758.0 26.0
56346.0 -24.0
58740.0 26.0
61354.0 -24.0
63730.0 26.0
66316.0 -24.0
68720.0 26.0
71312.0 -24.0
73703.0 26.0


# Anregungsfrequenz 300
# Nullpunkt Erreger [ms] 45897
# Dämpfung 6
# Dateiname messung18.txt
# Messung d6_f300.dat
# Anzahl Messpunkte 2771
# Amplituden
652.0 50.0
2303.0 -47.0
3268.0 9.0
3276.0 7.0
3973.0 51.0
5628.0 -50.0
7291.0 52.0
8955.0 -49.0
10628.0 52.0
12278.0 -49.0
13955.0 51.0
15602.0 -50.0
17267.0 50.0
18926.0 -50.0
20604.0 52.0
22253.0 -48.0
23929.0 52.0
25577.0 -49.0
27244.0 51.0
28900.0 -50.0
30577.0 51.0
32223.0 -50.0
33908.0 52.0
35549.0 -49.0
37221.0 52.0
38873.0 -49.0
40553.0 51.0
42196.0 -50.0
43883.0 51.0
45523.0 -50.0


# Anregungsfrequenz 400
# Nullpunkt Erreger [ms] 37142
# Dämpfung 6
# Dateiname messung19.txt
# Messung d6_f400.dat
# Anzahl Messpunkte 1910
# Amplituden
88.0 -29.0
1358.0 31.0
2581.0 -30.0
3855.0 32.0
5073.0 -30.0
6345.0 32.0
7568.0 -30.0
8843.0 31.0
10063.0 -30.0
11340.0 32.0
12555.0 -30.0
13828.0 31.0
15048.0 -29.0
16323.0 32.0
17541.0 -30.0
18817.0 32.0
20037.0 -29.0
21311.0 32.0
22528.0 -30.0
23805.0 32.0
25024.0 -29.0
26299.0 32.0
27519.0 -30.0
28795.0 32.0
30010.0 -29.0
31286.0 32.0
32506.0 -30.0
33780.0 32.0
34999.0 -30.0
36275.0 31.0
37491.0 -30.0
38767.0 32.0


# Anregungsfrequenz 500
# Nullpunkt Erreger [ms] 26327
# Dämpfung 6
# Dateiname messung20.txt
# Messung d6_f500.dat
# Anzahl Messpunkte 722
# Amplituden
26.0 10.0
715.0 -12.0
1729.0 13.0
2711.0 -12.0
3722.0 14.0
4707.0 -12.0
5717.0 14.0
6702.0 -12.0
7714.0 14.0
8696.0 -12.0
9706.0 14.0
10693.0 -12.0
11702.0 14.0
12688.0 -12.0
13697.0 14.0
14682.0 -12.0
15690.0 13.0
16679.0 -12.0
17687.0 14.0
18672.0 -12.0
19681.0 14.0
20668.0 -12.0
21675.0 14.0
22663.0 -12.0
23671.0 14.0
24659.0 -12.0
25665.0 14.0
26654.0 -12.0


# Anregungsfrequenz 600
# Nullpunkt Erreger [ms] 34634
# Dämpfung 6
# Dateiname messung21.txt
# Messung d6_f600.dat
# Anzahl Messpunkte 668
# Amplituden
77.0 -6.0
903.0 9.0
1750.0 -6.0
2563.0 9.0
3408.0 -7.0
4232.0 9.0
5064.0 -7.0
5887.0 9.0
6748.0 -7.0
7550.0 9.0
8393.0 -6.0
9216.0 9.0
10058.0 -7.0
10874.0 9.0
11733.0 -7.0
12535.0 9.0
13386.0 -7.0
14202.0 9.0
15051.0 -7.0
15859.0 9.0
16720.0 -7.0
17522.0 9.0
18381.0 -7.0
19187.0 9.0
20041.0 -7.0
20846.0 9.0
21711.0 -7.0
22508.0 9.0
23371.0 -7.0
24173.0 9.0
25031.0 -7.0
25831.0 9.0
26704.0 -7.0
27496.0 9.0
28357.0 -7.0
29157.0 9.0
30027.0 -7.0
30819.0 9.0
31690.0 -7.0
32482.0 9.0
33354.0 -7.0
34143.0 9.0


# Anregungsfrequenz 350
# Nullpunkt Erreger [ms] 38301
# Dämpfung 6
# Dateiname messung22.txt
# Messung d6_f350.dat
# Anzahl Messpunkte 2748
# Amplituden
78.0 50.0
1388.0 -51.0
2786.0 51.0
4242.0 -51.0
5640.0 51.0
7090.0 -51.0
8484.0 52.0
9934.0 -50.0
11334.0 52.0
12768.0 -50.0
14179.0 52.0
15613.0 -51.0
17026.0 51.0
18463.0 -51.0
19877.0 51.0
21311.0 -50.0
22726.0 52.0
24160.0 -50.0
25576.0 52.0
27009.0 -50.0
28423.0 52.0
29854.0 -51.0
31275.0 50.0
32705.0 -51.0
34124.0 51.0
35554.0 -49.0
36973.0 52.0


# Anregungsfrequenz 320
# Nullpunkt Erreger [ms] 41571
# Dämpfung 6
# Dateiname messung23.txt
# Messung d6_f320.dat
# Anzahl Messpunkte 3177
# Amplituden
1.0 18.0
897.0 -56.0
2421.0 56.0
4007.0 -56.0
5541.0 56.0
7119.0 -56.0
8657.0 56.0
10231.0 -56.0
11770.0 56.0
13348.0 -56.0
14889.0 56.0
16465.0 -56.0
18005.0 56.0
19580.0 -56.0
21119.0 56.0
22691.0 -56.0
24233.0 56.0
25813.0 -56.0
27354.0 56.0
28923.0 -56.0
30468.0 56.0
32040.0 -56.0
33584.0 56.0
35163.0 -56.0
36704.0 55.0
38276.0 -56.0
39820.0 55.0
41391.0 -55.0
42934.0 55.0


# Anregungsfrequenz 310
# Nullpunkt Erreger [ms] 46364
# Dämpfung 6
# Dateiname messung24.txt
# Messung d6_f310.dat
# Anzahl Messpunkte 3190
# Amplituden
6.0 31.0
1070.0 -53.0
2657.0 55.0
4280.0 -52.0
5862.0 54.0
7507.0 -54.0
9091.0 54.0
10714.0 -54.0
12311.0 55.0
13935.0 -53.0
15525.0 55.0
17163.0 -53.0
18754.0 55.0
20369.0 -50.0
21284.0 9.0
21291.0 7.0
21966.0 54.0
23589.0 -52.0
25185.0 54.0
26826.0 -54.0
28410.0 54.0
30025.0 -54.0
31619.0 53.0
33240.0 -53.0
34836.0 55.0
36463.0 -53.0
38060.0 55.0
39676.0 -50.0
41281.0 55.0
42906.0 -52.0
44497.0 54.0
46120.0 -54.0


# Anregungsfrequenz 315
# Nullpunkt Erreger [ms] 37433
# Dämpfung 6
# Dateiname messung25.txt
# Messung d6_f315.dat
# Anzahl Messpunkte 2798
# Amplituden
3.0 -7.0
821.0 56.0
2426.0 -56.0
3977.0 54.0
4771.0 5.0
4778.0 7.0
5534.0 -55.0
7161.0 57.0
8776.0 -54.0
10324.0 57.0
11919.0 -55.0
13478.0 57.0
15033.0 -54.0
16660.0 57.0
18274.0 -55.0
19819.0 56.0
21424.0 -56.0
22984.0 56.0
24534.0 -55.0
26160.0 56.0
27763.0 -56.0
29320.0 56.0
30923.0 -56.0
32484.0 53.0
33269.0 5.0
33275.0 7.0
34030.0 -54.0
35663.0 57.0
37251.0 -55.0
38818.0 55.0


# Anregungsfrequenz 100
# Nullpunkt Erreger [ms] 99738
# Dämpfung 4
# Dateiname messung26.txt
# Messung d4_f100.dat
# Anzahl Messpunkte 785
# Amplituden
2307.0 19.0
7400.0 -18.0
12270.0 19.0
17344.0 -18.0
22233.0 19.0
27329.0 -18.0
32230.0 19.0
37304.0 -18.0
42194.0 19.0
47306.0 -18.0
52166.0 19.0
57257.0 -18.0
62142.0 19.0
67238.0 -18.0
72120.0 19.0
77222.0 -18.0
82098.0 19.0
87187.0 -18.0
92065.0 19.0
97168.0 -18.0
102040.0 19.0


# Anregungsfrequenz 200
# Nullpunkt Erreger [ms] 64283
# Dämpfung 4
# Dateiname messung27.txt
# Messung d4_f200.dat
# Anzahl Messpunkte 1321
# Amplituden
794.0 25.0
3287.0 -24.0
5787.0 27.0
8255.0 -24.0
10791.0 27.0
13238.0 -24.0
15766.0 27.0
18242.0 -24.0
20753.0 27.0
23211.0 -24.0
25754.0 27.0
28211.0 -24.0
30725.0 27.0
33201.0 -24.0
35724.0 27.0
38173.0 -24.0
40721.0 27.0
43161.0 -23.0
45690.0 27.0
48169.0 -24.0
50679.0 27.0
53141.0 -24.0
55672.0 27.0
58126.0 -24.0
60653.0 27.0
63126.0 -24.0


# Anregungsfrequenz 400
# Nullpunkt Erreger [ms] 37490
# Dämpfung 4
# Dateiname messung28.txt
# Messung d4_f400.dat
# Anzahl Messpunkte 2177
# Amplituden
551.0 -33.0
1838.0 37.0
3009.0 -35.0
4279.0 37.0
5514.0 -34.0
6790.0 36.0
8054.0 -36.0
9280.0 37.0
10526.0 -36.0
11771.0 35.0
13024.0 -35.0
14278.0 37.0
15546.0 -36.0
16779.0 36.0
18028.0 -34.0
19265.0 37.0
20514.0 -36.0
21766.0 37.0
23021.0 -35.0
24258.0 37.0
25501.0 -36.0
26755.0 37.0
27998.0 -35.0
29243.0 36.0
30509.0 -36.0
31746.0 37.0
33013.0 -35.0
34243.0 36.0
35492.0 -36.0
36724.0 37.0


# Anregungsfrequenz 500
# Nullpunkt Erreger [ms] 32205
# Dämpfung 4
# Dateiname messung29.txt
# Messung d4_f500.dat
# Anzahl Messpunkte 877
# Amplituden
34.0 9.0
707.0 -13.0
1667.0 14.0
2703.0 -13.0
3659.0 14.0
4700.0 -13.0
5655.0 14.0
6693.0 -13.0
7651.0 13.0
8689.0 -13.0
9644.0 14.0
10684.0 -13.0
11640.0 14.0
12681.0 -13.0
13636.0 14.0
14673.0 -13.0
15627.0 13.0
16671.0 -13.0
17625.0 14.0
18667.0 -13.0
19620.0 14.0
20659.0 -13.0
21612.0 14.0
22656.0 -13.0
23610.0 14.0
24652.0 -13.0
25604.0 14.0
26646.0 -13.0
27599.0 14.0
28641.0 -13.0
29593.0 14.0
30638.0 -13.0
31588.0 14.0


# Anregungsfrequenz 600
# Nullpunkt Erreger [ms] 20858
# Dämpfung 4
# Dateiname messung30.txt
# Messung d4_f600.dat
# Anzahl Messpunkte 414
# Amplituden
483.0 9.0
1246.0 -7.0
2127.0 9.0
2901.0 -7.0
3789.0 9.0
4569.0 -7.0
5463.0 9.0
6227.0 -7.0
7109.0 9.0
7894.0 -7.0
8785.0 9.0
9554.0 -7.0
10437.0 9.0
11217.0 -7.0
12103.0 8.0
12881.0 -7.0
13765.0 9.0
14542.0 -7.0
15425.0 9.0
16206.0 -7.0
17087.0 9.0
17868.0 -7.0
18750.0 9.0
19531.0 -7.0
20409.0 9.0
21195.0 -7.0


# Anregungsfrequenz 300
# Nullpunkt Erreger [ms] 48653
# Dämpfung 4
# Dateiname messung31.txt
# Messung d4_f300.dat
# Anzahl Messpunkte 4166
# Amplituden
42.0 69.0
1546.0 -66.0
3223.0 71.0
4942.0 -69.0
6541.0 70.0
8260.0 -70.0
9868.0 70.0
11531.0 -68.0
13212.0 71.0
14861.0 -67.0
16531.0 70.0
18181.0 -69.0
19860.0 69.0
21505.0 -68.0
23180.0 71.0
24821.0 -67.0
26495.0 71.0
28150.0 -67.0
29834.0 69.0
31473.0 -69.0
33154.0 69.0
34859.0 -69.0
36465.0 71.0
38130.0 -67.0
39815.0 70.0
41449.0 -66.0
43138.0 69.0
44762.0 -68.0
46444.0 71.0
48140.0 -68.0
49768.0 71.0


# Anregungsfrequenz 320
# Nullpunkt Erreger [ms] 48888
# Dämpfung 4
# Dateiname messung32.txt
# Messung d4_f320.dat
# Anzahl Messpunkte 6434
# Amplituden
441.0 101.0
2001.0 -101.0
3556.0 105.0
5123.0 -102.0
6678.0 104.0
8235.0 -101.0
9791.0 104.0
11363.0 -101.0
12916.0 103.0
14480.0 -104.0
16034.0 102.0
17585.0 -104.0
19140.0 102.0
20710.0 -104.0
22264.0 101.0
23830.0 -103.0
25383.0 101.0
26945.0 -102.0
28497.0 105.0
30064.0 -101.0
31616.0 105.0
33182.0 -100.0
34732.0 105.0
36291.0 -99.0
37846.0 105.0
39409.0 -99.0
40960.0 103.0
42526.0 -99.0
44078.0 102.0
45648.0 -97.0
46493.0 11.0
46496.0 7.0
47198.0 101.0
48766.0 -104.0


# Anregungsfrequenz 315
# Nullpunkt Erreger [ms] 41519
# Dämpfung 4
# Dateiname messung33.txt
# Messung d4_f315.dat
# Anzahl Messpunkte 5340
# Amplituden
121.0 -94.0
1738.0 97.0
3291.0 -94.0
4900.0 98.0
6454.0 -94.0
8064.0 97.0
9615.0 -96.0
11219.0 96.0
12780.0 -96.0
14384.0 96.0
15947.0 -96.0
17550.0 95.0
19112.0 -95.0
20715.0 95.0
22276.0 -94.0
23879.0 98.0
25449.0 -93.0
27052.0 98.0
28612.0 -92.0
30226.0 97.0
31777.0 -92.0
32644.0 9.0
32648.0 7.0
33366.0 95.0
34944.0 -96.0
36537.0 94.0
38103.0 -96.0
39701.0 94.0
41266.0 -94.0
42862.0 98.0


# Anregungsfrequenz 325
# Nullpunkt Erreger [ms] 38623
# Dämpfung 4
# Dateiname messung34.txt
# Messung d4_f325.dat
# Anzahl Messpunkte 5258
# Amplituden
240.0 105.0
1787.0 -100.0
2607.0 11.0
2611.0 7.0
3304.0 106.0
4874.0 -104.0
6380.0 105.0
7918.0 -105.0
9440.0 105.0
10978.0 -106.0
12504.0 105.0
14044.0 -106.0
15568.0 104.0
17109.0 -106.0
18688.0 105.0
20171.0 -106.0
21741.0 105.0
23235.0 -106.0
24803.0 105.0
26305.0 -106.0
27872.0 104.0
29374.0 -106.0
30944.0 104.0
32502.0 -107.0
34008.0 104.0
35563.0 -107.0
37076.0 103.0


# Anregungsfrequenz 322
# Nullpunkt Erreger [ms] 43797
# Dämpfung 4
# Dateiname messung35.txt
# Messung d4_f322.dat
# Anzahl Messpunkte 6158
# Amplituden
351.0 -103.0
1876.0 107.0
3447.0 -104.0
4977.0 107.0
6565.0 -104.0
8077.0 107.0
9643.0 -104.0
11176.0 106.0
12748.0 -104.0
14275.0 107.0
15845.0 -103.0
17377.0 107.0
18948.0 -103.0
20486.0 107.0
21999.0 -101.0
23589.0 106.0
25098.0 -101.0
26684.0 105.0
28197.0 -101.0
29780.0 105.0
31296.0 -105.0
32884.0 104.0
34395.0 -105.0
35988.0 103.0
37511.0 -105.0
39060.0 102.0
40636.0 -105.0
42163.0 101.0
43733.0 -104.0
45262.0 100.0


