# Anregungsfrequenz 0
# Nullpunkt Erreger [ms] 0
# Dämpfung 0
# Dateiname messung0.txt
# Messung d0_f000.dat
# Anzahl Messpunkte 4793
# Zeitpunkte der Extrema
0 430.0
1 2000.0
2 3509.0
3 5043.0
4 6583.0
5 8093.0
6 9615.0
7 11172.0
8 12668.0
9 14175.0
10 15745.0
11 17212.0
12 18743.0
13 20235.0
14 21731.0
15 23225.0
16 24734.0
17 26229.0
18 27718.0
19 29239.0
20 30764.0
21 32232.0
22 33718.0
23 35248.0
24 36678.0
25 38186.0
26 39669.0
27 41179.0
28 42652.0
29 44163.0
30 45625.0


# Anregungsfrequenz 0
# Nullpunkt Erreger [ms] 0
# Dämpfung 4
# Dateiname messung1.txt
# Messung d4_f000.dat
# Anzahl Messpunkte 1070
# Zeitpunkte der Extrema
0 262.0
1 1793.0
2 3289.0
3 4816.0
4 6284.0
5 7738.0
6 9229.0
7 10741.0
8 12172.0
9 13677.0
10 15132.0
11 16596.0
12 18211.0


# Anregungsfrequenz 0
# Nullpunkt Erreger [ms] 0
# Dämpfung 6
# Dateiname messung2.txt
# Messung d6_f000
# Anzahl Messpunkte 654
# Zeitpunkte der Extrema
0 4.0
1 943.0
2 2485.0
3 3977.0
4 5414.0
5 6901.0
6 8416.0
7 9848.0
8 11285.0
9 12865.0
10 14115.0
11 15683.0


# Anregungsfrequenz 0
# Nullpunkt Erreger [ms] 0
# Dämpfung 8
# Dateiname messung3.txt
# Messung d8_f000.dat
# Anzahl Messpunkte 464
# Zeitpunkte der Extrema
0 1151.0
1 2622.0
2 4140.0
3 5629.0
4 7062.0
5 8488.0
6 10131.0


# Anregungsfrequenz 100
# Nullpunkt Erreger [ms] 106698
# Dämpfung 8
# Dateiname messung4.txt
# Messung d8_f100.dat
# Anzahl Messpunkte 772
# Zeitpunkte der Extrema
0 388.0
1 4577.0
2 9400.0
3 14541.0
4 19378.0
5 24535.0
6 29345.0
7 34500.0
8 39323.0
9 44471.0
10 49299.0
11 54457.0
12 59270.0
13 64432.0
14 69249.0
15 74407.0
16 79219.0
17 84384.0
18 89193.0
19 94356.0
20 99168.0
21 104337.0


# Anregungsfrequenz 200
# Nullpunkt Erreger [ms] 52428
# Dämpfung 8
# Dateiname messung5.txt
# Messung d8_f200.dat
# Anzahl Messpunkte 1074
# Zeitpunkte der Extrema
0 16.0
1 1532.0
2 3966.0
3 6526.0
4 8949.0
5 11517.0
6 13936.0
7 16503.0
8 18922.0
9 21493.0
10 23908.0
11 26481.0
12 28894.0
13 31467.0
14 33883.0
15 36456.0
16 38868.0
17 41447.0
18 43854.0
19 46434.0
20 48842.0
21 51422.0
22 53827.0
23 56409.0


# Anregungsfrequenz 300
# Nullpunkt Erreger [ms] 59903
# Dämpfung 8
# Dateiname messung6.txt
# Messung d8_f300.dat
# Anzahl Messpunkte 2702
# Zeitpunkte der Extrema
0 43.0
1 1510.0
2 3119.0
3 4858.0
4 6443.0
5 8148.0
6 9771.0
7 11490.0
8 13093.0
9 14832.0
10 16417.0
11 18119.0
12 19748.0
13 21460.0
14 23069.0
15 24793.0
16 26394.0
17 28092.0
18 29724.0
19 31431.0
20 33046.0
21 34757.0
22 36371.0
23 38060.0
24 39701.0
25 41394.0
26 43023.0
27 44722.0
28 46348.0
29 48029.0
30 49679.0
31 51364.0
32 53000.0
33 54692.0
34 56326.0
35 58000.0
36 59656.0


# Anregungsfrequenz 400
# Nullpunkt Erreger [ms] 31816
# Dämpfung 8
# Dateiname messung7.txt
# Messung d8_f400.dat
# Anzahl Messpunkte 1283
# Zeitpunkte der Extrema
0 9.0
1 857.0
2 2095.0
3 3350.0
4 4588.0
5 5845.0
6 7083.0
7 8339.0
8 9577.0
9 10832.0
10 12069.0
11 13327.0
12 14563.0
13 15819.0
14 17058.0
15 18313.0
16 19551.0
17 20808.0
18 22044.0
19 23300.0
20 24539.0
21 25794.0
22 27032.0
23 28289.0
24 29525.0
25 30781.0
26 32020.0
27 33275.0


# Anregungsfrequenz 500
# Nullpunkt Erreger [ms] 40875
# Dämpfung 8
# Dateiname messung8.txt
# Messung d8_f500.dat
# Anzahl Messpunkte 1019
# Zeitpunkte der Extrema
0 261.0
1 1258.0
2 2256.0
3 3256.0
4 4252.0
5 5249.0
6 6245.0
7 7247.0
8 8242.0
9 9239.0
10 10238.0
11 11234.0
12 12231.0
13 13228.0
14 14223.0
15 15223.0
16 16221.0
17 17217.0
18 18214.0
19 19214.0
20 20208.0
21 21208.0
22 22206.0
23 23202.0
24 24198.0
25 25200.0
26 26193.0
27 27193.0
28 28190.0
29 29188.0
30 30183.0
31 31184.0
32 32178.0
33 33178.0
34 34174.0
35 35174.0
36 36168.0
37 37170.0
38 38163.0
39 39163.0
40 40159.0
41 41157.0
42 42152.0


# Anregungsfrequenz 600
# Nullpunkt Erreger [ms] 32873
# Dämpfung 8
# Dateiname messung9.txt
# Messung d8_f600.dat
# Anzahl Messpunkte 563
# Zeitpunkte der Extrema
0 126.0
1 678.0
2 1522.0
3 2339.0
4 3187.0
5 4000.0
6 4849.0
7 5665.0
8 6509.0
9 7326.0
10 8176.0
11 8988.0
12 9836.0
13 10652.0
14 11496.0
15 12313.0
16 13164.0
17 13976.0
18 14823.0
19 15639.0
20 16486.0
21 17300.0
22 18151.0
23 18962.0
24 19811.0
25 20626.0
26 21474.0
27 22287.0
28 23138.0
29 23950.0
30 24799.0
31 25613.0
32 26463.0
33 27273.0
34 28125.0
35 28937.0
36 29787.0
37 30599.0
38 31450.0
39 32261.0
40 33113.0


# Anregungsfrequenz 350
# Nullpunkt Erreger [ms] 42080
# Dämpfung 8
# Dateiname messung10.txt
# Messung d8_f350.dat
# Anzahl Messpunkte 2047
# Zeitpunkte der Extrema
0 1.0
1 881.0
2 2242.0
3 3643.0
4 5115.0
5 6567.0
6 7965.0
7 9403.0
8 10802.0
9 12264.0
10 13671.0
11 15115.0
12 16512.0
13 17947.0
14 19354.0
15 20799.0
16 22203.0
17 23655.0
18 25057.0
19 26495.0
20 27905.0
21 29351.0
22 30755.0
23 32205.0
24 33605.0
25 35045.0
26 36459.0
27 37894.0
28 39305.0
29 40753.0


# Anregungsfrequenz 250
# Nullpunkt Erreger [ms] 40181
# Dämpfung 8
# Dateiname messung11.txt
# Messung d8_f250.dat
# Anzahl Messpunkte 1291
# Zeitpunkte der Extrema
0 33.0
1 1720.0
2 3709.0
3 5703.0
4 7702.0
5 9699.0
6 11690.0
7 13689.0
8 15679.0
9 17674.0
10 19673.0
11 21666.0
12 23658.0
13 25656.0
14 27648.0
15 29644.0
16 31644.0
17 33634.0
18 35627.0
19 37627.0
20 39617.0
21 41612.0


# Anregungsfrequenz 325
# Nullpunkt Erreger [ms] 37924
# Dämpfung 8
# Dateiname messung12.txt
# Messung d8_f325.dat
# Anzahl Messpunkte 1897
# Zeitpunkte der Extrema
0 14.0
1 985.0
2 2520.0
3 4051.0
4 5595.0
5 7118.0
6 8673.0
7 10185.0
8 11725.0
9 13255.0
10 14798.0
11 16321.0
12 17873.0
13 19483.0
14 20930.0
15 22461.0
16 24005.0
17 25529.0
18 27083.0
19 28708.0
20 30143.0
21 31668.0
22 33216.0
23 34843.0
24 36290.0
25 37887.0
26 39350.0


# Anregungsfrequenz 310
# Nullpunkt Erreger [ms] 42723
# Dämpfung 8
# Dateiname messung13.txt
# Messung d8_f310.dat
# Anzahl Messpunkte 2011
# Zeitpunkte der Extrema
0 1.0
1 671.0
2 2290.0
3 3892.0
4 5511.0
5 7106.0
6 8727.0
7 10325.0
8 11938.0
9 13547.0
10 15168.0
11 16762.0
12 18382.0
13 19979.0
14 21594.0
15 23200.0
16 24821.0
17 26415.0
18 28035.0
19 29630.0
20 31245.0
21 32852.0
22 34462.0
23 36069.0
24 37690.0
25 39282.0
26 40898.0
27 42502.0


# Anregungsfrequenz 305
# Nullpunkt Erreger [ms] 40623
# Dämpfung 8
# Dateiname messung14.txt
# Messung d8_f305.dat
# Anzahl Messpunkte 1958
# Zeitpunkte der Extrema
0 12.0
1 1131.0
2 2800.0
3 4394.0
4 6070.0
5 7664.0
6 9333.0
7 10938.0
8 12610.0
9 14205.0
10 15890.0
11 17476.0
12 19151.0
13 20753.0
14 22420.0
15 24018.0
16 25707.0
17 27288.0
18 28965.0
19 30559.0
20 32242.0
21 33827.0
22 35515.0
23 37099.0
24 38777.0
25 40371.0
26 42068.0


# Anregungsfrequenz 315
# Nullpunkt Erreger [ms] 51699
# Dämpfung 8
# Dateiname messung15.txt
# Messung d8_f315.dat
# Anzahl Messpunkte 2445
# Zeitpunkte der Extrema
0 8.0
1 890.0
2 2404.0
3 4053.0
4 5676.0
5 7228.0
6 8734.0
7 10384.0
8 11903.0
9 13541.0
10 15065.0
11 16728.0
12 18336.0
13 19883.0
14 21479.0
15 23046.0
16 24649.0
17 26233.0
18 27834.0
19 29386.0
20 30903.0
21 32541.0
22 34066.0
23 35730.0
24 37315.0
25 38882.0
26 40398.0
27 42047.0
28 43668.0
29 45236.0
30 46730.0
31 48387.0
32 49990.0
33 51553.0


# Anregungsfrequenz 100
# Nullpunkt Erreger [ms] 95296
# Dämpfung 6
# Dateiname messung16.txt
# Messung d6_f100.dat
# Anzahl Messpunkte 757
# Zeitpunkte der Extrema
0 27.0
1 3157.0
2 8085.0
3 13133.0
4 18056.0
5 23115.0
6 28024.0
7 33077.0
8 38003.0
9 43078.0
10 47978.0
11 53027.0
12 57951.0
13 62993.0
14 67922.0
15 73007.0
16 77899.0
17 82960.0
18 87872.0
19 92936.0
20 97840.0


# Anregungsfrequenz 200
# Nullpunkt Erreger [ms] 72290
# Dämpfung 6
# Dateiname messung17.txt
# Messung d6_f200.dat
# Anzahl Messpunkte 1509
# Zeitpunkte der Extrema
0 1478.0
1 3883.0
2 6483.0
3 8863.0
4 11487.0
5 13847.0
6 16452.0
7 18846.0
8 21440.0
9 23831.0
10 26435.0
11 28814.0
12 31412.0
13 33808.0
14 36399.0
15 38794.0
16 41394.0
17 43777.0
18 46396.0
19 48769.0
20 51361.0
21 53758.0
22 56346.0
23 58740.0
24 61354.0
25 63730.0
26 66316.0
27 68720.0
28 71312.0
29 73703.0


# Anregungsfrequenz 300
# Nullpunkt Erreger [ms] 45897
# Dämpfung 6
# Dateiname messung18.txt
# Messung d6_f300.dat
# Anzahl Messpunkte 2771
# Zeitpunkte der Extrema
0 652.0
1 2303.0
2 3268.0
3 3276.0
4 3973.0
5 5628.0
6 7291.0
7 8955.0
8 10628.0
9 12278.0
10 13955.0
11 15602.0
12 17267.0
13 18926.0
14 20604.0
15 22253.0
16 23929.0
17 25577.0
18 27244.0
19 28900.0
20 30577.0
21 32223.0
22 33908.0
23 35549.0
24 37221.0
25 38873.0
26 40553.0
27 42196.0
28 43883.0
29 45523.0


# Anregungsfrequenz 400
# Nullpunkt Erreger [ms] 37142
# Dämpfung 6
# Dateiname messung19.txt
# Messung d6_f400.dat
# Anzahl Messpunkte 1910
# Zeitpunkte der Extrema
0 88.0
1 1358.0
2 2581.0
3 3855.0
4 5073.0
5 6345.0
6 7568.0
7 8843.0
8 10063.0
9 11340.0
10 12555.0
11 13828.0
12 15048.0
13 16323.0
14 17541.0
15 18817.0
16 20037.0
17 21311.0
18 22528.0
19 23805.0
20 25024.0
21 26299.0
22 27519.0
23 28795.0
24 30010.0
25 31286.0
26 32506.0
27 33780.0
28 34999.0
29 36275.0
30 37491.0
31 38767.0


# Anregungsfrequenz 500
# Nullpunkt Erreger [ms] 26327
# Dämpfung 6
# Dateiname messung20.txt
# Messung d6_f500.dat
# Anzahl Messpunkte 722
# Zeitpunkte der Extrema
0 26.0
1 715.0
2 1729.0
3 2711.0
4 3722.0
5 4707.0
6 5717.0
7 6702.0
8 7714.0
9 8696.0
10 9706.0
11 10693.0
12 11702.0
13 12688.0
14 13697.0
15 14682.0
16 15690.0
17 16679.0
18 17687.0
19 18672.0
20 19681.0
21 20668.0
22 21675.0
23 22663.0
24 23671.0
25 24659.0
26 25665.0
27 26654.0


# Anregungsfrequenz 600
# Nullpunkt Erreger [ms] 34634
# Dämpfung 6
# Dateiname messung21.txt
# Messung d6_f600.dat
# Anzahl Messpunkte 668
# Zeitpunkte der Extrema
0 77.0
1 903.0
2 1750.0
3 2563.0
4 3408.0
5 4232.0
6 5064.0
7 5887.0
8 6748.0
9 7550.0
10 8393.0
11 9216.0
12 10058.0
13 10874.0
14 11733.0
15 12535.0
16 13386.0
17 14202.0
18 15051.0
19 15859.0
20 16720.0
21 17522.0
22 18381.0
23 19187.0
24 20041.0
25 20846.0
26 21711.0
27 22508.0
28 23371.0
29 24173.0
30 25031.0
31 25831.0
32 26704.0
33 27496.0
34 28357.0
35 29157.0
36 30027.0
37 30819.0
38 31690.0
39 32482.0
40 33354.0
41 34143.0


# Anregungsfrequenz 350
# Nullpunkt Erreger [ms] 38301
# Dämpfung 6
# Dateiname messung22.txt
# Messung d6_f350.dat
# Anzahl Messpunkte 2748
# Zeitpunkte der Extrema
0 78.0
1 1388.0
2 2786.0
3 4242.0
4 5640.0
5 7090.0
6 8484.0
7 9934.0
8 11334.0
9 12768.0
10 14179.0
11 15613.0
12 17026.0
13 18463.0
14 19877.0
15 21311.0
16 22726.0
17 24160.0
18 25576.0
19 27009.0
20 28423.0
21 29854.0
22 31275.0
23 32705.0
24 34124.0
25 35554.0
26 36973.0


# Anregungsfrequenz 320
# Nullpunkt Erreger [ms] 41571
# Dämpfung 6
# Dateiname messung23.txt
# Messung d6_f320.dat
# Anzahl Messpunkte 3177
# Zeitpunkte der Extrema
0 1.0
1 897.0
2 2421.0
3 4007.0
4 5541.0
5 7119.0
6 8657.0
7 10231.0
8 11770.0
9 13348.0
10 14889.0
11 16465.0
12 18005.0
13 19580.0
14 21119.0
15 22691.0
16 24233.0
17 25813.0
18 27354.0
19 28923.0
20 30468.0
21 32040.0
22 33584.0
23 35163.0
24 36704.0
25 38276.0
26 39820.0
27 41391.0
28 42934.0


# Anregungsfrequenz 310
# Nullpunkt Erreger [ms] 46364
# Dämpfung 6
# Dateiname messung24.txt
# Messung d6_f310.dat
# Anzahl Messpunkte 3190
# Zeitpunkte der Extrema
0 6.0
1 1070.0
2 2657.0
3 4280.0
4 5862.0
5 7507.0
6 9091.0
7 10714.0
8 12311.0
9 13935.0
10 15525.0
11 17163.0
12 18754.0
13 20369.0
14 21284.0
15 21291.0
16 21966.0
17 23589.0
18 25185.0
19 26826.0
20 28410.0
21 30025.0
22 31619.0
23 33240.0
24 34836.0
25 36463.0
26 38060.0
27 39676.0
28 41281.0
29 42906.0
30 44497.0
31 46120.0


# Anregungsfrequenz 315
# Nullpunkt Erreger [ms] 37433
# Dämpfung 6
# Dateiname messung25.txt
# Messung d6_f315.dat
# Anzahl Messpunkte 2798
# Zeitpunkte der Extrema
0 3.0
1 821.0
2 2426.0
3 3977.0
4 4771.0
5 4778.0
6 5534.0
7 7161.0
8 8776.0
9 10324.0
10 11919.0
11 13478.0
12 15033.0
13 16660.0
14 18274.0
15 19819.0
16 21424.0
17 22984.0
18 24534.0
19 26160.0
20 27763.0
21 29320.0
22 30923.0
23 32484.0
24 33269.0
25 33275.0
26 34030.0
27 35663.0
28 37251.0
29 38818.0


# Anregungsfrequenz 100
# Nullpunkt Erreger [ms] 99738
# Dämpfung 4
# Dateiname messung26.txt
# Messung d4_f100.dat
# Anzahl Messpunkte 785
# Zeitpunkte der Extrema
0 2307.0
1 7400.0
2 12270.0
3 17344.0
4 22233.0
5 27329.0
6 32230.0
7 37304.0
8 42194.0
9 47306.0
10 52166.0
11 57257.0
12 62142.0
13 67238.0
14 72120.0
15 77222.0
16 82098.0
17 87187.0
18 92065.0
19 97168.0
20 102040.0


# Anregungsfrequenz 200
# Nullpunkt Erreger [ms] 64283
# Dämpfung 4
# Dateiname messung27.txt
# Messung d4_f200.dat
# Anzahl Messpunkte 1321
# Zeitpunkte der Extrema
0 794.0
1 3287.0
2 5787.0
3 8255.0
4 10791.0
5 13238.0
6 15766.0
7 18242.0
8 20753.0
9 23211.0
10 25754.0
11 28211.0
12 30725.0
13 33201.0
14 35724.0
15 38173.0
16 40721.0
17 43161.0
18 45690.0
19 48169.0
20 50679.0
21 53141.0
22 55672.0
23 58126.0
24 60653.0
25 63126.0


# Anregungsfrequenz 400
# Nullpunkt Erreger [ms] 37490
# Dämpfung 4
# Dateiname messung28.txt
# Messung d4_f400.dat
# Anzahl Messpunkte 2177
# Zeitpunkte der Extrema
0 551.0
1 1838.0
2 3009.0
3 4279.0
4 5514.0
5 6790.0
6 8054.0
7 9280.0
8 10526.0
9 11771.0
10 13024.0
11 14278.0
12 15546.0
13 16779.0
14 18028.0
15 19265.0
16 20514.0
17 21766.0
18 23021.0
19 24258.0
20 25501.0
21 26755.0
22 27998.0
23 29243.0
24 30509.0
25 31746.0
26 33013.0
27 34243.0
28 35492.0
29 36724.0


# Anregungsfrequenz 500
# Nullpunkt Erreger [ms] 32205
# Dämpfung 4
# Dateiname messung29.txt
# Messung d4_f500.dat
# Anzahl Messpunkte 877
# Zeitpunkte der Extrema
0 34.0
1 707.0
2 1667.0
3 2703.0
4 3659.0
5 4700.0
6 5655.0
7 6693.0
8 7651.0
9 8689.0
10 9644.0
11 10684.0
12 11640.0
13 12681.0
14 13636.0
15 14673.0
16 15627.0
17 16671.0
18 17625.0
19 18667.0
20 19620.0
21 20659.0
22 21612.0
23 22656.0
24 23610.0
25 24652.0
26 25604.0
27 26646.0
28 27599.0
29 28641.0
30 29593.0
31 30638.0
32 31588.0


# Anregungsfrequenz 600
# Nullpunkt Erreger [ms] 20858
# Dämpfung 4
# Dateiname messung30.txt
# Messung d4_f600.dat
# Anzahl Messpunkte 414
# Zeitpunkte der Extrema
0 483.0
1 1246.0
2 2127.0
3 2901.0
4 3789.0
5 4569.0
6 5463.0
7 6227.0
8 7109.0
9 7894.0
10 8785.0
11 9554.0
12 10437.0
13 11217.0
14 12103.0
15 12881.0
16 13765.0
17 14542.0
18 15425.0
19 16206.0
20 17087.0
21 17868.0
22 18750.0
23 19531.0
24 20409.0
25 21195.0


# Anregungsfrequenz 300
# Nullpunkt Erreger [ms] 48653
# Dämpfung 4
# Dateiname messung31.txt
# Messung d4_f300.dat
# Anzahl Messpunkte 4166
# Zeitpunkte der Extrema
0 42.0
1 1546.0
2 3223.0
3 4942.0
4 6541.0
5 8260.0
6 9868.0
7 11531.0
8 13212.0
9 14861.0
10 16531.0
11 18181.0
12 19860.0
13 21505.0
14 23180.0
15 24821.0
16 26495.0
17 28150.0
18 29834.0
19 31473.0
20 33154.0
21 34859.0
22 36465.0
23 38130.0
24 39815.0
25 41449.0
26 43138.0
27 44762.0
28 46444.0
29 48140.0
30 49768.0


# Anregungsfrequenz 320
# Nullpunkt Erreger [ms] 48888
# Dämpfung 4
# Dateiname messung32.txt
# Messung d4_f320.dat
# Anzahl Messpunkte 6434
# Zeitpunkte der Extrema
0 441.0
1 2001.0
2 3556.0
3 5123.0
4 6678.0
5 8235.0
6 9791.0
7 11363.0
8 12916.0
9 14480.0
10 16034.0
11 17585.0
12 19140.0
13 20710.0
14 22264.0
15 23830.0
16 25383.0
17 26945.0
18 28497.0
19 30064.0
20 31616.0
21 33182.0
22 34732.0
23 36291.0
24 37846.0
25 39409.0
26 40960.0
27 42526.0
28 44078.0
29 45648.0
30 46493.0
31 46496.0
32 47198.0
33 48766.0


# Anregungsfrequenz 315
# Nullpunkt Erreger [ms] 41519
# Dämpfung 4
# Dateiname messung33.txt
# Messung d4_f315.dat
# Anzahl Messpunkte 5340
# Zeitpunkte der Extrema
0 121.0
1 1738.0
2 3291.0
3 4900.0
4 6454.0
5 8064.0
6 9615.0
7 11219.0
8 12780.0
9 14384.0
10 15947.0
11 17550.0
12 19112.0
13 20715.0
14 22276.0
15 23879.0
16 25449.0
17 27052.0
18 28612.0
19 30226.0
20 31777.0
21 32644.0
22 32648.0
23 33366.0
24 34944.0
25 36537.0
26 38103.0
27 39701.0
28 41266.0
29 42862.0


# Anregungsfrequenz 325
# Nullpunkt Erreger [ms] 38623
# Dämpfung 4
# Dateiname messung34.txt
# Messung d4_f325.dat
# Anzahl Messpunkte 5258
# Zeitpunkte der Extrema
0 240.0
1 1787.0
2 2607.0
3 2611.0
4 3304.0
5 4874.0
6 6380.0
7 7918.0
8 9440.0
9 10978.0
10 12504.0
11 14044.0
12 15568.0
13 17109.0
14 18688.0
15 20171.0
16 21741.0
17 23235.0
18 24803.0
19 26305.0
20 27872.0
21 29374.0
22 30944.0
23 32502.0
24 34008.0
25 35563.0
26 37076.0


# Anregungsfrequenz 322
# Nullpunkt Erreger [ms] 43797
# Dämpfung 4
# Dateiname messung35.txt
# Messung d4_f322.dat
# Anzahl Messpunkte 6158
# Zeitpunkte der Extrema
0 351.0
1 1876.0
2 3447.0
3 4977.0
4 6565.0
5 8077.0
6 9643.0
7 11176.0
8 12748.0
9 14275.0
10 15845.0
11 17377.0
12 18948.0
13 20486.0
14 21999.0
15 23589.0
16 25098.0
17 26684.0
18 28197.0
19 29780.0
20 31296.0
21 32884.0
22 34395.0
23 35988.0
24 37511.0
25 39060.0
26 40636.0
27 42163.0
28 43733.0
29 45262.0


