0mm					4mm					6mm						8mm	
2	0.103184236235	3	0.478035800943	4	0.857450231851	2	1.53657656417
3	0.11081436634	4	0.480585738576	5	0.855666110058	3	1.42711635564
4	0.106972119552	5	0.463572738915	7	0.887303195001	5	1.50407739678
5	0.115831815525	6	0.416160397225	9	0.847297860387		
6	0.119801199813	7	0.405465108108				
7	0.101469460165	8	0.438254930931				
8	0.105360515658	9	0.424883193965				
9	0.112940411181	10	0.430782916092				
10	0.0953101798043	12	0.485507815782				
11	0.102947969252	13	0.470003629246				
12	0.105360515658						
13	0.10135249426						
14	0.103989713524						
							
	0.106564230535946	0.4493252269783		0.86192934932425	1.48925677219667