388 9 -1.39276e-05
629 8 0.00414938
817 7 0.00531915
977 6 0.00625
1121 5 0.00694444
1253 4 0.00757576
1377 3 0.00806452
1494 2 0.00854701
1606 1 0.00892857
1714 0 0.00925926
1792 0 0.0128205
1818 -1 0.0384615
1920 -2 0.00980392
2019 -3 0.010101
2116 -4 0.0103093
2212 -5 0.0104167
2307 -6 0.0105263
2401 -7 0.0106383
2494 -8 0.0107527
2587 -9 0.0107527
2681 -10 0.0106383
2774 -11 0.0107527
2868 -12 0.0106383
2965 -13 0.0103093
3060 -14 0.0105263
3159 -15 0.010101
3259 -16 0.01
3362 -17 0.00970874
3468 -18 0.00943396
3578 -19 0.00909091
3696 -20 0.00847458
3821 -21 0.008
3958 -22 0.00729927
4113 -23 0.00645161
4302 -24 0.00529101
4577 -25 0.00363636
5328 -24 -0.00133156
5566 -23 -0.00420168
5743 -22 -0.00564972
5892 -21 -0.00671141
6025 -20 -0.0075188
6148 -19 -0.00813008
6263 -18 -0.00869565
6378 -17 -0.00869565
6477 -16 -0.010101
6579 -15 -0.00980392
6678 -14 -0.010101
6775 -13 -0.0103093
6870 -12 -0.0105263
6963 -11 -0.0107527
7056 -10 -0.0107527
7147 -9 -0.010989
7238 -8 -0.010989
7330 -7 -0.0108696
7421 -6 -0.010989
7513 -5 -0.0108696
7606 -4 -0.0107527
7700 -3 -0.0106383
7795 -2 -0.0105263
7891 -1 -0.0104167
7965 0 -0.0135135
7990 1 -0.04
8091 2 -0.00990099
8195 3 -0.00961538
8303 4 -0.00925926
8415 5 -0.00892857
8534 6 -0.00840336
8661 7 -0.00787402
8801 8 -0.00714286
8957 9 -0.00641026
9144 10 -0.00534759
9400 11 -0.00390625
10363 10 0.00103842
10604 9 0.00414938
10793 8 0.00529101
10955 7 0.00617284
11099 6 0.00694444
11232 5 0.0075188
11355 4 0.00813008
11473 3 0.00847458
11584 2 0.00900901
11691 1 0.00934579
11769 0 0.0128205
11795 -1 0.0384615
11896 -2 0.00990099
11995 -3 0.010101
12093 -4 0.0102041
12189 -5 0.0104167
12284 -6 0.0105263
12378 -7 0.0106383
12471 -8 0.0107527
12564 -9 0.0107527
12657 -10 0.0107527
12751 -11 0.0106383
12845 -12 0.0106383
12940 -13 0.0105263
13036 -14 0.0104167
13134 -15 0.0102041
13233 -16 0.010101
13335 -17 0.00980392
13441 -18 0.00943396
13551 -19 0.00909091
13668 -20 0.00854701
13792 -21 0.00806452
13928 -22 0.00735294
14082 -23 0.00649351
14269 -24 0.00534759
14541 -25 0.00367647
15297 -24 -0.00132275
15536 -23 -0.0041841
15714 -22 -0.00561798
15864 -21 -0.00666667
15998 -20 -0.00746269
16122 -19 -0.00806452
16238 -18 -0.00862069
16347 -17 -0.00917431
16453 -16 -0.00943396
16555 -15 -0.00980392
16654 -14 -0.010101
16752 -13 -0.0102041
16847 -12 -0.0105263
16941 -11 -0.0106383
17033 -10 -0.0108696
17125 -9 -0.0108696
17216 -8 -0.010989
17307 -7 -0.010989
17398 -6 -0.010989
17490 -5 -0.0108696
17582 -4 -0.0108696
17676 -3 -0.0106383
17771 -2 -0.0105263
17867 -1 -0.0104167
17940 0 -0.0136986
17965 1 -0.04
18066 2 -0.00990099
18170 3 -0.00961538
18278 4 -0.00925926
18390 5 -0.00892857
18509 6 -0.00840336
18637 7 -0.0078125
18777 8 -0.00714286
18934 9 -0.00636943
19122 10 -0.00531915
19378 11 -0.00390625
20344 10 0.0010352
20583 9 0.0041841
20771 8 0.00531915
20931 7 0.00625
21075 6 0.00694444
21207 5 0.00757576
21330 4 0.00813008
21446 3 0.00862069
21557 2 0.00900901
21664 1 0.00934579
21741 0 0.012987
21768 -1 0.037037
21869 -2 0.00990099
21967 -3 0.0102041
22064 -4 0.0103093
22160 -5 0.0104167
22255 -6 0.0105263
22349 -7 0.0106383
22442 -8 0.0107527
22535 -9 0.0107527
22628 -10 0.0107527
22722 -11 0.0106383
22816 -12 0.0106383
22913 -13 0.0103093
23007 -14 0.0106383
23105 -15 0.0102041
23205 -16 0.01
23308 -17 0.00970874
23415 -18 0.00934579
23526 -19 0.00900901
23644 -20 0.00847458
23770 -21 0.00793651
23907 -22 0.00729927
24064 -23 0.00636943
24255 -24 0.0052356
24535 -25 0.00357143
25271 -24 -0.0013587
25512 -23 -0.00414938
25691 -22 -0.00558659
25842 -21 -0.00662252
25975 -20 -0.0075188
26098 -19 -0.00813008
26213 -18 -0.00869565
26322 -17 -0.00917431
26427 -16 -0.00952381
26529 -15 -0.00980392
26628 -14 -0.010101
26725 -13 -0.0103093
26820 -12 -0.0105263
26914 -11 -0.0106383
27006 -10 -0.0108696
27097 -9 -0.010989
27188 -8 -0.010989
27280 -7 -0.0108696
27370 -6 -0.0111111
27463 -5 -0.0107527
27555 -4 -0.0108696
27649 -3 -0.0106383
27743 -2 -0.0106383
27840 -1 -0.0103093
27914 0 -0.0135135
27939 1 -0.04
28040 2 -0.00990099
28143 3 -0.00970874
28252 4 -0.00917431
28364 5 -0.00892857
28483 6 -0.00840336
28610 7 -0.00787402
28748 8 -0.00724638
28905 9 -0.00636943
29091 10 -0.00537634
29345 11 -0.00393701
30317 10 0.00102881
30555 9 0.00420168
30742 8 0.00534759
30904 7 0.00617284
31048 6 0.00694444
31181 5 0.0075188
31305 4 0.00806452
31422 3 0.00854701
31533 2 0.00900901
31641 1 0.00925926
31718 0 0.012987
31745 -1 0.037037
31846 -2 0.00990099
31945 -3 0.010101
32042 -4 0.0103093
32137 -5 0.0105263
32232 -6 0.0105263
32326 -7 0.0106383
32419 -8 0.0107527
32512 -9 0.0107527
32605 -10 0.0107527
32699 -11 0.0106383
32793 -12 0.0106383
32888 -13 0.0105263
32985 -14 0.0103093
33083 -15 0.0102041
33183 -16 0.01
33287 -17 0.00961538
33394 -18 0.00934579
33505 -19 0.00900901
33623 -20 0.00847458
33749 -21 0.00793651
33886 -22 0.00729927
34041 -23 0.00645161
34228 -24 0.00534759
34500 -25 0.00367647
35253 -24 -0.00132802
35490 -23 -0.00421941
35666 -22 -0.00568182
35816 -21 -0.00666667
35948 -20 -0.00757576
36071 -19 -0.00813008
36186 -18 -0.00869565
36295 -17 -0.00917431
36400 -16 -0.00952381
36502 -15 -0.00980392
36601 -14 -0.010101
36698 -13 -0.0103093
36793 -12 -0.0105263
36887 -11 -0.0106383
36979 -10 -0.0108696
37071 -9 -0.0108696
37162 -8 -0.010989
37254 -7 -0.0108696
37345 -6 -0.010989
37437 -5 -0.0108696
37530 -4 -0.0107527
37623 -3 -0.0107527
37718 -2 -0.0105263
37815 -1 -0.0103093
37888 0 -0.0136986
37913 1 -0.04
38014 2 -0.00990099
38118 3 -0.00961538
38226 4 -0.00925926
38338 5 -0.00892857
38457 6 -0.00840336
38584 7 -0.00787402
38723 8 -0.00719424
38880 9 -0.00636943
39067 10 -0.00534759
39323 11 -0.00390625
40290 10 0.00103413
40531 9 0.00414938
40719 8 0.00531915
40880 7 0.00621118
41024 6 0.00694444
41157 5 0.0075188
41281 4 0.00806452
41398 3 0.00854701
41509 2 0.00900901
41617 1 0.00925926
41695 0 0.0128205
41721 -1 0.0384615
41823 -2 0.00980392
41922 -3 0.010101
42019 -4 0.0103093
42115 -5 0.0104167
42210 -6 0.0105263
42304 -7 0.0106383
42397 -8 0.0107527
42490 -9 0.0107527
42583 -10 0.0107527
42676 -11 0.0107527
42770 -12 0.0106383
42865 -13 0.0105263
42960 -14 0.0105263
43058 -15 0.0102041
43157 -16 0.010101
43260 -17 0.00970874
43365 -18 0.00952381
43476 -19 0.00900901
43592 -20 0.00862069
43716 -21 0.00806452
43852 -22 0.00735294
44007 -23 0.00645161
44196 -24 0.00529101
44471 -25 0.00363636
45217 -24 -0.00134048
45457 -23 -0.00416667
45636 -22 -0.00558659
45788 -21 -0.00657895
45922 -20 -0.00746269
46046 -19 -0.00806452
46162 -18 -0.00862069
46272 -17 -0.00909091
46377 -16 -0.00952381
46480 -15 -0.00970874
46579 -14 -0.010101
46676 -13 -0.0103093
46771 -12 -0.0105263
46865 -11 -0.0106383
46957 -10 -0.0108696
47049 -9 -0.0108696
47139 -8 -0.0111111
47230 -7 -0.010989
47321 -6 -0.010989
47413 -5 -0.0108696
47506 -4 -0.0107527
47599 -3 -0.0107527
47694 -2 -0.0105263
47791 -1 -0.0103093
47864 0 -0.0136986
47889 1 -0.04
47990 2 -0.00990099
48095 3 -0.00952381
48203 4 -0.00925926
48316 5 -0.00884956
48435 6 -0.00840336
48563 7 -0.0078125
48702 8 -0.00719424
48859 9 -0.00636943
49045 10 -0.00537634
49299 11 -0.00393701
50272 10 0.00102775
50509 9 0.00421941
50695 8 0.00537634
50855 7 0.00625
50998 6 0.00699301
51130 5 0.00757576
51253 4 0.00813008
51369 3 0.00862069
51481 2 0.00892857
51589 1 0.00925926
51666 0 0.012987
51693 -1 0.037037
51794 -2 0.00990099
51894 -3 0.01
51991 -4 0.0103093
52087 -5 0.0104167
52182 -6 0.0105263
52275 -7 0.0107527
52369 -8 0.0106383
52462 -9 0.0107527
52555 -10 0.0107527
52648 -11 0.0107527
52742 -12 0.0106383
52837 -13 0.0105263
52933 -14 0.0104167
53031 -15 0.0102041
53131 -16 0.01
53235 -17 0.00961538
53341 -18 0.00943396
53452 -19 0.00900901
53570 -20 0.00847458
53696 -21 0.00793651
53833 -22 0.00729927
53989 -23 0.00641026
54178 -24 0.00529101
54457 -25 0.00358423
55197 -24 -0.00135135
55436 -23 -0.0041841
55614 -22 -0.00561798
55764 -21 -0.00666667
55897 -20 -0.0075188
56021 -19 -0.00806452
56136 -18 -0.00869565
56245 -17 -0.00917431
56351 -16 -0.00943396
56452 -15 -0.00990099
56551 -14 -0.010101
56649 -13 -0.0102041
56743 -12 -0.0106383
56837 -11 -0.0106383
56930 -10 -0.0107527
57021 -9 -0.010989
57112 -8 -0.010989
57203 -7 -0.010989
57294 -6 -0.010989
57387 -5 -0.0107527
57479 -4 -0.0108696
57573 -3 -0.0106383
57668 -2 -0.0105263
57765 -1 -0.0103093
57838 0 -0.0136986
57864 1 -0.0384615
57965 2 -0.00990099
58068 3 -0.00970874
58176 4 -0.00925926
58289 5 -0.00884956
58408 6 -0.00840336
58535 7 -0.00787402
58674 8 -0.00719424
58831 9 -0.00636943
59017 10 -0.00537634
59270 11 -0.00395257
60242 10 0.00102881
60481 9 0.0041841
60669 8 0.00531915
60830 7 0.00621118
60975 6 0.00689655
61108 5 0.0075188
61232 4 0.00806452
61348 3 0.00862069
61460 2 0.00892857
61567 1 0.00934579
61645 0 0.0128205
61671 -1 0.0384615
61772 -2 0.00990099
61871 -3 0.010101
61968 -4 0.0103093
62064 -5 0.0104167
62159 -6 0.0105263
62253 -7 0.0106383
62346 -8 0.0107527
62439 -9 0.0107527
62531 -10 0.0108696
62625 -11 0.0106383
62718 -12 0.0107527
62813 -13 0.0105263
62910 -14 0.0103093
63007 -15 0.0103093
63107 -16 0.01
63209 -17 0.00980392
63314 -18 0.00952381
63424 -19 0.00909091
63541 -20 0.00854701
63666 -21 0.008
63803 -22 0.00729927
63960 -23 0.00636943
64150 -24 0.00526316
64432 -25 0.0035461
65165 -24 -0.00136426
65408 -23 -0.00411523
65588 -22 -0.00555556
65739 -21 -0.00662252
65872 -20 -0.0075188
65996 -19 -0.00806452
66112 -18 -0.00862069
66221 -17 -0.00917431
66327 -16 -0.00943396
66428 -15 -0.00990099
66527 -14 -0.010101
66625 -13 -0.0102041
66720 -12 -0.0105263
66813 -11 -0.0107527
66906 -10 -0.0107527
66997 -9 -0.010989
67088 -8 -0.010989
67179 -7 -0.010989
67270 -6 -0.010989
67362 -5 -0.0108696
67454 -4 -0.0108696
67548 -3 -0.0106383
67642 -2 -0.0106383
67739 -1 -0.0103093
67812 0 -0.0136986
67837 1 -0.04
67938 2 -0.00990099
68042 3 -0.00961538
68149 4 -0.00934579
68262 5 -0.00884956
68381 6 -0.00840336
68508 7 -0.00787402
68648 8 -0.00714286
68805 9 -0.00636943
68992 10 -0.00534759
69249 11 -0.00389105
70218 10 0.00103199
70458 9 0.00416667
70645 8 0.00534759
70806 7 0.00621118
70951 6 0.00689655
71083 5 0.00757576
71207 4 0.00806452
71323 3 0.00862069
71434 2 0.00900901
71542 1 0.00925926
71619 0 0.012987
71645 -1 0.0384615
71746 -2 0.00990099
71845 -3 0.010101
71942 -4 0.0103093
72037 -5 0.0105263
72132 -6 0.0105263
72226 -7 0.0106383
72319 -8 0.0107527
72412 -9 0.0107527
72504 -10 0.0108696
72597 -11 0.0107527
72691 -12 0.0106383
72785 -13 0.0106383
72881 -14 0.0104167
72978 -15 0.0103093
73078 -16 0.01
73181 -17 0.00970874
73287 -18 0.00943396
73398 -19 0.00900901
73515 -20 0.00854701
73641 -21 0.00793651
73779 -22 0.00724638
73935 -23 0.00641026
74126 -24 0.0052356
74407 -25 0.00355872
75140 -24 -0.00136426
75383 -23 -0.00411523
75563 -22 -0.00555556
75714 -21 -0.00662252
75848 -20 -0.00746269
75971 -19 -0.00813008
76088 -18 -0.00854701
76197 -17 -0.00917431
76302 -16 -0.00952381
76404 -15 -0.00980392
76503 -14 -0.010101
76600 -13 -0.0103093
76696 -12 -0.0104167
76789 -11 -0.0107527
76881 -10 -0.0108696
76973 -9 -0.0108696
77064 -8 -0.010989
77155 -7 -0.010989
77246 -6 -0.010989
77338 -5 -0.0108696
77431 -4 -0.0107527
77525 -3 -0.0106383
77620 -2 -0.0105263
77716 -1 -0.0104167
77790 0 -0.0135135
77815 1 -0.04
77916 2 -0.00990099
78021 3 -0.00952381
78128 4 -0.00934579
78240 5 -0.00892857
78359 6 -0.00840336
78486 7 -0.00787402
78625 8 -0.00719424
78781 9 -0.00641026
78967 10 -0.00537634
79219 11 -0.00396825
80196 10 0.00102354
80433 9 0.00421941
80619 8 0.00537634
80780 7 0.00621118
80924 6 0.00694444
81056 5 0.00757576
81179 4 0.00813008
81296 3 0.00854701
81407 2 0.00900901
81515 1 0.00925926
81592 0 0.012987
81619 -1 0.037037
81720 -2 0.00990099
81819 -3 0.010101
81916 -4 0.0103093
82011 -5 0.0105263
82106 -6 0.0105263
82200 -7 0.0106383
82293 -8 0.0107527
82386 -9 0.0107527
82479 -10 0.0107527
82572 -11 0.0107527
82666 -12 0.0106383
82760 -13 0.0106383
82857 -14 0.0103093
82954 -15 0.0103093
83055 -16 0.00990099
83158 -17 0.00970874
83264 -18 0.00943396
83376 -19 0.00892857
83493 -20 0.00854701
83619 -21 0.00793651
83757 -22 0.00724638
83914 -23 0.00636943
84104 -24 0.00526316
84384 -25 0.00357143
85118 -24 -0.0013624
85360 -23 -0.00413223
85539 -22 -0.00558659
85690 -21 -0.00662252
85823 -20 -0.0075188
85946 -19 -0.00813008
86062 -18 -0.00862069
86171 -17 -0.00917431
86276 -16 -0.00952381
86378 -15 -0.00980392
86477 -14 -0.010101
86574 -13 -0.0103093
86669 -12 -0.0105263
86762 -11 -0.0107527
86855 -10 -0.0107527
86946 -9 -0.010989
87037 -8 -0.010989
87128 -7 -0.010989
87220 -6 -0.0108696
87312 -5 -0.0108696
87404 -4 -0.0108696
87498 -3 -0.0106383
87592 -2 -0.0106383
87689 -1 -0.0103093
87763 0 -0.0135135
87788 1 -0.04
87889 2 -0.00990099
87992 3 -0.00970874
88100 4 -0.00925926
88212 5 -0.00892857
88331 6 -0.00840336
88458 7 -0.00787402
88596 8 -0.00724638
88753 9 -0.00636943
88939 10 -0.00537634
89193 11 -0.00393701
90171 10 0.00102249
90409 9 0.00420168
90596 8 0.00534759
90757 7 0.00621118
90900 6 0.00699301
91033 5 0.0075188
91156 4 0.00813008
91272 3 0.00862069
91383 2 0.00900901
91491 1 0.00925926
91568 0 0.012987
91594 -1 0.0384615
91695 -2 0.00990099
91794 -3 0.010101
91892 -4 0.0102041
91987 -5 0.0105263
92083 -6 0.0104167
92177 -7 0.0106383
92271 -8 0.0106383
92364 -9 0.0107527
92458 -10 0.0106383
92552 -11 0.0106383
92646 -12 0.0106383
92741 -13 0.0105263
92838 -14 0.0103093
92935 -15 0.0103093
93036 -16 0.00990099
93139 -17 0.00970874
93245 -18 0.00943396
93356 -19 0.00900901
93473 -20 0.00854701
93599 -21 0.00793651
93736 -22 0.00729927
93891 -23 0.00645161
94080 -24 0.00529101
94356 -25 0.00362319
95095 -24 -0.00135318
95334 -23 -0.0041841
95512 -22 -0.00561798
95662 -21 -0.00666667
95795 -20 -0.0075188
95919 -19 -0.00806452
96034 -18 -0.00869565
96144 -17 -0.00909091
96249 -16 -0.00952381
96351 -15 -0.00980392
96450 -14 -0.010101
96547 -13 -0.0103093
96642 -12 -0.0105263
96736 -11 -0.0106383
96828 -10 -0.0108696
96920 -9 -0.0108696
97011 -8 -0.010989
97102 -7 -0.010989
97193 -6 -0.010989
97285 -5 -0.0108696
97378 -4 -0.0107527
97471 -3 -0.0107527
97566 -2 -0.0105263
97663 -1 -0.0103093
97736 0 -0.0136986
97761 1 -0.04
97862 2 -0.00990099
97966 3 -0.00961538
98074 4 -0.00925926
98186 5 -0.00892857
98305 6 -0.00840336
98432 7 -0.00787402
98571 8 -0.00719424
98728 9 -0.00636943
98914 10 -0.00537634
99168 11 -0.00393701
100145 10 0.00102354
100384 9 0.0041841
100571 8 0.00534759
100733 7 0.00617284
100877 6 0.00694444
101009 5 0.00757576
101132 4 0.00813008
101249 3 0.00854701
101360 2 0.00900901
101468 1 0.00925926
101545 0 0.012987
101571 -1 0.0384615
101673 -2 0.00980392
101771 -3 0.0102041
101868 -4 0.0103093
101964 -5 0.0104167
102058 -6 0.0106383
102152 -7 0.0106383
102244 -8 0.0108696
102337 -9 0.0107527
102429 -10 0.0108696
102522 -11 0.0107527
102615 -12 0.0107527
102710 -13 0.0105263
102805 -14 0.0105263
102903 -15 0.0102041
103002 -16 0.010101
103105 -17 0.00970874
103211 -18 0.00943396
103322 -19 0.00900901
103439 -20 0.00854701
103565 -21 0.00793651
103703 -22 0.00724638
103861 -23 0.00632911
104052 -24 0.0052356
104337 -25 0.00350877
105062 -24 -0.00137931
105306 -23 -0.00409836
105487 -22 -0.00552486
105638 -21 -0.00662252
105772 -20 -0.00746269
105896 -19 -0.00806452
106011 -18 -0.00869565
106121 -17 -0.00909091
106226 -16 -0.00952381
106328 -15 -0.00980392
106427 -14 -0.010101
106524 -13 -0.0103093
106619 -12 -0.0105263
106712 -11 -0.0107527
106805 -10 -0.0107527
106896 -9 -0.010989
