126 -11 0.000227739
189 -10 -0.015873
239 -9 -0.02
283 -8 -0.0227273
324 -7 -0.0243902
363 -6 -0.025641
401 -5 -0.0263158
440 -4 -0.025641
479 -3 -0.025641
521 -2 -0.0238095
564 -1 -0.0232558
615 0 -0.0196078
660 0 -0.0222222
678 1 -0.0555556
954 0 0.00362319
972 -1 0.0555556
1030 -2 0.0172414
1083 -3 0.0188679
1121 -4 0.0263158
1161 -5 0.025
1199 -6 0.0263158
1237 -7 0.0263158
1275 -8 0.0263158
1314 -9 0.025641
1356 -10 0.0238095
1401 -11 0.0222222
1453 -12 0.0192308
1522 -13 0.0144928
1789 -12 -0.00374532
1851 -11 -0.016129
1901 -10 -0.02
1945 -9 -0.0227273
1986 -8 -0.0243902
2025 -7 -0.025641
2063 -6 -0.0263158
2102 -5 -0.025641
2141 -4 -0.025641
2182 -3 -0.0243902
2226 -2 -0.0227273
2276 -1 -0.02
2321 0 -0.0222222
2339 1 -0.0555556
2619 0 0.00357143
2637 -1 0.0555556
2695 -2 0.0172414
2742 -3 0.0212766
2785 -4 0.0232558
2825 -5 0.025
2863 -6 0.0263158
2901 -7 0.0263158
2939 -8 0.0263158
2978 -9 0.025641
3020 -10 0.0238095
3065 -11 0.0222222
3118 -12 0.0188679
3187 -13 0.0144928
3449 -12 -0.00381679
3512 -11 -0.015873
3562 -10 -0.02
3606 -9 -0.0227273
3647 -8 -0.0243902
3687 -7 -0.025
3725 -6 -0.0263158
3763 -5 -0.0263158
3803 -4 -0.025
3843 -3 -0.025
3888 -2 -0.0222222
3938 -1 -0.02
3983 0 -0.0222222
4000 1 -0.0588235
4282 0 0.0035461
4300 -1 0.0555556
4357 -2 0.0175439
4405 -3 0.0208333
4447 -4 0.0238095
4487 -5 0.025
4525 -6 0.0263158
4563 -7 0.0263158
4601 -8 0.0263158
4641 -9 0.025
4682 -10 0.0243902
4727 -11 0.0222222
4779 -12 0.0192308
4849 -13 0.0142857
5113 -12 -0.00378788
5175 -11 -0.016129
5226 -10 -0.0196078
5270 -9 -0.0227273
5311 -8 -0.0243902
5350 -7 -0.025641
5388 -6 -0.0263158
5427 -5 -0.025641
5466 -4 -0.025641
5507 -3 -0.0243902
5551 -2 -0.0227273
5601 -1 -0.02
5647 0 -0.0217391
5665 1 -0.0555556
5942 0 0.00361011
5960 -1 0.0555556
6018 -2 0.0172414
6066 -3 0.0208333
6108 -4 0.0238095
6148 -5 0.025
6187 -6 0.025641
6225 -7 0.0263158
6263 -8 0.0263158
6302 -9 0.025641
6343 -10 0.0243902
6388 -11 0.0222222
6441 -12 0.0188679
6509 -13 0.0147059
6776 -12 -0.00374532
6838 -11 -0.016129
6888 -10 -0.02
6932 -9 -0.0227273
6973 -8 -0.0243902
7012 -7 -0.025641
7051 -6 -0.025641
7089 -5 -0.0263158
7128 -4 -0.025641
7169 -3 -0.0243902
7213 -2 -0.0227273
7263 -1 -0.02
7308 0 -0.0222222
7326 1 -0.0555556
7625 0 0.00334448
7683 -1 0.0172414
7730 -2 0.0212766
7773 -3 0.0232558
7812 -4 0.025641
7851 -5 0.025641
7889 -6 0.0263158
7927 -7 0.0263158
7966 -8 0.025641
8007 -9 0.0243902
8053 -10 0.0217391
8106 -11 0.0188679
8176 -12 0.0142857
8436 -11 -0.00384615
8499 -10 -0.015873
8549 -9 -0.02
8594 -8 -0.0222222
8635 -7 -0.0243902
8674 -6 -0.025641
8712 -5 -0.0263158
8751 -4 -0.025641
8790 -3 -0.025641
8831 -2 -0.0243902
8875 -1 -0.0227273
8925 0 -0.02
8988 1 -0.015873
9270 0 0.0035461
9287 -1 0.0588235
9345 -2 0.0172414
9392 -3 0.0212766
9435 -4 0.0232558
9475 -5 0.025
9513 -6 0.0263158
9551 -7 0.0263158
9589 -8 0.0263158
9628 -9 0.025641
9669 -10 0.0243902
9715 -11 0.0217391
9767 -12 0.0192308
9836 -13 0.0144928
10100 -12 -0.00378788
10163 -11 -0.015873
10213 -10 -0.02
10257 -9 -0.0227273
10298 -8 -0.0243902
10337 -7 -0.025641
10375 -6 -0.0263158
10414 -5 -0.025641
10453 -4 -0.025641
10494 -3 -0.0243902
10538 -2 -0.0227273
10589 -1 -0.0196078
10634 0 -0.0222222
10652 1 -0.0555556
10930 0 0.00359712
10948 -1 0.0555556
11006 -2 0.0172414
11053 -3 0.0212766
11096 -4 0.0232558
11136 -5 0.025
11174 -6 0.0263158
11212 -7 0.0263158
11250 -8 0.0263158
11290 -9 0.025
11331 -10 0.0243902
11376 -11 0.0222222
11428 -12 0.0192308
11496 -13 0.0147059
11764 -12 -0.00373134
11826 -11 -0.016129
11876 -10 -0.02
11920 -9 -0.0227273
11961 -8 -0.0243902
12000 -7 -0.025641
12038 -6 -0.0263158
12077 -5 -0.025641
12116 -4 -0.025641
12156 -3 -0.025
12200 -2 -0.0227273
12250 -1 -0.02
12295 0 -0.0222222
12313 1 -0.0555556
12596 0 0.00353357
12614 -1 0.0555556
12671 -2 0.0175439
12718 -3 0.0212766
12761 -4 0.0232558
12801 -5 0.025
12839 -6 0.0263158
12877 -7 0.0263158
12915 -8 0.0263158
12954 -9 0.025641
12996 -10 0.0238095
13041 -11 0.0222222
13094 -12 0.0188679
13164 -13 0.0142857
13423 -12 -0.003861
13486 -11 -0.015873
13537 -10 -0.0196078
13581 -9 -0.0227273
13622 -8 -0.0243902
13661 -7 -0.025641
13700 -6 -0.025641
13738 -5 -0.0263158
13777 -4 -0.025641
13818 -3 -0.0243902
13863 -2 -0.0222222
13913 -1 -0.02
13958 0 -0.0222222
13976 1 -0.0555556
14256 0 0.00357143
14274 -1 0.0555556
14331 -2 0.0175439
14379 -3 0.0208333
14422 -4 0.0232558
14461 -5 0.025641
14500 -6 0.025641
14538 -7 0.0263158
14576 -8 0.0263158
14615 -9 0.025641
14656 -10 0.0243902
14702 -11 0.0217391
14754 -12 0.0192308
14823 -13 0.0144928
15088 -12 -0.00377358
15150 -11 -0.016129
15200 -10 -0.02
15244 -9 -0.0227273
15285 -8 -0.0243902
15325 -7 -0.025
15363 -6 -0.0263158
15401 -5 -0.0263158
15440 -4 -0.025641
15481 -3 -0.0243902
15526 -2 -0.0222222
15576 -1 -0.02
15621 0 -0.0222222
15639 1 -0.0555556
15936 0 0.003367
15994 -1 0.0172414
16041 -2 0.0212766
16084 -3 0.0232558
16124 -4 0.025
16162 -5 0.0263158
16200 -6 0.0263158
16238 -7 0.0263158
16278 -8 0.025
16319 -9 0.0243902
16364 -10 0.0222222
16416 -11 0.0192308
16486 -12 0.0142857
16750 -11 -0.00378788
16812 -10 -0.016129
16862 -9 -0.02
16907 -8 -0.0222222
16948 -7 -0.0243902
16987 -6 -0.025641
17025 -5 -0.0263158
17063 -4 -0.0263158
17102 -3 -0.025641
17143 -2 -0.0243902
17187 -1 -0.0227273
17237 0 -0.02
17300 1 -0.015873
17582 0 0.0035461
17600 -1 0.0555556
17657 -2 0.0175439
17705 -3 0.0208333
17747 -4 0.0238095
17787 -5 0.025
17826 -6 0.025641
17864 -7 0.0263158
17902 -8 0.0263158
17941 -9 0.025641
17982 -10 0.0243902
18028 -11 0.0217391
18080 -12 0.0192308
18151 -13 0.0140845
18410 -12 -0.003861
18474 -11 -0.015625
18524 -10 -0.02
18569 -9 -0.0222222
18609 -8 -0.025
18649 -7 -0.025
18687 -6 -0.0263158
18725 -5 -0.0263158
18764 -4 -0.025641
18805 -3 -0.0243902
18850 -2 -0.0222222
18899 -1 -0.0204082
18944 0 -0.0222222
18962 1 -0.0555556
19244 0 0.0035461
19262 -1 0.0555556
19319 -2 0.0175439
19367 -3 0.0208333
19409 -4 0.0238095
19449 -5 0.025
19488 -6 0.025641
19526 -7 0.0263158
19564 -8 0.0263158
19603 -9 0.025641
19644 -10 0.0243902
19689 -11 0.0222222
19742 -12 0.0188679
19811 -13 0.0144928
20074 -12 -0.00380228
20137 -11 -0.015873
20187 -10 -0.02
20232 -9 -0.0222222
20273 -8 -0.0243902
20312 -7 -0.025641
20350 -6 -0.0263158
20388 -5 -0.0263158
20428 -4 -0.025
20469 -3 -0.0243902
20513 -2 -0.0227273
20563 -1 -0.02
20608 0 -0.0222222
20626 1 -0.0555556
20906 0 0.00357143
20924 -1 0.0555556
20982 -2 0.0172414
21029 -3 0.0212766
21072 -4 0.0232558
21112 -5 0.025
21150 -6 0.0263158
21188 -7 0.0263158
21226 -8 0.0263158
21265 -9 0.025641
21307 -10 0.0238095
21352 -11 0.0222222
21404 -12 0.0192308
21474 -13 0.0142857
21736 -12 -0.00381679
21799 -11 -0.015873
21849 -10 -0.02
21894 -9 -0.0222222
21935 -8 -0.0243902
21974 -7 -0.025641
22012 -6 -0.0263158
22050 -5 -0.0263158
22090 -4 -0.025
22130 -3 -0.025
22174 -2 -0.0227273
22224 -1 -0.02
22269 0 -0.0222222
22287 1 -0.0555556
22570 0 0.00353357
22588 -1 0.0555556
22645 -2 0.0175439
22692 -3 0.0212766
22735 -4 0.0232558
22775 -5 0.025
22813 -6 0.0263158
22851 -7 0.0263158
22889 -8 0.0263158
22928 -9 0.025641
22970 -10 0.0238095
23015 -11 0.0222222
23068 -12 0.0188679
23138 -13 0.0142857
23398 -12 -0.00384615
23461 -11 -0.015873
23511 -10 -0.02
23556 -9 -0.0222222
23597 -8 -0.0243902
23636 -7 -0.025641
23674 -6 -0.0263158
23713 -5 -0.025641
23752 -4 -0.025641
23793 -3 -0.0243902
23837 -2 -0.0227273
23887 -1 -0.02
23932 0 -0.0222222
23950 1 -0.0555556
24232 0 0.0035461
24250 -1 0.0555556
24307 -2 0.0175439
24354 -3 0.0212766
24397 -4 0.0232558
24437 -5 0.025
24475 -6 0.0263158
24513 -7 0.0263158
24551 -8 0.0263158
24590 -9 0.025641
24632 -10 0.0238095
24677 -11 0.0222222
24730 -12 0.0188679
24799 -13 0.0144928
25061 -12 -0.00381679
25124 -11 -0.015873
25174 -10 -0.02
25219 -9 -0.0222222
25260 -8 -0.0243902
25299 -7 -0.025641
25337 -6 -0.0263158
25375 -5 -0.0263158
25415 -4 -0.025
25456 -3 -0.0243902
25500 -2 -0.0227273
25550 -1 -0.02
25613 0 -0.015873
25912 -1 0.00334448
25970 -2 0.0172414
26017 -3 0.0212766
26060 -4 0.0232558
26099 -5 0.025641
26138 -6 0.025641
26176 -7 0.0263158
26214 -8 0.0263158
26253 -9 0.025641
26295 -10 0.0238095
26340 -11 0.0222222
26393 -12 0.0188679
26463 -13 0.0142857
26723 -12 -0.00384615
26786 -11 -0.015873
26836 -10 -0.02
26880 -9 -0.0227273
26921 -8 -0.0243902
26961 -7 -0.025
26999 -6 -0.0263158
27037 -5 -0.0263158
27076 -4 -0.025641
27117 -3 -0.0243902
27161 -2 -0.0227273
27211 -1 -0.02
27256 0 -0.0222222
27273 1 -0.0588235
27558 0 0.00350877
27576 -1 0.0555556
27633 -2 0.0175439
27680 -3 0.0212766
27723 -4 0.0232558
27762 -5 0.025641
27801 -6 0.025641
27839 -7 0.0263158
27877 -8 0.0263158
27916 -9 0.025641
27957 -10 0.0243902
28003 -11 0.0217391
28055 -12 0.0192308
28125 -13 0.0142857
28385 -12 -0.00384615
28448 -11 -0.015873
28499 -10 -0.0196078
28543 -9 -0.0227273
28584 -8 -0.0243902
28623 -7 -0.025641
28662 -6 -0.025641
28700 -5 -0.0263158
28739 -4 -0.025641
28780 -3 -0.0243902
28824 -2 -0.0227273
28874 -1 -0.02
28919 0 -0.0222222
28937 1 -0.0555556
29220 0 0.00353357
29237 -1 0.0588235
29295 -2 0.0172414
29342 -3 0.0212766
29386 -4 0.0227273
29424 -5 0.0263158
29463 -6 0.025641
29501 -7 0.0263158
29540 -8 0.025641
29578 -9 0.0263158
29619 -10 0.0243902
29665 -11 0.0217391
29717 -12 0.0192308
29787 -13 0.0142857
30048 -12 -0.00383142
30111 -11 -0.015873
30161 -10 -0.02
30205 -9 -0.0227273
30247 -8 -0.0238095
30286 -7 -0.025641
30324 -6 -0.0263158
30362 -5 -0.0263158
30402 -4 -0.025
30442 -3 -0.025
30487 -2 -0.0222222
30536 -1 -0.0204082
30599 0 -0.015873
30900 -1 0.00332226
30958 -2 0.0172414
31005 -3 0.0212766
31047 -4 0.0238095
31088 -5 0.0243902
31126 -6 0.0263158
31163 -7 0.027027
31202 -8 0.025641
31242 -9 0.025
31282 -10 0.025
31328 -11 0.0217391
31380 -12 0.0192308
31450 -13 0.0142857
31710 -12 -0.00384615
31773 -11 -0.015873
31824 -10 -0.0196078
31868 -9 -0.0227273
31909 -8 -0.0243902
31948 -7 -0.025641
31986 -6 -0.0263158
32025 -5 -0.025641
32064 -4 -0.025641
32105 -3 -0.0243902
32149 -2 -0.0227273
32199 -1 -0.02
32244 0 -0.0222222
32261 1 -0.0588235
32545 0 0.00352113
32563 -1 0.0555556
32620 -2 0.0175439
32668 -3 0.0208333
32710 -4 0.0238095
32750 -5 0.025
32788 -6 0.0263158
32826 -7 0.0263158
32864 -8 0.0263158
32904 -9 0.025
32945 -10 0.0243902
32990 -11 0.0222222
33043 -12 0.0188679
33113 -13 0.0142857
33373 -12 -0.00384615
33436 -11 -0.015873
33487 -10 -0.0196078
33531 -9 -0.0227273
33572 -8 -0.0243902
33611 -7 -0.025641
33649 -6 -0.0263158
33688 -5 -0.025641
33727 -4 -0.025641
33768 -3 -0.0243902
33812 -2 -0.0227273
