78 43 -4.08847e-05
119 42 0.0243902
150 41 0.0322581
175 40 0.04
198 39 0.0434783
218 38 0.05
236 37 0.0555556
254 36 0.0555556
270 35 0.0625
286 34 0.0625
300 33 0.0714286
315 32 0.0666667
328 31 0.0769231
342 30 0.0714286
354 29 0.0833333
367 28 0.0769231
379 27 0.0833333
391 26 0.0833333
402 25 0.0909091
414 24 0.0833333
426 23 0.0833333
436 22 0.1
447 21 0.0909091
457 20 0.1
468 19 0.0909091
478 18 0.1
488 17 0.1
498 16 0.1
508 15 0.1
518 14 0.1
528 13 0.1
537 12 0.111111
547 11 0.1
556 10 0.111111
566 9 0.1
575 8 0.111111
584 7 0.111111
593 6 0.111111
602 5 0.111111
612 4 0.1
621 3 0.111111
631 2 0.1
639 1 0.125
648 0 0.111111
654 0 0.166667
657 -1 0.333333
665 -2 0.125
674 -3 0.111111
683 -4 0.111111
692 -5 0.111111
701 -6 0.111111
710 -7 0.111111
719 -8 0.111111
727 -9 0.125
736 -10 0.111111
745 -11 0.111111
754 -12 0.111111
763 -13 0.111111
772 -14 0.111111
781 -15 0.111111
790 -16 0.111111
799 -17 0.111111
808 -18 0.111111
817 -19 0.111111
826 -20 0.111111
835 -21 0.111111
844 -22 0.111111
854 -23 0.1
863 -24 0.111111
872 -25 0.111111
882 -26 0.1
891 -27 0.111111
901 -28 0.1
911 -29 0.1
920 -30 0.111111
930 -31 0.1
940 -32 0.1
951 -33 0.0909091
961 -34 0.1
971 -35 0.1
982 -36 0.0909091
993 -37 0.0909091
1004 -38 0.0909091
1015 -39 0.0909091
1026 -40 0.0909091
1038 -41 0.0833333
1050 -42 0.0833333
1062 -43 0.0833333
1075 -44 0.0769231
1088 -45 0.0769231
1101 -46 0.0769231
1115 -47 0.0714286
1130 -48 0.0666667
1145 -49 0.0666667
1161 -50 0.0625
1177 -51 0.0625
1195 -52 0.0555556
1215 -53 0.05
1236 -54 0.047619
1260 -55 0.0416667
1288 -56 0.0357143
1324 -57 0.0277778
1388 -58 0.015625
1477 -57 -0.011236
1526 -56 -0.0204082
1559 -55 -0.030303
1586 -54 -0.037037
1609 -53 -0.0434783
1630 -52 -0.047619
1649 -51 -0.0526316
1667 -50 -0.0555556
1683 -49 -0.0625
1699 -48 -0.0625
1714 -47 -0.0666667
1729 -46 -0.0666667
1742 -45 -0.0769231
1756 -44 -0.0714286
1769 -43 -0.0769231
1781 -42 -0.0833333
1794 -41 -0.0769231
1806 -40 -0.0833333
1817 -39 -0.0909091
1829 -38 -0.0833333
1840 -37 -0.0909091
1851 -36 -0.0909091
1862 -35 -0.0909091
1872 -34 -0.1
1883 -33 -0.0909091
1893 -32 -0.1
1904 -31 -0.0909091
1914 -30 -0.1
1924 -29 -0.1
1934 -28 -0.1
1943 -27 -0.111111
1953 -26 -0.1
1963 -25 -0.1
1972 -24 -0.111111
1982 -23 -0.1
1991 -22 -0.111111
2000 -21 -0.111111
2010 -20 -0.1
2019 -19 -0.111111
2028 -18 -0.111111
2037 -17 -0.111111
2046 -16 -0.111111
2055 -15 -0.111111
2064 -14 -0.111111
2073 -13 -0.111111
2082 -12 -0.111111
2091 -11 -0.111111
2100 -10 -0.111111
2109 -9 -0.111111
2118 -8 -0.111111
2127 -7 -0.111111
2136 -6 -0.111111
2145 -5 -0.111111
2154 -4 -0.111111
2163 -3 -0.111111
2172 -2 -0.111111
2181 -1 -0.111111
2187 0 -0.166667
2189 1 -0.5
2198 2 -0.111111
2208 3 -0.1
2217 4 -0.111111
2226 5 -0.111111
2235 6 -0.111111
2244 7 -0.111111
2253 8 -0.111111
2263 9 -0.1
2281 10 -0.0555556
2291 11 -0.1
2300 12 -0.111111
2310 13 -0.1
2320 14 -0.1
2329 15 -0.111111
2339 16 -0.1
2349 17 -0.1
2359 18 -0.1
2370 19 -0.0909091
2380 20 -0.1
2391 21 -0.0909091
2401 22 -0.1
2412 23 -0.0909091
2423 24 -0.0909091
2435 25 -0.0833333
2446 26 -0.0909091
2458 27 -0.0833333
2470 28 -0.0833333
2483 29 -0.0769231
2495 30 -0.0833333
2508 31 -0.0769231
2521 32 -0.0769231
2535 33 -0.0714286
2550 34 -0.0666667
2565 35 -0.0666667
2581 36 -0.0625
2598 37 -0.0588235
2615 38 -0.0588235
2634 39 -0.0526316
2655 40 -0.047619
2678 41 -0.0434783
2705 42 -0.037037
2738 43 -0.030303
2786 44 -0.0208333
2927 43 0.0070922
2968 42 0.0243902
2999 41 0.0322581
3024 40 0.04
3047 39 0.0434783
3067 38 0.05
3086 37 0.0526316
3103 36 0.0588235
3119 35 0.0625
3135 34 0.0625
3150 33 0.0666667
3164 32 0.0714286
3178 31 0.0714286
3191 30 0.0769231
3204 29 0.0769231
3216 28 0.0833333
3229 27 0.0769231
3240 26 0.0909091
3252 25 0.0833333
3263 24 0.0909091
3275 23 0.0833333
3296 22 0.047619
3307 21 0.0909091
3317 20 0.1
3328 19 0.0909091
3338 18 0.1
3348 17 0.1
3358 16 0.1
3367 15 0.111111
3377 14 0.1
3387 13 0.1
3396 12 0.111111
3406 11 0.1
3415 10 0.111111
3425 9 0.1
3434 8 0.111111
3443 7 0.111111
3452 6 0.111111
3461 5 0.111111
3470 4 0.111111
3479 3 0.111111
3488 2 0.111111
3497 1 0.111111
3504 0 0.142857
3506 -1 0.5
3515 -2 0.111111
3524 -3 0.111111
3533 -4 0.111111
3542 -5 0.111111
3551 -6 0.111111
3560 -7 0.111111
3568 -8 0.125
3577 -9 0.111111
3586 -10 0.111111
3595 -11 0.111111
3604 -12 0.111111
3613 -13 0.111111
3622 -14 0.111111
3631 -15 0.111111
3640 -16 0.111111
3649 -17 0.111111
3658 -18 0.111111
3667 -19 0.111111
3676 -20 0.111111
3685 -21 0.111111
3694 -22 0.111111
3703 -23 0.111111
3713 -24 0.1
3722 -25 0.111111
3732 -26 0.1
3741 -27 0.111111
3751 -28 0.1
3760 -29 0.111111
3770 -30 0.1
3780 -31 0.1
3790 -32 0.1
3801 -33 0.0909091
3811 -34 0.1
3821 -35 0.1
3832 -36 0.0909091
3843 -37 0.0909091
3854 -38 0.0909091
3865 -39 0.0909091
3876 -40 0.0909091
3888 -41 0.0833333
3900 -42 0.0833333
3912 -43 0.0833333
3925 -44 0.0769231
3938 -45 0.0769231
3951 -46 0.0769231
3965 -47 0.0714286
3980 -48 0.0666667
3995 -49 0.0666667
4011 -50 0.0625
4028 -51 0.0588235
4046 -52 0.0555556
4065 -53 0.0526316
4087 -54 0.0454545
4111 -55 0.0416667
4139 -56 0.0357143
4175 -57 0.0277778
4242 -58 0.0149254
4325 -57 -0.0120482
4375 -56 -0.02
4408 -55 -0.030303
4435 -54 -0.037037
4458 -53 -0.0434783
4479 -52 -0.047619
4498 -51 -0.0526316
4516 -50 -0.0555556
4533 -49 -0.0588235
4549 -48 -0.0625
4564 -47 -0.0666667
4578 -46 -0.0714286
4592 -45 -0.0714286
4605 -44 -0.0769231
4618 -43 -0.0769231
4631 -42 -0.0769231
4643 -41 -0.0833333
4655 -40 -0.0833333
4667 -39 -0.0833333
4678 -38 -0.0909091
4690 -37 -0.0833333
4701 -36 -0.0909091
4712 -35 -0.0909091
4722 -34 -0.1
4733 -33 -0.0909091
4743 -32 -0.1
4753 -31 -0.1
4763 -30 -0.1
4773 -29 -0.1
4783 -28 -0.1
4793 -27 -0.1
4804 -26 -0.0909091
4814 -25 -0.1
4822 -24 -0.125
4831 -23 -0.111111
4841 -22 -0.1
4850 -21 -0.111111
4859 -20 -0.111111
4869 -19 -0.1
4878 -18 -0.111111
4887 -17 -0.111111
4896 -16 -0.111111
4906 -15 -0.1
4914 -14 -0.125
4923 -13 -0.111111
4932 -12 -0.111111
4941 -11 -0.111111
4950 -10 -0.111111
4959 -9 -0.111111
4968 -8 -0.111111
4978 -7 -0.1
4986 -6 -0.125
4995 -5 -0.111111
5004 -4 -0.111111
5013 -3 -0.111111
5022 -2 -0.111111
5031 -1 -0.111111
5037 0 -0.166667
5040 1 -0.333333
5049 2 -0.111111
5058 3 -0.111111
5067 4 -0.111111
5076 5 -0.111111
5085 6 -0.111111
5094 7 -0.111111
5103 8 -0.111111
5113 9 -0.1
5122 10 -0.111111
5131 11 -0.111111
5141 12 -0.1
5150 13 -0.111111
5160 14 -0.1
5170 15 -0.1
5180 16 -0.1
5189 17 -0.111111
5200 18 -0.0909091
5210 19 -0.1
5220 20 -0.1
5230 21 -0.1
5241 22 -0.0909091
5252 23 -0.0909091
5262 24 -0.1
5274 25 -0.0833333
5285 26 -0.0909091
5296 27 -0.0909091
5308 28 -0.0833333
5320 29 -0.0833333
5332 30 -0.0833333
5358 31 -0.0384615
5372 32 -0.0714286
5386 33 -0.0714286
5400 34 -0.0714286
5415 35 -0.0666667
5431 36 -0.0625
5448 37 -0.0588235
5466 38 -0.0555556
5485 39 -0.0526316
5506 40 -0.047619
5529 41 -0.0434783
5557 42 -0.0357143
5590 43 -0.030303
5640 44 -0.02
5774 43 0.00746269
5817 42 0.0232558
5847 41 0.0333333
5873 40 0.0384615
5895 39 0.0454545
5916 38 0.047619
5934 37 0.0555556
5952 36 0.0555556
5968 35 0.0625
5984 34 0.0625
5999 33 0.0666667
6013 32 0.0714286
6027 31 0.0714286
6040 30 0.0769231
6053 29 0.0769231
6065 28 0.0833333
6078 27 0.0769231
6090 26 0.0833333
6101 25 0.0909091
6113 24 0.0833333
6124 23 0.0909091
6135 22 0.0909091
6145 21 0.1
6156 20 0.0909091
6167 19 0.0909091
6177 18 0.1
6187 17 0.1
6197 16 0.1
6207 15 0.1
6217 14 0.1
6227 13 0.1
6236 12 0.111111
6246 11 0.1
6255 10 0.111111
6265 9 0.1
6274 8 0.111111
6283 7 0.111111
6292 6 0.111111
6302 5 0.1
6311 4 0.111111
6320 3 0.111111
6329 2 0.111111
6338 1 0.111111
6353 0 0.0666667
6356 -1 0.333333
6365 -2 0.111111
6374 -3 0.111111
6382 -4 0.125
6391 -5 0.111111
6400 -6 0.111111
6409 -7 0.111111
6418 -8 0.111111
6427 -9 0.111111
6436 -10 0.111111
6444 -11 0.125
6453 -12 0.111111
6462 -13 0.111111
6471 -14 0.111111
6480 -15 0.111111
6489 -16 0.111111
6498 -17 0.111111
6507 -18 0.111111
6516 -19 0.111111
6525 -20 0.111111
6534 -21 0.111111
6544 -22 0.1
6553 -23 0.111111
6562 -24 0.111111
6572 -25 0.1
6581 -26 0.111111
6591 -27 0.1
6600 -28 0.111111
6610 -29 0.1
6620 -30 0.1
6630 -31 0.1
6640 -32 0.1
6650 -33 0.1
6660 -34 0.1
6671 -35 0.0909091
6681 -36 0.1
6692 -37 0.0909091
6703 -38 0.0909091
6714 -39 0.0909091
6726 -40 0.0833333
6738 -41 0.0833333
6749 -42 0.0909091
6762 -43 0.0769231
6774 -44 0.0833333
6787 -45 0.0769231
6801 -46 0.0714286
6815 -47 0.0714286
6829 -48 0.0714286
6844 -49 0.0666667
6860 -50 0.0625
6877 -51 0.0588235
6895 -52 0.0555556
6915 -53 0.05
6936 -54 0.047619
6960 -55 0.0416667
6988 -56 0.0357143
7024 -57 0.0277778
7090 -58 0.0151515
7175 -57 -0.0117647
7225 -56 -0.02
7258 -55 -0.030303
7285 -54 -0.037037
7309 -53 -0.0416667
7329 -52 -0.05
7348 -51 -0.0526316
7366 -50 -0.0555556
7383 -49 -0.0588235
7399 -48 -0.0625
7414 -47 -0.0666667
7428 -46 -0.0714286
7442 -45 -0.0714286
7455 -44 -0.0769231
7468 -43 -0.0769231
7481 -42 -0.0769231
7493 -41 -0.0833333
7505 -40 -0.0833333
7517 -39 -0.0833333
7528 -38 -0.0909091
7539 -37 -0.0909091
7550 -36 -0.0909091
7561 -35 -0.0909091
7572 -34 -0.0909091
7582 -33 -0.1
7593 -32 -0.0909091
7603 -31 -0.1
7613 -30 -0.1
7623 -29 -0.1
7633 -28 -0.1
7643 -27 -0.1
7653 -26 -0.1
7662 -25 -0.111111
7672 -24 -0.1
7681 -23 -0.111111
7691 -22 -0.1
7700 -21 -0.111111
7709 -20 -0.111111
7718 -19 -0.111111
7728 -18 -0.1
7737 -17 -0.111111
7746 -16 -0.111111
7755 -15 -0.111111
7764 -14 -0.111111
7773 -13 -0.111111
7782 -12 -0.111111
7791 -11 -0.111111
7800 -10 -0.111111
7809 -9 -0.111111
7817 -8 -0.125
7826 -7 -0.111111
7835 -6 -0.111111
7844 -5 -0.111111
7853 -4 -0.111111
7862 -3 -0.111111
7871 -2 -0.111111
7880 -1 -0.111111
7887 0 -0.142857
7889 1 -0.5
7898 2 -0.111111
7907 3 -0.111111
7916 4 -0.111111
7925 5 -0.111111
7934 6 -0.111111
7943 7 -0.111111
7953 8 -0.1
7962 9 -0.111111
7971 10 -0.111111
7981 11 -0.1
7990 12 -0.111111
8000 13 -0.1
8009 14 -0.111111
8019 15 -0.1
8029 16 -0.1
8039 17 -0.1
8049 18 -0.1
8059 19 -0.1
8069 20 -0.1
8079 21 -0.1
8090 22 -0.0909091
8101 23 -0.0909091
8112 24 -0.0909091
8123 25 -0.0909091
8134 26 -0.0909091
8145 27 -0.0909091
8157 28 -0.0833333
8169 29 -0.0833333
8181 30 -0.0833333
8194 31 -0.0769231
8207 32 -0.0769231
8220 33 -0.0769231
8234 34 -0.0714286
8249 35 -0.0666667
8264 36 -0.0666667
8280 37 -0.0625
8296 38 -0.0625
8314 39 -0.0555556
8333 40 -0.0526316
8354 41 -0.047619
8377 42 -0.0434783
8404 43 -0.037037
8437 44 -0.030303
8484 45 -0.0212766
8628 44 0.00694444
8669 43 0.0243902
8699 42 0.0333333
8725 41 0.0384615
8747 40 0.0454545
8767 39 0.05
8786 38 0.0526316
8803 37 0.0588235
8819 36 0.0625
8835 35 0.0625
8850 34 0.0666667
8864 33 0.0714286
8878 32 0.0714286
8891 31 0.0769231
8904 30 0.0769231
8916 29 0.0833333
8928 28 0.0833333
8940 27 0.0833333
8952 26 0.0833333
8963 25 0.0909091
8974 24 0.0909091
8985 23 0.0909091
8996 22 0.0909091
9007 21 0.0909091
9017 20 0.1
9027 19 0.1
9037 18 0.1
9047 17 0.1
9057 16 0.1
9067 15 0.1
9077 14 0.1
9087 13 0.1
9096 12 0.111111
9106 11 0.1
9115 10 0.111111
9124 9 0.111111
9133 8 0.111111
9143 7 0.1
9152 6 0.111111
9161 5 0.111111
9170 4 0.111111
9179 3 0.111111
9188 2 0.111111
9197 1 0.111111
9204 0 0.142857
9206 -1 0.5
9215 -2 0.111111
9224 -3 0.111111
9233 -4 0.111111
9241 -5 0.125
9250 -6 0.111111
9259 -7 0.111111
9268 -8 0.111111
9277 -9 0.111111
9286 -10 0.111111
9294 -11 0.125
9303 -12 0.111111
9312 -13 0.111111
9321 -14 0.111111
9330 -15 0.111111
9339 -16 0.111111
9348 -17 0.111111
9357 -18 0.111111
9375 -19 0.0555556
9386 -20 0.0909091
9394 -21 0.125
9403 -22 0.111111
9413 -23 0.1
9421 -24 0.125
9431 -25 0.1
9440 -26 0.111111
9450 -27 0.1
9460 -28 0.1
9470 -29 0.1
9480 -30 0.1
9490 -31 0.1
9500 -32 0.1
9510 -33 0.1
9521 -34 0.0909091
9531 -35 0.1
9542 -36 0.0909091
9553 -37 0.0909091
9564 -38 0.0909091
9576 -39 0.0833333
9587 -40 0.0909091
9599 -41 0.0833333
9611 -42 0.0833333
9624 -43 0.0769231
9637 -44 0.0769231
9650 -45 0.0769231
9664 -46 0.0714286
9679 -47 0.0666667
9694 -48 0.0666667
9710 -49 0.0625
9726 -50 0.0625
9744 -51 0.0555556
9764 -52 0.05
9785 -53 0.047619
9809 -54 0.0416667
9837 -55 0.0357143
9872 -56 0.0285714
9934 -57 0.016129
10029 -56 -0.0105263
10077 -55 -0.0208333
10110 -54 -0.030303
10136 -53 -0.0384615
10159 -52 -0.0434783
10180 -51 -0.047619
10199 -50 -0.0526316
10217 -49 -0.0555556
10233 -48 -0.0625
10249 -47 -0.0625
10264 -46 -0.0666667
10278 -45 -0.0714286
10292 -44 -0.0714286
10306 -43 -0.0714286
10319 -42 -0.0769231
10331 -41 -0.0833333
10343 -40 -0.0833333
10355 -39 -0.0833333
10367 -38 -0.0833333
10390 -37 -0.0434783
10401 -36 -0.0909091
10412 -35 -0.0909091
10422 -34 -0.1
10433 -33 -0.0909091
10443 -32 -0.1
10453 -31 -0.1
10463 -30 -0.1
10473 -29 -0.1
10483 -28 -0.1
10493 -27 -0.1
10503 -26 -0.1
10512 -25 -0.111111
10522 -24 -0.1
10531 -23 -0.111111
10541 -22 -0.1
10550 -21 -0.111111
10559 -20 -0.111111
10568 -19 -0.111111
10578 -18 -0.1
10587 -17 -0.111111
10596 -16 -0.111111
10605 -15 -0.111111
10614 -14 -0.111111
10623 -13 -0.111111
10632 -12 -0.111111
10641 -11 -0.111111
10650 -10 -0.111111
10659 -9 -0.111111
10668 -8 -0.111111
10676 -7 -0.125
10685 -6 -0.111111
10694 -5 -0.111111
10703 -4 -0.111111
10712 -3 -0.111111
10721 -2 -0.111111
10730 -1 -0.111111
10737 0 -0.142857
10739 1 -0.5
10748 2 -0.111111
10758 3 -0.1
10766 4 -0.125
10775 5 -0.111111
10784 6 -0.111111
10794 7 -0.1
10803 8 -0.111111
10812 9 -0.111111
10821 10 -0.111111
10831 11 -0.1
10840 12 -0.111111
10850 13 -0.1
10860 14 -0.1
10870 15 -0.1
10879 16 -0.111111
10889 17 -0.1
10899 18 -0.1
10909 19 -0.1
10919 20 -0.1
10930 21 -0.0909091
10940 22 -0.1
10951 23 -0.0909091
10962 24 -0.0909091
10973 25 -0.0909091
10984 26 -0.0909091
10995 27 -0.0909091
11007 28 -0.0833333
11019 29 -0.0833333
11031 30 -0.0833333
11044 31 -0.0769231
11057 32 -0.0769231
11070 33 -0.0769231
11084 34 -0.0714286
11099 35 -0.0666667
11114 36 -0.0666667
11130 37 -0.0625
11146 38 -0.0625
11164 39 -0.0555556
11184 40 -0.05
11204 41 -0.05
11227 42 -0.0434783
11254 43 -0.037037
11287 44 -0.030303
11334 45 -0.0212766
11477 44 0.00699301
11518 43 0.0243902
11549 42 0.0322581
11574 41 0.04
11597 40 0.0434783
11617 39 0.05
11635 38 0.0555556
11653 37 0.0555556
11669 36 0.0625
11685 35 0.0625
11699 34 0.0714286
11714 33 0.0666667
11727 32 0.0769231
11740 31 0.0769231
11753 30 0.0769231
11766 29 0.0769231
11778 28 0.0833333
11790 27 0.0833333
11801 26 0.0909091
11813 25 0.0833333
11824 24 0.0909091
11835 23 0.0909091
11845 22 0.1
11856 21 0.0909091
11866 20 0.1
11877 19 0.0909091
11887 18 0.1
11897 17 0.1
11907 16 0.1
11917 15 0.1
11926 14 0.111111
11936 13 0.1
11945 12 0.111111
11955 11 0.1
11964 10 0.111111
11974 9 0.1
11983 8 0.111111
11992 7 0.111111
12001 6 0.111111
12010 5 0.111111
12019 4 0.111111
12028 3 0.111111
12037 2 0.111111
12046 1 0.111111
12053 0 0.142857
12055 -1 0.5
12064 -2 0.111111
12073 -3 0.111111
12082 -4 0.111111
12091 -5 0.111111
12099 -6 0.125
12108 -7 0.111111
12117 -8 0.111111
12126 -9 0.111111
12135 -10 0.111111
12144 -11 0.111111
12152 -12 0.125
12161 -13 0.111111
12170 -14 0.111111
12179 -15 0.111111
12188 -16 0.111111
12197 -17 0.111111
12206 -18 0.111111
12215 -19 0.111111
12224 -20 0.111111
12233 -21 0.111111
12242 -22 0.111111
12252 -23 0.1
12261 -24 0.111111
12270 -25 0.111111
12280 -26 0.1
12289 -27 0.111111
12299 -28 0.1
12309 -29 0.1
12318 -30 0.111111
12328 -31 0.1
12338 -32 0.1
12348 -33 0.1
12359 -34 0.0909091
12369 -35 0.1
12380 -36 0.0909091
12390 -37 0.1
12401 -38 0.0909091
12412 -39 0.0909091
12424 -40 0.0833333
12435 -41 0.0909091
12447 -42 0.0833333
12459 -43 0.0833333
12472 -44 0.0769231
12485 -45 0.0769231
12512 -46 0.037037
12526 -47 0.0714286
12541 -48 0.0666667
12557 -49 0.0625
12574 -50 0.0588235
12591 -51 0.0588235
12610 -52 0.0526316
12631 -53 0.047619
12655 -54 0.0416667
12682 -55 0.037037
12715 -56 0.030303
12768 -57 0.0188679
12888 -56 -0.00833333
12932 -55 -0.0227273
12964 -54 -0.03125
12990 -53 -0.0384615
13012 -52 -0.0454545
13033 -51 -0.047619
13052 -50 -0.0526316
13069 -49 -0.0588235
13085 -48 -0.0625
13101 -47 -0.0625
13116 -46 -0.0666667
13130 -45 -0.0714286
13144 -44 -0.0714286
13157 -43 -0.0769231
13170 -42 -0.0769231
13183 -41 -0.0769231
13195 -40 -0.0833333
13207 -39 -0.0833333
13218 -38 -0.0909091
13230 -37 -0.0833333
13241 -36 -0.0909091
13252 -35 -0.0909091
13262 -34 -0.1
13273 -33 -0.0909091
13284 -32 -0.0909091
13294 -31 -0.1
13304 -30 -0.1
13314 -29 -0.1
13324 -28 -0.1
13334 -27 -0.1
13344 -26 -0.1
13353 -25 -0.111111
13363 -24 -0.1
13372 -23 -0.111111
13382 -22 -0.1
13391 -21 -0.111111
13400 -20 -0.111111
13410 -19 -0.1
13419 -18 -0.111111
13428 -17 -0.111111
13437 -16 -0.111111
13446 -15 -0.111111
13455 -14 -0.111111
13464 -13 -0.111111
13473 -12 -0.111111
13482 -11 -0.111111
13491 -10 -0.111111
13509 -9 -0.0555556
13518 -8 -0.111111
13527 -7 -0.111111
13535 -6 -0.125
13544 -5 -0.111111
13553 -4 -0.111111
13562 -3 -0.111111
13571 -2 -0.111111
13580 -1 -0.111111
13587 0 -0.142857
13589 1 -0.5
13598 2 -0.111111
13607 3 -0.111111
13616 4 -0.111111
13625 5 -0.111111
13634 6 -0.111111
13643 7 -0.111111
13653 8 -0.1
13662 9 -0.111111
13671 10 -0.111111
13681 11 -0.1
13690 12 -0.111111
13700 13 -0.1
13709 14 -0.111111
13719 15 -0.1
13729 16 -0.1
13738 17 -0.111111
13748 18 -0.1
13759 19 -0.0909091
13769 20 -0.1
13779 21 -0.1
13790 22 -0.0909091
13800 23 -0.1
13811 24 -0.0909091
13822 25 -0.0909091
13833 26 -0.0909091
13845 27 -0.0833333
13856 28 -0.0909091
13868 29 -0.0833333
13881 30 -0.0769231
13893 31 -0.0833333
13906 32 -0.0769231
13920 33 -0.0714286
13933 34 -0.0769231
13948 35 -0.0666667
13963 36 -0.0666667
13979 37 -0.0625
13995 38 -0.0625
14013 39 -0.0555556
14032 40 -0.0526316
14052 41 -0.05
14075 42 -0.0434783
14101 43 -0.0384615
14134 44 -0.030303
14179 45 -0.0222222
14331 44 0.00657895
14371 43 0.025
14401 42 0.0333333
14426 41 0.04
14448 40 0.0454545
14468 39 0.05
14486 38 0.0555556
14504 37 0.0555556
14535 36 0.0322581
14550 35 0.0666667
14564 34 0.0714286
14578 33 0.0714286
14591 32 0.0769231
14604 31 0.0769231
14616 30 0.0833333
14628 29 0.0833333
14640 28 0.0833333
14652 27 0.0833333
14663 26 0.0909091
14674 25 0.0909091
14685 24 0.0909091
14696 23 0.0909091
14706 22 0.1
14717 21 0.0909091
14727 20 0.1
14737 19 0.1
14747 18 0.1
14757 17 0.1
14767 16 0.1
14776 15 0.111111
14786 14 0.1
14795 13 0.111111
14805 12 0.1
14814 11 0.111111
14823 10 0.111111
14833 9 0.1
14842 8 0.111111
14851 7 0.111111
14860 6 0.111111
14869 5 0.111111
14878 4 0.111111
14887 3 0.111111
14896 2 0.111111
14903 0 0.285714
14905 -1 0.5
14914 -2 0.111111
14923 -3 0.111111
14932 -4 0.111111
14940 -5 0.125
14949 -6 0.111111
14958 -7 0.111111
14967 -8 0.111111
14976 -9 0.111111
14984 -10 0.125
14993 -11 0.111111
15002 -12 0.111111
15011 -13 0.111111
15020 -14 0.111111
15029 -15 0.111111
15038 -16 0.111111
15047 -17 0.111111
15056 -18 0.111111
15065 -19 0.111111
15074 -20 0.111111
15083 -21 0.111111
15092 -22 0.111111
15101 -23 0.111111
15111 -24 0.1
15120 -25 0.111111
15129 -26 0.111111
15139 -27 0.1
15148 -28 0.111111
15158 -29 0.1
15168 -30 0.1
15178 -31 0.1
15188 -32 0.1
15198 -33 0.1
15208 -34 0.1
15219 -35 0.0909091
15229 -36 0.1
15240 -37 0.0909091
15251 -38 0.0909091
15262 -39 0.0909091
15273 -40 0.0909091
15285 -41 0.0833333
15297 -42 0.0833333
15309 -43 0.0833333
15321 -44 0.0833333
15334 -45 0.0769231
15347 -46 0.0769231
15361 -47 0.0714286
15375 -48 0.0714286
15390 -49 0.0666667
15406 -50 0.0625
15423 -51 0.0588235
15440 -52 0.0588235
15459 -53 0.0526316
15480 -54 0.047619
15503 -55 0.0434783
15530 -56 0.037037
15563 -57 0.030303
15613 -58 0.02
15742 -57 -0.00775194
15784 -56 -0.0238095
15815 -55 -0.0322581
15841 -54 -0.0384615
15863 -53 -0.0454545
15884 -52 -0.047619
15902 -51 -0.0555556
15920 -50 -0.0555556
15936 -49 -0.0625
15952 -48 -0.0625
15966 -47 -0.0714286
15981 -46 -0.0666667
15994 -45 -0.0769231
16008 -44 -0.0714286
16020 -43 -0.0833333
16033 -42 -0.0769231
16045 -41 -0.0833333
16057 -40 -0.0833333
16069 -39 -0.0833333
16080 -38 -0.0909091
16091 -37 -0.0909091
16102 -36 -0.0909091
16113 -35 -0.0909091
16123 -34 -0.1
16134 -33 -0.0909091
16144 -32 -0.1
16154 -31 -0.1
16164 -30 -0.1
16174 -29 -0.1
16184 -28 -0.1
16194 -27 -0.1
16203 -26 -0.111111
16213 -25 -0.1
16222 -24 -0.111111
16232 -23 -0.1
16241 -22 -0.111111
16251 -21 -0.1
16260 -20 -0.111111
16269 -19 -0.111111
16278 -18 -0.111111
16287 -17 -0.111111
16296 -16 -0.111111
16305 -15 -0.111111
16314 -14 -0.111111
16323 -13 -0.111111
16332 -12 -0.111111
16341 -11 -0.111111
16350 -10 -0.111111
16359 -9 -0.111111
16368 -8 -0.111111
16377 -7 -0.111111
16385 -6 -0.125
16394 -5 -0.111111
16403 -4 -0.111111
16412 -3 -0.111111
16421 -2 -0.111111
16430 -1 -0.111111
16437 0 -0.142857
16439 1 -0.5
16448 2 -0.111111
16457 3 -0.111111
16466 4 -0.111111
16475 5 -0.111111
16484 6 -0.111111
16493 7 -0.111111
16502 8 -0.111111
16512 9 -0.1
16521 10 -0.111111
16530 11 -0.111111
16540 12 -0.1
16559 13 -0.0526316
16569 14 -0.1
16578 15 -0.111111
16588 16 -0.1
16598 17 -0.1
16608 18 -0.1
16618 19 -0.1
16629 20 -0.0909091
16639 21 -0.1
16650 22 -0.0909091
16661 23 -0.0909091
16672 24 -0.0909091
16683 25 -0.0909091
16694 26 -0.0909091
16706 27 -0.0833333
16718 28 -0.0833333
16730 29 -0.0833333
16743 30 -0.0769231
16756 31 -0.0769231
16769 32 -0.0769231
16783 33 -0.0714286
16797 34 -0.0714286
16812 35 -0.0666667
16828 36 -0.0625
16844 37 -0.0625
16862 38 -0.0555556
16881 39 -0.0526316
16901 40 -0.05
16924 41 -0.0434783
16950 42 -0.0384615
16982 43 -0.03125
17026 44 -0.0227273
17184 43 0.00632911
17223 42 0.025641
17252 41 0.0344828
17277 40 0.04
17299 39 0.0454545
17319 38 0.05
17337 37 0.0555556
17354 36 0.0588235
17371 35 0.0588235
17386 34 0.0666667
17401 33 0.0666667
17415 32 0.0714286
17428 31 0.0769231
17442 30 0.0714286
17454 29 0.0833333
17467 28 0.0769231
17479 27 0.0833333
17491 26 0.0833333
17502 25 0.0909091
17514 24 0.0833333
17525 23 0.0909091
17535 22 0.1
17546 21 0.0909091
17567 20 0.047619
17577 19 0.1
17587 18 0.1
17597 17 0.1
17607 16 0.1
17617 15 0.1
17627 14 0.1
17636 13 0.111111
17646 12 0.1
17655 11 0.111111
17665 10 0.1
17674 9 0.111111
17683 8 0.111111
17692 7 0.111111
17701 6 0.111111
17711 5 0.1
17720 4 0.111111
17729 3 0.111111
17737 2 0.125
17747 1 0.1
17753 0 0.166667
17755 -1 0.5
17764 -2 0.111111
17773 -3 0.111111
17782 -4 0.111111
17791 -5 0.111111
17800 -6 0.111111
17808 -7 0.125
17818 -8 0.1
17826 -9 0.125
17835 -10 0.111111
17844 -11 0.111111
17852 -12 0.125
17861 -13 0.111111
17870 -14 0.111111
17880 -15 0.1
17888 -16 0.125
17897 -17 0.111111
17906 -18 0.111111
17915 -19 0.111111
17924 -20 0.111111
17933 -21 0.111111
17942 -22 0.111111
17952 -23 0.1
17962 -24 0.1
17970 -25 0.125
17980 -26 0.1
17989 -27 0.111111
17999 -28 0.1
18008 -29 0.111111
18018 -30 0.1
18028 -31 0.1
18038 -32 0.1
18048 -33 0.1
18058 -34 0.1
18069 -35 0.0909091
18079 -36 0.1
18090 -37 0.0909091
18101 -38 0.0909091
18112 -39 0.0909091
18123 -40 0.0909091
18135 -41 0.0833333
18147 -42 0.0833333
18159 -43 0.0833333
18171 -44 0.0833333
18184 -45 0.0769231
18198 -46 0.0714286
18211 -47 0.0769231
18226 -48 0.0666667
18240 -49 0.0714286
18256 -50 0.0625
18273 -51 0.0588235
18291 -52 0.0555556
18309 -53 0.0555556
18330 -54 0.047619
18353 -55 0.0434783
18380 -56 0.037037
18413 -57 0.030303
18463 -58 0.02
18592 -57 -0.00775194
18634 -56 -0.0238095
18665 -55 -0.0322581
18691 -54 -0.0384615
18714 -53 -0.0434783
18734 -52 -0.05
18752 -51 -0.0555556
18770 -50 -0.0555556
18786 -49 -0.0625
18802 -48 -0.0625
18817 -47 -0.0666667
18831 -46 -0.0714286
18845 -45 -0.0714286
18858 -44 -0.0769231
18871 -43 -0.0769231
18883 -42 -0.0833333
18895 -41 -0.0833333
18907 -40 -0.0833333
18919 -39 -0.0833333
18930 -38 -0.0909091
18941 -37 -0.0909091
18952 -36 -0.0909091
18963 -35 -0.0909091
18974 -34 -0.0909091
18984 -33 -0.1
18994 -32 -0.1
19004 -31 -0.1
19014 -30 -0.1
19024 -29 -0.1
19034 -28 -0.1
19044 -27 -0.1
19054 -26 -0.1
19063 -25 -0.111111
19074 -24 -0.0909091
19082 -23 -0.125
19091 -22 -0.111111
19101 -21 -0.1
19110 -20 -0.111111
19119 -19 -0.111111
19128 -18 -0.111111
19137 -17 -0.111111
19146 -16 -0.111111
19156 -15 -0.1
19164 -14 -0.125
19173 -13 -0.111111
19182 -12 -0.111111
19191 -11 -0.111111
19200 -10 -0.111111
19209 -9 -0.111111
19218 -8 -0.111111
19227 -7 -0.111111
19236 -6 -0.111111
19245 -5 -0.111111
19253 -4 -0.125
19262 -3 -0.111111
19271 -2 -0.111111
19280 -1 -0.111111
19287 0 -0.142857
19289 1 -0.5
19299 2 -0.1
19307 3 -0.125
19316 4 -0.111111
19325 5 -0.111111
19334 6 -0.111111
19343 7 -0.111111
19353 8 -0.1
19362 9 -0.111111
19371 10 -0.111111
19381 11 -0.1
19390 12 -0.111111
19399 13 -0.111111
19409 14 -0.1
19419 15 -0.1
19429 16 -0.1
19438 17 -0.111111
19448 18 -0.1
19458 19 -0.1
19469 20 -0.0909091
19479 21 -0.1
19489 22 -0.1
19500 23 -0.0909091
19511 24 -0.0909091
19522 25 -0.0909091
19533 26 -0.0909091
19545 27 -0.0833333
19556 28 -0.0909091
19568 29 -0.0833333
19580 30 -0.0833333
19593 31 -0.0769231
19619 32 -0.0384615
19633 33 -0.0714286
19647 34 -0.0714286
19662 35 -0.0666667
19678 36 -0.0625
19695 37 -0.0588235
19712 38 -0.0588235
19731 39 -0.0526316
19752 40 -0.047619
19774 41 -0.0454545
19801 42 -0.037037
19832 43 -0.0322581
19877 44 -0.0222222
20033 43 0.00641026
20072 42 0.025641
20102 41 0.0333333
20127 40 0.04
20149 39 0.0454545
20169 38 0.05
20187 37 0.0555556
20204 36 0.0588235
20221 35 0.0588235
20236 34 0.0666667
20251 33 0.0666667
20265 32 0.0714286
20278 31 0.0769231
20292 30 0.0714286
20304 29 0.0833333
20317 28 0.0769231
20329 27 0.0833333
20341 26 0.0833333
20352 25 0.0909091
20363 24 0.0909091
20375 23 0.0833333
20385 22 0.1
20396 21 0.0909091
20407 20 0.0909091
20417 19 0.1
20427 18 0.1
20437 17 0.1
20447 16 0.1
20457 15 0.1
20467 14 0.1
20477 13 0.1
20486 12 0.111111
20496 11 0.1
20505 10 0.111111
20515 9 0.1
20524 8 0.111111
20533 7 0.111111
20542 6 0.111111
20551 5 0.111111
20560 4 0.111111
20569 3 0.111111
20578 2 0.111111
20587 1 0.111111
20596 0 0.111111
20614 -1 0.0555556
20623 -2 0.111111
20632 -3 0.111111
20641 -4 0.111111
20649 -5 0.125
20658 -6 0.111111
20667 -7 0.111111
20676 -8 0.111111
20685 -9 0.111111
20694 -10 0.111111
20702 -11 0.125
20711 -12 0.111111
20720 -13 0.111111
20729 -14 0.111111
20738 -15 0.111111
20747 -16 0.111111
20756 -17 0.111111
20765 -18 0.111111
20774 -19 0.111111
20783 -20 0.111111
20792 -21 0.111111
20802 -22 0.1
20811 -23 0.111111
20820 -24 0.111111
20829 -25 0.111111
20839 -26 0.1
20849 -27 0.1
20858 -28 0.111111
20868 -29 0.1
20878 -30 0.1
20888 -31 0.1
20898 -32 0.1
20908 -33 0.1
20919 -34 0.0909091
20929 -35 0.1
20940 -36 0.0909091
20951 -37 0.0909091
20962 -38 0.0909091
20973 -39 0.0909091
20985 -40 0.0833333
20997 -41 0.0833333
21009 -42 0.0833333
21021 -43 0.0833333
21034 -44 0.0769231
21047 -45 0.0769231
21061 -46 0.0714286
21075 -47 0.0714286
21090 -48 0.0666667
21106 -49 0.0625
21122 -50 0.0625
21140 -51 0.0555556
21159 -52 0.0526316
21179 -53 0.05
21202 -54 0.0434783
21229 -55 0.037037
21262 -56 0.030303
21311 -57 0.0204082
21444 -56 -0.0075188
21486 -55 -0.0238095
21517 -54 -0.0322581
21542 -53 -0.04
21564 -52 -0.0454545
21585 -51 -0.047619
21603 -50 -0.0555556
21637 -49 -0.0294118
21652 -48 -0.0666667
21667 -47 -0.0666667
21681 -46 -0.0714286
21695 -45 -0.0714286
21708 -44 -0.0769231
21721 -43 -0.0769231
21734 -42 -0.0769231
21746 -41 -0.0833333
21758 -40 -0.0833333
21769 -39 -0.0909091
21780 -38 -0.0909091
21792 -37 -0.0833333
21802 -36 -0.1
21813 -35 -0.0909091
21824 -34 -0.0909091
21834 -33 -0.1
21845 -32 -0.0909091
21855 -31 -0.1
21865 -30 -0.1
21875 -29 -0.1
21885 -28 -0.1
21894 -27 -0.111111
21904 -26 -0.1
21913 -25 -0.111111
21923 -24 -0.1
21932 -23 -0.111111
21942 -22 -0.1
21951 -21 -0.111111
21960 -20 -0.111111
21969 -19 -0.111111
21978 -18 -0.111111
21987 -17 -0.111111
21996 -16 -0.111111
22006 -15 -0.1
22014 -14 -0.125
22023 -13 -0.111111
22033 -12 -0.1
22041 -11 -0.125
22050 -10 -0.111111
22059 -9 -0.111111
22068 -8 -0.111111
22077 -7 -0.111111
22086 -6 -0.111111
22095 -5 -0.111111
22103 -4 -0.125
22112 -3 -0.111111
22121 -2 -0.111111
22130 -1 -0.111111
22137 0 -0.142857
22139 1 -0.5
22148 2 -0.111111
22157 3 -0.111111
22166 4 -0.111111
22175 5 -0.111111
22184 6 -0.111111
22193 7 -0.111111
22203 8 -0.1
22212 9 -0.111111
22221 10 -0.111111
22231 11 -0.1
22240 12 -0.111111
22249 13 -0.111111
22259 14 -0.1
22269 15 -0.1
22278 16 -0.111111
22288 17 -0.1
22298 18 -0.1
22308 19 -0.1
22319 20 -0.0909091
22329 21 -0.1
22339 22 -0.1
22350 23 -0.0909091
22361 24 -0.0909091
22372 25 -0.0909091
22383 26 -0.0909091
22395 27 -0.0833333
22406 28 -0.0909091
22418 29 -0.0833333
22430 30 -0.0833333
22443 31 -0.0769231
22456 32 -0.0769231
22469 33 -0.0769231
22483 34 -0.0714286
22497 35 -0.0714286
22512 36 -0.0666667
22528 37 -0.0625
22544 38 -0.0625
22562 39 -0.0555556
22581 40 -0.0526316
22601 41 -0.05
22624 42 -0.0434783
22650 43 -0.0384615
22682 44 -0.03125
22726 45 -0.0227273
22884 44 0.00632911
22923 43 0.025641
22952 42 0.0344828
22977 41 0.04
22999 40 0.0454545
23019 39 0.05
23037 38 0.0555556
23054 37 0.0588235
23071 36 0.0588235
23086 35 0.0666667
23101 34 0.0666667
23115 33 0.0714286
23128 32 0.0769231
23142 31 0.0714286
23154 30 0.0833333
23167 29 0.0769231
23179 28 0.0833333
23191 27 0.0833333
23202 26 0.0909091
23213 25 0.0909091
23224 24 0.0909091
23235 23 0.0909091
23246 22 0.0909091
23257 21 0.0909091
23267 20 0.1
23277 19 0.1
23287 18 0.1
23297 17 0.1
23307 16 0.1
23317 15 0.1
23327 14 0.1
23336 13 0.111111
23346 12 0.1
23355 11 0.111111
23364 10 0.111111
23374 9 0.1
23383 8 0.111111
23392 7 0.111111
23401 6 0.111111
23410 5 0.111111
23419 4 0.111111
23428 3 0.111111
23437 2 0.111111
23446 1 0.111111
23453 0 0.142857
23455 -1 0.5
23464 -2 0.111111
23473 -3 0.111111
23482 -4 0.111111
23490 -5 0.125
23499 -6 0.111111
23508 -7 0.111111
23517 -8 0.111111
23526 -9 0.111111
23535 -10 0.111111
23543 -11 0.125
23552 -12 0.111111
23561 -13 0.111111
23570 -14 0.111111
23579 -15 0.111111
23588 -16 0.111111
23597 -17 0.111111
23606 -18 0.111111
23615 -19 0.111111
23624 -20 0.111111
23633 -21 0.111111
23651 -22 0.0555556
23661 -23 0.1
23670 -24 0.111111
23679 -25 0.111111
23689 -26 0.1
23698 -27 0.111111
23708 -28 0.1
23718 -29 0.1
23728 -30 0.1
23738 -31 0.1
23748 -32 0.1
23758 -33 0.1
23769 -34 0.0909091
23779 -35 0.1
23790 -36 0.0909091
23801 -37 0.0909091
23812 -38 0.0909091
23823 -39 0.0909091
23834 -40 0.0909091
23846 -41 0.0833333
23858 -42 0.0833333
23871 -43 0.0769231
23884 -44 0.0769231
23897 -45 0.0769231
23911 -46 0.0714286
23925 -47 0.0714286
23940 -48 0.0666667
23955 -49 0.0666667
23972 -50 0.0588235
23989 -51 0.0588235
24008 -52 0.0526316
24029 -53 0.047619
24052 -54 0.0434783
24079 -55 0.037037
24111 -56 0.03125
24160 -57 0.0204082
24294 -56 -0.00746269
24336 -55 -0.0238095
24367 -54 -0.0322581
24392 -53 -0.04
24415 -52 -0.0434783
24435 -51 -0.05
24453 -50 -0.0555556
24471 -49 -0.0555556
24487 -48 -0.0625
24502 -47 -0.0666667
24517 -46 -0.0666667
24531 -45 -0.0714286
24545 -44 -0.0714286
24558 -43 -0.0769231
24571 -42 -0.0769231
24584 -41 -0.0769231
24596 -40 -0.0833333
24608 -39 -0.0833333
24619 -38 -0.0909091
24630 -37 -0.0909091
24642 -36 -0.0833333
24663 -35 -0.047619
24674 -34 -0.0909091
24684 -33 -0.1
24695 -32 -0.0909091
24705 -31 -0.1
24715 -30 -0.1
24725 -29 -0.1
24734 -28 -0.111111
24744 -27 -0.1
24754 -26 -0.1
24763 -25 -0.111111
24773 -24 -0.1
24782 -23 -0.111111
24792 -22 -0.1
24801 -21 -0.111111
24810 -20 -0.111111
24819 -19 -0.111111
24828 -18 -0.111111
24837 -17 -0.111111
24846 -16 -0.111111
24855 -15 -0.111111
24864 -14 -0.111111
24873 -13 -0.111111
24882 -12 -0.111111
24891 -11 -0.111111
24900 -10 -0.111111
24909 -9 -0.111111
24918 -8 -0.111111
24927 -7 -0.111111
24936 -6 -0.111111
24945 -5 -0.111111
24953 -4 -0.125
24962 -3 -0.111111
24971 -2 -0.111111
24980 -1 -0.111111
24987 0 -0.142857
24989 1 -0.5
24998 2 -0.111111
25007 3 -0.111111
25016 4 -0.111111
25025 5 -0.111111
25034 6 -0.111111
25043 7 -0.111111
25053 8 -0.1
25062 9 -0.111111
25071 10 -0.111111
25081 11 -0.1
25090 12 -0.111111
25099 13 -0.111111
25109 14 -0.1
25119 15 -0.1
25128 16 -0.111111
25138 17 -0.1
25148 18 -0.1
25158 19 -0.1
25169 20 -0.0909091
25179 21 -0.1
25189 22 -0.1
25200 23 -0.0909091
25211 24 -0.0909091
25222 25 -0.0909091
25233 26 -0.0909091
25244 27 -0.0909091
25256 28 -0.0833333
25268 29 -0.0833333
25280 30 -0.0833333
25293 31 -0.0769231
25306 32 -0.0769231
25319 33 -0.0769231
25333 34 -0.0714286
25347 35 -0.0714286
25362 36 -0.0666667
25378 37 -0.0625
25394 38 -0.0625
25412 39 -0.0555556
25431 40 -0.0526316
25451 41 -0.05
25474 42 -0.0434783
25500 43 -0.0384615
25532 44 -0.03125
25576 45 -0.0227273
25733 44 0.00636943
25772 43 0.025641
25802 42 0.0333333
25827 41 0.04
25849 40 0.0454545
25869 39 0.05
25887 38 0.0555556
25904 37 0.0588235
25920 36 0.0625
25936 35 0.0625
25950 34 0.0714286
25965 33 0.0666667
25978 32 0.0769231
25991 31 0.0769231
26004 30 0.0769231
26016 29 0.0833333
26029 28 0.0769231
26040 27 0.0909091
26052 26 0.0833333
26063 25 0.0909091
26074 24 0.0909091
26085 23 0.0909091
26096 22 0.0909091
26106 21 0.1
26117 20 0.0909091
26127 19 0.1
26137 18 0.1
26147 17 0.1
26157 16 0.1
26167 15 0.1
26176 14 0.111111
26186 13 0.1
26196 12 0.1
26205 11 0.111111
26214 10 0.111111
26224 9 0.1
26233 8 0.111111
26242 7 0.111111
26251 6 0.111111
26260 5 0.111111
26269 4 0.111111
26278 3 0.111111
26287 2 0.111111
26296 1 0.111111
26303 0 0.142857
26305 -1 0.5
26314 -2 0.111111
26323 -3 0.111111
26331 -4 0.125
26340 -5 0.111111
26349 -6 0.111111
26358 -7 0.111111
26367 -8 0.111111
26376 -9 0.111111
26384 -10 0.125
26393 -11 0.111111
26402 -12 0.111111
26411 -13 0.111111
26420 -14 0.111111
26429 -15 0.111111
26438 -16 0.111111
26447 -17 0.111111
26455 -18 0.125
26465 -19 0.1
26474 -20 0.111111
26483 -21 0.111111
26492 -22 0.111111
26501 -23 0.111111
26510 -24 0.111111
26520 -25 0.1
26529 -26 0.111111
26539 -27 0.1
26548 -28 0.111111
26558 -29 0.1
26568 -30 0.1
26578 -31 0.1
26588 -32 0.1
26598 -33 0.1
26608 -34 0.1
26619 -35 0.0909091
26629 -36 0.1
26639 -37 0.1
26650 -38 0.0909091
26661 -39 0.0909091
26673 -40 0.0833333
26684 -41 0.0909091
26696 -42 0.0833333
26708 -43 0.0833333
26721 -44 0.0769231
26733 -45 0.0833333
26747 -46 0.0714286
26775 -47 0.0357143
26789 -48 0.0714286
26805 -49 0.0625
26821 -50 0.0625
26839 -51 0.0555556
26858 -52 0.0526316
26878 -53 0.05
26901 -54 0.0434783
26928 -55 0.037037
26961 -56 0.030303
27009 -57 0.0208333
27145 -56 -0.00735294
27186 -55 -0.0243902
27217 -54 -0.0322581
27242 -53 -0.04
27265 -52 -0.0434783
27285 -51 -0.05
27303 -50 -0.0555556
27321 -49 -0.0555556
27337 -48 -0.0625
27352 -47 -0.0666667
27367 -46 -0.0666667
27381 -45 -0.0714286
27395 -44 -0.0714286
27408 -43 -0.0769231
27421 -42 -0.0769231
27433 -41 -0.0833333
27446 -40 -0.0769231
27457 -39 -0.0909091
27469 -38 -0.0833333
27480 -37 -0.0909091
27491 -36 -0.0909091
27502 -35 -0.0909091
27513 -34 -0.0909091
27524 -33 -0.0909091
27534 -32 -0.1
27544 -31 -0.1
27554 -30 -0.1
27564 -29 -0.1
27574 -28 -0.1
27584 -27 -0.1
27594 -26 -0.1
27604 -25 -0.1
27613 -24 -0.111111
27623 -23 -0.1
27632 -22 -0.111111
27641 -21 -0.111111
27651 -20 -0.1
27660 -19 -0.111111
27669 -18 -0.111111
27678 -17 -0.111111
27687 -16 -0.111111
27696 -15 -0.111111
27705 -14 -0.111111
27714 -13 -0.111111
27723 -12 -0.111111
27732 -11 -0.111111
27741 -10 -0.111111
27750 -9 -0.111111
27777 -8 -0.037037
27785 -7 -0.125
27794 -6 -0.111111
27803 -5 -0.111111
27812 -4 -0.111111
27821 -3 -0.111111
27830 -2 -0.111111
27837 0 -0.285714
27839 1 -0.5
27848 2 -0.111111
27857 3 -0.111111
27866 4 -0.111111
27875 5 -0.111111
27884 6 -0.111111
27893 7 -0.111111
27902 8 -0.111111
27911 9 -0.111111
27921 10 -0.1
27930 11 -0.111111
27940 12 -0.1
27949 13 -0.111111
27959 14 -0.1
27968 15 -0.111111
27978 16 -0.1
27988 17 -0.1
27998 18 -0.1
28008 19 -0.1
28018 20 -0.1
28028 21 -0.1
28039 22 -0.0909091
28050 23 -0.0909091
28060 24 -0.1
28071 25 -0.0909091
28083 26 -0.0833333
28094 27 -0.0909091
28106 28 -0.0833333
28117 29 -0.0909091
28130 30 -0.0769231
28142 31 -0.0833333
28155 32 -0.0769231
28168 33 -0.0769231
28182 34 -0.0714286
28196 35 -0.0714286
28211 36 -0.0666667
28227 37 -0.0625
28243 38 -0.0625
28261 39 -0.0555556
28280 40 -0.0526316
28300 41 -0.05
28323 42 -0.0434783
28349 43 -0.0384615
28380 44 -0.0322581
28423 45 -0.0232558
28586 44 0.00613497
28624 43 0.0263158
28653 42 0.0344828
28678 41 0.04
28700 40 0.0454545
28719 39 0.0526316
28738 38 0.0526316
28755 37 0.0588235
28786 36 0.0322581
28801 35 0.0666667
28815 34 0.0714286
28829 33 0.0714286
28842 32 0.0769231
28854 31 0.0833333
28867 30 0.0769231
28879 29 0.0833333
28891 28 0.0833333
28902 27 0.0909091
28913 26 0.0909091
28924 25 0.0909091
28935 24 0.0909091
28946 23 0.0909091
28957 22 0.0909091
28967 21 0.1
28977 20 0.1
28987 19 0.1
28997 18 0.1
29007 17 0.1
29017 16 0.1
29027 15 0.1
29036 14 0.111111
29046 13 0.1
29055 12 0.111111
29064 11 0.111111
29074 10 0.1
29083 9 0.111111
29092 8 0.111111
29101 7 0.111111
29110 6 0.111111
29119 5 0.111111
29128 4 0.111111
29137 3 0.111111
29146 2 0.111111
29153 0 0.285714
29155 -1 0.5
29164 -2 0.111111
29173 -3 0.111111
29181 -4 0.125
29190 -5 0.111111
29199 -6 0.111111
29208 -7 0.111111
29217 -8 0.111111
29225 -9 0.125
29234 -10 0.111111
29243 -11 0.111111
29252 -12 0.111111
29261 -13 0.111111
29270 -14 0.111111
29278 -15 0.125
29287 -16 0.111111
29296 -17 0.111111
29305 -18 0.111111
29314 -19 0.111111
29323 -20 0.111111
29332 -21 0.111111
29342 -22 0.1
29351 -23 0.111111
29360 -24 0.111111
29369 -25 0.111111
29379 -26 0.1
29388 -27 0.111111
29398 -28 0.1
29407 -29 0.111111
29417 -30 0.1
29427 -31 0.1
29437 -32 0.1
29447 -33 0.1
29457 -34 0.1
29468 -35 0.0909091
29478 -36 0.1
29489 -37 0.0909091
29500 -38 0.0909091
29511 -39 0.0909091
29522 -40 0.0909091
29534 -41 0.0833333
29546 -42 0.0833333
29558 -43 0.0833333
29570 -44 0.0833333
29583 -45 0.0769231
29596 -46 0.0769231
29610 -47 0.0714286
29624 -48 0.0714286
29639 -49 0.0666667
29654 -50 0.0666667
29671 -51 0.0588235
29688 -52 0.0588235
29707 -53 0.0526316
29727 -54 0.05
29750 -55 0.0434783
29776 -56 0.0384615
29808 -57 0.03125
29854 -58 0.0217391
29998 -57 -0.00694444
30039 -56 -0.0243902
30069 -55 -0.0333333
30094 -54 -0.04
30116 -53 -0.0454545
30136 -52 -0.05
30154 -51 -0.0555556
30172 -50 -0.0555556
30188 -49 -0.0625
30203 -48 -0.0666667
30218 -47 -0.0666667
30232 -46 -0.0714286
30246 -45 -0.0714286
30259 -44 -0.0769231
30272 -43 -0.0769231
30285 -42 -0.0769231
30296 -41 -0.0909091
30308 -40 -0.0833333
30320 -39 -0.0833333
30331 -38 -0.0909091
30342 -37 -0.0909091
30353 -36 -0.0909091
30364 -35 -0.0909091
30374 -34 -0.1
30385 -33 -0.0909091
30395 -32 -0.1
30405 -31 -0.1
30415 -30 -0.1
30425 -29 -0.1
30435 -28 -0.1
30444 -27 -0.111111
30454 -26 -0.1
30464 -25 -0.1
30473 -24 -0.111111
30482 -23 -0.111111
30492 -22 -0.1
30501 -21 -0.111111
30510 -20 -0.111111
30519 -19 -0.111111
30528 -18 -0.111111
30538 -17 -0.1
30547 -16 -0.111111
30556 -15 -0.111111
30565 -14 -0.111111
30574 -13 -0.111111
30582 -12 -0.125
30591 -11 -0.111111
30600 -10 -0.111111
30609 -9 -0.111111
30618 -8 -0.111111
30627 -7 -0.111111
30636 -6 -0.111111
30645 -5 -0.111111
30653 -4 -0.125
30662 -3 -0.111111
30672 -2 -0.1
30680 -1 -0.125
30687 0 -0.142857
30689 1 -0.5
30698 2 -0.111111
30707 3 -0.111111
30716 4 -0.111111
30725 5 -0.111111
30735 6 -0.1
30743 7 -0.125
30753 8 -0.1
30762 9 -0.111111
30771 10 -0.111111
30780 11 -0.111111
30809 12 -0.0344828
30819 13 -0.1
30828 14 -0.111111
30838 15 -0.1
30848 16 -0.1
30858 17 -0.1
30868 18 -0.1
30879 19 -0.0909091
30889 20 -0.1
30900 21 -0.0909091
30911 22 -0.0909091
30922 23 -0.0909091
30933 24 -0.0909091
30944 25 -0.0909091
30956 26 -0.0833333
30968 27 -0.0833333
30980 28 -0.0833333
30992 29 -0.0833333
31006 30 -0.0714286
31019 31 -0.0769231
31033 32 -0.0714286
31047 33 -0.0714286
31062 34 -0.0666667
31078 35 -0.0625
31094 36 -0.0625
31111 37 -0.0588235
31130 38 -0.0526316
31151 39 -0.047619
31173 40 -0.0454545
31200 41 -0.037037
31231 42 -0.0322581
31275 43 -0.0227273
31434 42 0.00628931
31472 41 0.0263158
31502 40 0.0333333
31527 39 0.04
31549 38 0.0454545
31569 37 0.05
31587 36 0.0555556
31604 35 0.0588235
31620 34 0.0625
31636 33 0.0625
31650 32 0.0714286
31664 31 0.0714286
31678 30 0.0714286
31691 29 0.0769231
31704 28 0.0769231
31716 27 0.0833333
31728 26 0.0833333
31740 25 0.0833333
31752 24 0.0833333
31763 23 0.0909091
31774 22 0.0909091
31785 21 0.0909091
31806 20 0.047619
31816 19 0.1
31827 18 0.0909091
31837 17 0.1
31847 16 0.1
31857 15 0.1
31866 14 0.111111
31876 13 0.1
31886 12 0.1
31895 11 0.111111
31905 10 0.1
31914 9 0.111111
31923 8 0.111111
31932 7 0.111111
31942 6 0.1
31951 5 0.111111
31960 4 0.111111
31969 3 0.111111
31978 2 0.111111
31987 1 0.111111
31996 0 0.111111
32004 -1 0.125
32013 -2 0.111111
32022 -3 0.111111
32031 -4 0.111111
32040 -5 0.111111
32049 -6 0.111111
32057 -7 0.125
32066 -8 0.111111
32075 -9 0.111111
32084 -10 0.111111
32093 -11 0.111111
32102 -12 0.111111
32110 -13 0.125
32119 -14 0.111111
32128 -15 0.111111
32137 -16 0.111111
32146 -17 0.111111
32155 -18 0.111111
32164 -19 0.111111
32173 -20 0.111111
32183 -21 0.1
32191 -22 0.125
32201 -23 0.1
32210 -24 0.111111
32219 -25 0.111111
32229 -26 0.1
32238 -27 0.111111
32248 -28 0.1
32257 -29 0.111111
32267 -30 0.1
32277 -31 0.1
32287 -32 0.1
32297 -33 0.1
32307 -34 0.1
32318 -35 0.0909091
32328 -36 0.1
32339 -37 0.0909091
32350 -38 0.0909091
32361 -39 0.0909091
32372 -40 0.0909091
32384 -41 0.0833333
32395 -42 0.0909091
32408 -43 0.0769231
32420 -44 0.0833333
32433 -45 0.0769231
32446 -46 0.0769231
32460 -47 0.0714286
32474 -48 0.0714286
32490 -49 0.0625
32504 -50 0.0714286
32521 -51 0.0588235
32538 -52 0.0588235
32557 -53 0.0526316
32577 -54 0.05
32600 -55 0.0434783
32626 -56 0.0384615
32659 -57 0.030303
32705 -58 0.0217391
32848 -57 -0.00699301
32888 -56 -0.025
32918 -55 -0.0333333
32943 -54 -0.04
32965 -53 -0.0454545
32985 -52 -0.05
33004 -51 -0.0526316
33021 -50 -0.0588235
33037 -49 -0.0625
33053 -48 -0.0625
33067 -47 -0.0714286
33082 -46 -0.0666667
33095 -45 -0.0769231
33108 -44 -0.0769231
33121 -43 -0.0769231
33134 -42 -0.0769231
33146 -41 -0.0833333
33158 -40 -0.0833333
33169 -39 -0.0909091
33181 -38 -0.0833333
33192 -37 -0.0909091
33203 -36 -0.0909091
33213 -35 -0.1
33224 -34 -0.0909091
33234 -33 -0.1
33245 -32 -0.0909091
33255 -31 -0.1
33265 -30 -0.1
33275 -29 -0.1
33284 -28 -0.111111
33294 -27 -0.1
33304 -26 -0.1
33313 -25 -0.111111
33323 -24 -0.1
33332 -23 -0.111111
33341 -22 -0.111111
33351 -21 -0.1
33360 -20 -0.111111
33369 -19 -0.111111
33378 -18 -0.111111
33387 -17 -0.111111
33396 -16 -0.111111
33405 -15 -0.111111
33414 -14 -0.111111
33423 -13 -0.111111
33432 -12 -0.111111
33441 -11 -0.111111
33450 -10 -0.111111
33459 -9 -0.111111
33468 -8 -0.111111
33477 -7 -0.111111
33485 -6 -0.125
33494 -5 -0.111111
33503 -4 -0.111111
33512 -3 -0.111111
33521 -2 -0.111111
33530 -1 -0.111111
33537 0 -0.142857
33539 1 -0.5
33548 2 -0.111111
33557 3 -0.111111
33566 4 -0.111111
33575 5 -0.111111
33584 6 -0.111111
33593 7 -0.111111
33602 8 -0.111111
33612 9 -0.1
33621 10 -0.111111
33630 11 -0.111111
33640 12 -0.1
33649 13 -0.111111
33659 14 -0.1
33668 15 -0.111111
33678 16 -0.1
33688 17 -0.1
33698 18 -0.1
33708 19 -0.1
33718 20 -0.1
33728 21 -0.1
33739 22 -0.0909091
33750 23 -0.0909091
33760 24 -0.1
33771 25 -0.0909091
33783 26 -0.0833333
33794 27 -0.0909091
33806 28 -0.0833333
33818 29 -0.0833333
33830 30 -0.0833333
33842 31 -0.0833333
33855 32 -0.0769231
33882 33 -0.037037
33897 34 -0.0666667
33911 35 -0.0714286
33927 36 -0.0625
33944 37 -0.0588235
33961 38 -0.0588235
33980 39 -0.0526316
34000 40 -0.05
34023 41 -0.0434783
34049 42 -0.0384615
34080 43 -0.0322581
34124 44 -0.0227273
34284 43 0.00625
34323 42 0.025641
34352 41 0.0344828
34377 40 0.04
34400 39 0.0434783
34419 38 0.0526316
34437 37 0.0555556
34454 36 0.0588235
34471 35 0.0588235
34486 34 0.0666667
34500 33 0.0714286
34514 32 0.0714286
34528 31 0.0714286
34541 30 0.0769231
34554 29 0.0769231
34566 28 0.0833333
34578 27 0.0833333
34590 26 0.0833333
34602 25 0.0833333
34613 24 0.0909091
34624 23 0.0909091
34635 22 0.0909091
34646 21 0.0909091
34656 20 0.1
34666 19 0.1
34677 18 0.0909091
34687 17 0.1
34697 16 0.1
34707 15 0.1
34716 14 0.111111
34726 13 0.1
34736 12 0.1
34745 11 0.111111
34754 10 0.111111
34764 9 0.1
34773 8 0.111111
34782 7 0.111111
34791 6 0.111111
34801 5 0.1
34810 4 0.111111
34819 3 0.111111
34828 2 0.111111
34837 1 0.111111
34845 0 0.125
34854 -1 0.111111
34863 -2 0.111111
34890 -3 0.037037
34899 -4 0.111111
34907 -5 0.125
34916 -6 0.111111
34925 -7 0.111111
34934 -8 0.111111
34943 -9 0.111111
34951 -10 0.125
34960 -11 0.111111
34969 -12 0.111111
34978 -13 0.111111
34987 -14 0.111111
34996 -15 0.111111
35005 -16 0.111111
35014 -17 0.111111
35023 -18 0.111111
35032 -19 0.111111
35041 -20 0.111111
35050 -21 0.111111
35060 -22 0.1
35069 -23 0.111111
35078 -24 0.111111
35088 -25 0.1
35097 -26 0.111111
35107 -27 0.1
35117 -28 0.1
35127 -29 0.1
35137 -30 0.1
35147 -31 0.1
35157 -32 0.1
35167 -33 0.1
35178 -34 0.0909091
35188 -35 0.1
35199 -36 0.0909091
35210 -37 0.0909091
35222 -38 0.0833333
35233 -39 0.0909091
35245 -40 0.0833333
35257 -41 0.0833333
35270 -42 0.0769231
35282 -43 0.0833333
35296 -44 0.0714286
35309 -45 0.0769231
35323 -46 0.0714286
35338 -47 0.0666667
35354 -48 0.0625
35370 -49 0.0625
35388 -50 0.0555556
35406 -51 0.0555556
35427 -52 0.047619
35450 -53 0.0434783
35476 -54 0.0384615
35508 -55 0.03125
35554 -56 0.0217391
35698 -55 -0.00694444
35738 -54 -0.025
35768 -53 -0.0333333
35793 -52 -0.04
35815 -51 -0.0454545
35835 -50 -0.05
35854 -49 -0.0526316
35871 -48 -0.0588235
35903 -47 -0.03125
35917 -46 -0.0714286
35932 -45 -0.0666667
35945 -44 -0.0769231
35958 -43 -0.0769231
35971 -42 -0.0769231
35984 -41 -0.0769231
35996 -40 -0.0833333
36008 -39 -0.0833333
36019 -38 -0.0909091
36030 -37 -0.0909091
36042 -36 -0.0833333
36052 -35 -0.1
36063 -34 -0.0909091
36074 -33 -0.0909091
36084 -32 -0.1
36094 -31 -0.1
36105 -30 -0.0909091
36115 -29 -0.1
36125 -28 -0.1
36134 -27 -0.111111
36144 -26 -0.1
36154 -25 -0.1
36163 -24 -0.111111
36173 -23 -0.1
36182 -22 -0.111111
36191 -21 -0.111111
36201 -20 -0.1
36210 -19 -0.111111
36219 -18 -0.111111
36228 -17 -0.111111
36237 -16 -0.111111
36246 -15 -0.111111
36255 -14 -0.111111
36264 -13 -0.111111
36273 -12 -0.111111
36282 -11 -0.111111
36291 -10 -0.111111
36300 -9 -0.111111
36309 -8 -0.111111
36318 -7 -0.111111
36326 -6 -0.125
36335 -5 -0.111111
36344 -4 -0.111111
36353 -3 -0.111111
36362 -2 -0.111111
36371 -1 -0.111111
36380 0 -0.111111
36389 1 -0.111111
36398 2 -0.111111
36407 3 -0.111111
36416 4 -0.111111
36425 5 -0.111111
36434 6 -0.111111
36443 7 -0.111111
36452 8 -0.111111
36461 9 -0.111111
36471 10 -0.1
36480 11 -0.111111
36489 12 -0.111111
36499 13 -0.1
36508 14 -0.111111
36518 15 -0.1
36528 16 -0.1
36538 17 -0.1
36548 18 -0.1
36558 19 -0.1
36568 20 -0.1
36578 21 -0.1
36589 22 -0.0909091
36599 23 -0.1
36610 24 -0.0909091
36621 25 -0.0909091
36632 26 -0.0909091
36644 27 -0.0833333
36655 28 -0.0909091
36667 29 -0.0833333
36680 30 -0.0769231
36692 31 -0.0833333
36705 32 -0.0769231
36718 33 -0.0769231
36732 34 -0.0714286
36746 35 -0.0714286
36761 36 -0.0666667
36777 37 -0.0625
36793 38 -0.0625
36811 39 -0.0555556
36830 40 -0.0526316
36850 41 -0.05
36873 42 -0.0434783
36899 43 -0.0384615
36930 44 -0.0322581
36973 45 -0.0232558
37135 44 0.00617284
37173 43 0.0263158
37202 42 0.0344828
37227 41 0.04
37249 40 0.0454545
37269 39 0.05
37287 38 0.0555556
37304 37 0.0588235
37320 36 0.0625
37336 35 0.0625
37350 34 0.0714286
37364 33 0.0714286
37378 32 0.0714286
37391 31 0.0769231
37404 30 0.0769231
37416 29 0.0833333
37428 28 0.0833333
37440 27 0.0833333
37452 26 0.0833333
37463 25 0.0909091
37474 24 0.0909091
37485 23 0.0909091
37496 22 0.0909091
37506 21 0.1
37516 20 0.1
37527 19 0.0909091
37537 18 0.1
37547 17 0.1
37557 16 0.1
37566 15 0.111111
37576 14 0.1
37586 13 0.1
37595 12 0.111111
37604 11 0.111111
37614 10 0.1
37623 9 0.111111
37632 8 0.111111
37641 7 0.111111
37651 6 0.1
37660 5 0.111111
37669 4 0.111111
37678 3 0.111111
37687 2 0.111111
37696 1 0.111111
37702 0 0.166667
37705 -1 0.333333
37713 -2 0.125
37722 -3 0.111111
37731 -4 0.111111
37740 -5 0.111111
37749 -6 0.111111
37757 -7 0.125
37766 -8 0.111111
37775 -9 0.111111
37784 -10 0.111111
37793 -11 0.111111
37802 -12 0.111111
37810 -13 0.125
37819 -14 0.111111
37828 -15 0.111111
37837 -16 0.111111
37846 -17 0.111111
37855 -18 0.111111
37864 -19 0.111111
37873 -20 0.111111
37882 -21 0.111111
37910 -22 0.0357143
37919 -23 0.111111
37928 -24 0.111111
37938 -25 0.1
37947 -26 0.111111
37957 -27 0.1
37967 -28 0.1
37977 -29 0.1
37987 -30 0.1
37997 -31 0.1
38007 -32 0.1
38017 -33 0.1
38028 -34 0.0909091
38038 -35 0.1
38049 -36 0.0909091
38060 -37 0.0909091
38072 -38 0.0833333
38083 -39 0.0909091
38095 -40 0.0833333
38107 -41 0.0833333
38120 -42 0.0769231
38132 -43 0.0833333
38146 -44 0.0714286
38159 -45 0.0769231
38173 -46 0.0714286
38188 -47 0.0666667
38204 -48 0.0625
38220 -49 0.0625
38237 -50 0.0588235
38256 -51 0.0526316
38277 -52 0.047619
38299 -53 0.0454545
38326 -54 0.037037
38358 -55 0.03125
38404 -56 0.0217391
