11 -97 -2.95238e-05
30 -98 0.0526316
52 -99 0.0454545
79 -100 0.037037
121 -101 0.0238095
221 -100 -0.01
256 -99 -0.0285714
282 -98 -0.0384615
302 -97 -0.05
320 -96 -0.0555556
337 -95 -0.0588235
352 -94 -0.0666667
366 -93 -0.0714286
379 -92 -0.0769231
391 -91 -0.0833333
403 -90 -0.0833333
414 -89 -0.0909091
424 -88 -0.1
435 -87 -0.0909091
445 -86 -0.1
455 -85 -0.1
464 -84 -0.111111
473 -83 -0.111111
482 -82 -0.111111
491 -81 -0.111111
499 -80 -0.125
508 -79 -0.111111
516 -78 -0.125
524 -77 -0.125
532 -76 -0.125
540 -75 -0.125
547 -74 -0.142857
555 -73 -0.125
562 -72 -0.142857
569 -71 -0.142857
577 -70 -0.125
584 -69 -0.142857
591 -68 -0.142857
598 -67 -0.142857
605 -66 -0.142857
611 -65 -0.166667
618 -64 -0.142857
625 -63 -0.142857
631 -62 -0.166667
638 -61 -0.142857
644 -60 -0.166667
650 -59 -0.166667
657 -58 -0.142857
663 -57 -0.166667
669 -56 -0.166667
675 -55 -0.166667
681 -54 -0.166667
688 -53 -0.142857
694 -52 -0.166667
700 -51 -0.166667
705 -50 -0.2
711 -49 -0.166667
717 -48 -0.166667
723 -47 -0.166667
729 -46 -0.166667
735 -45 -0.166667
740 -44 -0.2
746 -43 -0.166667
752 -42 -0.166667
758 -41 -0.166667
763 -40 -0.2
769 -39 -0.166667
774 -38 -0.2
780 -37 -0.166667
796 -36 -0.0625
802 -35 -0.166667
807 -34 -0.2
813 -33 -0.166667
818 -32 -0.2
824 -31 -0.166667
829 -30 -0.2
834 -29 -0.2
840 -28 -0.166667
845 -27 -0.2
850 -26 -0.2
856 -25 -0.166667
861 -24 -0.2
866 -23 -0.2
872 -22 -0.166667
877 -21 -0.2
882 -20 -0.2
887 -19 -0.2
893 -18 -0.166667
898 -17 -0.2
903 -16 -0.2
908 -15 -0.2
914 -14 -0.166667
919 -13 -0.2
924 -12 -0.2
930 -11 -0.166667
935 -10 -0.2
940 -9 -0.2
945 -8 -0.2
950 -7 -0.2
955 -6 -0.2
961 -5 -0.166667
966 -4 -0.2
971 -3 -0.2
976 -2 -0.2
982 -1 -0.166667
987 0 -0.2
992 1 -0.2
997 2 -0.2
1003 3 -0.166667
1008 4 -0.2
1013 5 -0.2
1018 6 -0.2
1024 7 -0.166667
1029 8 -0.2
1034 9 -0.2
1039 10 -0.2
1045 11 -0.166667
1050 12 -0.2
1055 13 -0.2
1061 14 -0.166667
1066 15 -0.2
1071 16 -0.2
1077 17 -0.166667
1082 18 -0.2
1088 19 -0.166667
1093 20 -0.2
1098 21 -0.2
1104 22 -0.166667
1109 23 -0.2
1115 24 -0.166667
1120 25 -0.2
1126 26 -0.166667
1131 27 -0.2
1137 28 -0.166667
1143 29 -0.166667
1148 30 -0.2
1154 31 -0.166667
1160 32 -0.166667
1165 33 -0.2
1171 34 -0.166667
1177 35 -0.166667
1183 36 -0.166667
1188 37 -0.2
1194 38 -0.166667
1200 39 -0.166667
1206 40 -0.166667
1212 41 -0.166667
1218 42 -0.166667
1224 43 -0.166667
1230 44 -0.166667
1237 45 -0.142857
1243 46 -0.166667
1249 47 -0.166667
1255 48 -0.166667
1262 49 -0.142857
1268 50 -0.166667
1275 51 -0.142857
1281 52 -0.166667
1288 53 -0.142857
1295 54 -0.142857
1301 55 -0.166667
1308 56 -0.142857
1315 57 -0.142857
1322 58 -0.142857
1329 59 -0.142857
1336 60 -0.142857
1344 61 -0.125
1351 62 -0.142857
1359 63 -0.125
1366 64 -0.142857
1374 65 -0.125
1382 66 -0.125
1390 67 -0.125
1398 68 -0.125
1406 69 -0.125
1415 70 -0.111111
1424 71 -0.111111
1433 72 -0.111111
1442 73 -0.111111
1451 74 -0.111111
1461 75 -0.1
1471 76 -0.1
1481 77 -0.1
1492 78 -0.0909091
1503 79 -0.0909091
1515 80 -0.0833333
1527 81 -0.0833333
1540 82 -0.0769231
1553 83 -0.0769231
1568 84 -0.0666667
1583 85 -0.0666667
1601 86 -0.0555556
1621 87 -0.05
1644 88 -0.0434783
1674 89 -0.0333333
1738 90 -0.015625
1789 89 0.0196078
1832 88 0.0232558
1860 87 0.0357143
1882 86 0.0454545
1900 85 0.0555556
1917 84 0.0588235
1933 83 0.0625
1947 82 0.0714286
1960 81 0.0769231
1973 80 0.0769231
1985 79 0.0833333
1996 78 0.0909091
2007 77 0.0909091
2018 76 0.0909091
2028 75 0.1
2038 74 0.1
2047 73 0.111111
2057 72 0.1
2066 71 0.111111
2075 70 0.111111
2083 69 0.125
2092 68 0.111111
2100 67 0.125
2108 66 0.125
2116 65 0.125
2124 64 0.125
2131 63 0.142857
2139 62 0.125
2146 61 0.142857
2154 60 0.125
2161 59 0.142857
2168 58 0.142857
2175 57 0.142857
2182 56 0.142857
2189 55 0.142857
2196 54 0.142857
2203 53 0.142857
2209 52 0.166667
2216 51 0.142857
2222 50 0.166667
2229 49 0.142857
2235 48 0.166667
2241 47 0.166667
2248 46 0.142857
2254 45 0.166667
2260 44 0.166667
2266 43 0.166667
2272 42 0.166667
2278 41 0.166667
2284 40 0.166667
2290 39 0.166667
2296 38 0.166667
2302 37 0.166667
2308 36 0.166667
2314 35 0.166667
2320 34 0.166667
2325 33 0.2
2331 32 0.166667
2337 31 0.166667
2342 30 0.2
2348 29 0.166667
2354 28 0.166667
2359 27 0.2
2365 26 0.166667
2370 25 0.2
2376 24 0.166667
2381 23 0.2
2387 22 0.166667
2392 21 0.2
2398 20 0.166667
2403 19 0.2
2408 18 0.2
2414 17 0.166667
2419 16 0.2
2425 15 0.166667
2430 14 0.2
2435 13 0.2
2440 12 0.2
2446 11 0.166667
2451 10 0.2
2456 9 0.2
2462 8 0.166667
2467 7 0.2
2472 6 0.2
2477 5 0.2
2483 4 0.166667
2488 3 0.2
2493 2 0.2
2498 1 0.2
2504 0 0.166667
2507 0 0.333333
2509 -1 0.5
2514 -2 0.2
2519 -3 0.2
2524 -4 0.2
2530 -5 0.166667
2535 -6 0.2
2540 -7 0.2
2545 -8 0.2
2550 -9 0.2
2555 -10 0.2
2561 -11 0.166667
2566 -12 0.2
2571 -13 0.2
2576 -14 0.2
2582 -15 0.166667
2587 -16 0.2
2592 -17 0.2
2597 -18 0.2
2602 -19 0.2
2608 -20 0.166667
2613 -21 0.2
2618 -22 0.2
2623 -23 0.2
2629 -24 0.166667
2634 -25 0.2
2639 -26 0.2
2645 -27 0.166667
2650 -28 0.2
2655 -29 0.2
2661 -30 0.166667
2666 -31 0.2
2671 -32 0.2
2677 -33 0.166667
2682 -34 0.2
2688 -35 0.166667
2693 -36 0.2
2698 -37 0.2
2704 -38 0.166667
2709 -39 0.2
2715 -40 0.166667
2720 -41 0.2
2726 -42 0.166667
2732 -43 0.166667
2737 -44 0.2
2743 -45 0.166667
2749 -46 0.166667
2754 -47 0.2
2760 -48 0.166667
2766 -49 0.166667
2772 -50 0.166667
2777 -51 0.2
2783 -52 0.166667
2789 -53 0.166667
2795 -54 0.166667
2813 -55 0.0555556
2819 -56 0.166667
2826 -57 0.142857
2832 -58 0.166667
2838 -59 0.166667
2844 -60 0.166667
2851 -61 0.142857
2857 -62 0.166667
2864 -63 0.142857
2870 -64 0.166667
2877 -65 0.142857
2884 -66 0.142857
2890 -67 0.166667
2897 -68 0.142857
2904 -69 0.142857
2911 -70 0.142857
2918 -71 0.142857
2926 -72 0.125
2933 -73 0.142857
2940 -74 0.142857
2948 -75 0.125
2956 -76 0.125
2963 -77 0.142857
2971 -78 0.125
2979 -79 0.125
2988 -80 0.111111
2996 -81 0.125
3005 -82 0.111111
3013 -83 0.125
3023 -84 0.1
3032 -85 0.111111
3041 -86 0.111111
3051 -87 0.1
3061 -88 0.1
3072 -89 0.0909091
3083 -90 0.0909091
3094 -91 0.0909091
3106 -92 0.0833333
3119 -93 0.0769231
3132 -94 0.0769231
3146 -95 0.0714286
3162 -96 0.0625
3178 -97 0.0625
3197 -98 0.0526316
3219 -99 0.0454545
3247 -100 0.0357143
3291 -101 0.0227273
3384 -100 -0.0107527
3421 -99 -0.027027
3446 -98 -0.04
3467 -97 -0.047619
3486 -96 -0.0526316
3502 -95 -0.0625
3517 -94 -0.0666667
3531 -93 -0.0714286
3544 -92 -0.0769231
3556 -91 -0.0833333
3568 -90 -0.0833333
3579 -89 -0.0909091
3590 -88 -0.0909091
3600 -87 -0.1
3611 -86 -0.0909091
3620 -85 -0.111111
3630 -84 -0.1
3639 -83 -0.111111
3648 -82 -0.111111
3657 -81 -0.111111
3665 -80 -0.125
3674 -79 -0.111111
3682 -78 -0.125
3690 -77 -0.125
3698 -76 -0.125
3705 -75 -0.142857
3713 -74 -0.125
3721 -73 -0.125
3728 -72 -0.142857
3735 -71 -0.142857
3743 -70 -0.125
3750 -69 -0.142857
3757 -68 -0.142857
3764 -67 -0.142857
3770 -66 -0.166667
3777 -65 -0.142857
3784 -64 -0.142857
3790 -63 -0.166667
3797 -62 -0.142857
3810 -61 -0.0769231
3816 -60 -0.166667
3823 -59 -0.142857
3829 -58 -0.166667
3835 -57 -0.166667
3841 -56 -0.166667
3847 -55 -0.166667
3853 -54 -0.166667
3860 -53 -0.142857
3865 -52 -0.2
3871 -51 -0.166667
3877 -50 -0.166667
3883 -49 -0.166667
3889 -48 -0.166667
3895 -47 -0.166667
3901 -46 -0.166667
3906 -45 -0.2
3912 -44 -0.166667
3918 -43 -0.166667
3923 -42 -0.2
3929 -41 -0.166667
3935 -40 -0.166667
3940 -39 -0.2
3946 -38 -0.166667
3951 -37 -0.2
3957 -36 -0.166667
3962 -35 -0.2
3968 -34 -0.166667
3973 -33 -0.2
3979 -32 -0.166667
3984 -31 -0.2
3990 -30 -0.166667
3995 -29 -0.2
4000 -28 -0.2
4006 -27 -0.166667
4011 -26 -0.2
4016 -25 -0.2
4022 -24 -0.166667
4027 -23 -0.2
4032 -22 -0.2
4038 -21 -0.166667
4043 -20 -0.2
4048 -19 -0.2
4053 -18 -0.2
4059 -17 -0.166667
4064 -16 -0.2
4069 -15 -0.2
4074 -14 -0.2
4080 -13 -0.166667
4085 -12 -0.2
4090 -11 -0.2
4095 -10 -0.2
4101 -9 -0.166667
4106 -8 -0.2
4111 -7 -0.2
4116 -6 -0.2
4122 -5 -0.166667
4127 -4 -0.2
4132 -3 -0.2
4137 -2 -0.2
4142 -1 -0.2
4148 0 -0.166667
4153 1 -0.2
4158 2 -0.2
4163 3 -0.2
4169 4 -0.166667
4174 5 -0.2
4179 6 -0.2
4184 7 -0.2
4190 8 -0.166667
4195 9 -0.2
4200 10 -0.2
4205 11 -0.2
4211 12 -0.166667
4216 13 -0.2
4221 14 -0.2
4227 15 -0.166667
4232 16 -0.2
4237 17 -0.2
4243 18 -0.166667
4248 19 -0.2
4254 20 -0.166667
4259 21 -0.2
4265 22 -0.166667
4270 23 -0.2
4275 24 -0.2
4281 25 -0.166667
4286 26 -0.2
4292 27 -0.166667
4298 28 -0.166667
4303 29 -0.2
4309 30 -0.166667
4314 31 -0.2
4320 32 -0.166667
4326 33 -0.166667
4331 34 -0.2
4337 35 -0.166667
4343 36 -0.166667
4349 37 -0.166667
4355 38 -0.166667
4360 39 -0.2
4366 40 -0.166667
4372 41 -0.166667
4378 42 -0.166667
4384 43 -0.166667
4390 44 -0.166667
4397 45 -0.142857
4403 46 -0.166667
4409 47 -0.166667
4415 48 -0.166667
4422 49 -0.142857
4428 50 -0.166667
4434 51 -0.166667
4441 52 -0.142857
4447 53 -0.166667
4454 54 -0.142857
4461 55 -0.142857
4467 56 -0.166667
4474 57 -0.142857
4481 58 -0.142857
4488 59 -0.142857
4495 60 -0.142857
4503 61 -0.125
4510 62 -0.142857
4517 63 -0.142857
4525 64 -0.125
4532 65 -0.142857
4540 66 -0.125
4548 67 -0.125
4556 68 -0.125
4564 69 -0.125
4573 70 -0.111111
4581 71 -0.125
4590 72 -0.111111
4599 73 -0.111111
4608 74 -0.111111
4617 75 -0.111111
4627 76 -0.1
4637 77 -0.1
4647 78 -0.1
4658 79 -0.0909091
4669 80 -0.0909091
4681 81 -0.0833333
4693 82 -0.0833333
4705 83 -0.0833333
4719 84 -0.0714286
4734 85 -0.0666667
4749 86 -0.0666667
4767 87 -0.0555556
4786 88 -0.0526316
4810 89 -0.0416667
4840 90 -0.0333333
4900 91 -0.0166667
4957 90 0.0175439
4999 89 0.0238095
5026 88 0.037037
5048 87 0.0454545
5067 86 0.0526316
5084 85 0.0588235
5099 84 0.0666667
5113 83 0.0714286
5127 82 0.0714286
5139 81 0.0833333
5151 80 0.0833333
5163 79 0.0833333
5174 78 0.0909091
5184 77 0.1
5194 76 0.1
5204 75 0.1
5214 74 0.1
5223 73 0.111111
5232 72 0.111111
5241 71 0.111111
5249 70 0.125
5258 69 0.111111
5266 68 0.125
5274 67 0.125
5282 66 0.125
5290 65 0.125
5298 64 0.125
5305 63 0.142857
5313 62 0.125
5320 61 0.142857
5327 60 0.142857
5334 59 0.142857
5341 58 0.142857
5348 57 0.142857
5355 56 0.142857
5362 55 0.142857
5369 54 0.142857
5375 53 0.166667
5382 52 0.142857
5388 51 0.166667
5395 50 0.142857
5401 49 0.166667
5408 48 0.142857
5414 47 0.166667
5420 46 0.166667
5426 45 0.166667
5432 44 0.166667
5439 43 0.142857
5445 42 0.166667
5451 41 0.166667
5456 40 0.2
5462 39 0.166667
5468 38 0.166667
5474 37 0.166667
5480 36 0.166667
5486 35 0.166667
5491 34 0.2
5497 33 0.166667
5503 32 0.166667
5509 31 0.166667
5514 30 0.2
5520 29 0.166667
5525 28 0.2
5531 27 0.166667
5536 26 0.2
5542 25 0.166667
5547 24 0.2
5553 23 0.166667
5558 22 0.2
5564 21 0.166667
5569 20 0.2
5575 19 0.166667
5580 18 0.2
5585 17 0.2
5591 16 0.166667
5596 15 0.2
5601 14 0.2
5607 13 0.166667
5612 12 0.2
5617 11 0.2
5622 10 0.2
5628 9 0.166667
5633 8 0.2
5638 7 0.2
5643 6 0.2
5649 5 0.166667
5654 4 0.2
5659 3 0.2
5664 2 0.2
5670 1 0.166667
5673 0 0.333333
5675 -1 0.5
5680 -2 0.2
5685 -3 0.2
5690 -4 0.2
5696 -5 0.166667
5701 -6 0.2
5706 -7 0.2
5711 -8 0.2
5716 -9 0.2
5722 -10 0.166667
5727 -11 0.2
5732 -12 0.2
5737 -13 0.2
5742 -14 0.2
5748 -15 0.166667
5753 -16 0.2
5758 -17 0.2
5763 -18 0.2
5768 -19 0.2
5774 -20 0.166667
5779 -21 0.2
5784 -22 0.2
5789 -23 0.2
5795 -24 0.166667
5800 -25 0.2
5805 -26 0.2
5811 -27 0.166667
5827 -28 0.0625
5832 -29 0.2
5837 -30 0.2
5843 -31 0.166667
5848 -32 0.2
5854 -33 0.166667
5859 -34 0.2
5864 -35 0.2
5870 -36 0.166667
5875 -37 0.2
5881 -38 0.166667
5886 -39 0.2
5892 -40 0.166667
5898 -41 0.166667
5903 -42 0.2
5909 -43 0.166667
5915 -44 0.166667
5920 -45 0.2
5926 -46 0.166667
5932 -47 0.166667
5938 -48 0.166667
5943 -49 0.2
5949 -50 0.166667
5955 -51 0.166667
5961 -52 0.166667
5967 -53 0.166667
5973 -54 0.166667
5979 -55 0.166667
5985 -56 0.166667
5991 -57 0.166667
5998 -58 0.142857
6004 -59 0.166667
6010 -60 0.166667
6017 -61 0.142857
6023 -62 0.166667
6030 -63 0.142857
6036 -64 0.166667
6043 -65 0.142857
6049 -66 0.166667
6056 -67 0.142857
6063 -68 0.142857
6070 -69 0.142857
6077 -70 0.142857
6084 -71 0.142857
6091 -72 0.142857
6099 -73 0.125
6106 -74 0.142857
6114 -75 0.125
6121 -76 0.142857
6129 -77 0.125
6137 -78 0.125
6145 -79 0.125
6153 -80 0.125
6162 -81 0.111111
6170 -82 0.125
6179 -83 0.111111
6188 -84 0.111111
6198 -85 0.1
6207 -86 0.111111
6217 -87 0.1
6227 -88 0.1
6237 -89 0.1
6248 -90 0.0909091
6260 -91 0.0833333
6272 -92 0.0833333
6284 -93 0.0833333
6297 -94 0.0769231
6312 -95 0.0666667
6327 -96 0.0666667
6344 -97 0.0588235
6362 -98 0.0555556
6384 -99 0.0454545
6412 -100 0.0357143
6454 -101 0.0238095
6553 -100 -0.010101
6588 -99 -0.0285714
6614 -98 -0.0384615
6634 -97 -0.05
6653 -96 -0.0526316
6669 -95 -0.0625
6684 -94 -0.0666667
6698 -93 -0.0714286
6711 -92 -0.0769231
6723 -91 -0.0833333
6735 -90 -0.0833333
6746 -89 -0.0909091
6757 -88 -0.0909091
6767 -87 -0.1
6777 -86 -0.1
6787 -85 -0.1
6796 -84 -0.111111
6806 -83 -0.1
6814 -82 -0.125
6832 -81 -0.0555556
6840 -80 -0.125
6848 -79 -0.125
6856 -78 -0.125
6864 -77 -0.125
6872 -76 -0.125
6880 -75 -0.125
6887 -74 -0.142857
6895 -73 -0.125
6902 -72 -0.142857
6909 -71 -0.142857
6916 -70 -0.142857
6923 -69 -0.142857
6930 -68 -0.142857
6937 -67 -0.142857
6944 -66 -0.142857
6950 -65 -0.166667
6957 -64 -0.142857
6963 -63 -0.166667
6970 -62 -0.142857
6976 -61 -0.166667
6983 -60 -0.142857
6989 -59 -0.166667
6995 -58 -0.166667
7002 -57 -0.142857
7008 -56 -0.166667
7014 -55 -0.166667
7020 -54 -0.166667
7026 -53 -0.166667
7032 -52 -0.166667
7038 -51 -0.166667
7044 -50 -0.166667
7050 -49 -0.166667
7055 -48 -0.2
7061 -47 -0.166667
7067 -46 -0.166667
7073 -45 -0.166667
7079 -44 -0.166667
7084 -43 -0.2
7090 -42 -0.166667
7096 -41 -0.166667
7101 -40 -0.2
7107 -39 -0.166667
7112 -38 -0.2
7118 -37 -0.166667
7123 -36 -0.2
7129 -35 -0.166667
7134 -34 -0.2
7140 -33 -0.166667
7145 -32 -0.2
7151 -31 -0.166667
7156 -30 -0.2
7161 -29 -0.2
7167 -28 -0.166667
7172 -27 -0.2
7178 -26 -0.166667
7183 -25 -0.2
7188 -24 -0.2
7193 -23 -0.2
7199 -22 -0.166667
7204 -21 -0.2
7209 -20 -0.2
7215 -19 -0.166667
7220 -18 -0.2
7225 -17 -0.2
7230 -16 -0.2
7236 -15 -0.166667
7241 -14 -0.2
7246 -13 -0.2
7251 -12 -0.2
7257 -11 -0.166667
7262 -10 -0.2
7267 -9 -0.2
7272 -8 -0.2
7278 -7 -0.166667
7283 -6 -0.2
7288 -5 -0.2
7293 -4 -0.2
7298 -3 -0.2
7304 -2 -0.166667
7309 -1 -0.2
7314 0 -0.2
7319 1 -0.2
7325 2 -0.166667
7330 3 -0.2
7335 4 -0.2
7340 5 -0.2
7346 6 -0.166667
7351 7 -0.2
7356 8 -0.2
7361 9 -0.2
7367 10 -0.166667
7372 11 -0.2
7377 12 -0.2
7383 13 -0.166667
7388 14 -0.2
7393 15 -0.2
7399 16 -0.166667
7404 17 -0.2
7409 18 -0.2
7415 19 -0.166667
7420 20 -0.2
7426 21 -0.166667
7431 22 -0.2
7436 23 -0.2
7442 24 -0.166667
7447 25 -0.2
7453 26 -0.166667
7458 27 -0.2
7464 28 -0.166667
7470 29 -0.166667
7475 30 -0.2
7481 31 -0.166667
7486 32 -0.2
7492 33 -0.166667
7498 34 -0.166667
7504 35 -0.166667
7509 36 -0.2
7515 37 -0.166667
7521 38 -0.166667
7527 39 -0.166667
7533 40 -0.166667
7539 41 -0.166667
7545 42 -0.166667
7551 43 -0.166667
7557 44 -0.166667
7563 45 -0.166667
7569 46 -0.166667
7575 47 -0.166667
7582 48 -0.142857
7588 49 -0.166667
7594 50 -0.166667
7601 51 -0.142857
7607 52 -0.166667
7614 53 -0.142857
7620 54 -0.166667
7627 55 -0.142857
7634 56 -0.142857
7641 57 -0.142857
7648 58 -0.142857
7655 59 -0.142857
7662 60 -0.142857
7669 61 -0.142857
7676 62 -0.142857
7684 63 -0.125
7691 64 -0.142857
7699 65 -0.125
7706 66 -0.142857
7714 67 -0.125
7722 68 -0.125
7731 69 -0.111111
7739 70 -0.125
7747 71 -0.125
7756 72 -0.111111
7765 73 -0.111111
7774 74 -0.111111
7784 75 -0.1
7793 76 -0.111111
7803 77 -0.1
7814 78 -0.0909091
7824 79 -0.1
7847 80 -0.0434783
7859 81 -0.0833333
7872 82 -0.0769231
7885 83 -0.0769231
7900 84 -0.0666667
7916 85 -0.0625
7933 86 -0.0588235
7953 87 -0.05
7976 88 -0.0434783
8006 89 -0.0333333
8064 90 -0.0172414
8124 89 0.0166667
8166 88 0.0238095
8193 87 0.037037
8215 86 0.0454545
8234 85 0.0526316
8251 84 0.0588235
8266 83 0.0666667
8280 82 0.0714286
8293 81 0.0769231
8306 80 0.0769231
8318 79 0.0833333
8329 78 0.0909091
8340 77 0.0909091
8351 76 0.0909091
8361 75 0.1
8371 74 0.1
8380 73 0.111111
8390 72 0.1
8399 71 0.111111
8407 70 0.125
8416 69 0.111111
8424 68 0.125
8433 67 0.111111
8441 66 0.125
8449 65 0.125
8457 64 0.125
8464 63 0.142857
8472 62 0.125
8479 61 0.142857
8487 60 0.125
8494 59 0.142857
8501 58 0.142857
8508 57 0.142857
8515 56 0.142857
8522 55 0.142857
8529 54 0.142857
8535 53 0.166667
8542 52 0.142857
8548 51 0.166667
8555 50 0.142857
8561 49 0.166667
8568 48 0.142857
8574 47 0.166667
8580 46 0.166667
8587 45 0.142857
8593 44 0.166667
8599 43 0.166667
8605 42 0.166667
8611 41 0.166667
8617 40 0.166667
8623 39 0.166667
8629 38 0.166667
8635 37 0.166667
8641 36 0.166667
8646 35 0.2
8652 34 0.166667
8658 33 0.166667
8664 32 0.166667
8669 31 0.2
8675 30 0.166667
8681 29 0.166667
8686 28 0.2
8692 27 0.166667
8697 26 0.2
8703 25 0.166667
8708 24 0.2
8714 23 0.166667
8719 22 0.2
8725 21 0.166667
8730 20 0.2
8736 19 0.166667
8741 18 0.2
8746 17 0.2
8752 16 0.166667
8757 15 0.2
8762 14 0.2
8768 13 0.166667
8773 12 0.2
8778 11 0.2
8784 10 0.166667
8789 9 0.2
8794 8 0.2
8799 7 0.2
8805 6 0.166667
8810 5 0.2
8815 4 0.2
8820 3 0.2
8825 2 0.2
8840 0 0.133333
8841 -1 1
8846 -2 0.2
8852 -3 0.166667
8857 -4 0.2
8862 -5 0.2
8867 -6 0.2
8872 -7 0.2
8877 -8 0.2
8883 -9 0.166667
8888 -10 0.2
8893 -11 0.2
8898 -12 0.2
8903 -13 0.2
8909 -14 0.166667
8914 -15 0.2
8919 -16 0.2
8924 -17 0.2
8930 -18 0.166667
8935 -19 0.2
8940 -20 0.2
8945 -21 0.2
8950 -22 0.2
8956 -23 0.166667
8961 -24 0.2
8967 -25 0.166667
8972 -26 0.2
8977 -27 0.2
8982 -28 0.2
8987 -29 0.2
8993 -30 0.166667
8998 -31 0.2
9004 -32 0.166667
9009 -33 0.2
9014 -34 0.2
9020 -35 0.166667
9025 -36 0.2
9031 -37 0.166667
9037 -38 0.166667
9042 -39 0.2
9047 -40 0.2
9053 -41 0.166667
9058 -42 0.2
9064 -43 0.166667
9069 -44 0.2
9075 -45 0.166667
9081 -46 0.166667
9086 -47 0.2
9092 -48 0.166667
9098 -49 0.166667
9104 -50 0.166667
9109 -51 0.2
9115 -52 0.166667
9121 -53 0.166667
9127 -54 0.166667
9133 -55 0.166667
9139 -56 0.166667
9145 -57 0.166667
9151 -58 0.166667
9158 -59 0.142857
9164 -60 0.166667
9170 -61 0.166667
9176 -62 0.166667
9183 -63 0.142857
9189 -64 0.166667
9196 -65 0.142857
9202 -66 0.166667
9209 -67 0.142857
9215 -68 0.166667
9222 -69 0.142857
9229 -70 0.142857
9236 -71 0.142857
9243 -72 0.142857
9250 -73 0.142857
9257 -74 0.142857
9265 -75 0.125
9272 -76 0.142857
9280 -77 0.125
9287 -78 0.142857
9295 -79 0.125
9303 -80 0.125
9311 -81 0.125
9321 -82 0.1
9328 -83 0.142857
9336 -84 0.125
9345 -85 0.111111
9354 -86 0.111111
9363 -87 0.111111
9373 -88 0.1
9382 -89 0.111111
9393 -90 0.0909091
9403 -91 0.1
9414 -92 0.0909091
9425 -93 0.0909091
9437 -94 0.0833333
9449 -95 0.0833333
9463 -96 0.0714286
9477 -97 0.0714286
9492 -98 0.0666667
9508 -99 0.0625
9527 -100 0.0526316
9549 -101 0.0454545
9575 -102 0.0384615
9615 -103 0.025
9723 -102 -0.00925926
9757 -101 -0.0294118
9782 -100 -0.04
9802 -99 -0.05
9820 -98 -0.0555556
9836 -97 -0.0625
9865 -96 -0.0344828
9878 -95 -0.0769231
9890 -94 -0.0833333
9902 -93 -0.0833333
9913 -92 -0.0909091
9924 -91 -0.0909091
9934 -90 -0.1
9944 -89 -0.1
9954 -88 -0.1
9963 -87 -0.111111
9972 -86 -0.111111
9981 -85 -0.111111
9990 -84 -0.111111
9999 -83 -0.111111
10007 -82 -0.125
10015 -81 -0.125
10023 -80 -0.125
10031 -79 -0.125
10039 -78 -0.125
10046 -77 -0.142857
10054 -76 -0.125
10061 -75 -0.142857
10069 -74 -0.125
10076 -73 -0.142857
10083 -72 -0.142857
10090 -71 -0.142857
10097 -70 -0.142857
10104 -69 -0.142857
10110 -68 -0.166667
10117 -67 -0.142857
10124 -66 -0.142857
10130 -65 -0.166667
10137 -64 -0.142857
10143 -63 -0.166667
10149 -62 -0.166667
10156 -61 -0.142857
10162 -60 -0.166667
10168 -59 -0.166667
10174 -58 -0.166667
10180 -57 -0.166667
10186 -56 -0.166667
10192 -55 -0.166667
10198 -54 -0.166667
10204 -53 -0.166667
10210 -52 -0.166667
10216 -51 -0.166667
10222 -50 -0.166667
10228 -49 -0.166667
10234 -48 -0.166667
10239 -47 -0.2
10245 -46 -0.166667
10251 -45 -0.166667
10256 -44 -0.2
10262 -43 -0.166667
10268 -42 -0.166667
10273 -41 -0.2
10279 -40 -0.166667
10284 -39 -0.2
10290 -38 -0.166667
10295 -37 -0.2
10301 -36 -0.166667
10306 -35 -0.2
10311 -34 -0.2
10317 -33 -0.166667
10322 -32 -0.2
10328 -31 -0.166667
10333 -30 -0.2
10338 -29 -0.2
10344 -28 -0.166667
10349 -27 -0.2
10354 -26 -0.2
10360 -25 -0.166667
10365 -24 -0.2
10370 -23 -0.2
10376 -22 -0.166667
10381 -21 -0.2
10386 -20 -0.2
10391 -19 -0.2
10397 -18 -0.166667
10402 -17 -0.2
10407 -16 -0.2
10412 -15 -0.2
10418 -14 -0.166667
10423 -13 -0.2
10428 -12 -0.2
10433 -11 -0.2
10438 -10 -0.2
10444 -9 -0.166667
10449 -8 -0.2
10454 -7 -0.2
10459 -6 -0.2
10465 -5 -0.166667
10470 -4 -0.2
10475 -3 -0.2
10480 -2 -0.2
10484 0 -0.5
10485 1 -1
10491 2 -0.166667
10496 3 -0.2
10501 4 -0.2
10506 5 -0.2
10512 6 -0.166667
10517 7 -0.2
10522 8 -0.2
10527 9 -0.2
10533 10 -0.166667
10538 11 -0.2
10543 12 -0.2
10549 13 -0.166667
10554 14 -0.2
10559 15 -0.2
10565 16 -0.166667
10570 17 -0.2
10575 18 -0.2
10581 19 -0.166667
10586 20 -0.2
10592 21 -0.166667
10597 22 -0.2
10602 23 -0.2
10608 24 -0.166667
10613 25 -0.2
10619 26 -0.166667
10624 27 -0.2
10630 28 -0.166667
10636 29 -0.166667
10641 30 -0.2
10647 31 -0.166667
10652 32 -0.2
10658 33 -0.166667
10664 34 -0.166667
10670 35 -0.166667
10675 36 -0.2
10681 37 -0.166667
10687 38 -0.166667
10693 39 -0.166667
10699 40 -0.166667
10705 41 -0.166667
10711 42 -0.166667
10717 43 -0.166667
10723 44 -0.166667
10729 45 -0.166667
10735 46 -0.166667
10741 47 -0.166667
10747 48 -0.166667
10754 49 -0.142857
10760 50 -0.166667
10767 51 -0.142857
10773 52 -0.166667
10780 53 -0.142857
10786 54 -0.166667
10793 55 -0.142857
10800 56 -0.142857
10806 57 -0.166667
10813 58 -0.142857
10820 59 -0.142857
10827 60 -0.142857
10835 61 -0.125
10842 62 -0.142857
10864 63 -0.0454545
10872 64 -0.125
10880 65 -0.125
10888 66 -0.125
10896 67 -0.125
10904 68 -0.125
10913 69 -0.111111
10922 70 -0.111111
10931 71 -0.111111
10940 72 -0.111111
10949 73 -0.111111
10959 74 -0.1
10969 75 -0.1
10979 76 -0.1
10990 77 -0.0909091
11001 78 -0.0909091
11012 79 -0.0909091
11024 80 -0.0833333
11037 81 -0.0769231
11050 82 -0.0769231
11065 83 -0.0666667
11080 84 -0.0666667
11098 85 -0.0555556
11117 86 -0.0526316
11140 87 -0.0434783
11169 88 -0.0344828
11219 89 -0.02
11296 88 0.012987
11336 87 0.025
11361 86 0.04
11383 85 0.0454545
11402 84 0.0526316
11418 83 0.0625
11433 82 0.0666667
11449 81 0.0625
11461 80 0.0833333
11473 79 0.0833333
11485 78 0.0833333
11496 77 0.0909091
11507 76 0.0909091
11518 75 0.0909091
11528 74 0.1
11538 73 0.1
11547 72 0.111111
11557 71 0.1
11566 70 0.111111
11574 69 0.125
11583 68 0.111111
11591 67 0.125
11600 66 0.111111
11608 65 0.125
11616 64 0.125
11623 63 0.142857
11631 62 0.125
11639 61 0.125
11646 60 0.142857
11653 59 0.142857
11661 58 0.125
11668 57 0.142857
11675 56 0.142857
11682 55 0.142857
11689 54 0.142857
11695 53 0.166667
11702 52 0.142857
11709 51 0.142857
11715 50 0.166667
11722 49 0.142857
11728 48 0.166667
11735 47 0.142857
11741 46 0.166667
11747 45 0.166667
11753 44 0.166667
11759 43 0.166667
11766 42 0.142857
11772 41 0.166667
11778 40 0.166667
11784 39 0.166667
11790 38 0.166667
11796 37 0.166667
11801 36 0.2
11807 35 0.166667
11813 34 0.166667
11819 33 0.166667
11825 32 0.166667
11830 31 0.2
11836 30 0.166667
11842 29 0.166667
11847 28 0.2
11864 27 0.0588235
11869 26 0.2
11875 25 0.166667
11880 24 0.2
11886 23 0.166667
11891 22 0.2
11897 21 0.166667
11902 20 0.2
11908 19 0.166667
11913 18 0.2
11918 17 0.2
11924 16 0.166667
11929 15 0.2
11934 14 0.2
11940 13 0.166667
11945 12 0.2
11950 11 0.2
11955 10 0.2
11961 9 0.166667
11966 8 0.2
11971 7 0.2
11976 6 0.2
11982 5 0.166667
11987 4 0.2
11992 3 0.2
11997 2 0.2
12002 1 0.2
12006 0 0.25
12008 -1 0.5
12013 -2 0.2
12018 -3 0.2
12023 -4 0.2
12028 -5 0.2
12034 -6 0.166667
12039 -7 0.2
12044 -8 0.2
12049 -9 0.2
12054 -10 0.2
12060 -11 0.166667
12065 -12 0.2
12070 -13 0.2
12075 -14 0.2
12080 -15 0.2
12086 -16 0.166667
12091 -17 0.2
12096 -18 0.2
12101 -19 0.2
12106 -20 0.2
12112 -21 0.166667
12117 -22 0.2
12122 -23 0.2
12127 -24 0.2
12133 -25 0.166667
12138 -26 0.2
12143 -27 0.2
12149 -28 0.166667
12154 -29 0.2
12159 -30 0.2
12165 -31 0.166667
12170 -32 0.2
12175 -33 0.2
12181 -34 0.166667
12186 -35 0.2
12192 -36 0.166667
12197 -37 0.2
12203 -38 0.166667
12208 -39 0.2
12214 -40 0.166667
12219 -41 0.2
12225 -42 0.166667
12230 -43 0.2
12236 -44 0.166667
12241 -45 0.2
12247 -46 0.166667
12253 -47 0.166667
12259 -48 0.166667
12264 -49 0.2
12270 -50 0.166667
12276 -51 0.166667
12282 -52 0.166667
12288 -53 0.166667
12294 -54 0.166667
12300 -55 0.166667
12306 -56 0.166667
12312 -57 0.166667
12318 -58 0.166667
12324 -59 0.166667
12330 -60 0.166667
12336 -61 0.166667
12343 -62 0.142857
12349 -63 0.166667
12355 -64 0.166667
12362 -65 0.142857
12369 -66 0.142857
12375 -67 0.166667
12382 -68 0.142857
12389 -69 0.142857
12395 -70 0.166667
12402 -71 0.142857
12409 -72 0.142857
12416 -73 0.142857
12424 -74 0.125
12431 -75 0.142857
12438 -76 0.142857
12446 -77 0.125
12454 -78 0.125
12461 -79 0.142857
12469 -80 0.125
12477 -81 0.125
12485 -82 0.125
12494 -83 0.111111
12502 -84 0.125
12511 -85 0.111111
12520 -86 0.111111
12529 -87 0.111111
12539 -88 0.1
12549 -89 0.1
12559 -90 0.1
12569 -91 0.1
12580 -92 0.0909091
12591 -93 0.0909091
12603 -94 0.0833333
12616 -95 0.0769231
12629 -96 0.0769231
12643 -97 0.0714286
12658 -98 0.0666667
12675 -99 0.0588235
12693 -100 0.0555556
12715 -101 0.0454545
12741 -102 0.0384615
12780 -103 0.025641
12891 -102 -0.00900901
12924 -101 -0.030303
12949 -100 -0.04
12969 -99 -0.05
12987 -98 -0.0555556
13003 -97 -0.0625
13018 -96 -0.0666667
13032 -95 -0.0714286
13045 -94 -0.0769231
13057 -93 -0.0833333
13069 -92 -0.0833333
13080 -91 -0.0909091
13091 -90 -0.0909091
13101 -89 -0.1
13111 -88 -0.1
13121 -87 -0.1
13130 -86 -0.111111
13139 -85 -0.111111
13148 -84 -0.111111
13157 -83 -0.111111
13165 -82 -0.125
13174 -81 -0.111111
13182 -80 -0.125
13190 -79 -0.125
13198 -78 -0.125
13205 -77 -0.142857
13213 -76 -0.125
13221 -75 -0.125
13228 -74 -0.142857
13235 -73 -0.142857
13242 -72 -0.142857
13249 -71 -0.142857
13256 -70 -0.142857
13263 -69 -0.142857
13270 -68 -0.142857
13277 -67 -0.142857
13284 -66 -0.142857
13290 -65 -0.166667
13297 -64 -0.142857
13303 -63 -0.166667
13310 -62 -0.142857
13316 -61 -0.166667
13322 -60 -0.166667
13328 -59 -0.166667
13335 -58 -0.142857
13341 -57 -0.166667
13347 -56 -0.166667
13353 -55 -0.166667
13359 -54 -0.166667
13365 -53 -0.166667
13371 -52 -0.166667
13377 -51 -0.166667
13383 -50 -0.166667
13389 -49 -0.166667
13394 -48 -0.2
13400 -47 -0.166667
13406 -46 -0.166667
13412 -45 -0.166667
13417 -44 -0.2
13423 -43 -0.166667
13428 -42 -0.2
13434 -41 -0.166667
13440 -40 -0.166667
13445 -39 -0.2
13451 -38 -0.166667
13456 -37 -0.2
13462 -36 -0.166667
13467 -35 -0.2
13473 -34 -0.166667
13478 -33 -0.2
13483 -32 -0.2
13489 -31 -0.166667
13494 -30 -0.2
13500 -29 -0.166667
13505 -28 -0.2
13510 -27 -0.2
13516 -26 -0.166667
13521 -25 -0.2
13526 -24 -0.2
13532 -23 -0.166667
13537 -22 -0.2
13542 -21 -0.2
13547 -20 -0.2
13553 -19 -0.166667
13558 -18 -0.2
13563 -17 -0.2
13568 -16 -0.2
13574 -15 -0.166667
13579 -14 -0.2
13584 -13 -0.2
13589 -12 -0.2
13595 -11 -0.166667
13600 -10 -0.2
13605 -9 -0.2
13610 -8 -0.2
13615 -7 -0.2
13621 -6 -0.166667
13626 -5 -0.2
13631 -4 -0.2
13636 -3 -0.2
13641 -2 -0.2
13647 -1 -0.166667
13651 0 -0.25
13652 1 -1
13657 2 -0.2
13662 3 -0.2
13668 4 -0.166667
13673 5 -0.2
13678 6 -0.2
13683 7 -0.2
13689 8 -0.166667
13694 9 -0.2
13699 10 -0.2
13704 11 -0.2
13710 12 -0.166667
13715 13 -0.2
13720 14 -0.2
13726 15 -0.166667
13731 16 -0.2
13736 17 -0.2
13742 18 -0.166667
13747 19 -0.2
13753 20 -0.166667
13758 21 -0.2
13763 22 -0.2
13769 23 -0.166667
13774 24 -0.2
13780 25 -0.166667
13785 26 -0.2
13791 27 -0.166667
13796 28 -0.2
13802 29 -0.166667
13808 30 -0.166667
13813 31 -0.2
13819 32 -0.166667
13824 33 -0.2
13830 34 -0.166667
13836 35 -0.166667
13842 36 -0.166667
13848 37 -0.166667
13853 38 -0.2
13859 39 -0.166667
13865 40 -0.166667
13871 41 -0.166667
13877 42 -0.166667
13883 43 -0.166667
13889 44 -0.166667
13895 45 -0.166667
13914 46 -0.0526316
13920 47 -0.166667
13926 48 -0.166667
13933 49 -0.142857
13939 50 -0.166667
13946 51 -0.142857
13953 52 -0.142857
13959 53 -0.166667
13966 54 -0.142857
13973 55 -0.142857
13980 56 -0.142857
13987 57 -0.142857
13994 58 -0.142857
14001 59 -0.142857
14008 60 -0.142857
14016 61 -0.125
14023 62 -0.142857
14031 63 -0.125
14038 64 -0.142857
14046 65 -0.125
14054 66 -0.125
14062 67 -0.125
14071 68 -0.111111
14079 69 -0.125
14088 70 -0.111111
14097 71 -0.111111
14106 72 -0.111111
14115 73 -0.111111
14125 74 -0.1
14135 75 -0.1
14145 76 -0.1
14156 77 -0.0909091
14167 78 -0.0909091
14178 79 -0.0909091
14190 80 -0.0833333
14203 81 -0.0769231
14217 82 -0.0714286
14231 83 -0.0714286
14247 84 -0.0625
14264 85 -0.0588235
14283 86 -0.0526316
14306 87 -0.0434783
14335 88 -0.0344828
14384 89 -0.0204082
14463 88 0.0126582
14502 87 0.025641
14528 86 0.0384615
14550 85 0.0454545
14568 84 0.0555556
14585 83 0.0588235
14600 82 0.0666667
14614 81 0.0714286
14627 80 0.0769231
14640 79 0.0769231
14652 78 0.0833333
14663 77 0.0909091
14674 76 0.0909091
14684 75 0.1
14694 74 0.1
14704 73 0.1
14714 72 0.1
14723 71 0.111111
14732 70 0.111111
14741 69 0.111111
14749 68 0.125
14758 67 0.111111
14766 66 0.125
14774 65 0.125
14782 64 0.125
14790 63 0.125
14797 62 0.142857
14805 61 0.125
14812 60 0.142857
14820 59 0.125
14827 58 0.142857
14834 57 0.142857
14841 56 0.142857
14848 55 0.142857
14855 54 0.142857
14862 53 0.142857
14868 52 0.166667
14875 51 0.142857
14882 50 0.142857
14888 49 0.166667
14894 48 0.166667
14901 47 0.142857
14920 46 0.0526316
14926 45 0.166667
14932 44 0.166667
14938 43 0.166667
14944 42 0.166667
14950 41 0.166667
14956 40 0.166667
14962 39 0.166667
14968 38 0.166667
14974 37 0.166667
14979 36 0.2
14985 35 0.166667
14991 34 0.166667
14997 33 0.166667
15002 32 0.2
15008 31 0.166667
15014 30 0.166667
15019 29 0.2
15025 28 0.166667
15030 27 0.2
15036 26 0.166667
15041 25 0.2
15047 24 0.166667
15052 23 0.2
15058 22 0.166667
15063 21 0.2
15068 20 0.2
15074 19 0.166667
15079 18 0.2
15085 17 0.166667
15090 16 0.2
15095 15 0.2
15101 14 0.166667
15106 13 0.2
15111 12 0.2
15116 11 0.2
15122 10 0.166667
15127 9 0.2
15132 8 0.2
15137 7 0.2
15143 6 0.166667
15148 5 0.2
15153 4 0.2
15158 3 0.2
15164 2 0.166667
15169 1 0.2
15173 0 0.25
15174 -1 1
15179 -2 0.2
15184 -3 0.2
15190 -4 0.166667
15195 -5 0.2
15200 -6 0.2
15205 -7 0.2
15210 -8 0.2
15215 -9 0.2
15221 -10 0.166667
15226 -11 0.2
15231 -12 0.2
15236 -13 0.2
15241 -14 0.2
15247 -15 0.166667
15252 -16 0.2
15257 -17 0.2
15262 -18 0.2
15267 -19 0.2
15273 -20 0.166667
15278 -21 0.2
15283 -22 0.2
15288 -23 0.2
15294 -24 0.166667
15299 -25 0.2
15304 -26 0.2
15310 -27 0.166667
15315 -28 0.2
15320 -29 0.2
15326 -30 0.166667
15331 -31 0.2
15336 -32 0.2
15342 -33 0.166667
15347 -34 0.2
15352 -35 0.2
15358 -36 0.166667
15363 -37 0.2
15369 -38 0.166667
15374 -39 0.2
15380 -40 0.166667
15385 -41 0.2
15391 -42 0.166667
15396 -43 0.2
15402 -44 0.166667
15408 -45 0.166667
15413 -46 0.2
15419 -47 0.166667
15425 -48 0.166667
15431 -49 0.166667
15436 -50 0.2
15442 -51 0.166667
15448 -52 0.166667
15454 -53 0.166667
15460 -54 0.166667
15466 -55 0.166667
15472 -56 0.166667
15478 -57 0.166667
15484 -58 0.166667
15490 -59 0.166667
15496 -60 0.166667
15503 -61 0.142857
15509 -62 0.166667
15515 -63 0.166667
15522 -64 0.142857
15528 -65 0.166667
15535 -66 0.142857
15541 -67 0.166667
15548 -68 0.142857
15555 -69 0.142857
15562 -70 0.142857
15569 -71 0.142857
15576 -72 0.142857
15583 -73 0.142857
15590 -74 0.142857
15597 -75 0.142857
15605 -76 0.125
15612 -77 0.142857
15620 -78 0.125
15628 -79 0.125
15635 -80 0.142857
15644 -81 0.111111
15652 -82 0.125
15660 -83 0.125
15669 -84 0.111111
15678 -85 0.111111
15687 -86 0.111111
15696 -87 0.111111
15705 -88 0.111111
15715 -89 0.1
15725 -90 0.1
15736 -91 0.0909091
15746 -92 0.1
15758 -93 0.0833333
15769 -94 0.0909091
15782 -95 0.0769231
15795 -96 0.0769231
15809 -97 0.0714286
15824 -98 0.0666667
15841 -99 0.0588235
15859 -100 0.0555556
15881 -101 0.0454545
15907 -102 0.0384615
15947 -103 0.025
16057 -102 -0.00909091
16091 -101 -0.0294118
16115 -100 -0.0416667
16136 -99 -0.047619
16154 -98 -0.0555556
16170 -97 -0.0625
16184 -96 -0.0714286
16198 -95 -0.0714286
16211 -94 -0.0769231
16223 -93 -0.0833333
16235 -92 -0.0833333
16246 -91 -0.0909091
16257 -90 -0.0909091
16267 -89 -0.1
16277 -88 -0.1
16287 -87 -0.1
16296 -86 -0.111111
16305 -85 -0.111111
16314 -84 -0.111111
16323 -83 -0.111111
16332 -82 -0.111111
16340 -81 -0.125
16348 -80 -0.125
16356 -79 -0.125
16364 -78 -0.125
16372 -77 -0.125
16379 -76 -0.142857
16387 -75 -0.125
16394 -74 -0.142857
16402 -73 -0.125
16409 -72 -0.142857
16416 -71 -0.142857
16423 -70 -0.142857
16430 -69 -0.142857
16436 -68 -0.166667
16443 -67 -0.142857
16450 -66 -0.142857
16457 -65 -0.142857
16463 -64 -0.166667
16470 -63 -0.142857
16476 -62 -0.166667
16482 -61 -0.166667
16489 -60 -0.142857
16495 -59 -0.166667
16501 -58 -0.166667
16507 -57 -0.166667
16513 -56 -0.166667
16519 -55 -0.166667
16525 -54 -0.166667
16531 -53 -0.166667
16537 -52 -0.166667
16543 -51 -0.166667
16549 -50 -0.166667
16555 -49 -0.166667
16561 -48 -0.166667
16566 -47 -0.2
16572 -46 -0.166667
16578 -45 -0.166667
16584 -44 -0.166667
16589 -43 -0.2
16595 -42 -0.166667
16600 -41 -0.2
16606 -40 -0.166667
16612 -39 -0.166667
16617 -38 -0.2
16623 -37 -0.166667
16628 -36 -0.2
16634 -35 -0.166667
16639 -34 -0.2
16644 -33 -0.2
16650 -32 -0.166667
16655 -31 -0.2
16661 -30 -0.166667
16666 -29 -0.2
16671 -28 -0.2
16677 -27 -0.166667
16682 -26 -0.2
16687 -25 -0.2
16693 -24 -0.166667
16698 -23 -0.2
16703 -22 -0.2
16709 -21 -0.166667
16714 -20 -0.2
16719 -19 -0.2
16724 -18 -0.2
16730 -17 -0.166667
16735 -16 -0.2
16740 -15 -0.2
16745 -14 -0.2
16751 -13 -0.166667
16756 -12 -0.2
16761 -11 -0.2
16766 -10 -0.2
16771 -9 -0.2
16777 -8 -0.166667
16782 -7 -0.2
16787 -6 -0.2
16792 -5 -0.2
16797 -4 -0.2
16803 -3 -0.166667
16808 -2 -0.2
16813 -1 -0.2
16817 0 -0.25
16818 1 -1
16824 2 -0.166667
16829 3 -0.2
16834 4 -0.2
16839 5 -0.2
16845 6 -0.166667
16850 7 -0.2
16855 8 -0.2
16860 9 -0.2
16866 10 -0.166667
16871 11 -0.2
16876 12 -0.2
16881 13 -0.2
16887 14 -0.166667
16892 15 -0.2
16897 16 -0.2
16903 17 -0.166667
16908 18 -0.2
16930 19 -0.0454545
16935 20 -0.2
16941 21 -0.166667
16946 22 -0.2
16952 23 -0.166667
16957 24 -0.2
16963 25 -0.166667
16968 26 -0.2
16974 27 -0.166667
16980 28 -0.166667
16985 29 -0.2
16991 30 -0.166667
16997 31 -0.166667
17002 32 -0.2
17008 33 -0.166667
17014 34 -0.166667
17020 35 -0.166667
17026 36 -0.166667
17032 37 -0.166667
17037 38 -0.2
17043 39 -0.166667
17049 40 -0.166667
17056 41 -0.142857
17062 42 -0.166667
17068 43 -0.166667
17074 44 -0.166667
17080 45 -0.166667
17087 46 -0.142857
17093 47 -0.166667
17099 48 -0.166667
17106 49 -0.142857
17112 50 -0.166667
17119 51 -0.142857
17126 52 -0.142857
17132 53 -0.166667
17139 54 -0.142857
17146 55 -0.142857
17153 56 -0.142857
17160 57 -0.142857
17167 58 -0.142857
17175 59 -0.125
17182 60 -0.142857
17190 61 -0.125
17197 62 -0.142857
17205 63 -0.125
17213 64 -0.125
17221 65 -0.125
17229 66 -0.125
17237 67 -0.125
17246 68 -0.111111
17254 69 -0.125
17263 70 -0.111111
17272 71 -0.111111
17282 72 -0.1
17291 73 -0.111111
17301 74 -0.1
17312 75 -0.0909091
17322 76 -0.1
17333 77 -0.0909091
17345 78 -0.0833333
17357 79 -0.0833333
17370 80 -0.0769231
17383 81 -0.0769231
17397 82 -0.0714286
17413 83 -0.0625
17430 84 -0.0588235
17450 85 -0.05
17472 86 -0.0454545
17501 87 -0.0344828
17550 88 -0.0204082
17629 87 0.0126582
17668 86 0.025641
17695 85 0.037037
17716 84 0.047619
17735 83 0.0526316
17751 82 0.0625
17766 81 0.0666667
17781 80 0.0666667
17794 79 0.0769231
17806 78 0.0833333
17818 77 0.0833333
17829 76 0.0909091
17840 75 0.0909091
17851 74 0.0909091
17861 73 0.1
17871 72 0.1
17880 71 0.111111
17889 70 0.111111
17898 69 0.111111
17907 68 0.111111
17916 67 0.111111
17941 66 0.04
17949 65 0.125
17956 64 0.142857
17964 63 0.125
17972 62 0.125
17979 61 0.142857
17986 60 0.142857
17993 59 0.142857
18001 58 0.125
18008 57 0.142857
18015 56 0.142857
18021 55 0.166667
18028 54 0.142857
18035 53 0.142857
18042 52 0.142857
18048 51 0.166667
18055 50 0.142857
18061 49 0.166667
18067 48 0.166667
18074 47 0.142857
18080 46 0.166667
18086 45 0.166667
18092 44 0.166667
18098 43 0.166667
18105 42 0.142857
18111 41 0.166667
18117 40 0.166667
18122 39 0.2
18128 38 0.166667
18134 37 0.166667
18140 36 0.166667
18146 35 0.166667
18152 34 0.166667
18157 33 0.2
18163 32 0.166667
18169 31 0.166667
18174 30 0.2
18180 29 0.166667
18186 28 0.166667
18191 27 0.2
18197 26 0.166667
18202 25 0.2
18208 24 0.166667
18213 23 0.2
18219 22 0.166667
18224 21 0.2
18230 20 0.166667
18235 19 0.2
18240 18 0.2
18246 17 0.166667
18251 16 0.2
18256 15 0.2
18262 14 0.166667
18267 13 0.2
18272 12 0.2
18278 11 0.166667
18283 10 0.2
18288 9 0.2
18293 8 0.2
18299 7 0.166667
18304 6 0.2
18309 5 0.2
18314 4 0.2
18320 3 0.166667
18325 2 0.2
18330 1 0.2
18335 0 0.2
18340 -1 0.2
18346 -2 0.166667
18351 -3 0.2
18356 -4 0.2
18361 -5 0.2
18366 -6 0.2
18372 -7 0.166667
18377 -8 0.2
18382 -9 0.2
18387 -10 0.2
18392 -11 0.2
18398 -12 0.166667
18403 -13 0.2
18408 -14 0.2
18413 -15 0.2
18418 -16 0.2
18424 -17 0.166667
18429 -18 0.2
18434 -19 0.2
18439 -20 0.2
18444 -21 0.2
18450 -22 0.166667
18455 -23 0.2
18460 -24 0.2
18465 -25 0.2
18471 -26 0.166667
18476 -27 0.2
18481 -28 0.2
18487 -29 0.166667
18492 -30 0.2
18497 -31 0.2
18503 -32 0.166667
18508 -33 0.2
18513 -34 0.2
18519 -35 0.166667
18524 -36 0.2
18530 -37 0.166667
18535 -38 0.2
18541 -39 0.166667
18546 -40 0.2
18552 -41 0.166667
18557 -42 0.2
18563 -43 0.166667
18568 -44 0.2
18574 -45 0.166667
18580 -46 0.166667
18586 -47 0.166667
18591 -48 0.2
18597 -49 0.166667
18603 -50 0.166667
18609 -51 0.166667
18614 -52 0.2
18620 -53 0.166667
18626 -54 0.166667
18632 -55 0.166667
18638 -56 0.166667
18644 -57 0.166667
18650 -58 0.166667
18657 -59 0.142857
18663 -60 0.166667
18669 -61 0.166667
18675 -62 0.166667
18682 -63 0.142857
18688 -64 0.166667
18695 -65 0.142857
18701 -66 0.166667
18708 -67 0.142857
18714 -68 0.166667
18721 -69 0.142857
18728 -70 0.142857
18735 -71 0.142857
18742 -72 0.142857
18749 -73 0.142857
18756 -74 0.142857
18764 -75 0.125
18771 -76 0.142857
18778 -77 0.142857
18786 -78 0.125
18794 -79 0.125
18802 -80 0.125
18810 -81 0.125
18818 -82 0.125
18826 -83 0.125
18835 -84 0.111111
18844 -85 0.111111
18853 -86 0.111111
18862 -87 0.111111
18871 -88 0.111111
18881 -89 0.1
18891 -90 0.1
18902 -91 0.0909091
18913 -92 0.0909091
18924 -93 0.0909091
18948 -94 0.0416667
18961 -95 0.0769231
18975 -96 0.0714286
18990 -97 0.0666667
19007 -98 0.0588235
19025 -99 0.0555556
19047 -100 0.0454545
19073 -101 0.0384615
19112 -102 0.025641
19224 -101 -0.00892857
19258 -100 -0.0294118
19282 -99 -0.0416667
19302 -98 -0.05
19320 -97 -0.0555556
19336 -96 -0.0625
19351 -95 -0.0666667
19365 -94 -0.0714286
19378 -93 -0.0769231
19390 -92 -0.0833333
19402 -91 -0.0833333
19413 -90 -0.0909091
19423 -89 -0.1
19434 -88 -0.0909091
19444 -87 -0.1
19453 -86 -0.111111
19463 -85 -0.1
19472 -84 -0.111111
19481 -83 -0.111111
19490 -82 -0.111111
19498 -81 -0.125
19506 -80 -0.125
19515 -79 -0.111111
19523 -78 -0.125
19531 -77 -0.125
19538 -76 -0.142857
19546 -75 -0.125
19553 -74 -0.142857
19561 -73 -0.125
19568 -72 -0.142857
19575 -71 -0.142857
19582 -70 -0.142857
19589 -69 -0.142857
19596 -68 -0.142857
19603 -67 -0.142857
19610 -66 -0.142857
19616 -65 -0.166667
19623 -64 -0.142857
19629 -63 -0.166667
19636 -62 -0.142857
19642 -61 -0.166667
19649 -60 -0.142857
19655 -59 -0.166667
19661 -58 -0.166667
19667 -57 -0.166667
19674 -56 -0.142857
19680 -55 -0.166667
19686 -54 -0.166667
19692 -53 -0.166667
19698 -52 -0.166667
19704 -51 -0.166667
19710 -50 -0.166667
19715 -49 -0.2
19721 -48 -0.166667
19727 -47 -0.166667
19733 -46 -0.166667
19739 -45 -0.166667
19744 -44 -0.2
19750 -43 -0.166667
19756 -42 -0.166667
19761 -41 -0.2
19767 -40 -0.166667
19772 -39 -0.2
19778 -38 -0.166667
19783 -37 -0.2
19789 -36 -0.166667
19794 -35 -0.2
19800 -34 -0.166667
19805 -33 -0.2
19811 -32 -0.166667
19816 -31 -0.2
19822 -30 -0.166667
19827 -29 -0.2
19832 -28 -0.2
19838 -27 -0.166667
19843 -26 -0.2
19848 -25 -0.2
19854 -24 -0.166667
19859 -23 -0.2
19864 -22 -0.2
19870 -21 -0.166667
19875 -20 -0.2
19880 -19 -0.2
19885 -18 -0.2
19891 -17 -0.166667
19896 -16 -0.2
19901 -15 -0.2
19906 -14 -0.2
19912 -13 -0.166667
19917 -12 -0.2
19922 -11 -0.2
19927 -10 -0.2
19948 -9 -0.047619
19953 -8 -0.2
19959 -7 -0.166667
19964 -6 -0.2
19969 -5 -0.2
19974 -4 -0.2
19979 -3 -0.2
19985 -2 -0.166667
19990 -1 -0.2
19995 0 -0.2
20000 1 -0.2
20006 2 -0.166667
20011 3 -0.2
20016 4 -0.2
20021 5 -0.2
20027 6 -0.166667
20032 7 -0.2
20037 8 -0.2
20042 9 -0.2
20048 10 -0.166667
20053 11 -0.2
20058 12 -0.2
20064 13 -0.166667
20069 14 -0.2
20075 15 -0.166667
20080 16 -0.2
20085 17 -0.2
20091 18 -0.166667
20096 19 -0.2
20102 20 -0.166667
20107 21 -0.2
20113 22 -0.166667
20118 23 -0.2
20124 24 -0.166667
20129 25 -0.2
20135 26 -0.166667
20140 27 -0.2
20146 28 -0.166667
20152 29 -0.166667
20157 30 -0.2
20163 31 -0.166667
20169 32 -0.166667
20174 33 -0.2
20180 34 -0.166667
20186 35 -0.166667
20192 36 -0.166667
20198 37 -0.166667
20204 38 -0.166667
20210 39 -0.166667
20216 40 -0.166667
20222 41 -0.166667
20228 42 -0.166667
20234 43 -0.166667
20240 44 -0.166667
20247 45 -0.142857
20253 46 -0.166667
20259 47 -0.166667
20266 48 -0.142857
20272 49 -0.166667
20279 50 -0.142857
20285 51 -0.166667
20292 52 -0.142857
20299 53 -0.142857
20305 54 -0.166667
20312 55 -0.142857
20319 56 -0.142857
20326 57 -0.142857
20334 58 -0.125
20341 59 -0.142857
20348 60 -0.142857
20356 61 -0.125
20363 62 -0.142857
20371 63 -0.125
20379 64 -0.125
20387 65 -0.125
20395 66 -0.125
20403 67 -0.125
20412 68 -0.111111
20421 69 -0.111111
20429 70 -0.125
20439 71 -0.1
20448 72 -0.111111
20458 73 -0.1
20467 74 -0.111111
20478 75 -0.0909091
20488 76 -0.1
20499 77 -0.0909091
20511 78 -0.0833333
20523 79 -0.0833333
20536 80 -0.0769231
20549 81 -0.0769231
20563 82 -0.0714286
20579 83 -0.0625
20596 84 -0.0588235
20615 85 -0.0526316
20638 86 -0.0434783
20666 87 -0.0357143
20715 88 -0.0204082
20797 87 0.0121951
20835 86 0.0263158
20861 85 0.0384615
20883 84 0.0454545
20901 83 0.0555556
20918 82 0.0588235
20933 81 0.0666667
20960 80 0.037037
20973 79 0.0769231
20985 78 0.0833333
20996 77 0.0909091
21007 76 0.0909091
21017 75 0.1
21027 74 0.1
21037 73 0.1
21047 72 0.1
21056 71 0.111111
21065 70 0.111111
21074 69 0.111111
21082 68 0.125
21091 67 0.111111
21099 66 0.125
21107 65 0.125
21115 64 0.125
21123 63 0.125
21130 62 0.142857
21138 61 0.125
21145 60 0.142857
21153 59 0.125
21160 58 0.142857
21167 57 0.142857
21174 56 0.142857
21181 55 0.142857
21188 54 0.142857
21195 53 0.142857
21201 52 0.166667
21208 51 0.142857
21214 50 0.166667
21221 49 0.142857
21227 48 0.166667
21234 47 0.142857
21240 46 0.166667
21246 45 0.166667
21253 44 0.142857
21259 43 0.166667
21265 42 0.166667
21271 41 0.166667
21277 40 0.166667
21283 39 0.166667
21289 38 0.166667
21295 37 0.166667
21301 36 0.166667
21306 35 0.2
21312 34 0.166667
21318 33 0.166667
21324 32 0.166667
21329 31 0.2
21335 30 0.166667
21341 29 0.166667
21346 28 0.2
21352 27 0.166667
21358 26 0.166667
21363 25 0.2
21369 24 0.166667
21374 23 0.2
21380 22 0.166667
21385 21 0.2
21390 20 0.2
21396 19 0.166667
21401 18 0.2
21407 17 0.166667
21412 16 0.2
21417 15 0.2
21423 14 0.166667
21428 13 0.2
21433 12 0.2
21439 11 0.166667
21444 10 0.2
21449 9 0.2
21455 8 0.166667
21460 7 0.2
21465 6 0.2
21470 5 0.2
21475 4 0.2
21481 3 0.166667
21486 2 0.2
21491 1 0.2
21496 0 0.2
21502 -1 0.166667
21505 0 -0.333333
21507 -1 0.5
21512 -2 0.2
21517 -3 0.2
21522 -4 0.2
21528 -5 0.166667
21533 -6 0.2
21538 -7 0.2
21543 -8 0.2
21548 -9 0.2
21553 -10 0.2
21559 -11 0.166667
21564 -12 0.2
21569 -13 0.2
21574 -14 0.2
21579 -15 0.2
21585 -16 0.166667
21590 -17 0.2
21595 -18 0.2
21600 -19 0.2
21605 -20 0.2
21611 -21 0.166667
21616 -22 0.2
21621 -23 0.2
21626 -24 0.2
21632 -25 0.166667
21637 -26 0.2
21642 -27 0.2
21648 -28 0.166667
21653 -29 0.2
21658 -30 0.2
21664 -31 0.166667
21669 -32 0.2
21674 -33 0.2
21680 -34 0.166667
21685 -35 0.2
21691 -36 0.166667
21696 -37 0.2
21701 -38 0.2
21707 -39 0.166667
21712 -40 0.2
21718 -41 0.166667
21724 -42 0.166667
21729 -43 0.2
21735 -44 0.166667
21740 -45 0.2
21746 -46 0.166667
21752 -47 0.166667
21758 -48 0.166667
21763 -49 0.2
21769 -50 0.166667
21775 -51 0.166667
21781 -52 0.166667
21787 -53 0.166667
21793 -54 0.166667
21798 -55 0.2
21804 -56 0.166667
21811 -57 0.142857
21817 -58 0.166667
21823 -59 0.166667
21829 -60 0.166667
21835 -61 0.166667
21842 -62 0.142857
21848 -63 0.166667
21854 -64 0.166667
21861 -65 0.142857
21867 -66 0.166667
21874 -67 0.142857
21881 -68 0.142857
21887 -69 0.166667
21894 -70 0.142857
21901 -71 0.142857
21908 -72 0.142857
21915 -73 0.142857
21922 -74 0.142857
21930 -75 0.125
21937 -76 0.142857
21960 -77 0.0434783
21968 -78 0.125
21976 -79 0.125
21984 -80 0.125
21993 -81 0.111111
22001 -82 0.125
22010 -83 0.111111
22019 -84 0.111111
22028 -85 0.111111
22038 -86 0.1
22047 -87 0.111111
22057 -88 0.1
22068 -89 0.0909091
22079 -90 0.0909091
22090 -91 0.0909091
22102 -92 0.0833333
22114 -93 0.0833333
22127 -94 0.0769231
22141 -95 0.0714286
22156 -96 0.0666667
22173 -97 0.0588235
22191 -98 0.0555556
22212 -99 0.047619
22238 -100 0.0384615
22276 -101 0.0263158
22392 -100 -0.00862069
22425 -99 -0.030303
22449 -98 -0.0416667
22469 -97 -0.05
22487 -96 -0.0555556
22503 -95 -0.0625
22518 -94 -0.0666667
22532 -93 -0.0714286
22545 -92 -0.0769231
22557 -91 -0.0833333
22568 -90 -0.0909091
22579 -89 -0.0909091
22590 -88 -0.0909091
22600 -87 -0.1
22610 -86 -0.1
22620 -85 -0.1
22630 -84 -0.1
22639 -83 -0.111111
22648 -82 -0.111111
22656 -81 -0.125
22665 -80 -0.111111
22673 -79 -0.125
22681 -78 -0.125
22689 -77 -0.125
22697 -76 -0.125
22705 -75 -0.125
22712 -74 -0.142857
22720 -73 -0.125
22727 -72 -0.142857
22735 -71 -0.125
22742 -70 -0.142857
22749 -69 -0.142857
22756 -68 -0.142857
22763 -67 -0.142857
22769 -66 -0.166667
22776 -65 -0.142857
22783 -64 -0.142857
22789 -63 -0.166667
22796 -62 -0.142857
22802 -61 -0.166667
22809 -60 -0.142857
22815 -59 -0.166667
22822 -58 -0.142857
22828 -57 -0.166667
22834 -56 -0.166667
22840 -55 -0.166667
22846 -54 -0.166667
22852 -53 -0.166667
22858 -52 -0.166667
22864 -51 -0.166667
22870 -50 -0.166667
22876 -49 -0.166667
22882 -48 -0.166667
22888 -47 -0.166667
22894 -46 -0.166667
22899 -45 -0.2
22905 -44 -0.166667
22911 -43 -0.166667
22916 -42 -0.2
22922 -41 -0.166667
22928 -40 -0.166667
22933 -39 -0.2
22939 -38 -0.166667
22961 -37 -0.0454545
22966 -36 -0.2
22972 -35 -0.166667
22977 -34 -0.2
22983 -33 -0.166667
22988 -32 -0.2
22993 -31 -0.2
22999 -30 -0.166667
23004 -29 -0.2
23009 -28 -0.2
23015 -27 -0.166667
23020 -26 -0.2
23025 -25 -0.2
23031 -24 -0.166667
23036 -23 -0.2
23041 -22 -0.2
23047 -21 -0.166667
23052 -20 -0.2
23057 -19 -0.2
23062 -18 -0.2
23068 -17 -0.166667
23073 -16 -0.2
23078 -15 -0.2
23083 -14 -0.2
23088 -13 -0.2
23094 -12 -0.166667
23099 -11 -0.2
23104 -10 -0.2
23109 -9 -0.2
23115 -8 -0.166667
23120 -7 -0.2
23125 -6 -0.2
23130 -5 -0.2
23135 -4 -0.2
23141 -3 -0.166667
23146 -2 -0.2
23150 0 -0.5
23151 1 -1
23156 2 -0.2
23161 3 -0.2
23167 4 -0.166667
23172 5 -0.2
23177 6 -0.2
23182 7 -0.2
23188 8 -0.166667
23193 9 -0.2
23198 10 -0.2
23204 11 -0.166667
23209 12 -0.2
23214 13 -0.2
23219 14 -0.2
23225 15 -0.166667
23230 16 -0.2
23235 17 -0.2
23241 18 -0.166667
23246 19 -0.2
23252 20 -0.166667
23257 21 -0.2
23262 22 -0.2
23268 23 -0.166667
23273 24 -0.2
23279 25 -0.166667
23284 26 -0.2
23290 27 -0.166667
23295 28 -0.2
23301 29 -0.166667
23307 30 -0.166667
23312 31 -0.2
23318 32 -0.166667
23323 33 -0.2
23329 34 -0.166667
23335 35 -0.166667
23341 36 -0.166667
23346 37 -0.2
23352 38 -0.166667
23358 39 -0.166667
23364 40 -0.166667
23370 41 -0.166667
23376 42 -0.166667
23382 43 -0.166667
23388 44 -0.166667
23394 45 -0.166667
23400 46 -0.166667
23406 47 -0.166667
23413 48 -0.142857
23419 49 -0.166667
23425 50 -0.166667
23432 51 -0.142857
23438 52 -0.166667
23445 53 -0.142857
23451 54 -0.166667
23458 55 -0.142857
23465 56 -0.142857
23472 57 -0.142857
23479 58 -0.142857
23486 59 -0.142857
23493 60 -0.142857
23500 61 -0.142857
23507 62 -0.142857
23514 63 -0.142857
23522 64 -0.125
23529 65 -0.142857
23537 66 -0.125
23545 67 -0.125
23553 68 -0.125
23561 69 -0.125
23569 70 -0.125
23578 71 -0.111111
23587 72 -0.111111
23596 73 -0.111111
23605 74 -0.111111
23614 75 -0.111111
23624 76 -0.1
23633 77 -0.111111
23644 78 -0.0909091
23654 79 -0.1
23665 80 -0.0909091
23677 81 -0.0833333
23689 82 -0.0833333
23701 83 -0.0833333
23715 84 -0.0714286
23729 85 -0.0714286
23745 86 -0.0625
23762 87 -0.0588235
23781 88 -0.0526316
23803 89 -0.0454545
23832 90 -0.0344828
23879 91 -0.0212766
23965 90 0.0116279
24003 89 0.0263158
24028 88 0.04
24050 87 0.0454545
24068 86 0.0555556
24085 85 0.0588235
24100 84 0.0666667
24114 83 0.0714286
24127 82 0.0769231
24140 81 0.0769231
24151 80 0.0909091
24163 79 0.0833333
24173 78 0.1
24184 77 0.0909091
24194 76 0.1
24204 75 0.1
24213 74 0.111111
24223 73 0.1
24232 72 0.111111
24240 71 0.125
24249 70 0.111111
24257 69 0.125
24266 68 0.111111
24274 67 0.125
24282 66 0.125
24289 65 0.142857
24297 64 0.125
24305 63 0.125
24312 62 0.142857
24319 61 0.142857
24327 60 0.125
24334 59 0.142857
24341 58 0.142857
24348 57 0.142857
24354 56 0.166667
24361 55 0.142857
24368 54 0.142857
24375 53 0.142857
24381 52 0.166667
24388 51 0.142857
24394 50 0.166667
24400 49 0.166667
24407 48 0.142857
24413 47 0.166667
24419 46 0.166667
24425 45 0.166667
24431 44 0.166667
24438 43 0.142857
24444 42 0.166667
24449 41 0.2
24455 40 0.166667
24461 39 0.166667
24467 38 0.166667
24473 37 0.166667
24479 36 0.166667
24485 35 0.166667
24490 34 0.2
24496 33 0.166667
24502 32 0.166667
24507 31 0.2
24513 30 0.166667
24519 29 0.166667
24524 28 0.2
24530 27 0.166667
24535 26 0.2
24541 25 0.166667
24546 24 0.2
24552 23 0.166667
24557 22 0.2
24563 21 0.166667
24568 20 0.2
24573 19 0.2
24579 18 0.166667
24584 17 0.2
24589 16 0.2
24595 15 0.166667
24600 14 0.2
24605 13 0.2
24611 12 0.166667
24616 11 0.2
24621 10 0.2
24626 9 0.2
24632 8 0.166667
24637 7 0.2
24642 6 0.2
24647 5 0.2
24653 4 0.166667
24658 3 0.2
24663 2 0.2
24668 1 0.2
24672 0 0.25
24673 -1 1
24679 -2 0.166667
24684 -3 0.2
24689 -4 0.2
24694 -5 0.2
24699 -6 0.2
24705 -7 0.166667
24710 -8 0.2
24715 -9 0.2
24720 -10 0.2
24725 -11 0.2
24731 -12 0.166667
24736 -13 0.2
24741 -14 0.2
24746 -15 0.2
24751 -16 0.2
24757 -17 0.166667
24762 -18 0.2
24767 -19 0.2
24772 -20 0.2
24777 -21 0.2
24783 -22 0.166667
24788 -23 0.2
24793 -24 0.2
24798 -25 0.2
24804 -26 0.166667
24809 -27 0.2
24814 -28 0.2
24820 -29 0.166667
24825 -30 0.2
24830 -31 0.2
24836 -32 0.166667
24841 -33 0.2
24847 -34 0.166667
24852 -35 0.2
24857 -36 0.2
24863 -37 0.166667
24868 -38 0.2
24874 -39 0.166667
24879 -40 0.2
24885 -41 0.166667
24890 -42 0.2
24896 -43 0.166667
24902 -44 0.166667
24907 -45 0.2
24913 -46 0.166667
24919 -47 0.166667
24924 -48 0.2
24930 -49 0.166667
24936 -50 0.166667
24942 -51 0.166667
24948 -52 0.166667
24953 -53 0.2
24959 -54 0.166667
24965 -55 0.166667
24971 -56 0.166667
24996 -57 0.04
25002 -58 0.166667
25009 -59 0.142857
25015 -60 0.166667
25021 -61 0.166667
25028 -62 0.142857
25034 -63 0.166667
25041 -64 0.142857
25048 -65 0.142857
25054 -66 0.166667
25061 -67 0.142857
25068 -68 0.142857
25075 -69 0.142857
25082 -70 0.142857
25090 -71 0.125
25097 -72 0.142857
25104 -73 0.142857
25112 -74 0.125
25119 -75 0.142857
25127 -76 0.125
25135 -77 0.125
25143 -78 0.125
25151 -79 0.125
25160 -80 0.111111
25169 -81 0.111111
25177 -82 0.125
25186 -83 0.111111
25195 -84 0.111111
25205 -85 0.1
25215 -86 0.1
25225 -87 0.1
25235 -88 0.1
25246 -89 0.0909091
25258 -90 0.0833333
25269 -91 0.0909091
25282 -92 0.0769231
25295 -93 0.0769231
25309 -94 0.0714286
25324 -95 0.0666667
25341 -96 0.0588235
25360 -97 0.0526316
25381 -98 0.047619
25408 -99 0.037037
25449 -100 0.0243902
25554 -99 -0.00952381
25588 -98 -0.0294118
25613 -97 -0.04
25634 -96 -0.047619
25652 -95 -0.0555556
25668 -94 -0.0625
25683 -93 -0.0666667
25697 -92 -0.0714286
25710 -91 -0.0769231
25722 -90 -0.0833333
25734 -89 -0.0833333
25745 -88 -0.0909091
25756 -87 -0.0909091
25766 -86 -0.1
25776 -85 -0.1
25786 -84 -0.1
25795 -83 -0.111111
25804 -82 -0.111111
25813 -81 -0.111111
25822 -80 -0.111111
25830 -79 -0.125
25839 -78 -0.111111
25847 -77 -0.125
25855 -76 -0.125
25863 -75 -0.125
25871 -74 -0.125
25878 -73 -0.142857
25886 -72 -0.125
25893 -71 -0.142857
25900 -70 -0.142857
25907 -69 -0.142857
25915 -68 -0.125
25922 -67 -0.142857
25928 -66 -0.166667
25935 -65 -0.142857
25942 -64 -0.142857
25949 -63 -0.142857
25955 -62 -0.166667
25962 -61 -0.142857
25968 -60 -0.166667
25975 -59 -0.142857
26000 -58 -0.04
26006 -57 -0.166667
26012 -56 -0.166667
26018 -55 -0.166667
26024 -54 -0.166667
26030 -53 -0.166667
26036 -52 -0.166667
26042 -51 -0.166667
26048 -50 -0.166667
26054 -49 -0.166667
26060 -48 -0.166667
26065 -47 -0.2
26071 -46 -0.166667
26077 -45 -0.166667
26082 -44 -0.2
26088 -43 -0.166667
26094 -42 -0.166667
26099 -41 -0.2
26105 -40 -0.166667
26110 -39 -0.2
26116 -38 -0.166667
26121 -37 -0.2
26127 -36 -0.166667
26132 -35 -0.2
26138 -34 -0.166667
26143 -33 -0.2
26149 -32 -0.166667
26154 -31 -0.2
26160 -30 -0.166667
26165 -29 -0.2
26170 -28 -0.2
26176 -27 -0.166667
26181 -26 -0.2
26186 -25 -0.2
26192 -24 -0.166667
26197 -23 -0.2
26202 -22 -0.2
26207 -21 -0.2
26213 -20 -0.166667
26218 -19 -0.2
26223 -18 -0.2
26228 -17 -0.2
26234 -16 -0.166667
26239 -15 -0.2
26244 -14 -0.2
26249 -13 -0.2
26255 -12 -0.166667
26260 -11 -0.2
26265 -10 -0.2
26270 -9 -0.2
26276 -8 -0.166667
26281 -7 -0.2
26286 -6 -0.2
26291 -5 -0.2
26296 -4 -0.2
26302 -3 -0.166667
26307 -2 -0.2
26312 -1 -0.2
26316 0 -0.25
26317 1 -1
26323 2 -0.166667
26328 3 -0.2
26333 4 -0.2
26338 5 -0.2
26344 6 -0.166667
26349 7 -0.2
26354 8 -0.2
26359 9 -0.2
26365 10 -0.166667
26370 11 -0.2
26375 12 -0.2
26380 13 -0.2
26386 14 -0.166667
26391 15 -0.2
26396 16 -0.2
26402 17 -0.166667
26407 18 -0.2
26413 19 -0.166667
26418 20 -0.2
26423 21 -0.2
26429 22 -0.166667
26434 23 -0.2
26440 24 -0.166667
26445 25 -0.2
26451 26 -0.166667
26456 27 -0.2
26462 28 -0.166667
26467 29 -0.2
26473 30 -0.166667
26479 31 -0.166667
26484 32 -0.2
26490 33 -0.166667
26496 34 -0.166667
26501 35 -0.2
26507 36 -0.166667
26513 37 -0.166667
26519 38 -0.166667
26525 39 -0.166667
26531 40 -0.166667
26537 41 -0.166667
26543 42 -0.166667
26549 43 -0.166667
26555 44 -0.166667
26561 45 -0.166667
26567 46 -0.166667
26573 47 -0.166667
26579 48 -0.166667
26586 49 -0.142857
26592 50 -0.166667
26598 51 -0.166667
26605 52 -0.142857
26611 53 -0.166667
26618 54 -0.142857
26625 55 -0.142857
26631 56 -0.166667
26638 57 -0.142857
26645 58 -0.142857
26652 59 -0.142857
26659 60 -0.142857
26666 61 -0.142857
26674 62 -0.125
26681 63 -0.142857
26689 64 -0.125
26696 65 -0.142857
26704 66 -0.125
26712 67 -0.125
26720 68 -0.125
26728 69 -0.125
26736 70 -0.125
26745 71 -0.111111
26754 72 -0.111111
26762 73 -0.125
26772 74 -0.1
26781 75 -0.111111
26791 76 -0.1
26800 77 -0.111111
26811 78 -0.0909091
26821 79 -0.1
26832 80 -0.0909091
26844 81 -0.0833333
26856 82 -0.0833333
26869 83 -0.0769231
26882 84 -0.0769231
26897 85 -0.0666667
26912 86 -0.0666667
26930 87 -0.0555556
26949 88 -0.0526316
26972 89 -0.0434783
27001 90 -0.0344828
27052 91 -0.0196078
27127 90 0.0133333
27167 89 0.025
27193 88 0.0384615
27215 87 0.0454545
27233 86 0.0555556
27250 85 0.0588235
27265 84 0.0666667
27279 83 0.0714286
27292 82 0.0769231
27305 81 0.0769231
27317 80 0.0833333
27328 79 0.0909091
27339 78 0.0909091
27350 77 0.0909091
27360 76 0.1
27369 75 0.111111
27379 74 0.1
27388 73 0.111111
27397 72 0.111111
27406 71 0.111111
27415 70 0.111111
27423 69 0.125
27431 68 0.125
27439 67 0.125
27447 66 0.125
27455 65 0.125
27463 64 0.125
27470 63 0.142857
27478 62 0.125
27485 61 0.142857
27493 60 0.125
27499 59 0.166667
27506 58 0.142857
27513 57 0.142857
27520 56 0.142857
27527 55 0.142857
27534 54 0.142857
27540 53 0.166667
27547 52 0.142857
27553 51 0.166667
27560 50 0.142857
27566 49 0.166667
27573 48 0.142857
27579 47 0.166667
27585 46 0.166667
27591 45 0.166667
27597 44 0.166667
27603 43 0.166667
27609 42 0.166667
27615 41 0.166667
27621 40 0.166667
27627 39 0.166667
27633 38 0.166667
27639 37 0.166667
27645 36 0.166667
27651 35 0.166667
27656 34 0.2
27662 33 0.166667
27668 32 0.166667
27673 31 0.2
27679 30 0.166667
27685 29 0.166667
27690 28 0.2
27696 27 0.166667
27701 26 0.2
27707 25 0.166667
27712 24 0.2
27718 23 0.166667
27723 22 0.2
27729 21 0.166667
27734 20 0.2
27739 19 0.2
27745 18 0.166667
27750 17 0.2
27755 16 0.2
27761 15 0.166667
27766 14 0.2
27771 13 0.2
27777 12 0.166667
27782 11 0.2
27787 10 0.2
27792 9 0.2
27798 8 0.166667
27803 7 0.2
27808 6 0.2
27813 5 0.2
27819 4 0.166667
27824 3 0.2
27829 2 0.2
27834 1 0.2
27838 0 0.25
27839 -1 1
27845 -2 0.166667
27850 -3 0.2
27855 -4 0.2
27860 -5 0.2
27865 -6 0.2
27871 -7 0.166667
27876 -8 0.2
27881 -9 0.2
27886 -10 0.2
27891 -11 0.2
27897 -12 0.166667
27902 -13 0.2
27907 -14 0.2
27912 -15 0.2
27917 -16 0.2
27923 -17 0.166667
27928 -18 0.2
27933 -19 0.2
27938 -20 0.2
27944 -21 0.166667
27949 -22 0.2
27954 -23 0.2
27959 -24 0.2
27965 -25 0.166667
27970 -26 0.2
27975 -27 0.2
27980 -28 0.2
27986 -29 0.166667
27991 -30 0.2
27996 -31 0.2
28002 -32 0.166667
28029 -33 0.037037
28034 -34 0.2
28040 -35 0.166667
28045 -36 0.2
28051 -37 0.166667
28056 -38 0.2
28062 -39 0.166667
28068 -40 0.166667
28073 -41 0.2
28079 -42 0.166667
28085 -43 0.166667
28090 -44 0.2
28096 -45 0.166667
28102 -46 0.166667
28108 -47 0.166667
28114 -48 0.166667
28119 -49 0.2
28125 -50 0.166667
28131 -51 0.166667
28137 -52 0.166667
28143 -53 0.166667
28150 -54 0.142857
28156 -55 0.166667
28162 -56 0.166667
28168 -57 0.166667
28175 -58 0.142857
28181 -59 0.166667
28187 -60 0.166667
28194 -61 0.142857
28200 -62 0.166667
28207 -63 0.142857
28214 -64 0.142857
28220 -65 0.166667
28227 -66 0.142857
28234 -67 0.142857
28241 -68 0.142857
28248 -69 0.142857
28255 -70 0.142857
28263 -71 0.125
28270 -72 0.142857
28278 -73 0.125
28285 -74 0.142857
28293 -75 0.125
28301 -76 0.125
28309 -77 0.125
28317 -78 0.125
28326 -79 0.111111
28334 -80 0.125
28343 -81 0.111111
28352 -82 0.111111
28361 -83 0.111111
28371 -84 0.1
28381 -85 0.1
28391 -86 0.1
28401 -87 0.1
28412 -88 0.0909091
28423 -89 0.0909091
28435 -90 0.0833333
28447 -91 0.0833333
28461 -92 0.0714286
28475 -93 0.0714286
28490 -94 0.0666667
28506 -95 0.0625
28525 -96 0.0526316
28546 -97 0.047619
28573 -98 0.037037
28612 -99 0.025641
28723 -98 -0.00900901
28756 -97 -0.030303
28781 -96 -0.04
28801 -95 -0.05
28819 -94 -0.0555556
28835 -93 -0.0625
28850 -92 -0.0666667
28864 -91 -0.0714286
28877 -90 -0.0769231
28889 -89 -0.0833333
28901 -88 -0.0833333
28912 -87 -0.0909091
28923 -86 -0.0909091
28933 -85 -0.1
28943 -84 -0.1
28953 -83 -0.1
28962 -82 -0.111111
28971 -81 -0.111111
28980 -80 -0.111111
28989 -79 -0.111111
28997 -78 -0.125
29006 -77 -0.111111
29037 -76 -0.0322581
29045 -75 -0.125
29053 -74 -0.125
29060 -73 -0.142857
29067 -72 -0.142857
29074 -71 -0.142857
29081 -70 -0.142857
29088 -69 -0.142857
29095 -68 -0.142857
29102 -67 -0.142857
29109 -66 -0.142857
29116 -65 -0.142857
29122 -64 -0.166667
29129 -63 -0.142857
29135 -62 -0.166667
29142 -61 -0.142857
29148 -60 -0.166667
29154 -59 -0.166667
29161 -58 -0.142857
29167 -57 -0.166667
29173 -56 -0.166667
29179 -55 -0.166667
29185 -54 -0.166667
29191 -53 -0.166667
29197 -52 -0.166667
29203 -51 -0.166667
29209 -50 -0.166667
29215 -49 -0.166667
29221 -48 -0.166667
29226 -47 -0.2
29232 -46 -0.166667
29238 -45 -0.166667
29244 -44 -0.166667
29249 -43 -0.2
29255 -42 -0.166667
29261 -41 -0.166667
29266 -40 -0.2
29272 -39 -0.166667
29277 -38 -0.2
29283 -37 -0.166667
29288 -36 -0.2
29294 -35 -0.166667
29299 -34 -0.2
29305 -33 -0.166667
29310 -32 -0.2
29316 -31 -0.166667
29321 -30 -0.2
29326 -29 -0.2
29332 -28 -0.166667
29337 -27 -0.2
29342 -26 -0.2
29348 -25 -0.166667
29353 -24 -0.2
29358 -23 -0.2
29364 -22 -0.166667
29369 -21 -0.2
29374 -20 -0.2
29379 -19 -0.2
29385 -18 -0.166667
29390 -17 -0.2
29395 -16 -0.2
29401 -15 -0.166667
29406 -14 -0.2
29411 -13 -0.2
29416 -12 -0.2
29421 -11 -0.2
29427 -10 -0.166667
29432 -9 -0.2
29437 -8 -0.2
29442 -7 -0.2
29448 -6 -0.166667
29453 -5 -0.2
29458 -4 -0.2
29463 -3 -0.2
29468 -2 -0.2
29474 -1 -0.166667
29479 0 -0.2
29484 1 -0.2
29490 2 -0.166667
29495 3 -0.2
29500 4 -0.2
29505 5 -0.2
29510 6 -0.2
29516 7 -0.166667
29521 8 -0.2
29526 9 -0.2
29531 10 -0.2
29537 11 -0.166667
29542 12 -0.2
29547 13 -0.2
29553 14 -0.166667
29558 15 -0.2
29563 16 -0.2
29569 17 -0.166667
29574 18 -0.2
29579 19 -0.2
29585 20 -0.166667
29590 21 -0.2
29596 22 -0.166667
29601 23 -0.2
29607 24 -0.166667
29612 25 -0.2
29618 26 -0.166667
29623 27 -0.2
29629 28 -0.166667
29634 29 -0.2
29640 30 -0.166667
29645 31 -0.2
29651 32 -0.166667
29657 33 -0.166667
29662 34 -0.2
29668 35 -0.166667
29674 36 -0.166667
29680 37 -0.166667
29686 38 -0.166667
29692 39 -0.166667
29697 40 -0.2
29703 41 -0.166667
29709 42 -0.166667
29715 43 -0.166667
29721 44 -0.166667
29728 45 -0.142857
29734 46 -0.166667
29740 47 -0.166667
29746 48 -0.166667
29753 49 -0.142857
29759 50 -0.166667
29765 51 -0.166667
29772 52 -0.142857
29778 53 -0.166667
29785 54 -0.142857
29792 55 -0.142857
29798 56 -0.166667
29805 57 -0.142857
29812 58 -0.142857
29819 59 -0.142857
29826 60 -0.142857
29833 61 -0.142857
29841 62 -0.125
29848 63 -0.142857
29856 64 -0.125
29863 65 -0.142857
29871 66 -0.125
29879 67 -0.125
29887 68 -0.125
29895 69 -0.125
29903 70 -0.125
29912 71 -0.111111
29921 72 -0.111111
29930 73 -0.111111
29939 74 -0.111111
29948 75 -0.111111
29958 76 -0.1
29968 77 -0.1
29978 78 -0.1
29989 79 -0.0909091
30000 80 -0.0909091
30011 81 -0.0909091
30036 82 -0.04
30050 83 -0.0714286
30064 84 -0.0714286
30080 85 -0.0625
30097 86 -0.0588235
30117 87 -0.05
30140 88 -0.0434783
30170 89 -0.0333333
30226 90 -0.0178571
30290 89 0.015625
30331 88 0.0243902
30358 87 0.037037
30380 86 0.0454545
30399 85 0.0526316
30415 84 0.0625
30431 83 0.0625
30445 82 0.0714286
30458 81 0.0769231
30471 80 0.0769231
30483 79 0.0833333
30494 78 0.0909091
30505 77 0.0909091
30515 76 0.1
30526 75 0.0909091
30535 74 0.111111
30545 73 0.1
30554 72 0.111111
30563 71 0.111111
30572 70 0.111111
30581 69 0.111111
30589 68 0.125
30597 67 0.125
30606 66 0.111111
30613 65 0.142857
30621 64 0.125
30629 63 0.125
30636 62 0.142857
30644 61 0.125
30651 60 0.142857
30658 59 0.142857
30666 58 0.125
30673 57 0.142857
30680 56 0.142857
30686 55 0.166667
30693 54 0.142857
30700 53 0.142857
30707 52 0.142857
30713 51 0.166667
30720 50 0.142857
30726 49 0.166667
30732 48 0.166667
30739 47 0.142857
30745 46 0.166667
30751 45 0.166667
30758 44 0.142857
30764 43 0.166667
30770 42 0.166667
30776 41 0.166667
30782 40 0.166667
30788 39 0.166667
30794 38 0.166667
30799 37 0.2
30805 36 0.166667
30811 35 0.166667
30817 34 0.166667
30823 33 0.166667
30828 32 0.2
30834 31 0.166667
30840 30 0.166667
30845 29 0.2
30851 28 0.166667
30856 27 0.2
30862 26 0.166667
30868 25 0.166667
30873 24 0.2
30878 23 0.2
30884 22 0.166667
30889 21 0.2
30895 20 0.166667
30900 19 0.2
30906 18 0.166667
30911 17 0.2
30916 16 0.2
30922 15 0.166667
30927 14 0.2
30932 13 0.2
30938 12 0.166667
30943 11 0.2
30948 10 0.2
30953 9 0.2
30959 8 0.166667
30964 7 0.2
30969 6 0.2
30974 5 0.2
30980 4 0.166667
30985 3 0.2
30990 2 0.2
30995 1 0.2
31001 0 0.166667
31006 -1 0.2
31011 -2 0.2
31016 -3 0.2
31042 -4 0.0384615
31047 -5 0.2
31052 -6 0.2
31058 -7 0.166667
31063 -8 0.2
31068 -9 0.2
31073 -10 0.2
31078 -11 0.2
31084 -12 0.166667
31089 -13 0.2
31094 -14 0.2
31099 -15 0.2
31105 -16 0.166667
31110 -17 0.2
31115 -18 0.2
31120 -19 0.2
31126 -20 0.166667
31131 -21 0.2
31136 -22 0.2
31141 -23 0.2
31147 -24 0.166667
31152 -25 0.2
31157 -26 0.2
31163 -27 0.166667
31168 -28 0.2
31173 -29 0.2
31179 -30 0.166667
31184 -31 0.2
31190 -32 0.166667
31195 -33 0.2
31201 -34 0.166667
31206 -35 0.2
31212 -36 0.166667
31217 -37 0.2
31223 -38 0.166667
31228 -39 0.2
31234 -40 0.166667
31240 -41 0.166667
31245 -42 0.2
31251 -43 0.166667
31257 -44 0.166667
31262 -45 0.2
31268 -46 0.166667
31274 -47 0.166667
31280 -48 0.166667
31286 -49 0.166667
31292 -50 0.166667
31298 -51 0.166667
31304 -52 0.166667
31310 -53 0.166667
31316 -54 0.166667
31322 -55 0.166667
31328 -56 0.166667
31335 -57 0.142857
31341 -58 0.166667
31347 -59 0.166667
31354 -60 0.142857
31360 -61 0.166667
31367 -62 0.142857
31373 -63 0.166667
31380 -64 0.142857
31387 -65 0.142857
31394 -66 0.142857
31400 -67 0.166667
31407 -68 0.142857
31415 -69 0.125
31422 -70 0.142857
31429 -71 0.142857
31436 -72 0.142857
31444 -73 0.125
31452 -74 0.125
31459 -75 0.142857
31467 -76 0.125
31475 -77 0.125
31484 -78 0.111111
31492 -79 0.125
31501 -80 0.111111
31509 -81 0.125
31518 -82 0.111111
31527 -83 0.111111
31537 -84 0.1
31547 -85 0.1
31557 -86 0.1
31567 -87 0.1
31578 -88 0.0909091
31589 -89 0.0909091
31601 -90 0.0833333
31614 -91 0.0769231
31627 -92 0.0769231
31641 -93 0.0714286
31656 -94 0.0666667
31672 -95 0.0625
31691 -96 0.0526316
31712 -97 0.047619
31738 -98 0.0384615
31777 -99 0.025641
31890 -98 -0.00884956
31923 -97 -0.030303
31948 -96 -0.04
31968 -95 -0.05
31986 -94 -0.0555556
32002 -93 -0.0625
32017 -92 -0.0666667
32043 -91 -0.0384615
32055 -90 -0.0833333
32067 -89 -0.0833333
32078 -88 -0.0909091
32089 -87 -0.0909091
32099 -86 -0.1
32109 -85 -0.1
32119 -84 -0.1
32128 -83 -0.111111
32137 -82 -0.111111
32146 -81 -0.111111
32155 -80 -0.111111
32163 -79 -0.125
32172 -78 -0.111111
32180 -77 -0.125
32188 -76 -0.125
32196 -75 -0.125
32204 -74 -0.125
32211 -73 -0.142857
32219 -72 -0.125
32226 -71 -0.142857
32233 -70 -0.142857
32240 -69 -0.142857
32247 -68 -0.142857
32254 -67 -0.142857
32261 -66 -0.142857
32268 -65 -0.142857
32275 -64 -0.142857
32282 -63 -0.142857
32288 -62 -0.166667
32295 -61 -0.142857
32301 -60 -0.166667
32308 -59 -0.142857
32314 -58 -0.166667
32320 -57 -0.166667
32326 -56 -0.166667
32333 -55 -0.142857
32339 -54 -0.166667
32345 -53 -0.166667
32351 -52 -0.166667
32357 -51 -0.166667
32363 -50 -0.166667
32369 -49 -0.166667
32375 -48 -0.166667
32381 -47 -0.166667
32386 -46 -0.2
32392 -45 -0.166667
32398 -44 -0.166667
32404 -43 -0.166667
32409 -42 -0.2
32415 -41 -0.166667
32421 -40 -0.166667
32426 -39 -0.2
32432 -38 -0.166667
32437 -37 -0.2
32443 -36 -0.166667
32449 -35 -0.166667
32454 -34 -0.2
32459 -33 -0.2
32465 -32 -0.166667
32470 -31 -0.2
32476 -30 -0.166667
32481 -29 -0.2
32487 -28 -0.166667
32492 -27 -0.2
32497 -26 -0.2
32503 -25 -0.166667
32508 -24 -0.2
32513 -23 -0.2
32519 -22 -0.166667
32524 -21 -0.2
32529 -20 -0.2
32535 -19 -0.166667
32540 -18 -0.2
32545 -17 -0.2
32550 -16 -0.2
32556 -15 -0.166667
32561 -14 -0.2
32566 -13 -0.2
32571 -12 -0.2
32577 -11 -0.166667
32582 -10 -0.2
32587 -9 -0.2
32592 -8 -0.2
32597 -7 -0.2
32603 -6 -0.166667
32608 -5 -0.2
32613 -4 -0.2
32618 -3 -0.2
32623 -2 -0.2
32629 -1 -0.166667
32634 0 -0.2
32639 1 -0.2
32644 2 -0.2
32648 0 0.5
32650 1 -0.5
32655 2 -0.2
32660 3 -0.2
32665 4 -0.2
32670 5 -0.2
32676 6 -0.166667
32681 7 -0.2
32686 8 -0.2
32691 9 -0.2
32697 10 -0.166667
32702 11 -0.2
32707 12 -0.2
32713 13 -0.166667
32718 14 -0.2
32723 15 -0.2
32729 16 -0.166667
32734 17 -0.2
32739 18 -0.2
32745 19 -0.166667
32750 20 -0.2
32755 21 -0.2
32761 22 -0.166667
32766 23 -0.2
32772 24 -0.166667
32777 25 -0.2
32783 26 -0.166667
32788 27 -0.2
32794 28 -0.166667
32799 29 -0.2
32805 30 -0.166667
32811 31 -0.166667
32816 32 -0.2
32822 33 -0.166667
32828 34 -0.166667
32833 35 -0.2
32839 36 -0.166667
32845 37 -0.166667
32851 38 -0.166667
32857 39 -0.166667
32863 40 -0.166667
32868 41 -0.2
32874 42 -0.166667
32880 43 -0.166667
32886 44 -0.166667
32893 45 -0.142857
32899 46 -0.166667
32905 47 -0.166667
32911 48 -0.166667
32917 49 -0.166667
32924 50 -0.142857
32930 51 -0.166667
32937 52 -0.142857
32943 53 -0.166667
32950 54 -0.142857
32956 55 -0.166667
32963 56 -0.142857
32970 57 -0.142857
32977 58 -0.142857
32984 59 -0.142857
32991 60 -0.142857
32998 61 -0.142857
33005 62 -0.142857
33012 63 -0.142857
33020 64 -0.125
33051 65 -0.0322581
33059 66 -0.125
33067 67 -0.125
33076 68 -0.111111
33084 69 -0.125
33093 70 -0.111111
33102 71 -0.111111
33112 72 -0.1
33121 73 -0.111111
33131 74 -0.1
33141 75 -0.1
33152 76 -0.0909091
33163 77 -0.0909091
33174 78 -0.0909091
33186 79 -0.0833333
33199 80 -0.0769231
33212 81 -0.0769231
33226 82 -0.0714286
33241 83 -0.0666667
33259 84 -0.0555556
33277 85 -0.0555556
33299 86 -0.0454545
33326 87 -0.037037
33366 88 -0.025
33472 87 0.00943396
33506 86 0.0294118
33531 85 0.04
33552 84 0.047619
33570 83 0.0555556
33586 82 0.0625
33601 81 0.0666667
33615 80 0.0714286
33628 79 0.0769231
33640 78 0.0833333
33652 77 0.0833333
33663 76 0.0909091
33674 75 0.0909091
33685 74 0.0909091
33695 73 0.1
33704 72 0.111111
33714 71 0.1
33723 70 0.111111
33732 69 0.111111
33741 68 0.111111
33749 67 0.125
33758 66 0.111111
33766 65 0.125
33774 64 0.125
33782 63 0.125
33790 62 0.125
33797 61 0.142857
33805 60 0.125
33812 59 0.142857
33819 58 0.142857
33827 57 0.125
33834 56 0.142857
33841 55 0.142857
33848 54 0.142857
33854 53 0.166667
33861 52 0.142857
33868 51 0.142857
33874 50 0.166667
33881 49 0.142857
33887 48 0.166667
33894 47 0.142857
33900 46 0.166667
33907 45 0.142857
33913 44 0.166667
33919 43 0.166667
33925 42 0.166667
33931 41 0.166667
33937 40 0.166667
33943 39 0.166667
33949 38 0.166667
33955 37 0.166667
33961 36 0.166667
33967 35 0.166667
33973 34 0.166667
33979 33 0.166667
33984 32 0.2
33990 31 0.166667
33996 30 0.166667
34001 29 0.2
34007 28 0.166667
34013 27 0.166667
34018 26 0.2
34024 25 0.166667
34051 24 0.037037
34057 23 0.166667
34062 22 0.2
34068 21 0.166667
34073 20 0.2
34078 19 0.2
34084 18 0.166667
34089 17 0.2
34094 16 0.2
34100 15 0.166667
34105 14 0.2
34110 13 0.2
34115 12 0.2
34121 11 0.166667
34126 10 0.2
34131 9 0.2
34136 8 0.2
34142 7 0.166667
34147 6 0.2
34152 5 0.2
34157 4 0.2
34163 3 0.166667
34168 2 0.2
34172 0 0.5
34173 -1 1
34178 -2 0.2
34183 -3 0.2
34189 -4 0.166667
34194 -5 0.2
34199 -6 0.2
34204 -7 0.2
34209 -8 0.2
34214 -9 0.2
34220 -10 0.166667
34225 -11 0.2
34230 -12 0.2
34235 -13 0.2
34240 -14 0.2
34246 -15 0.166667
34251 -16 0.2
34256 -17 0.2
34261 -18 0.2
34266 -19 0.2
34272 -20 0.166667
34277 -21 0.2
34282 -22 0.2
34287 -23 0.2
34293 -24 0.166667
34298 -25 0.2
34303 -26 0.2
34308 -27 0.2
34314 -28 0.166667
34319 -29 0.2
34324 -30 0.2
34330 -31 0.166667
34335 -32 0.2
34341 -33 0.166667
34346 -34 0.2
34351 -35 0.2
34357 -36 0.166667
34362 -37 0.2
34368 -38 0.166667
34373 -39 0.2
34379 -40 0.166667
34384 -41 0.2
34390 -42 0.166667
34395 -43 0.2
34401 -44 0.166667
34407 -45 0.166667
34412 -46 0.2
34418 -47 0.166667
34424 -48 0.166667
34429 -49 0.2
34435 -50 0.166667
34441 -51 0.166667
34447 -52 0.166667
34453 -53 0.166667
34459 -54 0.166667
34465 -55 0.166667
34471 -56 0.166667
34477 -57 0.166667
34483 -58 0.166667
34489 -59 0.166667
34495 -60 0.166667
34501 -61 0.166667
34508 -62 0.142857
34514 -63 0.166667
34521 -64 0.142857
34527 -65 0.166667
34534 -66 0.142857
34540 -67 0.166667
34547 -68 0.142857
34554 -69 0.142857
34560 -70 0.166667
34567 -71 0.142857
34574 -72 0.142857
34581 -73 0.142857
34589 -74 0.125
34596 -75 0.142857
34603 -76 0.142857
34611 -77 0.125
34619 -78 0.125
34626 -79 0.142857
34634 -80 0.125
34642 -81 0.125
34650 -82 0.125
34659 -83 0.111111
34667 -84 0.125
34676 -85 0.111111
34685 -86 0.111111
34694 -87 0.111111
34704 -88 0.1
34714 -89 0.1
34724 -90 0.1
34734 -91 0.1
34745 -92 0.0909091
34756 -93 0.0909091
34768 -94 0.0833333
34780 -95 0.0833333
34794 -96 0.0714286
34808 -97 0.0714286
34823 -98 0.0666667
34839 -99 0.0625
34858 -100 0.0526316
34879 -101 0.047619
34906 -102 0.037037
34944 -103 0.0263158
35056 -102 -0.00892857
35090 -101 -0.0294118
35114 -100 -0.0416667
35135 -99 -0.047619
35152 -98 -0.0588235
35168 -97 -0.0625
35183 -96 -0.0666667
35197 -95 -0.0714286
35210 -94 -0.0769231
35222 -93 -0.0833333
35234 -92 -0.0833333
35245 -91 -0.0909091
35256 -90 -0.0909091
35266 -89 -0.1
35276 -88 -0.1
35286 -87 -0.1
35295 -86 -0.111111
35304 -85 -0.111111
35313 -84 -0.111111
35322 -83 -0.111111
35330 -82 -0.125
35339 -81 -0.111111
35347 -80 -0.125
35355 -79 -0.125
35363 -78 -0.125
35370 -77 -0.142857
35378 -76 -0.125
35385 -75 -0.142857
35393 -74 -0.125
35400 -73 -0.142857
35407 -72 -0.142857
35414 -71 -0.142857
35421 -70 -0.142857
35428 -69 -0.142857
35435 -68 -0.142857
35442 -67 -0.142857
35448 -66 -0.166667
35455 -65 -0.142857
35462 -64 -0.142857
35468 -63 -0.166667
35474 -62 -0.166667
35481 -61 -0.142857
35487 -60 -0.166667
35493 -59 -0.166667
35500 -58 -0.142857
35506 -57 -0.166667
35512 -56 -0.166667
35518 -55 -0.166667
35524 -54 -0.166667
35530 -53 -0.166667
35536 -52 -0.166667
35542 -51 -0.166667
35548 -50 -0.166667
35553 -49 -0.2
35559 -48 -0.166667
35565 -47 -0.166667
35571 -46 -0.166667
35576 -45 -0.2
35582 -44 -0.166667
35588 -43 -0.166667
35593 -42 -0.2
35599 -41 -0.166667
35604 -40 -0.2
35610 -39 -0.166667
35616 -38 -0.166667
35621 -37 -0.2
35626 -36 -0.2
35632 -35 -0.166667
35637 -34 -0.2
35643 -33 -0.166667
35648 -32 -0.2
35654 -31 -0.166667
35659 -30 -0.2
35664 -29 -0.2
35670 -28 -0.166667
35675 -27 -0.2
35680 -26 -0.2
35686 -25 -0.166667
35691 -24 -0.2
35696 -23 -0.2
35702 -22 -0.166667
35707 -21 -0.2
35712 -20 -0.2
35717 -19 -0.2
35723 -18 -0.166667
35728 -17 -0.2
35733 -16 -0.2
35738 -15 -0.2
35744 -14 -0.166667
35749 -13 -0.2
35754 -12 -0.2
35759 -11 -0.2
35765 -10 -0.166667
35770 -9 -0.2
35775 -8 -0.2
35780 -7 -0.2
35785 -6 -0.2
35791 -5 -0.166667
35796 -4 -0.2
35801 -3 -0.2
35806 -2 -0.2
35811 -1 -0.2
35815 0 -0.25
35817 1 -0.5
35822 2 -0.2
35827 3 -0.2
35832 4 -0.2
35838 5 -0.166667
35843 6 -0.2
35848 7 -0.2
35853 8 -0.2
35859 9 -0.166667
35864 10 -0.2
35869 11 -0.2
35874 12 -0.2
35880 13 -0.166667
35885 14 -0.2
35890 15 -0.2
35896 16 -0.166667
35901 17 -0.2
35906 18 -0.2
35912 19 -0.166667
35917 20 -0.2
35923 21 -0.166667
35928 22 -0.2
35934 23 -0.166667
35939 24 -0.2
35944 25 -0.2
35950 26 -0.166667
35955 27 -0.2
35961 28 -0.166667
35967 29 -0.166667
35972 30 -0.2
35978 31 -0.166667
35983 32 -0.2
35989 33 -0.166667
35995 34 -0.166667
36001 35 -0.166667
36006 36 -0.2
36012 37 -0.166667
36018 38 -0.166667
36024 39 -0.166667
36030 40 -0.166667
36036 41 -0.166667
36042 42 -0.166667
36048 43 -0.166667
36054 44 -0.166667
36060 45 -0.166667
36091 46 -0.0322581
36097 47 -0.166667
36104 48 -0.142857
36110 49 -0.166667
36117 50 -0.142857
36124 51 -0.142857
36130 52 -0.166667
36137 53 -0.142857
36144 54 -0.142857
36151 55 -0.142857
36158 56 -0.142857
36165 57 -0.142857
36172 58 -0.142857
36180 59 -0.125
36187 60 -0.142857
36195 61 -0.125
36203 62 -0.125
36210 63 -0.142857
36218 64 -0.125
36226 65 -0.125
36235 66 -0.111111
36243 67 -0.125
36252 68 -0.111111
36261 69 -0.111111
36270 70 -0.111111
36279 71 -0.111111
36289 72 -0.1
36299 73 -0.1
36309 74 -0.1
36319 75 -0.1
36330 76 -0.0909091
36342 77 -0.0833333
36354 78 -0.0833333
36366 79 -0.0833333
36379 80 -0.0769231
36394 81 -0.0666667
36409 82 -0.0666667
36426 83 -0.0588235
36445 84 -0.0526316
36467 85 -0.0454545
36494 86 -0.037037
36537 87 -0.0232558
36636 86 0.010101
36672 85 0.0277778
36697 84 0.04
36718 83 0.047619
36736 82 0.0555556
36752 81 0.0625
36767 80 0.0666667
36781 79 0.0714286
36794 78 0.0769231
36807 77 0.0769231
36818 76 0.0909091
36830 75 0.0833333
36840 74 0.1
36851 73 0.0909091
36861 72 0.1
36871 71 0.1
36880 70 0.111111
36890 69 0.1
36898 68 0.125
36907 67 0.111111
36916 66 0.111111
36924 65 0.125
36932 64 0.125
36940 63 0.125
36948 62 0.125
36956 61 0.125
36964 60 0.125
36971 59 0.142857
36978 58 0.142857
36986 57 0.125
36993 56 0.142857
37000 55 0.142857
37007 54 0.142857
37014 53 0.142857
37021 52 0.142857
37028 51 0.142857
37034 50 0.166667
37041 49 0.142857
37047 48 0.166667
37054 47 0.142857
37060 46 0.166667
37067 45 0.142857
37098 44 0.0322581
37104 43 0.166667
37110 42 0.166667
37116 41 0.166667
37122 40 0.166667
37128 39 0.166667
37133 38 0.2
37139 37 0.166667
37145 36 0.166667
37151 35 0.166667
37156 34 0.2
37162 33 0.166667
37168 32 0.166667
37174 31 0.166667
37179 30 0.2
37185 29 0.166667
37190 28 0.2
37196 27 0.166667
37201 26 0.2
37207 25 0.166667
37212 24 0.2
37218 23 0.166667
37223 22 0.2
37229 21 0.166667
37234 20 0.2
37239 19 0.2
37245 18 0.166667
37250 17 0.2
37255 16 0.2
37261 15 0.166667
37266 14 0.2
37271 13 0.2
37277 12 0.166667
37282 11 0.2
37287 10 0.2
37292 9 0.2
37298 8 0.166667
37303 7 0.2
37308 6 0.2
37313 5 0.2
37319 4 0.166667
37324 3 0.2
37329 2 0.2
37334 1 0.2
37338 0 0.25
37339 -1 1
37344 -2 0.2
37350 -3 0.166667
37355 -4 0.2
37360 -5 0.2
37365 -6 0.2
37370 -7 0.2
37376 -8 0.166667
37381 -9 0.2
37386 -10 0.2
37391 -11 0.2
37396 -12 0.2
37401 -13 0.2
37407 -14 0.166667
37412 -15 0.2
37417 -16 0.2
37422 -17 0.2
37428 -18 0.166667
37433 -19 0.2
37438 -20 0.2
37443 -21 0.2
37448 -22 0.2
37454 -23 0.166667
37459 -24 0.2
37464 -25 0.2
37469 -26 0.2
37475 -27 0.166667
37480 -28 0.2
37485 -29 0.2
37491 -30 0.166667
37496 -31 0.2
37501 -32 0.2
37507 -33 0.166667
37512 -34 0.2
37518 -35 0.166667
37523 -36 0.2
37528 -37 0.2
37534 -38 0.166667
37539 -39 0.2
37545 -40 0.166667
37550 -41 0.2
37556 -42 0.166667
37562 -43 0.166667
37567 -44 0.2
37573 -45 0.166667
37578 -46 0.2
37584 -47 0.166667
37590 -48 0.166667
37596 -49 0.166667
37601 -50 0.2
37607 -51 0.166667
37613 -52 0.166667
37619 -53 0.166667
37625 -54 0.166667
37631 -55 0.166667
37637 -56 0.166667
37643 -57 0.166667
37649 -58 0.166667
37655 -59 0.166667
37661 -60 0.166667
37667 -61 0.166667
37674 -62 0.142857
37680 -63 0.166667
37687 -64 0.142857
37693 -65 0.166667
37700 -66 0.142857
37706 -67 0.166667
37713 -68 0.142857
37720 -69 0.142857
37726 -70 0.166667
37733 -71 0.142857
37740 -72 0.142857
37747 -73 0.142857
37754 -74 0.142857
37762 -75 0.125
37769 -76 0.142857
37777 -77 0.125
37784 -78 0.142857
37792 -79 0.125
37800 -80 0.125
37808 -81 0.125
37816 -82 0.125
37824 -83 0.125
37833 -84 0.111111
37842 -85 0.111111
37851 -86 0.111111
37860 -87 0.111111
37869 -88 0.111111
37879 -89 0.1
37889 -90 0.1
37899 -91 0.1
37910 -92 0.0909091
37921 -93 0.0909091
37933 -94 0.0833333
37945 -95 0.0833333
37958 -96 0.0769231
37972 -97 0.0714286
37987 -98 0.0666667
38003 -99 0.0625
38022 -100 0.0526316
38042 -101 0.05
38068 -102 0.0384615
38103 -103 0.0285714
38230 -102 -0.00787402
38261 -101 -0.0322581
38284 -100 -0.0434783
38304 -99 -0.05
38322 -98 -0.0555556
38338 -97 -0.0625
38352 -96 -0.0714286
38366 -95 -0.0714286
38379 -94 -0.0769231
38391 -93 -0.0833333
38402 -92 -0.0909091
38413 -91 -0.0909091
38424 -90 -0.0909091
38434 -89 -0.1
38444 -88 -0.1
38454 -87 -0.1
38463 -86 -0.111111
38472 -85 -0.111111
38481 -84 -0.111111
38490 -83 -0.111111
38498 -82 -0.125
38507 -81 -0.111111
38515 -80 -0.125
38523 -79 -0.125
38531 -78 -0.125
38538 -77 -0.142857
38546 -76 -0.125
38553 -75 -0.142857
38561 -74 -0.125
38568 -73 -0.142857
38575 -72 -0.142857
38582 -71 -0.142857
38589 -70 -0.142857
38596 -69 -0.142857
38603 -68 -0.142857
38609 -67 -0.166667
38616 -66 -0.142857
38623 -65 -0.142857
38629 -64 -0.166667
38636 -63 -0.142857
38642 -62 -0.166667
38648 -61 -0.166667
38655 -60 -0.142857
38661 -59 -0.166667
38667 -58 -0.166667
38673 -57 -0.166667
38679 -56 -0.166667
38685 -55 -0.166667
38691 -54 -0.166667
38697 -53 -0.166667
38703 -52 -0.166667
38709 -51 -0.166667
38715 -50 -0.166667
38721 -49 -0.166667
38727 -48 -0.166667
38732 -47 -0.2
38738 -46 -0.166667
38744 -45 -0.166667
38749 -44 -0.2
38755 -43 -0.166667
38761 -42 -0.166667
38766 -41 -0.2
38772 -40 -0.166667
38777 -39 -0.2
38783 -38 -0.166667
38788 -37 -0.2
38794 -36 -0.166667
38799 -35 -0.2
38805 -34 -0.166667
38810 -33 -0.2
38816 -32 -0.166667
38821 -31 -0.2
38826 -30 -0.2
38832 -29 -0.166667
38837 -28 -0.2
38842 -27 -0.2
38848 -26 -0.166667
38853 -25 -0.2
38858 -24 -0.2
38864 -23 -0.166667
38869 -22 -0.2
38874 -21 -0.2
38879 -20 -0.2
38885 -19 -0.166667
38890 -18 -0.2
38895 -17 -0.2
38900 -16 -0.2
38906 -15 -0.166667
38911 -14 -0.2
38916 -13 -0.2
38921 -12 -0.2
38926 -11 -0.2
38932 -10 -0.166667
38937 -9 -0.2
38942 -8 -0.2
38947 -7 -0.2
38952 -6 -0.2
38958 -5 -0.166667
38963 -4 -0.2
38968 -3 -0.2
38973 -2 -0.2
38979 -1 -0.166667
38982 0 -0.333333
38984 1 -0.5
38989 2 -0.2
38994 3 -0.2
38999 4 -0.2
39005 5 -0.166667
39010 6 -0.2
39015 7 -0.2
39020 8 -0.2
39026 9 -0.166667
39031 10 -0.2
39036 11 -0.2
39041 12 -0.2
39047 13 -0.166667
39052 14 -0.2
39057 15 -0.2
39063 16 -0.166667
39068 17 -0.2
39073 18 -0.2
39100 19 -0.037037
39106 20 -0.166667
39111 21 -0.2
39117 22 -0.166667
39122 23 -0.2
39128 24 -0.166667
39134 25 -0.166667
39139 26 -0.2
39145 27 -0.166667
39150 28 -0.2
39156 29 -0.166667
39162 30 -0.166667
39167 31 -0.2
39173 32 -0.166667
39179 33 -0.166667
39185 34 -0.166667
39191 35 -0.166667
39197 36 -0.166667
39202 37 -0.2
39208 38 -0.166667
39214 39 -0.166667
39220 40 -0.166667
39227 41 -0.142857
39233 42 -0.166667
39239 43 -0.166667
39245 44 -0.166667
39251 45 -0.166667
39258 46 -0.142857
39264 47 -0.166667
39271 48 -0.142857
39277 49 -0.166667
39284 50 -0.142857
39290 51 -0.166667
39297 52 -0.142857
39304 53 -0.142857
39311 54 -0.142857
39318 55 -0.142857
39325 56 -0.142857
39332 57 -0.142857
39339 58 -0.142857
39346 59 -0.142857
39354 60 -0.125
39362 61 -0.125
39369 62 -0.142857
39377 63 -0.125
39385 64 -0.125
39393 65 -0.125
39401 66 -0.125
39410 67 -0.111111
39418 68 -0.125
39427 69 -0.111111
39436 70 -0.111111
39446 71 -0.1
39455 72 -0.111111
39465 73 -0.1
39475 74 -0.1
39486 75 -0.0909091
39497 76 -0.0909091
39508 77 -0.0909091
39520 78 -0.0833333
39533 79 -0.0769231
39546 80 -0.0769231
39560 81 -0.0714286
39575 82 -0.0666667
39592 83 -0.0588235
39611 84 -0.0526316
39633 85 -0.0454545
39660 86 -0.037037
39701 87 -0.0243902
39805 86 0.00961538
39840 85 0.0285714
39865 84 0.04
39886 83 0.047619
39904 82 0.0555556
39920 81 0.0625
39935 80 0.0666667
39949 79 0.0714286
39962 78 0.0769231
39974 77 0.0833333
39986 76 0.0833333
39997 75 0.0909091
40008 74 0.0909091
40018 73 0.1
40028 72 0.1
40038 71 0.1
40047 70 0.111111
40057 69 0.1
40065 68 0.125
40074 67 0.111111
40107 66 0.030303
40115 65 0.125
40123 64 0.125
40131 63 0.125
40138 62 0.142857
40145 61 0.142857
40153 60 0.125
40160 59 0.142857
40167 58 0.142857
40174 57 0.142857
40181 56 0.142857
40188 55 0.142857
40194 54 0.166667
40201 53 0.142857
40208 52 0.142857
40214 51 0.166667
40221 50 0.142857
40227 49 0.166667
40234 48 0.142857
40240 47 0.166667
40246 46 0.166667
40252 45 0.166667
40258 44 0.166667
40265 43 0.142857
40271 42 0.166667
40277 41 0.166667
40283 40 0.166667
40289 39 0.166667
40294 38 0.2
40300 37 0.166667
40306 36 0.166667
40312 35 0.166667
40318 34 0.166667
40323 33 0.2
40329 32 0.166667
40335 31 0.166667
40340 30 0.2
40346 29 0.166667
40351 28 0.2
40357 27 0.166667
40363 26 0.166667
40368 25 0.2
40374 24 0.166667
40379 23 0.2
40384 22 0.2
40390 21 0.166667
40395 20 0.2
40401 19 0.166667
40406 18 0.2
40411 17 0.2
40417 16 0.166667
40422 15 0.2
40427 14 0.2
40433 13 0.166667
40438 12 0.2
40443 11 0.2
40449 10 0.166667
40454 9 0.2
40459 8 0.2
40464 7 0.2
40470 6 0.166667
40475 5 0.2
40480 4 0.2
40485 3 0.2
40490 2 0.2
40496 1 0.166667
40501 0 0.2
40506 -1 0.2
40511 -2 0.2
40516 -3 0.2
40522 -4 0.166667
40527 -5 0.2
40532 -6 0.2
40537 -7 0.2
40542 -8 0.2
40547 -9 0.2
40553 -10 0.166667
40558 -11 0.2
40563 -12 0.2
40568 -13 0.2
40573 -14 0.2
40578 -15 0.2
40584 -16 0.166667
40589 -17 0.2
40594 -18 0.2
40599 -19 0.2
40605 -20 0.166667
40610 -21 0.2
40615 -22 0.2
40620 -23 0.2
40625 -24 0.2
40631 -25 0.166667
40636 -26 0.2
40641 -27 0.2
40647 -28 0.166667
40652 -29 0.2
40657 -30 0.2
40663 -31 0.166667
40668 -32 0.2
40673 -33 0.2
40679 -34 0.166667
40684 -35 0.2
40689 -36 0.2
40695 -37 0.166667
40700 -38 0.2
40706 -39 0.166667
40711 -40 0.2
40717 -41 0.166667
40722 -42 0.2
40728 -43 0.166667
40734 -44 0.166667
40739 -45 0.2
40745 -46 0.166667
40751 -47 0.166667
40756 -48 0.2
40762 -49 0.166667
40768 -50 0.166667
40774 -51 0.166667
40779 -52 0.2
40785 -53 0.166667
40791 -54 0.166667
40797 -55 0.166667
40803 -56 0.166667
40809 -57 0.166667
40815 -58 0.166667
40821 -59 0.166667
40828 -60 0.142857
40834 -61 0.166667
40840 -62 0.166667
40846 -63 0.166667
40853 -64 0.142857
40859 -65 0.166667
40866 -66 0.142857
40872 -67 0.166667
40879 -68 0.142857
40886 -69 0.142857
40893 -70 0.142857
40900 -71 0.142857
40907 -72 0.142857
40914 -73 0.142857
40921 -74 0.142857
40928 -75 0.142857
40935 -76 0.142857
40943 -77 0.125
40950 -78 0.142857
40958 -79 0.125
40966 -80 0.125
40974 -81 0.125
40982 -82 0.125
40991 -83 0.111111
40999 -84 0.125
41008 -85 0.111111
41017 -86 0.111111
41026 -87 0.111111
41035 -88 0.111111
41045 -89 0.1
41055 -90 0.1
41065 -91 0.1
41076 -92 0.0909091
41111 -93 0.0285714
41124 -94 0.0769231
41138 -95 0.0714286
41153 -96 0.0666667
41169 -97 0.0625
41187 -98 0.0555556
41207 -99 0.05
41232 -100 0.04
41266 -101 0.0294118
41399 -100 -0.0075188
41429 -99 -0.0333333
41452 -98 -0.0434783
41472 -97 -0.05
41490 -96 -0.0555556
41505 -95 -0.0666667
41520 -94 -0.0666667
41533 -93 -0.0769231
41546 -92 -0.0769231
41558 -91 -0.0833333
41570 -90 -0.0833333
41581 -89 -0.0909091
41591 -88 -0.1
41601 -87 -0.1
41611 -86 -0.1
41621 -85 -0.1
41630 -84 -0.111111
41639 -83 -0.111111
41648 -82 -0.111111
41657 -81 -0.111111
41665 -80 -0.125
41674 -79 -0.111111
41682 -78 -0.125
41690 -77 -0.125
41697 -76 -0.142857
41705 -75 -0.125
41713 -74 -0.125
41720 -73 -0.142857
41727 -72 -0.142857
41735 -71 -0.125
41742 -70 -0.142857
41749 -69 -0.142857
41756 -68 -0.142857
41763 -67 -0.142857
41769 -66 -0.166667
41776 -65 -0.142857
41783 -64 -0.142857
41789 -63 -0.166667
41796 -62 -0.142857
41802 -61 -0.166667
41809 -60 -0.142857
41815 -59 -0.166667
41821 -58 -0.166667
41828 -57 -0.142857
41834 -56 -0.166667
41840 -55 -0.166667
41846 -54 -0.166667
41852 -53 -0.166667
41858 -52 -0.166667
41864 -51 -0.166667
41870 -50 -0.166667
41876 -49 -0.166667
41882 -48 -0.166667
41887 -47 -0.2
41893 -46 -0.166667
41899 -45 -0.166667
41905 -44 -0.166667
41910 -43 -0.2
41916 -42 -0.166667
41922 -41 -0.166667
41927 -40 -0.2
41933 -39 -0.166667
41938 -38 -0.2
41944 -37 -0.166667
41949 -36 -0.2
41955 -35 -0.166667
41960 -34 -0.2
41966 -33 -0.166667
41971 -32 -0.2
41977 -31 -0.166667
41982 -30 -0.2
41987 -29 -0.2
41993 -28 -0.166667
41998 -27 -0.2
42003 -26 -0.2
42009 -25 -0.166667
42014 -24 -0.2
42019 -23 -0.2
42025 -22 -0.166667
42030 -21 -0.2
42035 -20 -0.2
42040 -19 -0.2
42046 -18 -0.166667
42051 -17 -0.2
42056 -16 -0.2
42061 -15 -0.2
42067 -14 -0.166667
42072 -13 -0.2
42077 -12 -0.2
42108 -11 -0.0322581
42114 -10 -0.166667
42119 -9 -0.2
42124 -8 -0.2
42129 -7 -0.2
42134 -6 -0.2
42140 -5 -0.166667
42145 -4 -0.2
42149 0 -1
42150 1 -1
42155 2 -0.2
42160 3 -0.2
42166 4 -0.166667
42171 5 -0.2
42176 6 -0.2
42181 7 -0.2
42187 8 -0.166667
42192 9 -0.2
42197 10 -0.2
42202 11 -0.2
42208 12 -0.166667
42213 13 -0.2
42218 14 -0.2
42224 15 -0.166667
42229 16 -0.2
42234 17 -0.2
42240 18 -0.166667
42245 19 -0.2
42250 20 -0.2
42256 21 -0.166667
42261 22 -0.2
42267 23 -0.166667
42272 24 -0.2
42277 25 -0.2
42283 26 -0.166667
42288 27 -0.2
42294 28 -0.166667
42300 29 -0.166667
42305 30 -0.2
42311 31 -0.166667
42316 32 -0.2
42322 33 -0.166667
42328 34 -0.166667
42333 35 -0.2
42339 36 -0.166667
42345 37 -0.166667
42351 38 -0.166667
42357 39 -0.166667
42362 40 -0.2
42368 41 -0.166667
42374 42 -0.166667
42380 43 -0.166667
42386 44 -0.166667
42392 45 -0.166667
42399 46 -0.142857
42405 47 -0.166667
42411 48 -0.166667
42417 49 -0.166667
42424 50 -0.142857
42430 51 -0.166667
42436 52 -0.166667
42443 53 -0.142857
42450 54 -0.142857
42456 55 -0.166667
42463 56 -0.142857
42470 57 -0.142857
42477 58 -0.142857
42484 59 -0.142857
42491 60 -0.142857
42498 61 -0.142857
42505 62 -0.142857
42512 63 -0.142857
42520 64 -0.125
42527 65 -0.142857
42535 66 -0.125
42543 67 -0.125
42551 68 -0.125
42559 69 -0.125
42567 70 -0.125
42575 71 -0.125
42584 72 -0.111111
42593 73 -0.111111
42602 74 -0.111111
42611 75 -0.111111
42621 76 -0.1
42631 77 -0.1
42641 78 -0.1
42651 79 -0.1
42662 80 -0.0909091
42673 81 -0.0909091
42685 82 -0.0833333
42698 83 -0.0769231
42711 84 -0.0769231
42725 85 -0.0714286
42740 86 -0.0666667
42757 87 -0.0588235
42776 88 -0.0526316
42797 89 -0.047619
42823 90 -0.0384615
42862 91 -0.025641
42975 90 0.00884956
43008 89 0.030303
43033 88 0.04
43054 87 0.047619
43071 86 0.0588235
43088 85 0.0588235
43129 84 0.0243902
43141 83 0.0833333
43153 82 0.0833333
43164 81 0.0909091
43175 80 0.0909091
43185 79 0.1
43195 78 0.1
43205 77 0.1
43214 76 0.111111
43223 75 0.111111
43232 74 0.111111
43241 73 0.111111
43250 72 0.111111
43258 71 0.125
43266 70 0.125
43274 69 0.125
43282 68 0.125
43290 67 0.125
43297 66 0.142857
43305 65 0.125
43312 64 0.142857
43320 63 0.125
43327 62 0.142857
43334 61 0.142857
43341 60 0.142857
43348 59 0.142857
43355 58 0.142857
43361 57 0.166667
43368 56 0.142857
43375 55 0.142857
43381 54 0.166667
43388 53 0.142857
43394 52 0.166667
43400 51 0.166667
43407 50 0.142857
43413 49 0.166667
43419 48 0.166667
43425 47 0.166667
43431 46 0.166667
43437 45 0.166667
43443 44 0.166667
43449 43 0.166667
43455 42 0.166667
43461 41 0.166667
43467 40 0.166667
43473 39 0.166667
43479 38 0.166667
43484 37 0.2
43490 36 0.166667
43496 35 0.166667
43501 34 0.2
43507 33 0.166667
43513 32 0.166667
43518 31 0.2
43524 30 0.166667
43529 29 0.2
43535 28 0.166667
43540 27 0.2
43546 26 0.166667
43551 25 0.2
43557 24 0.166667
43562 23 0.2
43567 22 0.2
43573 21 0.166667
43578 20 0.2
43583 19 0.2
43589 18 0.166667
43594 17 0.2
43599 16 0.2
43605 15 0.166667
43610 14 0.2
43615 13 0.2
43620 12 0.2
43626 11 0.166667
43631 10 0.2
43636 9 0.2
43641 8 0.2
43647 7 0.166667
43652 6 0.2
43657 5 0.2
43662 4 0.2
43667 3 0.2
43671 0 0.75
43673 -1 0.5
43678 -2 0.2
43683 -3 0.2
43688 -4 0.2
43693 -5 0.2
43698 -6 0.2
43704 -7 0.166667
43709 -8 0.2
43714 -9 0.2
43719 -10 0.2
43724 -11 0.2
43730 -12 0.166667
43735 -13 0.2
43740 -14 0.2
43745 -15 0.2
43750 -16 0.2
43755 -17 0.2
43761 -18 0.166667
43766 -19 0.2
43771 -20 0.2
43776 -21 0.2
43782 -22 0.166667
43787 -23 0.2
43792 -24 0.2
43797 -25 0.2
43803 -26 0.166667
43808 -27 0.2
43813 -28 0.2
43818 -29 0.2
43824 -30 0.166667
43829 -31 0.2
43834 -32 0.2
43840 -33 0.166667
43845 -34 0.2
43851 -35 0.166667
43856 -36 0.2
43861 -37 0.2
43867 -38 0.166667
43872 -39 0.2
43878 -40 0.166667
43883 -41 0.2
43889 -42 0.166667
43895 -43 0.166667
43900 -44 0.2
43906 -45 0.166667
43911 -46 0.2
43917 -47 0.166667
43923 -48 0.166667
43929 -49 0.166667
43934 -50 0.2
43940 -51 0.166667
43946 -52 0.166667
43952 -53 0.166667
43958 -54 0.166667
43964 -55 0.166667
43970 -56 0.166667
43976 -57 0.166667
43982 -58 0.166667
43988 -59 0.166667
43994 -60 0.166667
44000 -61 0.166667
44007 -62 0.142857
44013 -63 0.166667
44019 -64 0.166667
44026 -65 0.142857
44032 -66 0.166667
44039 -67 0.142857
44046 -68 0.142857
44052 -69 0.166667
44059 -70 0.142857
44066 -71 0.142857
44073 -72 0.142857
44080 -73 0.142857
44087 -74 0.142857
44095 -75 0.125
44125 -76 0.0333333
44133 -77 0.125
44141 -78 0.125
44149 -79 0.125
44157 -80 0.125
44166 -81 0.111111
44174 -82 0.125
44183 -83 0.111111
44192 -84 0.111111
44202 -85 0.1
44212 -86 0.1
44222 -87 0.1
44232 -88 0.1
44243 -89 0.0909091
44254 -90 0.0909091
44266 -91 0.0833333
44278 -92 0.0833333
44291 -93 0.0769231
44305 -94 0.0714286
44319 -95 0.0714286
44336 -96 0.0588235
44354 -97 0.0555556
44374 -98 0.05
44399 -99 0.04
