8 4 6.18774e-05
18 5 -0.1
29 6 -0.0909091
40 7 -0.0909091
51 8 -0.0909091
62 9 -0.0909091
73 10 -0.0909091
84 11 -0.0909091
95 12 -0.0909091
106 13 -0.0909091
118 14 -0.0833333
129 15 -0.0909091
141 16 -0.0833333
153 17 -0.0833333
165 18 -0.0833333
177 19 -0.0833333
189 20 -0.0833333
202 21 -0.0769231
214 22 -0.0833333
227 23 -0.0769231
240 24 -0.0769231
254 25 -0.0714286
267 26 -0.0769231
281 27 -0.0714286
296 28 -0.0666667
311 29 -0.0666667
326 30 -0.0666667
341 31 -0.0666667
358 32 -0.0588235
374 33 -0.0625
392 34 -0.0555556
411 35 -0.0526316
430 36 -0.0526316
451 37 -0.047619
473 38 -0.0454545
497 39 -0.0416667
525 40 -0.0357143
556 41 -0.0322581
595 42 -0.025641
652 43 -0.0175439
811 42 0.00628931
860 41 0.0204082
896 40 0.0277778
926 39 0.0333333
953 38 0.037037
977 37 0.0416667
999 36 0.0454545
1019 35 0.05
1038 34 0.0526316
1057 33 0.0526316
1074 32 0.0588235
1091 31 0.0588235
1107 30 0.0625
1123 29 0.0625
1138 28 0.0666667
1152 27 0.0714286
1167 26 0.0666667
1181 25 0.0714286
1194 24 0.0769231
1208 23 0.0714286
1221 22 0.0769231
1234 21 0.0769231
1247 20 0.0769231
1259 19 0.0833333
1271 18 0.0833333
1284 17 0.0769231
1296 16 0.0833333
1307 15 0.0909091
1319 14 0.0833333
1342 13 0.0434783
1356 12 0.0714286
1365 11 0.111111
1376 10 0.0909091
1387 9 0.0909091
1398 8 0.0909091
1409 7 0.0909091
1420 6 0.0909091
1431 5 0.0909091
1442 4 0.0909091
1452 3 0.1
1463 2 0.0909091
1474 1 0.0909091
1484 0 0.1
1492 0 0.25
1495 -1 0.333333
1506 -2 0.0909091
1516 -3 0.1
1527 -4 0.0909091
1537 -5 0.1
1548 -6 0.0909091
1558 -7 0.1
1569 -8 0.0909091
1579 -9 0.1
1589 -10 0.1
1600 -11 0.0909091
1611 -12 0.0909091
1621 -13 0.1
1632 -14 0.0909091
1642 -15 0.1
1653 -16 0.0909091
1664 -17 0.0909091
1674 -18 0.1
1685 -19 0.0909091
1696 -20 0.0909091
1707 -21 0.0909091
1751 -22 0.0227273
1762 -23 0.0909091
1773 -24 0.0909091
1785 -25 0.0833333
1796 -26 0.0909091
1808 -27 0.0833333
1820 -28 0.0833333
1832 -29 0.0833333
1844 -30 0.0833333
1856 -31 0.0833333
1868 -32 0.0833333
1881 -33 0.0769231
1894 -34 0.0769231
1907 -35 0.0769231
1920 -36 0.0769231
1934 -37 0.0714286
1948 -38 0.0714286
1962 -39 0.0714286
1977 -40 0.0666667
1992 -41 0.0666667
2007 -42 0.0666667
2023 -43 0.0625
2040 -44 0.0588235
2057 -45 0.0588235
2075 -46 0.0555556
2095 -47 0.05
2115 -48 0.05
2137 -49 0.0454545
2160 -50 0.0434783
2187 -51 0.037037
2217 -52 0.0333333
2253 -53 0.0277778
2303 -54 0.02
2489 -53 -0.00537634
2533 -52 -0.0227273
2567 -51 -0.0294118
2596 -50 -0.0344828
2621 -49 -0.04
2645 -48 -0.0416667
2666 -47 -0.047619
2686 -46 -0.05
2705 -45 -0.0526316
2722 -44 -0.0588235
2739 -43 -0.0588235
2756 -42 -0.0588235
2772 -41 -0.0625
2787 -40 -0.0666667
2802 -39 -0.0666667
2816 -38 -0.0714286
2830 -37 -0.0714286
2844 -36 -0.0714286
2857 -35 -0.0769231
2871 -34 -0.0714286
2884 -33 -0.0769231
2896 -32 -0.0833333
2909 -31 -0.0769231
2921 -30 -0.0833333
2933 -29 -0.0833333
2945 -28 -0.0833333
2957 -27 -0.0833333
2969 -26 -0.0833333
2980 -25 -0.0909091
2992 -24 -0.0833333
3003 -23 -0.0909091
3014 -22 -0.0909091
3025 -21 -0.0909091
3036 -20 -0.0909091
3047 -19 -0.0909091
3058 -18 -0.0909091
3069 -17 -0.0909091
3080 -16 -0.0909091
3090 -15 -0.1
3101 -14 -0.0909091
3112 -13 -0.0909091
3122 -12 -0.1
3133 -11 -0.0909091
3143 -10 -0.1
3154 -9 -0.0909091
3164 -8 -0.1
3175 -7 -0.0909091
3185 -6 -0.1
3195 -5 -0.1
3206 -4 -0.0909091
3216 -3 -0.1
3227 -2 -0.0909091
3237 -1 -0.1
3248 0 -0.0909091
3258 1 -0.1
3268 2 -0.1
3276 0 0.25
3279 1 -0.333333
3289 2 -0.1
3300 3 -0.0909091
3310 4 -0.1
3321 5 -0.0909091
3332 6 -0.0909091
3342 7 -0.1
3353 8 -0.0909091
3364 9 -0.0909091
3375 10 -0.0909091
3386 11 -0.0909091
3397 12 -0.0909091
3408 13 -0.0909091
3419 14 -0.0909091
3430 15 -0.0909091
3442 16 -0.0833333
3453 17 -0.0909091
3465 18 -0.0833333
3477 19 -0.0833333
3489 20 -0.0833333
3501 21 -0.0833333
3526 22 -0.04
3538 23 -0.0833333
3551 24 -0.0769231
3564 25 -0.0769231
3578 26 -0.0714286
3591 27 -0.0769231
3605 28 -0.0714286
3620 29 -0.0666667
3634 30 -0.0714286
3649 31 -0.0666667
3665 32 -0.0625
3681 33 -0.0625
3698 34 -0.0588235
3716 35 -0.0555556
3734 36 -0.0555556
3754 37 -0.05
3774 38 -0.05
3796 39 -0.0454545
3821 40 -0.04
3848 41 -0.037037
3879 42 -0.0322581
3917 43 -0.0263158
3973 44 -0.0178571
4138 43 0.00606061
4186 42 0.0208333
4222 41 0.0277778
4252 40 0.0333333
4278 39 0.0384615
4302 38 0.0416667
4324 37 0.0454545
4344 36 0.05
4364 35 0.05
4382 34 0.0555556
4399 33 0.0588235
4416 32 0.0588235
4432 31 0.0625
4448 30 0.0625
4463 29 0.0666667
4478 28 0.0666667
4492 27 0.0714286
4506 26 0.0714286
4533 25 0.037037
4546 24 0.0769231
4559 23 0.0769231
4572 22 0.0769231
4584 21 0.0833333
4597 20 0.0769231
4609 19 0.0833333
4621 18 0.0833333
4633 17 0.0833333
4644 16 0.0909091
4656 15 0.0833333
4667 14 0.0909091
4679 13 0.0833333
4690 12 0.0909091
4701 11 0.0909091
4712 10 0.0909091
4723 9 0.0909091
4734 8 0.0909091
4745 7 0.0909091
4756 6 0.0909091
4767 5 0.0909091
4778 4 0.0909091
4788 3 0.1
4799 2 0.0909091
4809 1 0.1
4817 0 0.125
4820 -1 0.333333
4831 -2 0.0909091
4841 -3 0.1
4852 -4 0.0909091
4862 -5 0.1
4873 -6 0.0909091
4883 -7 0.1
4893 -8 0.1
4904 -9 0.0909091
4914 -10 0.1
4925 -11 0.0909091
4935 -12 0.1
4946 -13 0.0909091
4957 -14 0.0909091
4967 -15 0.1
4978 -16 0.0909091
4988 -17 0.1
4999 -18 0.0909091
5010 -19 0.0909091
5021 -20 0.0909091
5032 -21 0.0909091
5042 -22 0.1
5053 -23 0.0909091
5064 -24 0.0909091
5076 -25 0.0833333
5087 -26 0.0909091
5098 -27 0.0909091
5110 -28 0.0833333
5121 -29 0.0909091
5133 -30 0.0833333
5145 -31 0.0833333
5157 -32 0.0833333
5169 -33 0.0833333
5181 -34 0.0833333
5193 -35 0.0833333
5206 -36 0.0769231
5219 -37 0.0769231
5232 -38 0.0769231
5245 -39 0.0769231
5259 -40 0.0714286
5273 -41 0.0714286
5287 -42 0.0714286
5302 -43 0.0666667
5316 -44 0.0714286
5332 -45 0.0625
5348 -46 0.0625
5365 -47 0.0588235
5382 -48 0.0588235
5400 -49 0.0555556
5419 -50 0.0526316
5440 -51 0.047619
5461 -52 0.047619
5485 -53 0.0416667
5511 -54 0.0384615
5541 -55 0.0333333
5578 -56 0.027027
5628 -57 0.02
5813 -56 -0.00540541
5858 -55 -0.0222222
5892 -54 -0.0294118
5921 -53 -0.0344828
5946 -52 -0.04
5969 -51 -0.0434783
5990 -50 -0.047619
6010 -49 -0.05
6029 -48 -0.0526316
6047 -47 -0.0555556
6064 -46 -0.0588235
6080 -45 -0.0625
6096 -44 -0.0625
6111 -43 -0.0666667
6126 -42 -0.0666667
6141 -41 -0.0666667
6155 -40 -0.0714286
6168 -39 -0.0769231
6182 -38 -0.0714286
6195 -37 -0.0769231
6208 -36 -0.0769231
6221 -35 -0.0769231
6233 -34 -0.0833333
6246 -33 -0.0769231
6258 -32 -0.0833333
6270 -31 -0.0833333
6281 -30 -0.0909091
6293 -29 -0.0833333
6305 -28 -0.0833333
6316 -27 -0.0909091
6327 -26 -0.0909091
6339 -25 -0.0833333
6350 -24 -0.0909091
6361 -23 -0.0909091
6372 -22 -0.0909091
6383 -21 -0.0909091
6393 -20 -0.1
6404 -19 -0.0909091
6415 -18 -0.0909091
6425 -17 -0.1
6436 -16 -0.0909091
6447 -15 -0.0909091
6457 -14 -0.1
6468 -13 -0.0909091
6478 -12 -0.1
6489 -11 -0.0909091
6499 -10 -0.1
6509 -9 -0.1
6520 -8 -0.0909091
6541 -7 -0.047619
6551 -6 -0.1
6561 -5 -0.1
6572 -4 -0.0909091
6582 -3 -0.1
6593 -2 -0.0909091
6600 0 -0.285714
6603 1 -0.333333
6614 2 -0.0909091
6624 3 -0.1
6635 4 -0.0909091
6645 5 -0.1
6656 6 -0.0909091
6667 7 -0.0909091
6677 8 -0.1
6688 9 -0.0909091
6699 10 -0.0909091
6710 11 -0.0909091
6721 12 -0.0909091
6732 13 -0.0909091
6743 14 -0.0909091
6754 15 -0.0909091
6766 16 -0.0833333
6777 17 -0.0909091
6789 18 -0.0833333
6801 19 -0.0833333
6813 20 -0.0833333
6825 21 -0.0833333
6837 22 -0.0833333
6849 23 -0.0833333
6862 24 -0.0769231
6875 25 -0.0769231
6888 26 -0.0769231
6901 27 -0.0769231
6915 28 -0.0714286
6929 29 -0.0714286
6943 30 -0.0714286
6958 31 -0.0666667
6973 32 -0.0666667
6989 33 -0.0625
7005 34 -0.0625
7022 35 -0.0588235
7039 36 -0.0588235
7057 37 -0.0555556
7077 38 -0.05
7097 39 -0.05
7119 40 -0.0454545
7143 41 -0.0416667
7170 42 -0.037037
7201 43 -0.0322581
7238 44 -0.027027
7291 45 -0.0188679
7469 44 0.00561798
7515 43 0.0217391
7550 42 0.0285714
7580 41 0.0333333
7606 40 0.0384615
7629 39 0.0434783
7651 38 0.0454545
7671 37 0.05
7690 36 0.0526316
7708 35 0.0555556
7726 34 0.0555556
7742 33 0.0625
7759 32 0.0588235
7774 31 0.0666667
7789 30 0.0666667
7804 29 0.0666667
7818 28 0.0714286
7832 27 0.0714286
7846 26 0.0714286
7859 25 0.0769231
7872 24 0.0769231
7885 23 0.0769231
7898 22 0.0769231
7910 21 0.0833333
7922 20 0.0833333
7934 19 0.0833333
7946 18 0.0833333
7958 17 0.0833333
7970 16 0.0833333
7982 15 0.0833333
7993 14 0.0909091
8004 13 0.0909091
8016 12 0.0833333
8027 11 0.0909091
8038 10 0.0909091
8049 9 0.0909091
8060 8 0.0909091
8071 7 0.0909091
8081 6 0.1
8092 5 0.0909091
8103 4 0.0909091
8114 3 0.0909091
8124 2 0.1
8135 1 0.0909091
8143 0 0.125
8145 -1 0.5
8156 -2 0.0909091
8166 -3 0.1
8177 -4 0.0909091
8187 -5 0.1
8198 -6 0.0909091
8208 -7 0.1
8219 -8 0.0909091
8229 -9 0.1
8240 -10 0.0909091
8250 -11 0.1
8261 -12 0.0909091
8271 -13 0.1
8282 -14 0.0909091
8292 -15 0.1
8303 -16 0.0909091
8314 -17 0.0909091
8324 -18 0.1
8335 -19 0.0909091
8346 -20 0.0909091
8357 -21 0.0909091
8368 -22 0.0909091
8379 -23 0.0909091
8390 -24 0.0909091
8401 -25 0.0909091
8412 -26 0.0909091
8423 -27 0.0909091
8435 -28 0.0833333
8446 -29 0.0909091
8458 -30 0.0833333
8470 -31 0.0833333
8482 -32 0.0833333
8494 -33 0.0833333
8506 -34 0.0833333
8519 -35 0.0769231
8531 -36 0.0833333
8544 -37 0.0769231
8557 -38 0.0769231
8584 -39 0.037037
8598 -40 0.0714286
8612 -41 0.0714286
8627 -42 0.0666667
8642 -43 0.0666667
8657 -44 0.0666667
8673 -45 0.0625
8690 -46 0.0588235
8707 -47 0.0588235
8726 -48 0.0526316
8745 -49 0.0526316
8765 -50 0.05
8787 -51 0.0454545
8811 -52 0.0416667
8837 -53 0.0384615
8867 -54 0.0333333
8904 -55 0.027027
8955 -56 0.0196078
9137 -55 -0.00549451
9182 -54 -0.0222222
9216 -53 -0.0294118
9245 -52 -0.0344828
9270 -51 -0.04
9294 -50 -0.0416667
9315 -49 -0.047619
9335 -48 -0.05
9354 -47 -0.0526316
9371 -46 -0.0588235
9389 -45 -0.0555556
9405 -44 -0.0625
9421 -43 -0.0625
9436 -42 -0.0666667
9451 -41 -0.0666667
9466 -40 -0.0666667
9480 -39 -0.0714286
9493 -38 -0.0769231
9507 -37 -0.0714286
9520 -36 -0.0769231
9533 -35 -0.0769231
9546 -34 -0.0769231
9558 -33 -0.0833333
9583 -32 -0.04
9595 -31 -0.0833333
9606 -30 -0.0909091
9618 -29 -0.0833333
9630 -28 -0.0833333
9641 -27 -0.0909091
9653 -26 -0.0833333
9664 -25 -0.0909091
9675 -24 -0.0909091
9686 -23 -0.0909091
9697 -22 -0.0909091
9708 -21 -0.0909091
9719 -20 -0.0909091
9729 -19 -0.1
9740 -18 -0.0909091
9751 -17 -0.0909091
9761 -16 -0.1
9772 -15 -0.0909091
9783 -14 -0.0909091
9793 -13 -0.1
9804 -12 -0.0909091
9814 -11 -0.1
9824 -10 -0.1
9835 -9 -0.0909091
9845 -8 -0.1
9856 -7 -0.0909091
9866 -6 -0.1
9876 -5 -0.1
9887 -4 -0.0909091
9897 -3 -0.1
9908 -2 -0.0909091
9918 -1 -0.1
9926 0 -0.125
9929 1 -0.333333
9939 2 -0.1
9950 3 -0.0909091
9960 4 -0.1
9971 5 -0.0909091
9982 6 -0.0909091
9992 7 -0.1
10003 8 -0.0909091
10014 9 -0.0909091
10025 10 -0.0909091
10036 11 -0.0909091
10047 12 -0.0909091
10058 13 -0.0909091
10069 14 -0.0909091
10080 15 -0.0909091
10092 16 -0.0833333
10103 17 -0.0909091
10115 18 -0.0833333
10127 19 -0.0833333
10139 20 -0.0833333
10151 21 -0.0833333
10163 22 -0.0833333
10176 23 -0.0769231
10188 24 -0.0833333
10202 25 -0.0714286
10215 26 -0.0769231
10228 27 -0.0769231
10242 28 -0.0714286
10256 29 -0.0714286
10270 30 -0.0714286
10285 31 -0.0666667
10300 32 -0.0666667
10316 33 -0.0625
10332 34 -0.0625
10349 35 -0.0588235
10366 36 -0.0588235
10385 37 -0.0526316
10404 38 -0.0526316
10425 39 -0.047619
10447 40 -0.0454545
10472 41 -0.04
10499 42 -0.037037
10531 43 -0.03125
10570 44 -0.025641
10628 45 -0.0172414
10784 44 0.00641026
10834 43 0.02
10870 42 0.0277778
10900 41 0.0333333
10927 40 0.037037
10950 39 0.0434783
10972 38 0.0454545
10993 37 0.047619
11012 36 0.0526316
11030 35 0.0555556
11048 34 0.0555556
11065 33 0.0588235
11081 32 0.0625
11097 31 0.0625
11112 30 0.0666667
11126 29 0.0714286
11141 28 0.0666667
11155 27 0.0714286
11169 26 0.0714286
11182 25 0.0769231
11195 24 0.0769231
11208 23 0.0769231
11221 22 0.0769231
11233 21 0.0833333
11246 20 0.0769231
11258 19 0.0833333
11270 18 0.0833333
11282 17 0.0833333
11293 16 0.0909091
11305 15 0.0833333
11316 14 0.0909091
11328 13 0.0833333
11339 12 0.0909091
11350 11 0.0909091
11361 10 0.0909091
11373 9 0.0833333
11383 8 0.1
11394 7 0.0909091
11405 6 0.0909091
11416 5 0.0909091
11427 4 0.0909091
11437 3 0.1
11448 2 0.0909091
11459 1 0.0909091
11467 0 0.125
11469 -1 0.5
11480 -2 0.0909091
11490 -3 0.1
11501 -4 0.0909091
11511 -5 0.1
11522 -6 0.0909091
11532 -7 0.1
11543 -8 0.0909091
11553 -9 0.1
11564 -10 0.0909091
11574 -11 0.1
11595 -12 0.047619
11606 -13 0.0909091
11617 -14 0.0909091
11627 -15 0.1
11638 -16 0.0909091
11649 -17 0.0909091
11659 -18 0.1
11670 -19 0.0909091
11681 -20 0.0909091
11692 -21 0.0909091
11703 -22 0.0909091
11714 -23 0.0909091
11725 -24 0.0909091
11736 -25 0.0909091
11748 -26 0.0833333
11759 -27 0.0909091
11771 -28 0.0833333
11782 -29 0.0909091
11794 -30 0.0833333
11806 -31 0.0833333
11818 -32 0.0833333
11830 -33 0.0833333
11843 -34 0.0769231
11856 -35 0.0769231
11868 -36 0.0833333
11881 -37 0.0769231
11895 -38 0.0714286
11908 -39 0.0769231
11922 -40 0.0714286
11936 -41 0.0714286
11951 -42 0.0666667
11966 -43 0.0666667
11982 -44 0.0625
11998 -45 0.0625
12014 -46 0.0625
12032 -47 0.0555556
12050 -48 0.0555556
12069 -49 0.0526316
12090 -50 0.047619
12111 -51 0.047619
12135 -52 0.0416667
12161 -53 0.0384615
12191 -54 0.0333333
12228 -55 0.027027
12278 -56 0.02
12463 -55 -0.00540541
12508 -54 -0.0222222
12542 -53 -0.0294118
12570 -52 -0.0357143
12596 -51 -0.0384615
12619 -50 -0.0434783
12640 -49 -0.047619
12660 -48 -0.05
12679 -47 -0.0526316
12697 -46 -0.0555556
12714 -45 -0.0588235
12730 -44 -0.0625
12746 -43 -0.0625
12762 -42 -0.0625
12776 -41 -0.0714286
12791 -40 -0.0666667
12805 -39 -0.0714286
12819 -38 -0.0714286
12832 -37 -0.0769231
12845 -36 -0.0769231
12858 -35 -0.0769231
12871 -34 -0.0769231
12883 -33 -0.0833333
12896 -32 -0.0769231
12908 -31 -0.0833333
12920 -30 -0.0833333
12932 -29 -0.0833333
12943 -28 -0.0909091
12955 -27 -0.0833333
12966 -26 -0.0909091
12978 -25 -0.0833333
12989 -24 -0.0909091
13000 -23 -0.0909091
13011 -22 -0.0909091
13022 -21 -0.0909091
13033 -20 -0.0909091
13044 -19 -0.0909091
13055 -18 -0.0909091
13065 -17 -0.1
13076 -16 -0.0909091
13087 -15 -0.0909091
13097 -14 -0.1
13108 -13 -0.0909091
13118 -12 -0.1
13129 -11 -0.0909091
13139 -10 -0.1
13150 -9 -0.0909091
13160 -8 -0.1
13170 -7 -0.1
13181 -6 -0.0909091
13191 -5 -0.1
13202 -4 -0.0909091
13212 -3 -0.1
13223 -2 -0.0909091
13233 -1 -0.1
13243 0 -0.1
13254 1 -0.0909091
13264 2 -0.1
13275 3 -0.0909091
13286 4 -0.0909091
13296 5 -0.1
13307 6 -0.0909091
13317 7 -0.1
13328 8 -0.0909091
13339 9 -0.0909091
13350 10 -0.0909091
13361 11 -0.0909091
13372 12 -0.0909091
13383 13 -0.0909091
13394 14 -0.0909091
13406 15 -0.0833333
13417 16 -0.0909091
13429 17 -0.0833333
13440 18 -0.0909091
13452 19 -0.0833333
13464 20 -0.0833333
13476 21 -0.0833333
13489 22 -0.0769231
13501 23 -0.0833333
13514 24 -0.0769231
13527 25 -0.0769231
13540 26 -0.0769231
13553 27 -0.0769231
13567 28 -0.0714286
13581 29 -0.0714286
13595 30 -0.0714286
13610 31 -0.0666667
13641 32 -0.0322581
13657 33 -0.0625
13674 34 -0.0588235
13692 35 -0.0555556
13710 36 -0.0555556
13730 37 -0.05
13751 38 -0.047619
13773 39 -0.0454545
13798 40 -0.04
13825 41 -0.037037
13856 42 -0.0322581
13896 43 -0.025
13955 44 -0.0169492
14108 43 0.00653595
14158 42 0.02
14194 41 0.0277778
14225 40 0.0322581
14251 39 0.0384615
14275 38 0.0416667
14297 37 0.0454545
14318 36 0.047619
14337 35 0.0526316
14355 34 0.0555556
14373 33 0.0555556
14390 32 0.0588235
14406 31 0.0625
14422 30 0.0625
14437 29 0.0666667
14451 28 0.0714286
14466 27 0.0666667
14480 26 0.0714286
14494 25 0.0714286
14507 24 0.0769231
14520 23 0.0769231
14533 22 0.0769231
14546 21 0.0769231
14558 20 0.0833333
14571 19 0.0769231
14583 18 0.0833333
14595 17 0.0833333
14607 16 0.0833333
14618 15 0.0909091
14642 14 0.0416667
14653 13 0.0909091
14664 12 0.0909091
14675 11 0.0909091
14686 10 0.0909091
14698 9 0.0833333
14708 8 0.1
14719 7 0.0909091
14730 6 0.0909091
14741 5 0.0909091
14752 4 0.0909091
14762 3 0.1
14773 2 0.0909091
14784 1 0.0909091
14792 0 0.125
14794 -1 0.5
14805 -2 0.0909091
14815 -3 0.1
14826 -4 0.0909091
14836 -5 0.1
14847 -6 0.0909091
14857 -7 0.1
14868 -8 0.0909091
14878 -9 0.1
14889 -10 0.0909091
14899 -11 0.1
14910 -12 0.0909091
14920 -13 0.1
14931 -14 0.0909091
14941 -15 0.1
14952 -16 0.0909091
14963 -17 0.0909091
14973 -18 0.1
14984 -19 0.0909091
14995 -20 0.0909091
15006 -21 0.0909091
15017 -22 0.0909091
15028 -23 0.0909091
15039 -24 0.0909091
15050 -25 0.0909091
15061 -26 0.0909091
15073 -27 0.0833333
15084 -28 0.0909091
15095 -29 0.0909091
15107 -30 0.0833333
15119 -31 0.0833333
15131 -32 0.0833333
15143 -33 0.0833333
15155 -34 0.0833333
15168 -35 0.0769231
15180 -36 0.0833333
15193 -37 0.0769231
15206 -38 0.0769231
15219 -39 0.0769231
15233 -40 0.0714286
15247 -41 0.0714286
15261 -42 0.0714286
15276 -43 0.0666667
15291 -44 0.0666667
15306 -45 0.0666667
15322 -46 0.0625
15339 -47 0.0588235
15356 -48 0.0588235
15375 -49 0.0526316
15394 -50 0.0526316
15414 -51 0.05
15436 -52 0.0454545
15459 -53 0.0434783
15486 -54 0.037037
15516 -55 0.0333333
15552 -56 0.0277778
15602 -57 0.02
15789 -56 -0.00534759
15833 -55 -0.0227273
15867 -54 -0.0294118
15896 -53 -0.0344828
15921 -52 -0.04
15944 -51 -0.0434783
15965 -50 -0.047619
15985 -49 -0.05
16004 -48 -0.0526316
16022 -47 -0.0555556
16039 -46 -0.0588235
16055 -45 -0.0625
16071 -44 -0.0625
16086 -43 -0.0666667
16101 -42 -0.0666667
16116 -41 -0.0666667
16130 -40 -0.0714286
16143 -39 -0.0769231
16157 -38 -0.0714286
16170 -37 -0.0769231
16183 -36 -0.0769231
16196 -35 -0.0769231
16208 -34 -0.0833333
16220 -33 -0.0833333
16233 -32 -0.0769231
16245 -31 -0.0833333
16256 -30 -0.0909091
16268 -29 -0.0833333
16280 -28 -0.0833333
16291 -27 -0.0909091
16302 -26 -0.0909091
16314 -25 -0.0833333
16325 -24 -0.0909091
16336 -23 -0.0909091
16347 -22 -0.0909091
16358 -21 -0.0909091
16368 -20 -0.1
16379 -19 -0.0909091
16390 -18 -0.0909091
16400 -17 -0.1
16411 -16 -0.0909091
16422 -15 -0.0909091
16432 -14 -0.1
16443 -13 -0.0909091
16453 -12 -0.1
16463 -11 -0.1
16474 -10 -0.0909091
16484 -9 -0.1
16495 -8 -0.0909091
16505 -7 -0.1
16515 -6 -0.1
16526 -5 -0.0909091
16536 -4 -0.1
16547 -3 -0.0909091
16557 -2 -0.1
16568 -1 -0.0909091
16578 0 -0.1
16588 1 -0.1
16599 2 -0.0909091
16610 3 -0.0909091
16620 4 -0.1
16631 5 -0.0909091
16641 6 -0.1
16652 7 -0.0909091
16663 8 -0.0909091
16674 9 -0.0909091
16685 10 -0.0909091
16696 11 -0.0909091
16707 12 -0.0909091
16718 13 -0.0909091
16729 14 -0.0909091
16741 15 -0.0833333
16752 16 -0.0909091
16764 17 -0.0833333
16776 18 -0.0833333
16788 19 -0.0833333
16800 20 -0.0833333
16824 21 -0.0416667
16837 22 -0.0769231
16850 23 -0.0769231
16863 24 -0.0769231
16876 25 -0.0769231
16890 26 -0.0714286
16904 27 -0.0714286
16918 28 -0.0714286
16933 29 -0.0666667
16948 30 -0.0666667
16964 31 -0.0625
16980 32 -0.0625
16997 33 -0.0588235
17014 34 -0.0588235
17032 35 -0.0555556
17052 36 -0.05
17072 37 -0.05
17094 38 -0.0454545
17119 39 -0.04
17145 40 -0.0384615
17176 41 -0.0322581
17214 42 -0.0263158
17267 43 -0.0188679
17442 42 0.00571429
17489 41 0.0212766
17524 40 0.0285714
17554 39 0.0333333
17580 38 0.0384615
17603 37 0.0434783
17625 36 0.0454545
17645 35 0.05
17665 34 0.05
17683 33 0.0555556
17700 32 0.0588235
17717 31 0.0588235
17733 30 0.0625
17748 29 0.0666667
17763 28 0.0666667
17778 27 0.0666667
17792 26 0.0714286
17806 25 0.0714286
17833 24 0.037037
17846 23 0.0769231
17859 22 0.0769231
17872 21 0.0769231
17884 20 0.0833333
17897 19 0.0769231
17909 18 0.0833333
17921 17 0.0833333
17933 16 0.0833333
17944 15 0.0909091
17956 14 0.0833333
17967 13 0.0909091
17979 12 0.0833333
17990 11 0.0909091
18001 10 0.0909091
18012 9 0.0909091
18023 8 0.0909091
18034 7 0.0909091
18045 6 0.0909091
18056 5 0.0909091
18067 4 0.0909091
18077 3 0.1
18088 2 0.0909091
18099 1 0.0909091
18109 0 0.1
18120 -1 0.0909091
18130 -2 0.1
18141 -3 0.0909091
18151 -4 0.1
18162 -5 0.0909091
18172 -6 0.1
18183 -7 0.0909091
18193 -8 0.1
18204 -9 0.0909091
18214 -10 0.1
18225 -11 0.0909091
18235 -12 0.1
18246 -13 0.0909091
18256 -14 0.1
18267 -15 0.0909091
18277 -16 0.1
18288 -17 0.0909091
18299 -18 0.0909091
18309 -19 0.1
18320 -20 0.0909091
18331 -21 0.0909091
18342 -22 0.0909091
18353 -23 0.0909091
18364 -24 0.0909091
18375 -25 0.0909091
18386 -26 0.0909091
18398 -27 0.0833333
18409 -28 0.0909091
18421 -29 0.0833333
18432 -30 0.0909091
18444 -31 0.0833333
18456 -32 0.0833333
18468 -33 0.0833333
18480 -34 0.0833333
18493 -35 0.0769231
18505 -36 0.0833333
18518 -37 0.0769231
18531 -38 0.0769231
18544 -39 0.0769231
18558 -40 0.0714286
18572 -41 0.0714286
18586 -42 0.0714286
18601 -43 0.0666667
18616 -44 0.0666667
18631 -45 0.0666667
18647 -46 0.0625
18664 -47 0.0588235
18681 -48 0.0588235
18699 -49 0.0555556
18718 -50 0.0526316
18739 -51 0.047619
18760 -52 0.047619
18784 -53 0.0416667
18810 -54 0.0384615
18840 -55 0.0333333
18876 -56 0.0277778
18926 -57 0.02
19114 -56 -0.00531915
19158 -55 -0.0227273
19192 -54 -0.0294118
19221 -53 -0.0344828
19246 -52 -0.04
19269 -51 -0.0434783
19291 -50 -0.0454545
19310 -49 -0.0526316
19329 -48 -0.0526316
19347 -47 -0.0555556
19364 -46 -0.0588235
19381 -45 -0.0588235
19396 -44 -0.0666667
19412 -43 -0.0625
19426 -42 -0.0714286
19441 -41 -0.0666667
19455 -40 -0.0714286
19469 -39 -0.0714286
19482 -38 -0.0769231
19495 -37 -0.0769231
19508 -36 -0.0769231
19521 -35 -0.0769231
19533 -34 -0.0833333
19546 -33 -0.0769231
19558 -32 -0.0833333
19570 -31 -0.0833333
19582 -30 -0.0833333
19593 -29 -0.0909091
19605 -28 -0.0833333
19616 -27 -0.0909091
19628 -26 -0.0833333
19639 -25 -0.0909091
19650 -24 -0.0909091
19661 -23 -0.0909091
19672 -22 -0.0909091
19683 -21 -0.0909091
19694 -20 -0.0909091
19705 -19 -0.0909091
19715 -18 -0.1
19726 -17 -0.0909091
19737 -16 -0.0909091
19747 -15 -0.1
19758 -14 -0.0909091
19768 -13 -0.1
19779 -12 -0.0909091
19789 -11 -0.1
19799 -10 -0.1
19810 -9 -0.0909091
19820 -8 -0.1
19841 -7 -0.047619
19852 -6 -0.0909091
19862 -5 -0.1
19872 -4 -0.1
19883 -3 -0.0909091
19893 -2 -0.1
19901 0 -0.25
19904 1 -0.333333
19914 2 -0.1
19925 3 -0.0909091
19935 4 -0.1
19946 5 -0.0909091
19957 6 -0.0909091
19967 7 -0.1
19978 8 -0.0909091
19989 9 -0.0909091
20000 10 -0.0909091
20011 11 -0.0909091
20022 12 -0.0909091
20033 13 -0.0909091
20044 14 -0.0909091
20056 15 -0.0833333
20067 16 -0.0909091
20078 17 -0.0909091
20090 18 -0.0833333
20102 19 -0.0833333
20114 20 -0.0833333
20126 21 -0.0833333
20138 22 -0.0833333
20151 23 -0.0769231
20164 24 -0.0769231
20176 25 -0.0833333
20190 26 -0.0714286
20203 27 -0.0769231
20217 28 -0.0714286
20231 29 -0.0714286
20245 30 -0.0714286
20260 31 -0.0666667
20275 32 -0.0666667
20291 33 -0.0625
20307 34 -0.0625
20324 35 -0.0588235
20342 36 -0.0555556
20360 37 -0.0555556
20380 38 -0.05
20400 39 -0.05
20423 40 -0.0434783
20447 41 -0.0416667
20475 42 -0.0357143
20506 43 -0.0322581
20545 44 -0.025641
20604 45 -0.0169492
20757 44 0.00653595
20808 43 0.0196078
20844 42 0.0277778
20874 41 0.0333333
20901 40 0.037037
20925 39 0.0416667
20947 38 0.0454545
20967 37 0.05
20987 36 0.05
21005 35 0.0555556
21023 34 0.0555556
21039 33 0.0625
21055 32 0.0625
21071 31 0.0625
21086 30 0.0666667
21101 29 0.0666667
21115 28 0.0714286
21129 27 0.0714286
21143 26 0.0714286
21157 25 0.0714286
21170 24 0.0769231
21183 23 0.0769231
21195 22 0.0833333
21208 21 0.0769231
21220 20 0.0833333
21233 19 0.0769231
21245 18 0.0833333
21256 17 0.0909091
21268 16 0.0833333
21280 15 0.0833333
21291 14 0.0909091
21303 13 0.0833333
21314 12 0.0909091
21325 11 0.0909091
21336 10 0.0909091
21347 9 0.0909091
21358 8 0.0909091
21369 7 0.0909091
21380 6 0.0909091
21391 5 0.0909091
21401 4 0.1
21412 3 0.0909091
21423 2 0.0909091
21433 1 0.1
21444 0 0.0909091
21455 -1 0.0909091
21465 -2 0.1
21476 -3 0.0909091
21486 -4 0.1
21497 -5 0.0909091
21507 -6 0.1
21518 -7 0.0909091
21528 -8 0.1
21539 -9 0.0909091
21549 -10 0.1
21560 -11 0.0909091
21570 -12 0.1
21581 -13 0.0909091
21591 -14 0.1
21602 -15 0.0909091
21613 -16 0.0909091
21623 -17 0.1
21634 -18 0.0909091
21645 -19 0.0909091
21656 -20 0.0909091
21667 -21 0.0909091
21678 -22 0.0909091
21689 -23 0.0909091
21700 -24 0.0909091
21711 -25 0.0909091
21723 -26 0.0833333
21734 -27 0.0909091
21746 -28 0.0833333
21757 -29 0.0909091
21769 -30 0.0833333
21781 -31 0.0833333
21793 -32 0.0833333
21805 -33 0.0833333
21818 -34 0.0769231
21830 -35 0.0833333
21843 -36 0.0769231
21856 -37 0.0769231
21883 -38 0.037037
21897 -39 0.0714286
21911 -40 0.0714286
21926 -41 0.0666667
21941 -42 0.0666667
21957 -43 0.0625
21973 -44 0.0625
21989 -45 0.0625
22007 -46 0.0555556
22025 -47 0.0555556
22044 -48 0.0526316
22064 -49 0.05
22086 -50 0.0454545
22110 -51 0.0416667
22136 -52 0.0384615
22166 -53 0.0333333
22203 -54 0.027027
22253 -55 0.02
22438 -54 -0.00540541
22483 -53 -0.0222222
22517 -52 -0.0294118
22547 -51 -0.0333333
22571 -50 -0.0416667
22594 -49 -0.0434783
22616 -48 -0.0454545
22636 -47 -0.05
22654 -46 -0.0555556
22672 -45 -0.0555556
22689 -44 -0.0588235
22706 -43 -0.0588235
22722 -42 -0.0625
22737 -41 -0.0666667
22752 -40 -0.0666667
22766 -39 -0.0714286
22780 -38 -0.0714286
22794 -37 -0.0714286
22807 -36 -0.0769231
22821 -35 -0.0714286
22834 -34 -0.0769231
22846 -33 -0.0833333
22859 -32 -0.0769231
22883 -31 -0.0416667
22895 -30 -0.0833333
22907 -29 -0.0833333
22919 -28 -0.0833333
22930 -27 -0.0909091
22942 -26 -0.0833333
22953 -25 -0.0909091
22964 -24 -0.0909091
22975 -23 -0.0909091
22986 -22 -0.0909091
22997 -21 -0.0909091
23008 -20 -0.0909091
23019 -19 -0.0909091
23030 -18 -0.0909091
23041 -17 -0.0909091
23051 -16 -0.1
23062 -15 -0.0909091
23072 -14 -0.1
23083 -13 -0.0909091
23093 -12 -0.1
23104 -11 -0.0909091
23114 -10 -0.1
23125 -9 -0.0909091
23135 -8 -0.1
23146 -7 -0.0909091
23156 -6 -0.1
23166 -5 -0.1
23177 -4 -0.0909091
23187 -3 -0.1
23198 -2 -0.0909091
23208 -1 -0.1
23219 0 -0.0909091
23229 1 -0.1
23240 2 -0.0909091
23250 3 -0.1
23261 4 -0.0909091
23271 5 -0.1
23282 6 -0.0909091
23293 7 -0.0909091
23303 8 -0.1
23314 9 -0.0909091
23325 10 -0.0909091
23336 11 -0.0909091
23347 12 -0.0909091
23358 13 -0.0909091
23370 14 -0.0833333
23381 15 -0.0909091
23392 16 -0.0909091
23404 17 -0.0833333
23416 18 -0.0833333
23427 19 -0.0909091
23439 20 -0.0833333
23451 21 -0.0833333
23464 22 -0.0769231
23476 23 -0.0833333
23489 24 -0.0769231
23502 25 -0.0769231
23515 26 -0.0769231
23528 27 -0.0769231
23542 28 -0.0714286
23556 29 -0.0714286
23570 30 -0.0714286
23585 31 -0.0666667
23600 32 -0.0666667
23616 33 -0.0625
23632 34 -0.0625
23649 35 -0.0588235
23667 36 -0.0555556
23685 37 -0.0555556
23705 38 -0.05
23726 39 -0.047619
23748 40 -0.0454545
23773 41 -0.04
23800 42 -0.037037
23831 43 -0.0322581
23871 44 -0.025
23929 45 -0.0172414
24083 44 0.00649351
24133 43 0.02
24170 42 0.027027
24200 41 0.0333333
24226 40 0.0384615
24250 39 0.0416667
24272 38 0.0454545
24293 37 0.047619
24312 36 0.0526316
24330 35 0.0555556
24348 34 0.0555556
24365 33 0.0588235
24381 32 0.0625
24397 31 0.0625
24412 30 0.0666667
24426 29 0.0714286
24441 28 0.0666667
24455 27 0.0714286
24469 26 0.0714286
24482 25 0.0769231
24495 24 0.0769231
24508 23 0.0769231
24521 22 0.0769231
24533 21 0.0833333
24546 20 0.0769231
24558 19 0.0833333
24570 18 0.0833333
24582 17 0.0833333
24593 16 0.0909091
24605 15 0.0833333
24616 14 0.0909091
24628 13 0.0833333
24639 12 0.0909091
24650 11 0.0909091
24661 10 0.0909091
24672 9 0.0909091
24683 8 0.0909091
24694 7 0.0909091
24705 6 0.0909091
24716 5 0.0909091
24727 4 0.0909091
24737 3 0.1
24748 2 0.0909091
24758 1 0.1
24766 0 0.125
24769 -1 0.333333
24780 -2 0.0909091
24790 -3 0.1
24801 -4 0.0909091
24811 -5 0.1
24822 -6 0.0909091
24832 -7 0.1
24843 -8 0.0909091
24853 -9 0.1
24864 -10 0.0909091
24874 -11 0.1
24895 -12 0.047619
24906 -13 0.0909091
24916 -14 0.1
24927 -15 0.0909091
24938 -16 0.0909091
24948 -17 0.1
24959 -18 0.0909091
24970 -19 0.0909091
24981 -20 0.0909091
24992 -21 0.0909091
25003 -22 0.0909091
25014 -23 0.0909091
25025 -24 0.0909091
25036 -25 0.0909091
25047 -26 0.0909091
25059 -27 0.0833333
25070 -28 0.0909091
25082 -29 0.0833333
25094 -30 0.0833333
25106 -31 0.0833333
25118 -32 0.0833333
25130 -33 0.0833333
25142 -34 0.0833333
25155 -35 0.0769231
25168 -36 0.0769231
25181 -37 0.0769231
25194 -38 0.0769231
25208 -39 0.0714286
25222 -40 0.0714286
25236 -41 0.0714286
25251 -42 0.0666667
25266 -43 0.0666667
25281 -44 0.0666667
25297 -45 0.0625
25314 -46 0.0588235
25331 -47 0.0588235
25349 -48 0.0555556
25368 -49 0.0526316
25389 -50 0.047619
25411 -51 0.0454545
25434 -52 0.0434783
25461 -53 0.037037
25490 -54 0.0344828
25527 -55 0.027027
25577 -56 0.02
25764 -55 -0.00534759
25808 -54 -0.0227273
25842 -53 -0.0294118
25871 -52 -0.0344828
25896 -51 -0.04
25919 -50 -0.0434783
25941 -49 -0.0454545
25960 -48 -0.0526316
25979 -47 -0.0526316
25997 -46 -0.0555556
26014 -45 -0.0588235
26031 -44 -0.0588235
26046 -43 -0.0666667
26062 -42 -0.0625
26076 -41 -0.0714286
26091 -40 -0.0666667
26105 -39 -0.0714286
26119 -38 -0.0714286
26132 -37 -0.0769231
26145 -36 -0.0769231
26158 -35 -0.0769231
26171 -34 -0.0769231
26183 -33 -0.0833333
26196 -32 -0.0769231
26208 -31 -0.0833333
26220 -30 -0.0833333
26232 -29 -0.0833333
26243 -28 -0.0909091
26255 -27 -0.0833333
26266 -26 -0.0909091
26278 -25 -0.0833333
26289 -24 -0.0909091
26300 -23 -0.0909091
26311 -22 -0.0909091
26322 -21 -0.0909091
26333 -20 -0.0909091
26344 -19 -0.0909091
26354 -18 -0.1
26365 -17 -0.0909091
26376 -16 -0.0909091
26386 -15 -0.1
26397 -14 -0.0909091
26407 -13 -0.1
26418 -12 -0.0909091
26428 -11 -0.1
26439 -10 -0.0909091
26450 -9 -0.0909091
26460 -8 -0.1
26470 -7 -0.1
26480 -6 -0.1
26491 -5 -0.0909091
26501 -4 -0.1
26512 -3 -0.0909091
26522 -2 -0.1
26532 -1 -0.1
26543 0 -0.0909091
26553 1 -0.1
26564 2 -0.0909091
26574 3 -0.1
26585 4 -0.0909091
26595 5 -0.1
26606 6 -0.0909091
26617 7 -0.0909091
26627 8 -0.1
26638 9 -0.0909091
26649 10 -0.0909091
26660 11 -0.0909091
26671 12 -0.0909091
26682 13 -0.0909091
26693 14 -0.0909091
26705 15 -0.0833333
26716 16 -0.0909091
26728 17 -0.0833333
26739 18 -0.0909091
26751 19 -0.0833333
26763 20 -0.0833333
26775 21 -0.0833333
26787 22 -0.0833333
26800 23 -0.0769231
26812 24 -0.0833333
26826 25 -0.0714286
26838 26 -0.0833333
26852 27 -0.0714286
26865 28 -0.0769231
26879 29 -0.0714286
26894 30 -0.0666667
26908 31 -0.0714286
26939 32 -0.0322581
26955 33 -0.0625
26972 34 -0.0588235
26990 35 -0.0555556
27008 36 -0.0555556
27027 37 -0.0526316
27048 38 -0.047619
27070 39 -0.0454545
27094 40 -0.0416667
27121 41 -0.037037
27152 42 -0.0322581
27190 43 -0.0263158
27244 44 -0.0185185
27416 43 0.00581395
27464 42 0.0208333
27499 41 0.0285714
27528 40 0.0344828
27554 39 0.0384615
27578 38 0.0416667
27600 37 0.0454545
27620 36 0.05
27639 35 0.0526316
27657 34 0.0555556
27675 33 0.0555556
27691 32 0.0625
27708 31 0.0588235
27723 30 0.0666667
27738 29 0.0666667
27753 28 0.0666667
27767 27 0.0714286
27781 26 0.0714286
27795 25 0.0714286
27808 24 0.0769231
27821 23 0.0769231
27834 22 0.0769231
27847 21 0.0769231
27859 20 0.0833333
27872 19 0.0769231
27884 18 0.0833333
27896 17 0.0833333
27908 16 0.0833333
27919 15 0.0909091
27942 14 0.0434783
27954 13 0.0833333
27965 12 0.0909091
27976 11 0.0909091
27987 10 0.0909091
27998 9 0.0909091
28009 8 0.0909091
28020 7 0.0909091
28031 6 0.0909091
28041 5 0.1
28052 4 0.0909091
28063 3 0.0909091
28073 2 0.1
28084 1 0.0909091
28092 0 0.125
28095 -1 0.333333
28105 -2 0.1
28116 -3 0.0909091
28126 -4 0.1
28137 -5 0.0909091
28147 -6 0.1
28158 -7 0.0909091
28168 -8 0.1
28179 -9 0.0909091
28189 -10 0.1
28199 -11 0.1
28210 -12 0.0909091
28221 -13 0.0909091
28231 -14 0.1
28242 -15 0.0909091
28252 -16 0.1
28263 -17 0.0909091
28274 -18 0.0909091
28284 -19 0.1
28295 -20 0.0909091
28306 -21 0.0909091
28317 -22 0.0909091
28328 -23 0.0909091
28339 -24 0.0909091
28350 -25 0.0909091
28361 -26 0.0909091
28373 -27 0.0833333
28384 -28 0.0909091
28395 -29 0.0909091
28407 -30 0.0833333
28419 -31 0.0833333
28431 -32 0.0833333
28443 -33 0.0833333
28455 -34 0.0833333
28468 -35 0.0769231
28480 -36 0.0833333
28493 -37 0.0769231
28506 -38 0.0769231
28519 -39 0.0769231
28533 -40 0.0714286
28547 -41 0.0714286
28561 -42 0.0714286
28576 -43 0.0666667
28591 -44 0.0666667
28606 -45 0.0666667
28622 -46 0.0625
28639 -47 0.0588235
28656 -48 0.0588235
28674 -49 0.0555556
28693 -50 0.0526316
28714 -51 0.047619
28735 -52 0.047619
28759 -53 0.0416667
28785 -54 0.0384615
28815 -55 0.0333333
28851 -56 0.0277778
28900 -57 0.0204082
29091 -56 -0.0052356
29135 -55 -0.0227273
29168 -54 -0.030303
29197 -53 -0.0344828
29222 -52 -0.04
29245 -51 -0.0434783
29266 -50 -0.047619
29286 -49 -0.05
29305 -48 -0.0526316
29323 -47 -0.0555556
29340 -46 -0.0588235
29356 -45 -0.0625
29372 -44 -0.0625
29387 -43 -0.0666667
29402 -42 -0.0666667
29416 -41 -0.0714286
29430 -40 -0.0714286
29444 -39 -0.0714286
29458 -38 -0.0714286
29471 -37 -0.0769231
29484 -36 -0.0769231
29496 -35 -0.0833333
29509 -34 -0.0769231
29521 -33 -0.0833333
29533 -32 -0.0833333
29545 -31 -0.0833333
29557 -30 -0.0833333
29569 -29 -0.0833333
29580 -28 -0.0909091
29592 -27 -0.0833333
29603 -26 -0.0909091
29614 -25 -0.0909091
29625 -24 -0.0909091
29636 -23 -0.0909091
29647 -22 -0.0909091
29658 -21 -0.0909091
29669 -20 -0.0909091
29680 -19 -0.0909091
29690 -18 -0.1
29701 -17 -0.0909091
29712 -16 -0.0909091
29722 -15 -0.1
29733 -14 -0.0909091
29743 -13 -0.1
29754 -12 -0.0909091
29764 -11 -0.1
29775 -10 -0.0909091
29785 -9 -0.1
29796 -8 -0.0909091
29806 -7 -0.1
29816 -6 -0.1
29827 -5 -0.0909091
29837 -4 -0.1
29848 -3 -0.0909091
29858 -2 -0.1
29868 -1 -0.1
29876 0 -0.125
29879 1 -0.333333
29889 2 -0.1
29900 3 -0.0909091
29910 4 -0.1
29921 5 -0.0909091
29932 6 -0.0909091
29942 7 -0.1
29953 8 -0.0909091
29964 9 -0.0909091
29975 10 -0.0909091
29986 11 -0.0909091
29997 12 -0.0909091
30008 13 -0.0909091
30019 14 -0.0909091
30031 15 -0.0833333
30042 16 -0.0909091
30054 17 -0.0833333
30065 18 -0.0909091
30077 19 -0.0833333
30089 20 -0.0833333
30101 21 -0.0833333
30126 22 -0.04
30138 23 -0.0833333
30151 24 -0.0769231
30165 25 -0.0714286
30178 26 -0.0769231
30192 27 -0.0714286
30206 28 -0.0714286
30220 29 -0.0714286
30235 30 -0.0666667
30250 31 -0.0666667
30266 32 -0.0625
30282 33 -0.0625
30299 34 -0.0588235
30316 35 -0.0588235
30335 36 -0.0526316
30354 37 -0.0526316
30375 38 -0.047619
30397 39 -0.0454545
30422 40 -0.04
30449 41 -0.037037
30480 42 -0.0322581
30519 43 -0.025641
30577 44 -0.0172414
30734 43 0.00636943
30784 42 0.02
30820 41 0.0277778
30850 40 0.0333333
30877 39 0.037037
30901 38 0.0416667
30923 37 0.0454545
30943 36 0.05
30962 35 0.0526316
30981 34 0.0526316
30998 33 0.0588235
31015 32 0.0588235
31031 31 0.0625
31047 30 0.0625
31062 29 0.0666667
31076 28 0.0714286
31091 27 0.0666667
31105 26 0.0714286
31132 25 0.037037
31145 24 0.0769231
31158 23 0.0769231
31171 22 0.0769231
31183 21 0.0833333
31196 20 0.0769231
31208 19 0.0833333
31220 18 0.0833333
31232 17 0.0833333
31243 16 0.0909091
31255 15 0.0833333
31266 14 0.0909091
31278 13 0.0833333
31289 12 0.0909091
31300 11 0.0909091
31311 10 0.0909091
31322 9 0.0909091
31333 8 0.0909091
31344 7 0.0909091
31355 6 0.0909091
31366 5 0.0909091
31376 4 0.1
31387 3 0.0909091
31398 2 0.0909091
31408 1 0.1
31416 0 0.125
31419 -1 0.333333
31429 -2 0.1
31440 -3 0.0909091
31450 -4 0.1
31461 -5 0.0909091
31471 -6 0.1
31482 -7 0.0909091
31492 -8 0.1
31503 -9 0.0909091
31513 -10 0.1
31524 -11 0.0909091
31534 -12 0.1
31545 -13 0.0909091
31555 -14 0.1
31566 -15 0.0909091
31577 -16 0.0909091
31587 -17 0.1
31598 -18 0.0909091
31609 -19 0.0909091
31620 -20 0.0909091
31630 -21 0.1
31641 -22 0.0909091
31652 -23 0.0909091
31663 -24 0.0909091
31674 -25 0.0909091
31686 -26 0.0833333
31697 -27 0.0909091
31708 -28 0.0909091
31720 -29 0.0833333
31732 -30 0.0833333
31743 -31 0.0909091
31755 -32 0.0833333
31767 -33 0.0833333
31780 -34 0.0769231
31792 -35 0.0833333
31805 -36 0.0769231
31817 -37 0.0833333
31830 -38 0.0769231
31844 -39 0.0714286
31857 -40 0.0769231
31871 -41 0.0714286
31885 -42 0.0714286
31900 -43 0.0666667
31915 -44 0.0666667
31930 -45 0.0666667
31946 -46 0.0625
31963 -47 0.0588235
31980 -48 0.0588235
31998 -49 0.0555556
32017 -50 0.0526316
32038 -51 0.047619
32059 -52 0.047619
32083 -53 0.0416667
32109 -54 0.0384615
32139 -55 0.0333333
32174 -56 0.0285714
32223 -57 0.0204082
32418 -56 -0.00512821
32461 -55 -0.0232558
32495 -54 -0.0294118
32523 -53 -0.0357143
32548 -52 -0.04
32571 -51 -0.0434783
32592 -50 -0.047619
32612 -49 -0.05
32631 -48 -0.0526316
32649 -47 -0.0555556
32666 -46 -0.0588235
32682 -45 -0.0625
32698 -44 -0.0625
32713 -43 -0.0666667
32728 -42 -0.0666667
32742 -41 -0.0714286
32756 -40 -0.0714286
32770 -39 -0.0714286
32783 -38 -0.0769231
32796 -37 -0.0769231
32809 -36 -0.0769231
32822 -35 -0.0769231
32835 -34 -0.0769231
32847 -33 -0.0833333
32859 -32 -0.0833333
32871 -31 -0.0833333
32883 -30 -0.0833333
32894 -29 -0.0909091
32906 -28 -0.0833333
32917 -27 -0.0909091
32929 -26 -0.0833333
32940 -25 -0.0909091
32951 -24 -0.0909091
32962 -23 -0.0909091
32973 -22 -0.0909091
32984 -21 -0.0909091
32995 -20 -0.0909091
33005 -19 -0.1
33016 -18 -0.0909091
33027 -17 -0.0909091
33037 -16 -0.1
33048 -15 -0.0909091
33059 -14 -0.0909091
33069 -13 -0.1
33080 -12 -0.0909091
33090 -11 -0.1
33100 -10 -0.1
33111 -9 -0.0909091
33132 -8 -0.047619
33142 -7 -0.1
33152 -6 -0.1
33163 -5 -0.0909091
33173 -4 -0.1
33184 -3 -0.0909091
33194 -2 -0.1
33202 0 -0.25
33205 1 -0.333333
33215 2 -0.1
33226 3 -0.0909091
33236 4 -0.1
33247 5 -0.0909091
33257 6 -0.1
33268 7 -0.0909091
33279 8 -0.0909091
33290 9 -0.0909091
33301 10 -0.0909091
33312 11 -0.0909091
33323 12 -0.0909091
33334 13 -0.0909091
33345 14 -0.0909091
33356 15 -0.0909091
33368 16 -0.0833333
33379 17 -0.0909091
33391 18 -0.0833333
33403 19 -0.0833333
33415 20 -0.0833333
33427 21 -0.0833333
33439 22 -0.0833333
33452 23 -0.0769231
33464 24 -0.0833333
33477 25 -0.0769231
33490 26 -0.0769231
33504 27 -0.0714286
33518 28 -0.0714286
33532 29 -0.0714286
33546 30 -0.0714286
33561 31 -0.0666667
33576 32 -0.0666667
33592 33 -0.0625
33608 34 -0.0625
33625 35 -0.0588235
33643 36 -0.0555556
33661 37 -0.0555556
33681 38 -0.05
33702 39 -0.047619
33724 40 -0.0454545
33749 41 -0.04
33776 42 -0.037037
33808 43 -0.03125
33848 44 -0.025
33908 45 -0.0166667
34055 44 0.00680272
34106 43 0.0196078
34143 42 0.027027
34173 41 0.0333333
34200 40 0.037037
34224 39 0.0416667
34246 38 0.0454545
34267 37 0.047619
34286 36 0.0526316
34304 35 0.0555556
34322 34 0.0555556
34339 33 0.0588235
34355 32 0.0625
34371 31 0.0625
34386 30 0.0666667
34401 29 0.0666667
34415 28 0.0714286
34429 27 0.0714286
34443 26 0.0714286
34456 25 0.0769231
34469 24 0.0769231
34482 23 0.0769231
34495 22 0.0769231
34508 21 0.0769231
34520 20 0.0833333
34532 19 0.0833333
34544 18 0.0833333
34556 17 0.0833333
34568 16 0.0833333
34579 15 0.0909091
34591 14 0.0833333
34602 13 0.0909091
34613 12 0.0909091
34625 11 0.0833333
34636 10 0.0909091
34647 9 0.0909091
34658 8 0.0909091
34669 7 0.0909091
34679 6 0.1
34690 5 0.0909091
34701 4 0.0909091
34712 3 0.0909091
34722 2 0.1
34733 1 0.0909091
34741 0 0.125
34744 -1 0.333333
34754 -2 0.1
34765 -3 0.0909091
34775 -4 0.1
34786 -5 0.0909091
34796 -6 0.1
34807 -7 0.0909091
34817 -8 0.1
34828 -9 0.0909091
34838 -10 0.1
34849 -11 0.0909091
34859 -12 0.1
34870 -13 0.0909091
34880 -14 0.1
34891 -15 0.0909091
34901 -16 0.1
34912 -17 0.0909091
34923 -18 0.0909091
34933 -19 0.1
34944 -20 0.0909091
34955 -21 0.0909091
34966 -22 0.0909091
34977 -23 0.0909091
34988 -24 0.0909091
34999 -25 0.0909091
35010 -26 0.0909091
35022 -27 0.0833333
35033 -28 0.0909091
35045 -29 0.0833333
35056 -30 0.0909091
35068 -31 0.0833333
35080 -32 0.0833333
35092 -33 0.0833333
35104 -34 0.0833333
35117 -35 0.0769231
35129 -36 0.0833333
35142 -37 0.0769231
35155 -38 0.0769231
35182 -39 0.037037
35196 -40 0.0714286
35210 -41 0.0714286
35225 -42 0.0666667
35240 -43 0.0666667
35255 -44 0.0666667
35271 -45 0.0625
35288 -46 0.0588235
35305 -47 0.0588235
35323 -48 0.0555556
35343 -49 0.05
35363 -50 0.05
35385 -51 0.0454545
35408 -52 0.0434783
35434 -53 0.0384615
35464 -54 0.0333333
35500 -55 0.0277778
35549 -56 0.0204082
35741 -55 -0.00520833
35785 -54 -0.0227273
35818 -53 -0.030303
35847 -52 -0.0344828
35872 -51 -0.04
35895 -50 -0.0434783
35916 -49 -0.047619
35936 -48 -0.05
35955 -47 -0.0526316
35973 -46 -0.0555556
35990 -45 -0.0588235
36006 -44 -0.0625
36022 -43 -0.0625
36037 -42 -0.0666667
36052 -41 -0.0666667
36066 -40 -0.0714286
36080 -39 -0.0714286
36094 -38 -0.0714286
36107 -37 -0.0769231
36121 -36 -0.0714286
36133 -35 -0.0833333
36146 -34 -0.0769231
36159 -33 -0.0769231
36183 -32 -0.0416667
36195 -31 -0.0833333
36207 -30 -0.0833333
36219 -29 -0.0833333
36230 -28 -0.0909091
36242 -27 -0.0833333
36253 -26 -0.0909091
36264 -25 -0.0909091
36275 -24 -0.0909091
36286 -23 -0.0909091
36297 -22 -0.0909091
36308 -21 -0.0909091
36319 -20 -0.0909091
36330 -19 -0.0909091
36340 -18 -0.1
36351 -17 -0.0909091
36361 -16 -0.1
36372 -15 -0.0909091
36383 -14 -0.0909091
36393 -13 -0.1
36404 -12 -0.0909091
36414 -11 -0.1
36424 -10 -0.1
36435 -9 -0.0909091
36445 -8 -0.1
36456 -7 -0.0909091
36466 -6 -0.1
36476 -5 -0.1
36487 -4 -0.0909091
36497 -3 -0.1
36508 -2 -0.0909091
36518 -1 -0.1
36526 0 -0.125
36528 1 -0.5
36539 2 -0.0909091
36549 3 -0.1
36560 4 -0.0909091
36571 5 -0.0909091
36581 6 -0.1
36592 7 -0.0909091
36603 8 -0.0909091
36613 9 -0.1
36624 10 -0.0909091
36635 11 -0.0909091
36646 12 -0.0909091
36657 13 -0.0909091
36669 14 -0.0833333
36680 15 -0.0909091
36691 16 -0.0909091
36703 17 -0.0833333
36715 18 -0.0833333
36726 19 -0.0909091
36738 20 -0.0833333
36750 21 -0.0833333
36763 22 -0.0769231
36775 23 -0.0833333
36788 24 -0.0769231
36801 25 -0.0769231
36814 26 -0.0769231
36827 27 -0.0769231
36841 28 -0.0714286
36855 29 -0.0714286
36869 30 -0.0714286
36884 31 -0.0666667
36899 32 -0.0666667
36914 33 -0.0666667
36931 34 -0.0588235
36947 35 -0.0625
36965 36 -0.0555556
36983 37 -0.0555556
37003 38 -0.05
37023 39 -0.05
37046 40 -0.0434783
37070 41 -0.0416667
37097 42 -0.037037
37128 43 -0.0322581
37166 44 -0.0263158
37221 45 -0.0181818
37389 44 0.00595238
37437 43 0.0208333
37472 42 0.0285714
37502 41 0.0333333
37528 40 0.0384615
37552 39 0.0416667
37574 38 0.0454545
37594 37 0.05
37613 36 0.0526316
37632 35 0.0526316
37649 34 0.0588235
37666 33 0.0588235
37682 32 0.0625
37697 31 0.0666667
37712 30 0.0666667
37727 29 0.0666667
37741 28 0.0714286
37755 27 0.0714286
37769 26 0.0714286
37782 25 0.0769231
37796 24 0.0714286
37808 23 0.0833333
37821 22 0.0769231
37834 21 0.0769231
37846 20 0.0833333
37858 19 0.0833333
37870 18 0.0833333
37882 17 0.0833333
37894 16 0.0833333
37905 15 0.0909091
37917 14 0.0833333
37928 13 0.0909091
37939 12 0.0909091
37950 11 0.0909091
37961 10 0.0909091
37972 9 0.0909091
37983 8 0.0909091
37994 7 0.0909091
38005 6 0.0909091
38016 5 0.0909091
38027 4 0.0909091
38037 3 0.1
38048 2 0.0909091
38058 1 0.1
38066 0 0.125
38069 -1 0.333333
38080 -2 0.0909091
38090 -3 0.1
38101 -4 0.0909091
38111 -5 0.1
38122 -6 0.0909091
38132 -7 0.1
38142 -8 0.1
38153 -9 0.0909091
38163 -10 0.1
38174 -11 0.0909091
38195 -12 0.047619
38205 -13 0.1
38216 -14 0.0909091
38227 -15 0.0909091
38237 -16 0.1
38248 -17 0.0909091
38259 -18 0.0909091
38270 -19 0.0909091
38280 -20 0.1
38291 -21 0.0909091
38302 -22 0.0909091
38313 -23 0.0909091
38324 -24 0.0909091
38336 -25 0.0833333
38347 -26 0.0909091
38358 -27 0.0909091
38370 -28 0.0833333
38382 -29 0.0833333
38393 -30 0.0909091
38405 -31 0.0833333
38417 -32 0.0833333
38430 -33 0.0769231
38442 -34 0.0833333
38455 -35 0.0769231
38467 -36 0.0833333
38480 -37 0.0769231
38494 -38 0.0714286
38507 -39 0.0769231
38521 -40 0.0714286
38535 -41 0.0714286
38550 -42 0.0666667
38565 -43 0.0666667
38580 -44 0.0666667
38596 -45 0.0625
38613 -46 0.0588235
38630 -47 0.0588235
38648 -48 0.0555556
38667 -49 0.0526316
38688 -50 0.047619
38709 -51 0.047619
38733 -52 0.0416667
38759 -53 0.0384615
38788 -54 0.0344828
38824 -55 0.0277778
38873 -56 0.0204082
39067 -55 -0.00515464
39111 -54 -0.0227273
39144 -53 -0.030303
39173 -52 -0.0344828
39198 -51 -0.04
39242 -50 -0.0227273
39262 -49 -0.05
39280 -48 -0.0555556
39298 -47 -0.0555556
39315 -46 -0.0588235
39331 -45 -0.0625
39347 -44 -0.0625
39362 -43 -0.0666667
39377 -42 -0.0666667
39392 -41 -0.0666667
39406 -40 -0.0714286
39419 -39 -0.0769231
39433 -38 -0.0714286
39446 -37 -0.0769231
39459 -36 -0.0769231
39472 -35 -0.0769231
39484 -34 -0.0833333
39496 -33 -0.0833333
39508 -32 -0.0833333
39520 -31 -0.0833333
39532 -30 -0.0833333
39544 -29 -0.0833333
39556 -28 -0.0833333
39567 -27 -0.0909091
39578 -26 -0.0909091
39589 -25 -0.0909091
39601 -24 -0.0833333
39612 -23 -0.0909091
39623 -22 -0.0909091
39633 -21 -0.1
39644 -20 -0.0909091
39655 -19 -0.0909091
39666 -18 -0.0909091
39676 -17 -0.1
39687 -16 -0.0909091
39697 -15 -0.1
39708 -14 -0.0909091
39719 -13 -0.0909091
39729 -12 -0.1
39739 -11 -0.1
39750 -10 -0.0909091
39760 -9 -0.1
39771 -8 -0.0909091
39781 -7 -0.1
39791 -6 -0.1
39802 -5 -0.0909091
39812 -4 -0.1
39823 -3 -0.0909091
39833 -2 -0.1
39844 -1 -0.0909091
39851 0 -0.142857
39854 1 -0.333333
39864 2 -0.1
39875 3 -0.0909091
39886 4 -0.0909091
39896 5 -0.1
39907 6 -0.0909091
39918 7 -0.0909091
39928 8 -0.1
39939 9 -0.0909091
39950 10 -0.0909091
39961 11 -0.0909091
39972 12 -0.0909091
39983 13 -0.0909091
39994 14 -0.0909091
40006 15 -0.0833333
40017 16 -0.0909091
40029 17 -0.0833333
40040 18 -0.0909091
40052 19 -0.0833333
40064 20 -0.0833333
40076 21 -0.0833333
40088 22 -0.0833333
40101 23 -0.0769231
40114 24 -0.0769231
40126 25 -0.0833333
40140 26 -0.0714286
40153 27 -0.0769231
40167 28 -0.0714286
40181 29 -0.0714286
40195 30 -0.0714286
40210 31 -0.0666667
40241 32 -0.0322581
40257 33 -0.0625
40274 34 -0.0588235
40291 35 -0.0588235
40310 36 -0.0526316
40329 37 -0.0526316
40350 38 -0.047619
40373 39 -0.0434783
40397 40 -0.0416667
40424 41 -0.037037
40456 42 -0.03125
40495 43 -0.025641
40553 44 -0.0172414
40708 43 0.00645161
40758 42 0.02
40794 41 0.0277778
40825 40 0.0322581
40851 39 0.0384615
40875 38 0.0416667
40897 37 0.0454545
40917 36 0.05
40937 35 0.05
40955 34 0.0555556
40973 33 0.0555556
40989 32 0.0625
41005 31 0.0625
41021 30 0.0625
41036 29 0.0666667
41051 28 0.0666667
41065 27 0.0714286
41079 26 0.0714286
41093 25 0.0714286
41106 24 0.0769231
41120 23 0.0714286
41133 22 0.0769231
41145 21 0.0833333
41158 20 0.0769231
41170 19 0.0833333
41182 18 0.0833333
41194 17 0.0833333
41206 16 0.0833333
41218 15 0.0833333
41241 14 0.0434783
41252 13 0.0909091
41264 12 0.0833333
41275 11 0.0909091
41286 10 0.0909091
41297 9 0.0909091
41308 8 0.0909091
41319 7 0.0909091
41330 6 0.0909091
41340 5 0.1
41351 4 0.0909091
41362 3 0.0909091
41372 2 0.1
41383 1 0.0909091
41391 0 0.125
41394 -1 0.333333
41404 -2 0.1
41415 -3 0.0909091
41425 -4 0.1
41436 -5 0.0909091
41446 -6 0.1
41457 -7 0.0909091
41467 -8 0.1
41478 -9 0.0909091
41488 -10 0.1
41499 -11 0.0909091
41509 -12 0.1
41520 -13 0.0909091
41530 -14 0.1
41541 -15 0.0909091
41551 -16 0.1
41562 -17 0.0909091
41573 -18 0.0909091
41583 -19 0.1
41594 -20 0.0909091
41605 -21 0.0909091
41616 -22 0.0909091
41627 -23 0.0909091
41638 -24 0.0909091
41649 -25 0.0909091
41660 -26 0.0909091
41672 -27 0.0833333
41683 -28 0.0909091
41695 -29 0.0833333
41706 -30 0.0909091
41718 -31 0.0833333
41730 -32 0.0833333
41742 -33 0.0833333
41754 -34 0.0833333
41767 -35 0.0769231
41779 -36 0.0833333
41792 -37 0.0769231
41805 -38 0.0769231
41818 -39 0.0769231
41832 -40 0.0714286
41846 -41 0.0714286
41860 -42 0.0714286
41875 -43 0.0666667
41890 -44 0.0666667
41905 -45 0.0666667
41921 -46 0.0625
41938 -47 0.0588235
41955 -48 0.0588235
41973 -49 0.0555556
41992 -50 0.0526316
42012 -51 0.05
42034 -52 0.0454545
42057 -53 0.0434783
42083 -54 0.0384615
42113 -55 0.0333333
42148 -56 0.0285714
42196 -57 0.0208333
42394 -56 -0.00505051
42437 -55 -0.0232558
42470 -54 -0.030303
42498 -53 -0.0357143
42523 -52 -0.04
42546 -51 -0.0434783
42567 -50 -0.047619
42587 -49 -0.05
42606 -48 -0.0526316
42624 -47 -0.0555556
42641 -46 -0.0588235
42657 -45 -0.0625
42673 -44 -0.0625
42688 -43 -0.0666667
42703 -42 -0.0666667
42717 -41 -0.0714286
42731 -40 -0.0714286
42745 -39 -0.0714286
42758 -38 -0.0769231
42772 -37 -0.0714286
42784 -36 -0.0833333
42797 -35 -0.0769231
42810 -34 -0.0769231
42822 -33 -0.0833333
42834 -32 -0.0833333
42846 -31 -0.0833333
42858 -30 -0.0833333
42870 -29 -0.0833333
42881 -28 -0.0909091
42893 -27 -0.0833333
42904 -26 -0.0909091
42915 -25 -0.0909091
42926 -24 -0.0909091
42937 -23 -0.0909091
42948 -22 -0.0909091
42959 -21 -0.0909091
42970 -20 -0.0909091
42981 -19 -0.0909091
42991 -18 -0.1
43002 -17 -0.0909091
43012 -16 -0.1
43023 -15 -0.0909091
43034 -14 -0.0909091
43044 -13 -0.1
43055 -12 -0.0909091
43065 -11 -0.1
43075 -10 -0.1
43086 -9 -0.0909091
43096 -8 -0.1
43107 -7 -0.0909091
43117 -6 -0.1
43127 -5 -0.1
43138 -4 -0.0909091
43148 -3 -0.1
43159 -2 -0.0909091
43169 -1 -0.1
43177 0 -0.125
43180 1 -0.333333
43190 2 -0.1
43201 3 -0.0909091
43211 4 -0.1
43222 5 -0.0909091
43232 6 -0.1
43243 7 -0.0909091
43254 8 -0.0909091
43265 9 -0.0909091
43276 10 -0.0909091
43287 11 -0.0909091
43298 12 -0.0909091
43309 13 -0.0909091
43320 14 -0.0909091
43331 15 -0.0909091
43343 16 -0.0833333
43354 17 -0.0909091
43366 18 -0.0833333
43378 19 -0.0833333
43390 20 -0.0833333
43402 21 -0.0833333
43427 22 -0.04
43439 23 -0.0833333
43452 24 -0.0769231
43465 25 -0.0769231
43479 26 -0.0714286
43493 27 -0.0714286
43507 28 -0.0714286
43521 29 -0.0714286
43536 30 -0.0666667
43551 31 -0.0666667
43567 32 -0.0625
43583 33 -0.0625
43600 34 -0.0588235
43618 35 -0.0555556
43636 36 -0.0555556
43656 37 -0.05
43676 38 -0.05
43699 39 -0.0434783
43724 40 -0.04
43751 41 -0.037037
43783 42 -0.03125
43822 43 -0.025641
43883 44 -0.0163934
44030 43 0.00680272
44081 42 0.0196078
44118 41 0.027027
44148 40 0.0333333
44175 39 0.037037
44199 38 0.0416667
44221 37 0.0454545
44242 36 0.047619
44261 35 0.0526316
44279 34 0.0555556
44297 33 0.0555556
44314 32 0.0588235
44330 31 0.0625
44346 30 0.0625
44361 29 0.0666667
44376 28 0.0666667
44390 27 0.0714286
44404 26 0.0714286
44431 25 0.037037
44444 24 0.0769231
44457 23 0.0769231
44470 22 0.0769231
44482 21 0.0833333
44495 20 0.0769231
44507 19 0.0833333
44519 18 0.0833333
44531 17 0.0833333
44543 16 0.0833333
44554 15 0.0909091
44566 14 0.0833333
44577 13 0.0909091
44588 12 0.0909091
44600 11 0.0833333
44611 10 0.0909091
44622 9 0.0909091
44633 8 0.0909091
44644 7 0.0909091
44654 6 0.1
44665 5 0.0909091
44676 4 0.0909091
44687 3 0.0909091
44697 2 0.1
44708 1 0.0909091
44716 0 0.125
44718 -1 0.5
44729 -2 0.0909091
44739 -3 0.1
44750 -4 0.0909091
44760 -5 0.1
44771 -6 0.0909091
44781 -7 0.1
44792 -8 0.0909091
44802 -9 0.1
44813 -10 0.0909091
44823 -11 0.1
44834 -12 0.0909091
44844 -13 0.1
44855 -14 0.0909091
44866 -15 0.0909091
44876 -16 0.1
44887 -17 0.0909091
44897 -18 0.1
44908 -19 0.0909091
44919 -20 0.0909091
44930 -21 0.0909091
44941 -22 0.0909091
44952 -23 0.0909091
44963 -24 0.0909091
44974 -25 0.0909091
44985 -26 0.0909091
44996 -27 0.0909091
45008 -28 0.0833333
45019 -29 0.0909091
45031 -30 0.0833333
45043 -31 0.0833333
45055 -32 0.0833333
45067 -33 0.0833333
45079 -34 0.0833333
45092 -35 0.0769231
45104 -36 0.0833333
45117 -37 0.0769231
45130 -38 0.0769231
45143 -39 0.0769231
45157 -40 0.0714286
45171 -41 0.0714286
45185 -42 0.0714286
45199 -43 0.0714286
45214 -44 0.0666667
45230 -45 0.0625
45246 -46 0.0625
45263 -47 0.0588235
45280 -48 0.0588235
45298 -49 0.0555556
45317 -50 0.0526316
45337 -51 0.05
45359 -52 0.0454545
45383 -53 0.0416667
45409 -54 0.0384615
45438 -55 0.0344828
45474 -56 0.0277778
45523 -57 0.0204082
45717 -56 -0.00515464
45761 -55 -0.0227273
45794 -54 -0.030303
45822 -53 -0.0357143
45848 -52 -0.0384615
45871 -51 -0.0434783
45892 -50 -0.047619
45911 -49 -0.0526316
45930 -48 -0.0526316
45948 -47 -0.0555556
45965 -46 -0.0588235
45981 -45 -0.0625
45997 -44 -0.0625
46013 -43 -0.0625
