7 -7 -4.12729e-05
19 -8 0.0833333
30 -9 0.0909091
41 -10 0.0909091
52 -11 0.0909091
64 -12 0.0833333
75 -13 0.0909091
87 -14 0.0833333
98 -15 0.0909091
110 -16 0.0833333
122 -17 0.0833333
134 -18 0.0833333
146 -19 0.0833333
158 -20 0.0833333
171 -21 0.0769231
183 -22 0.0833333
196 -23 0.0769231
209 -24 0.0769231
223 -25 0.0714286
236 -26 0.0769231
250 -27 0.0714286
265 -28 0.0666667
280 -29 0.0666667
296 -30 0.0625
312 -31 0.0625
329 -32 0.0588235
347 -33 0.0555556
366 -34 0.0526316
386 -35 0.05
408 -36 0.0454545
433 -37 0.04
462 -38 0.0344828
497 -39 0.0285714
551 -40 0.0185185
683 -39 -0.00757576
729 -38 -0.0217391
762 -37 -0.030303
790 -36 -0.0357143
814 -35 -0.0416667
835 -34 -0.047619
855 -33 -0.05
874 -32 -0.0526316
892 -31 -0.0555556
909 -30 -0.0588235
925 -29 -0.0625
940 -28 -0.0666667
955 -27 -0.0666667
970 -26 -0.0666667
984 -25 -0.0714286
998 -24 -0.0714286
1011 -23 -0.0769231
1024 -22 -0.0769231
1037 -21 -0.0769231
1050 -20 -0.0769231
1062 -19 -0.0833333
1075 -18 -0.0769231
1087 -17 -0.0833333
1099 -16 -0.0833333
1111 -15 -0.0833333
1122 -14 -0.0909091
1134 -13 -0.0833333
1146 -12 -0.0833333
1157 -11 -0.0909091
1169 -10 -0.0833333
1180 -9 -0.0909091
1191 -8 -0.0909091
1203 -7 -0.0833333
1214 -6 -0.0909091
1236 -5 -0.0454545
1248 -4 -0.0833333
1259 -3 -0.0909091
1270 -2 -0.0909091
1282 -1 -0.0833333
1293 0 -0.0909091
1302 0 -0.222222
1304 1 -0.5
1316 2 -0.0833333
1327 3 -0.0909091
1339 4 -0.0833333
1351 5 -0.0833333
1363 6 -0.0833333
1374 7 -0.0909091
1387 8 -0.0769231
1399 9 -0.0833333
1411 10 -0.0833333
1424 11 -0.0769231
1437 12 -0.0769231
1450 13 -0.0769231
1463 14 -0.0769231
1476 15 -0.0769231
1490 16 -0.0714286
1505 17 -0.0666667
1519 18 -0.0714286
1534 19 -0.0666667
1550 20 -0.0625
1567 21 -0.0588235
1584 22 -0.0588235
1602 23 -0.0555556
1621 24 -0.0526316
1642 25 -0.047619
1665 26 -0.0434783
1691 27 -0.0384615
1721 28 -0.0333333
1760 29 -0.025641
1838 30 -0.0128205
1910 29 0.0138889
1965 28 0.0181818
2000 27 0.0285714
2029 26 0.0344828
2053 25 0.0416667
2076 24 0.0434783
2096 23 0.05
2115 22 0.0526316
2132 21 0.0588235
2149 20 0.0588235
2165 19 0.0625
2181 18 0.0625
2196 17 0.0666667
2210 16 0.0714286
2224 15 0.0714286
2238 14 0.0714286
2251 13 0.0769231
2264 12 0.0769231
2277 11 0.0769231
2290 10 0.0769231
2302 9 0.0833333
2314 8 0.0833333
2326 7 0.0833333
2338 6 0.0833333
2350 5 0.0833333
2361 4 0.0909091
2373 3 0.0833333
2384 2 0.0909091
2396 1 0.0833333
2404 0 0.125
2407 -1 0.333333
2418 -2 0.0909091
2430 -3 0.0833333
2441 -4 0.0909091
2452 -5 0.0909091
2463 -6 0.0909091
2474 -7 0.0909091
2485 -8 0.0909091
2496 -9 0.0909091
2507 -10 0.0909091
2518 -11 0.0909091
2530 -12 0.0833333
2541 -13 0.0909091
2552 -14 0.0909091
2563 -15 0.0909091
2575 -16 0.0833333
2586 -17 0.0909091
2598 -18 0.0833333
2610 -19 0.0833333
2622 -20 0.0833333
2633 -21 0.0909091
2646 -22 0.0769231
2658 -23 0.0833333
2670 -24 0.0833333
2683 -25 0.0769231
2696 -26 0.0769231
2709 -27 0.0769231
2723 -28 0.0714286
2736 -29 0.0769231
2751 -30 0.0666667
2765 -31 0.0714286
2780 -32 0.0666667
2796 -33 0.0625
2813 -34 0.0588235
2830 -35 0.0588235
2848 -36 0.0555556
2867 -37 0.0526316
2888 -38 0.047619
2912 -39 0.0416667
2938 -40 0.0384615
2968 -41 0.0333333
3009 -42 0.0243902
3204 -41 -0.00512821
3240 -40 -0.0277778
3270 -39 -0.0333333
3295 -38 -0.04
3317 -37 -0.0454545
3338 -36 -0.047619
3357 -35 -0.0526316
3375 -34 -0.0555556
3392 -33 -0.0588235
3408 -32 -0.0625
3424 -31 -0.0625
3439 -30 -0.0666667
3454 -29 -0.0666667
3468 -28 -0.0714286
3481 -27 -0.0769231
3495 -26 -0.0714286
3508 -25 -0.0769231
3521 -24 -0.0769231
3534 -23 -0.0769231
3546 -22 -0.0833333
3558 -21 -0.0833333
3570 -20 -0.0833333
3582 -19 -0.0833333
3594 -18 -0.0833333
3606 -17 -0.0833333
3617 -16 -0.0909091
3629 -15 -0.0833333
3640 -14 -0.0909091
3652 -13 -0.0833333
3663 -12 -0.0909091
3674 -11 -0.0909091
3685 -10 -0.0909091
3697 -9 -0.0833333
3708 -8 -0.0909091
3719 -7 -0.0909091
3730 -6 -0.0909091
3741 -5 -0.0909091
3752 -4 -0.0909091
3763 -3 -0.0909091
3774 -2 -0.0909091
3786 -1 -0.0833333
3794 0 -0.125
3797 1 -0.333333
3808 2 -0.0909091
3820 3 -0.0833333
3831 4 -0.0909091
3842 5 -0.0909091
3854 6 -0.0833333
3866 7 -0.0833333
3878 8 -0.0833333
3890 9 -0.0833333
3902 10 -0.0833333
3914 11 -0.0833333
3927 12 -0.0769231
3940 13 -0.0769231
3953 14 -0.0769231
3966 15 -0.0769231
3979 16 -0.0769231
3993 17 -0.0714286
4008 18 -0.0666667
4022 19 -0.0714286
4038 20 -0.0625
4054 21 -0.0625
4070 22 -0.0625
4088 23 -0.0555556
4106 24 -0.0555556
4126 25 -0.05
4148 26 -0.0454545
4172 27 -0.0416667
4199 28 -0.037037
4232 29 -0.030303
4279 30 -0.0212766
4438 29 0.00628931
4479 28 0.0243902
4510 27 0.0322581
4536 26 0.0384615
4559 25 0.0434783
4580 24 0.047619
4600 23 0.05
4618 22 0.0555556
4635 21 0.0588235
4652 20 0.0588235
4667 19 0.0666667
4683 18 0.0625
4697 17 0.0714286
4711 16 0.0714286
4725 15 0.0714286
4739 14 0.0714286
4752 13 0.0769231
4765 12 0.0769231
4777 11 0.0833333
4790 10 0.0769231
4802 9 0.0833333
4814 8 0.0833333
4826 7 0.0833333
4838 6 0.0833333
4849 5 0.0909091
4861 4 0.0833333
4872 3 0.0909091
4884 2 0.0833333
4895 1 0.0909091
4903 0 0.125
4906 -1 0.333333
4918 -2 0.0833333
4929 -3 0.0909091
4940 -4 0.0909091
4951 -5 0.0909091
4962 -6 0.0909091
4973 -7 0.0909091
4984 -8 0.0909091
4995 -9 0.0909091
5006 -10 0.0909091
5017 -11 0.0909091
5028 -12 0.0909091
5040 -13 0.0833333
5051 -14 0.0909091
5062 -15 0.0909091
5074 -16 0.0833333
5085 -17 0.0909091
5097 -18 0.0833333
5108 -19 0.0909091
5120 -20 0.0833333
5132 -21 0.0833333
5144 -22 0.0833333
5156 -23 0.0833333
5169 -24 0.0769231
5182 -25 0.0769231
5195 -26 0.0769231
5208 -27 0.0769231
5221 -28 0.0769231
5235 -29 0.0714286
5249 -30 0.0714286
5264 -31 0.0666667
5280 -32 0.0625
5312 -33 0.03125
5329 -34 0.0588235
5347 -35 0.0555556
5367 -36 0.05
5388 -37 0.047619
5412 -38 0.0416667
5439 -39 0.037037
5471 -40 0.03125
5514 -41 0.0232558
5693 -40 -0.00558659
5732 -39 -0.025641
5762 -38 -0.0333333
5788 -37 -0.0384615
5811 -36 -0.0434783
5832 -35 -0.047619
5851 -34 -0.0526316
5869 -33 -0.0555556
5886 -32 -0.0588235
5903 -31 -0.0588235
5919 -30 -0.0625
5934 -29 -0.0666667
5948 -28 -0.0714286
5963 -27 -0.0666667
5977 -26 -0.0714286
5990 -25 -0.0769231
6003 -24 -0.0769231
6016 -23 -0.0769231
6029 -22 -0.0769231
6042 -21 -0.0769231
6054 -20 -0.0833333
6066 -19 -0.0833333
6078 -18 -0.0833333
6090 -17 -0.0833333
6102 -16 -0.0833333
6113 -15 -0.0909091
6125 -14 -0.0833333
6136 -13 -0.0909091
6148 -12 -0.0833333
6159 -11 -0.0909091
6170 -10 -0.0909091
6182 -9 -0.0833333
6193 -8 -0.0909091
6204 -7 -0.0909091
6215 -6 -0.0909091
6226 -5 -0.0909091
6238 -4 -0.0833333
6249 -3 -0.0909091
6260 -2 -0.0909091
6271 -1 -0.0909091
6282 0 -0.0909091
6305 1 -0.0434783
6317 2 -0.0833333
6328 3 -0.0909091
6340 4 -0.0833333
6351 5 -0.0909091
6363 6 -0.0833333
6375 7 -0.0833333
6387 8 -0.0833333
6399 9 -0.0833333
6412 10 -0.0769231
6424 11 -0.0833333
6437 12 -0.0769231
6450 13 -0.0769231
6464 14 -0.0714286
6478 15 -0.0714286
6492 16 -0.0714286
6506 17 -0.0714286
6521 18 -0.0666667
6537 19 -0.0625
6553 20 -0.0625
6570 21 -0.0588235
6587 22 -0.0588235
6606 23 -0.0526316
6627 24 -0.047619
6649 25 -0.0454545
6673 26 -0.0416667
6702 27 -0.0344828
6737 28 -0.0285714
6790 29 -0.0188679
6922 28 0.00757576
6968 27 0.0217391
7000 26 0.03125
7027 25 0.037037
7051 24 0.0416667
7072 23 0.047619
7092 22 0.05
7110 21 0.0555556
7128 20 0.0555556
7144 19 0.0625
7160 18 0.0625
7175 17 0.0666667
7190 16 0.0666667
7204 15 0.0714286
7218 14 0.0714286
7232 13 0.0714286
7245 12 0.0769231
7258 11 0.0769231
7270 10 0.0833333
7283 9 0.0769231
7307 8 0.0416667
7319 7 0.0833333
7331 6 0.0833333
7343 5 0.0833333
7354 4 0.0909091
7366 3 0.0833333
7377 2 0.0909091
7388 1 0.0909091
7397 0 0.111111
7399 -1 0.5
7411 -2 0.0833333
7422 -3 0.0909091
7433 -4 0.0909091
7444 -5 0.0909091
7455 -6 0.0909091
7466 -7 0.0909091
7477 -8 0.0909091
7488 -9 0.0909091
7499 -10 0.0909091
7510 -11 0.0909091
7521 -12 0.0909091
7532 -13 0.0909091
7544 -14 0.0833333
7555 -15 0.0909091
7566 -16 0.0909091
7578 -17 0.0833333
7589 -18 0.0909091
7601 -19 0.0833333
7612 -20 0.0909091
7624 -21 0.0833333
7636 -22 0.0833333
7648 -23 0.0833333
7661 -24 0.0769231
7673 -25 0.0833333
7686 -26 0.0769231
7699 -27 0.0769231
7713 -28 0.0714286
7726 -29 0.0769231
7740 -30 0.0714286
7755 -31 0.0666667
7770 -32 0.0666667
7786 -33 0.0625
7802 -34 0.0625
7819 -35 0.0588235
7837 -36 0.0555556
7856 -37 0.0526316
7876 -38 0.05
7899 -39 0.0434783
7924 -40 0.04
7953 -41 0.0344828
7990 -42 0.027027
8054 -43 0.015625
8155 -42 -0.00990099
8206 -41 -0.0196078
8240 -40 -0.0294118
8268 -39 -0.0357143
8292 -38 -0.0416667
8314 -37 -0.0454545
8334 -36 -0.05
8353 -35 -0.0526316
8371 -34 -0.0555556
8388 -33 -0.0588235
8404 -32 -0.0625
8419 -31 -0.0666667
8434 -30 -0.0666667
8449 -29 -0.0666667
8463 -28 -0.0714286
8476 -27 -0.0769231
8490 -26 -0.0714286
8503 -25 -0.0769231
8516 -24 -0.0769231
8528 -23 -0.0833333
8541 -22 -0.0769231
8553 -21 -0.0833333
8565 -20 -0.0833333
8577 -19 -0.0833333
8588 -18 -0.0909091
8600 -17 -0.0833333
8612 -16 -0.0833333
8623 -15 -0.0909091
8634 -14 -0.0909091
8646 -13 -0.0833333
8657 -12 -0.0909091
8668 -11 -0.0909091
8679 -10 -0.0909091
8690 -9 -0.0909091
8702 -8 -0.0833333
8713 -7 -0.0909091
8724 -6 -0.0909091
8735 -5 -0.0909091
8746 -4 -0.0909091
8757 -3 -0.0909091
8768 -2 -0.0909091
8780 -1 -0.0833333
8788 0 -0.125
8791 1 -0.333333
8802 2 -0.0909091
8813 3 -0.0909091
8825 4 -0.0833333
8836 5 -0.0909091
8848 6 -0.0833333
8860 7 -0.0833333
8871 8 -0.0909091
8883 9 -0.0833333
8896 10 -0.0769231
8908 11 -0.0833333
8921 12 -0.0769231
8933 13 -0.0833333
8946 14 -0.0769231
8960 15 -0.0714286
8973 16 -0.0769231
8987 17 -0.0714286
9002 18 -0.0666667
9016 19 -0.0714286
9032 20 -0.0625
9048 21 -0.0625
9065 22 -0.0588235
9082 23 -0.0588235
9101 24 -0.0526316
9121 25 -0.05
9143 26 -0.0454545
9167 27 -0.0416667
9195 28 -0.0357143
9229 29 -0.0294118
9280 30 -0.0196078
9422 29 0.00704225
9465 28 0.0232558
9497 27 0.03125
9524 26 0.037037
9547 25 0.0434783
9568 24 0.047619
9588 23 0.05
9606 22 0.0555556
9624 21 0.0555556
9640 20 0.0625
9656 19 0.0625
9671 18 0.0666667
9685 17 0.0714286
9700 16 0.0666667
9713 15 0.0769231
9727 14 0.0714286
9740 13 0.0769231
9753 12 0.0769231
9765 11 0.0833333
9778 10 0.0769231
9790 9 0.0833333
9802 8 0.0833333
9814 7 0.0833333
9826 6 0.0833333
9837 5 0.0909091
9849 4 0.0833333
9860 3 0.0909091
9872 2 0.0833333
9883 1 0.0909091
9891 0 0.125
9894 -1 0.333333
9905 -2 0.0909091
9916 -3 0.0909091
9927 -4 0.0909091
9938 -5 0.0909091
9949 -6 0.0909091
9960 -7 0.0909091
9971 -8 0.0909091
9982 -9 0.0909091
9993 -10 0.0909091
10004 -11 0.0909091
10015 -12 0.0909091
10026 -13 0.0909091
10037 -14 0.0909091
10049 -15 0.0833333
10060 -16 0.0909091
10071 -17 0.0909091
10083 -18 0.0833333
10094 -19 0.0909091
10106 -20 0.0833333
10118 -21 0.0833333
10130 -22 0.0833333
10142 -23 0.0833333
10154 -24 0.0833333
10167 -25 0.0769231
10179 -26 0.0833333
10192 -27 0.0769231
10205 -28 0.0769231
10219 -29 0.0714286
10233 -30 0.0714286
10247 -31 0.0714286
10262 -32 0.0666667
10277 -33 0.0666667
10293 -34 0.0625
10310 -35 0.0588235
10328 -36 0.0555556
10346 -37 0.0555556
10366 -38 0.05
10388 -39 0.0454545
10412 -40 0.0416667
10440 -41 0.0357143
10475 -42 0.0285714
10526 -43 0.0196078
10667 -42 -0.0070922
10711 -41 -0.0227273
10743 -40 -0.03125
10770 -39 -0.037037
10793 -38 -0.0434783
10815 -37 -0.0454545
10834 -36 -0.0526316
10853 -35 -0.0526316
10870 -34 -0.0588235
10887 -33 -0.0588235
10902 -32 -0.0666667
10918 -31 -0.0625
10932 -30 -0.0714286
10947 -29 -0.0666667
10961 -28 -0.0714286
10974 -27 -0.0769231
10987 -26 -0.0769231
11000 -25 -0.0769231
11013 -24 -0.0769231
11026 -23 -0.0769231
11038 -22 -0.0833333
11050 -21 -0.0833333
11062 -20 -0.0833333
11074 -19 -0.0833333
11085 -18 -0.0909091
11097 -17 -0.0833333
11109 -16 -0.0833333
11120 -15 -0.0909091
11131 -14 -0.0909091
11143 -13 -0.0833333
11154 -12 -0.0909091
11165 -11 -0.0909091
11176 -10 -0.0909091
11187 -9 -0.0909091
11198 -8 -0.0909091
11209 -7 -0.0909091
11220 -6 -0.0909091
11231 -5 -0.0909091
11242 -4 -0.0909091
11253 -3 -0.0909091
11264 -2 -0.0909091
11275 -1 -0.0909091
11284 0 -0.111111
11287 1 -0.333333
11298 2 -0.0909091
11309 3 -0.0909091
11321 4 -0.0833333
11332 5 -0.0909091
11344 6 -0.0833333
11355 7 -0.0909091
11367 8 -0.0833333
11379 9 -0.0833333
11391 10 -0.0833333
11404 11 -0.0769231
11416 12 -0.0833333
11429 13 -0.0769231
11442 14 -0.0769231
11483 15 -0.0243902
11497 16 -0.0714286
11512 17 -0.0666667
11527 18 -0.0666667
11543 19 -0.0625
11560 20 -0.0588235
11577 21 -0.0588235
11596 22 -0.0526316
11616 23 -0.05
11637 24 -0.047619
11661 25 -0.0416667
11689 26 -0.0357143
11723 27 -0.0294118
11771 28 -0.0208333
11921 27 0.00666667
11963 26 0.0238095
11995 25 0.03125
12021 24 0.0384615
12044 23 0.0434783
12065 22 0.047619
12085 21 0.05
12103 20 0.0555556
12120 19 0.0588235
12137 18 0.0588235
12152 17 0.0666667
12167 16 0.0666667
12182 15 0.0666667
12196 14 0.0714286
12210 13 0.0714286
12223 12 0.0769231
12236 11 0.0769231
12249 10 0.0769231
12262 9 0.0769231
12274 8 0.0833333
12286 7 0.0833333
12298 6 0.0833333
12310 5 0.0833333
12322 4 0.0833333
12334 3 0.0833333
12345 2 0.0909091
12357 1 0.0833333
12368 0 0.0909091
12379 -1 0.0909091
12387 0 -0.125
12390 -1 0.333333
12401 -2 0.0909091
12412 -3 0.0909091
12423 -4 0.0909091
12434 -5 0.0909091
12445 -6 0.0909091
12467 -7 0.0454545
12478 -8 0.0909091
12489 -9 0.0909091
12500 -10 0.0909091
12511 -11 0.0909091
12522 -12 0.0909091
12534 -13 0.0833333
12545 -14 0.0909091
12556 -15 0.0909091
12567 -16 0.0909091
12579 -17 0.0833333
12590 -18 0.0909091
12602 -19 0.0833333
12614 -20 0.0833333
12626 -21 0.0833333
12638 -22 0.0833333
12650 -23 0.0833333
12663 -24 0.0769231
12675 -25 0.0833333
12688 -26 0.0769231
12702 -27 0.0714286
12715 -28 0.0769231
12729 -29 0.0714286
12744 -30 0.0666667
12758 -31 0.0714286
12774 -32 0.0625
12790 -33 0.0625
12806 -34 0.0625
12824 -35 0.0555556
12843 -36 0.0526316
12863 -37 0.05
12885 -38 0.0454545
12909 -39 0.0416667
12937 -40 0.0357143
12972 -41 0.0285714
13024 -42 0.0192308
13161 -41 -0.00729927
13205 -40 -0.0227273
13238 -39 -0.030303
13264 -38 -0.0384615
13288 -37 -0.0416667
13310 -36 -0.0454545
13329 -35 -0.0526316
13348 -34 -0.0526316
13365 -33 -0.0588235
13382 -32 -0.0588235
13398 -31 -0.0625
13413 -30 -0.0666667
13428 -29 -0.0666667
13442 -28 -0.0714286
13457 -27 -0.0666667
13483 -26 -0.0384615
13496 -25 -0.0769231
13509 -24 -0.0769231
13521 -23 -0.0833333
13533 -22 -0.0833333
13546 -21 -0.0769231
13558 -20 -0.0833333
13569 -19 -0.0909091
13581 -18 -0.0833333
13593 -17 -0.0833333
13604 -16 -0.0909091
13616 -15 -0.0833333
13627 -14 -0.0909091
13638 -13 -0.0909091
13650 -12 -0.0833333
13661 -11 -0.0909091
13672 -10 -0.0909091
13683 -9 -0.0909091
13694 -8 -0.0909091
13705 -7 -0.0909091
13716 -6 -0.0909091
13727 -5 -0.0909091
13738 -4 -0.0909091
13749 -3 -0.0909091
13760 -2 -0.0909091
13772 -1 -0.0833333
13780 0 -0.125
13783 1 -0.333333
13794 2 -0.0909091
13806 3 -0.0833333
13817 4 -0.0909091
13830 5 -0.0769231
13840 6 -0.1
13852 7 -0.0833333
13864 8 -0.0833333
13876 9 -0.0833333
13888 10 -0.0833333
13901 11 -0.0769231
13913 12 -0.0833333
13926 13 -0.0769231
13939 14 -0.0769231
13953 15 -0.0714286
13966 16 -0.0769231
13980 17 -0.0714286
13994 18 -0.0714286
14009 19 -0.0666667
14024 20 -0.0666667
14040 21 -0.0625
14057 22 -0.0588235
14075 23 -0.0555556
14094 24 -0.0526316
14114 25 -0.05
14136 26 -0.0454545
14161 27 -0.04
14189 28 -0.0357143
14224 29 -0.0285714
14278 30 -0.0185185
14407 29 0.00775194
14453 28 0.0217391
14486 27 0.030303
14512 26 0.0384615
14536 25 0.0416667
14558 24 0.0454545
14577 23 0.0526316
14596 22 0.0526316
14613 21 0.0588235
14630 20 0.0588235
14646 19 0.0625
14661 18 0.0666667
14676 17 0.0666667
14690 16 0.0714286
14703 15 0.0769231
14717 14 0.0714286
14730 13 0.0769231
14743 12 0.0769231
14756 11 0.0769231
14769 10 0.0769231
14781 9 0.0833333
14793 8 0.0833333
14805 7 0.0833333
14816 6 0.0909091
14828 5 0.0833333
14840 4 0.0833333
14851 3 0.0909091
14862 2 0.0909091
14874 1 0.0833333
14882 0 0.125
14885 -1 0.333333
14896 -2 0.0909091
14907 -3 0.0909091
14918 -4 0.0909091
14929 -5 0.0909091
14940 -6 0.0909091
14951 -7 0.0909091
14963 -8 0.0833333
14973 -9 0.1
14985 -10 0.0833333
14996 -11 0.0909091
15007 -12 0.0909091
15018 -13 0.0909091
15029 -14 0.0909091
15040 -15 0.0909091
15052 -16 0.0833333
15063 -17 0.0909091
15076 -18 0.0769231
15086 -19 0.1
15098 -20 0.0833333
15110 -21 0.0833333
15122 -22 0.0833333
15134 -23 0.0833333
15146 -24 0.0833333
15159 -25 0.0769231
15172 -26 0.0769231
15185 -27 0.0769231
15198 -28 0.0769231
15212 -29 0.0714286
15226 -30 0.0714286
15241 -31 0.0666667
15256 -32 0.0666667
15271 -33 0.0666667
15288 -34 0.0588235
15305 -35 0.0588235
15323 -36 0.0555556
15342 -37 0.0526316
15362 -38 0.05
15385 -39 0.0434783
15410 -40 0.04
15440 -41 0.0333333
15478 -42 0.0263158
15546 -43 0.0147059
15636 -42 -0.0111111
15688 -41 -0.0192308
15723 -40 -0.0285714
15752 -39 -0.0344828
15776 -38 -0.0416667
15798 -37 -0.0454545
15818 -36 -0.05
15837 -35 -0.0526316
15855 -34 -0.0555556
15872 -33 -0.0588235
15888 -32 -0.0625
15903 -31 -0.0666667
15918 -30 -0.0666667
15933 -29 -0.0666667
15947 -28 -0.0714286
15961 -27 -0.0714286
15974 -26 -0.0769231
15987 -25 -0.0769231
16000 -24 -0.0769231
16013 -23 -0.0769231
16025 -22 -0.0833333
16037 -21 -0.0833333
16049 -20 -0.0833333
16061 -19 -0.0833333
16073 -18 -0.0833333
16085 -17 -0.0833333
16096 -16 -0.0909091
16108 -15 -0.0833333
16119 -14 -0.0909091
16130 -13 -0.0909091
16142 -12 -0.0833333
16153 -11 -0.0909091
16164 -10 -0.0909091
16175 -9 -0.0909091
16186 -8 -0.0909091
16198 -7 -0.0833333
16209 -6 -0.0909091
16220 -5 -0.0909091
16231 -4 -0.0909091
16242 -3 -0.0909091
16253 -2 -0.0909091
16264 -1 -0.0909091
16273 0 -0.111111
16276 1 -0.333333
16287 2 -0.0909091
16298 3 -0.0909091
16310 4 -0.0833333
16321 5 -0.0909091
16333 6 -0.0833333
16345 7 -0.0833333
16357 8 -0.0833333
16369 9 -0.0833333
16381 10 -0.0833333
16394 11 -0.0769231
16406 12 -0.0833333
16419 13 -0.0769231
16432 14 -0.0769231
16446 15 -0.0714286
16459 16 -0.0769231
16473 17 -0.0714286
16489 18 -0.0625
16503 19 -0.0714286
16520 20 -0.0588235
16534 21 -0.0714286
16551 22 -0.0588235
16588 23 -0.027027
16608 24 -0.05
16632 25 -0.0416667
16656 26 -0.0416667
16684 27 -0.0357143
16721 28 -0.027027
16779 29 -0.0172414
16895 28 0.00862069
16942 27 0.0212766
16976 26 0.0294118
17003 25 0.037037
17027 24 0.0416667
17049 23 0.0454545
17068 22 0.0526316
17087 21 0.0526316
17104 20 0.0588235
17121 19 0.0588235
17137 18 0.0625
17152 17 0.0666667
17167 16 0.0666667
17181 15 0.0714286
17195 14 0.0714286
17209 13 0.0714286
17222 12 0.0769231
17235 11 0.0769231
17248 10 0.0769231
17260 9 0.0833333
17272 8 0.0833333
17284 7 0.0833333
17296 6 0.0833333
17308 5 0.0833333
17320 4 0.0833333
17331 3 0.0909091
17343 2 0.0833333
17354 1 0.0909091
17366 0 0.0833333
17377 -1 0.0909091
17388 -2 0.0909091
17399 -3 0.0909091
17410 -4 0.0909091
17421 -5 0.0909091
17432 -6 0.0909091
17443 -7 0.0909091
17454 -8 0.0909091
17465 -9 0.0909091
17476 -10 0.0909091
17487 -11 0.0909091
17499 -12 0.0833333
17510 -13 0.0909091
17521 -14 0.0909091
17532 -15 0.0909091
17544 -16 0.0833333
17555 -17 0.0909091
17578 -18 0.0434783
17590 -19 0.0833333
17602 -20 0.0833333
17614 -21 0.0833333
17626 -22 0.0833333
17638 -23 0.0833333
17651 -24 0.0769231
17664 -25 0.0769231
17677 -26 0.0769231
17690 -27 0.0769231
17704 -28 0.0714286
17718 -29 0.0714286
17732 -30 0.0714286
17747 -31 0.0666667
17763 -32 0.0625
17779 -33 0.0625
17796 -34 0.0588235
17833 -35 0.027027
17853 -36 0.05
17876 -37 0.0434783
17901 -38 0.04
17930 -39 0.0344828
17967 -40 0.027027
18028 -41 0.0163934
18135 -40 -0.00934579
18185 -39 -0.02
18219 -38 -0.0294118
18247 -37 -0.0357143
18271 -36 -0.0416667
18293 -35 -0.0454545
18313 -34 -0.05
18331 -33 -0.0555556
18349 -32 -0.0555556
18366 -31 -0.0588235
18382 -30 -0.0625
18397 -29 -0.0666667
18412 -28 -0.0666667
18427 -27 -0.0666667
18441 -26 -0.0714286
18454 -25 -0.0769231
18468 -24 -0.0714286
18481 -23 -0.0769231
18494 -22 -0.0769231
18506 -21 -0.0833333
18518 -20 -0.0833333
18531 -19 -0.0769231
18543 -18 -0.0833333
18555 -17 -0.0833333
18566 -16 -0.0909091
18589 -15 -0.0434783
18601 -14 -0.0833333
18612 -13 -0.0909091
18624 -12 -0.0833333
18635 -11 -0.0909091
18646 -10 -0.0909091
18657 -9 -0.0909091
18668 -8 -0.0909091
18679 -7 -0.0909091
18691 -6 -0.0833333
18702 -5 -0.0909091
18713 -4 -0.0909091
18724 -3 -0.0909091
18735 -2 -0.0909091
18746 -1 -0.0909091
18757 0 -0.0909091
18769 1 -0.0833333
18780 2 -0.0909091
18791 3 -0.0909091
18803 4 -0.0833333
18814 5 -0.0909091
18826 6 -0.0833333
18838 7 -0.0833333
18850 8 -0.0833333
18862 9 -0.0833333
18874 10 -0.0833333
18886 11 -0.0833333
18899 12 -0.0769231
18912 13 -0.0769231
18925 14 -0.0769231
18938 15 -0.0769231
18952 16 -0.0714286
18966 17 -0.0714286
18980 18 -0.0714286
18995 19 -0.0666667
19010 20 -0.0666667
19026 21 -0.0625
19043 22 -0.0588235
19061 23 -0.0555556
19080 24 -0.0526316
19100 25 -0.05
19122 26 -0.0454545
19147 27 -0.04
19175 28 -0.0357143
19210 29 -0.0285714
19265 30 -0.0181818
19393 29 0.0078125
19439 28 0.0217391
19471 27 0.03125
19498 26 0.037037
19522 25 0.0416667
19543 24 0.047619
19563 23 0.05
19582 22 0.0526316
19616 21 0.0294118
19631 20 0.0666667
19648 19 0.0588235
19661 18 0.0769231
19675 17 0.0714286
19689 16 0.0714286
19703 15 0.0714286
19716 14 0.0769231
19729 13 0.0769231
19742 12 0.0769231
19754 11 0.0833333
19766 10 0.0833333
19778 9 0.0833333
19790 8 0.0833333
19802 7 0.0833333
19814 6 0.0833333
19825 5 0.0909091
19837 4 0.0833333
19848 3 0.0909091
19859 2 0.0909091
19868 0 0.222222
19871 -1 0.333333
19883 -2 0.0833333
19893 -3 0.1
19904 -4 0.0909091
19917 -5 0.0769231
19926 -6 0.111111
19937 -7 0.0909091
19948 -8 0.0909091
19959 -9 0.0909091
19970 -10 0.0909091
19981 -11 0.0909091
19992 -12 0.0909091
20003 -13 0.0909091
20014 -14 0.0909091
20026 -15 0.0833333
20037 -16 0.0909091
20049 -17 0.0833333
20060 -18 0.0909091
20071 -19 0.0909091
20083 -20 0.0833333
20095 -21 0.0833333
20107 -22 0.0833333
20119 -23 0.0833333
20131 -24 0.0833333
20144 -25 0.0769231
20157 -26 0.0769231
20170 -27 0.0769231
20184 -28 0.0714286
20197 -29 0.0769231
20211 -30 0.0714286
20225 -31 0.0714286
20240 -32 0.0666667
20256 -33 0.0625
20272 -34 0.0625
20289 -35 0.0588235
20306 -36 0.0588235
20325 -37 0.0526316
20346 -38 0.047619
20368 -39 0.0454545
20393 -40 0.04
20421 -41 0.0357143
20457 -42 0.0277778
20514 -43 0.0175439
20634 -42 -0.00833333
20681 -41 -0.0212766
20715 -40 -0.0294118
20742 -39 -0.037037
20766 -38 -0.0416667
20788 -37 -0.0454545
20808 -36 -0.05
20827 -35 -0.0526316
20844 -34 -0.0588235
20861 -33 -0.0588235
20877 -32 -0.0625
20892 -31 -0.0666667
20907 -30 -0.0666667
20922 -29 -0.0666667
20936 -28 -0.0714286
20949 -27 -0.0769231
20963 -26 -0.0714286
20976 -25 -0.0769231
20988 -24 -0.0833333
21001 -23 -0.0769231
21013 -22 -0.0833333
21025 -21 -0.0833333
21037 -20 -0.0833333
21049 -19 -0.0833333
21061 -18 -0.0833333
21073 -17 -0.0833333
21084 -16 -0.0909091
21096 -15 -0.0833333
21107 -14 -0.0909091
21118 -13 -0.0909091
21130 -12 -0.0833333
21141 -11 -0.0909091
21152 -10 -0.0909091
21163 -9 -0.0909091
21174 -8 -0.0909091
21185 -7 -0.0909091
21196 -6 -0.0909091
21208 -5 -0.0833333
21219 -4 -0.0909091
21230 -3 -0.0909091
21241 -2 -0.0909091
21252 -1 -0.0909091
21260 0 -0.125
21263 1 -0.333333
21275 2 -0.0833333
21286 3 -0.0909091
21298 4 -0.0833333
21309 5 -0.0909091
21321 6 -0.0833333
21333 7 -0.0833333
21344 8 -0.0909091
21356 9 -0.0833333
21369 10 -0.0769231
21381 11 -0.0833333
21394 12 -0.0769231
21407 13 -0.0769231
21420 14 -0.0769231
21433 15 -0.0769231
21447 16 -0.0714286
21461 17 -0.0714286
21475 18 -0.0714286
21490 19 -0.0666667
21506 20 -0.0625
21522 21 -0.0625
21539 22 -0.0588235
21556 23 -0.0588235
21575 24 -0.0526316
21596 25 -0.047619
21618 26 -0.0454545
21643 27 -0.04
21672 28 -0.0344828
21708 29 -0.0277778
21766 30 -0.0172414
21883 29 0.00854701
21930 28 0.0212766
21963 27 0.030303
21990 26 0.037037
22014 25 0.0416667
22036 24 0.0454545
22056 23 0.05
22074 22 0.0555556
22092 21 0.0555556
22108 20 0.0625
22124 19 0.0625
22140 18 0.0625
22154 17 0.0714286
22169 16 0.0666667
22182 15 0.0769231
22196 14 0.0714286
22209 13 0.0769231
22222 12 0.0769231
22235 11 0.0769231
22247 10 0.0833333
22260 9 0.0769231
22272 8 0.0833333
22284 7 0.0833333
22296 6 0.0833333
22307 5 0.0909091
22319 4 0.0833333
22330 3 0.0909091
22342 2 0.0833333
22353 1 0.0909091
22361 0 0.125
22364 -1 0.333333
22376 -2 0.0833333
22387 -3 0.0909091
22398 -4 0.0909091
22409 -5 0.0909091
22420 -6 0.0909091
22431 -7 0.0909091
22442 -8 0.0909091
22453 -9 0.0909091
22464 -10 0.0909091
22475 -11 0.0909091
22486 -12 0.0909091
22497 -13 0.0909091
22508 -14 0.0909091
22520 -15 0.0833333
22531 -16 0.0909091
22543 -17 0.0833333
22554 -18 0.0909091
22566 -19 0.0833333
22577 -20 0.0909091
22589 -21 0.0833333
22601 -22 0.0833333
22614 -23 0.0769231
22626 -24 0.0833333
22638 -25 0.0833333
22651 -26 0.0769231
22678 -27 0.037037
22692 -28 0.0714286
22706 -29 0.0714286
22720 -30 0.0714286
22735 -31 0.0666667
22751 -32 0.0625
22767 -33 0.0625
22784 -34 0.0588235
22802 -35 0.0555556
22821 -36 0.0526316
22842 -37 0.047619
22864 -38 0.0454545
22889 -39 0.04
22919 -40 0.0333333
22956 -41 0.027027
23021 -42 0.0153846
23119 -41 -0.0102041
23170 -40 -0.0196078
23204 -39 -0.0294118
23232 -38 -0.0357143
23257 -37 -0.04
23279 -36 -0.0454545
23299 -35 -0.05
23318 -34 -0.0526316
23336 -33 -0.0555556
23352 -32 -0.0625
23369 -31 -0.0588235
23384 -30 -0.0666667
23399 -29 -0.0666667
23413 -28 -0.0714286
23427 -27 -0.0714286
23441 -26 -0.0714286
23455 -25 -0.0714286
23468 -24 -0.0769231
23480 -23 -0.0833333
23493 -22 -0.0769231
23505 -21 -0.0833333
23518 -20 -0.0769231
23530 -19 -0.0833333
23542 -18 -0.0833333
23553 -17 -0.0909091
23565 -16 -0.0833333
23577 -15 -0.0833333
23588 -14 -0.0909091
23599 -13 -0.0909091
23611 -12 -0.0833333
23622 -11 -0.0909091
23633 -10 -0.0909091
23644 -9 -0.0909091
23656 -8 -0.0833333
23678 -7 -0.0454545
23689 -6 -0.0909091
23700 -5 -0.0909091
23711 -4 -0.0909091
23722 -3 -0.0909091
23734 -2 -0.0833333
23745 -1 -0.0909091
23753 0 -0.125
23756 1 -0.333333
23767 2 -0.0909091
23779 3 -0.0833333
23790 4 -0.0909091
23802 5 -0.0833333
23813 6 -0.0909091
23825 7 -0.0833333
23837 8 -0.0833333
23849 9 -0.0833333
23861 10 -0.0833333
23874 11 -0.0769231
23886 12 -0.0833333
23899 13 -0.0769231
23912 14 -0.0769231
23926 15 -0.0714286
23939 16 -0.0769231
23953 17 -0.0714286
23968 18 -0.0666667
23983 19 -0.0666667
23998 20 -0.0666667
24015 21 -0.0588235
24031 22 -0.0625
24049 23 -0.0555556
24068 24 -0.0526316
24089 25 -0.047619
24111 26 -0.0454545
24136 27 -0.04
24165 28 -0.0344828
24200 29 -0.0285714
24258 30 -0.0172414
24375 29 0.00854701
24423 28 0.0208333
24456 27 0.030303
24483 26 0.037037
24507 25 0.0416667
24529 24 0.0454545
24549 23 0.05
24567 22 0.0555556
24585 21 0.0555556
24601 20 0.0625
24617 19 0.0625
24632 18 0.0666667
24647 17 0.0666667
24662 16 0.0666667
24689 15 0.037037
24702 14 0.0769231
24715 13 0.0769231
24728 12 0.0769231
24740 11 0.0833333
24753 10 0.0769231
24765 9 0.0833333
24777 8 0.0833333
24788 7 0.0909091
24800 6 0.0833333
24812 5 0.0833333
24823 4 0.0909091
24834 3 0.0909091
24846 2 0.0833333
24854 0 0.25
24857 -1 0.333333
24868 -2 0.0909091
24879 -3 0.0909091
24890 -4 0.0909091
24901 -5 0.0909091
24912 -6 0.0909091
24923 -7 0.0909091
24935 -8 0.0833333
24945 -9 0.1
24956 -10 0.0909091
24968 -11 0.0833333
24979 -12 0.0909091
24990 -13 0.0909091
25001 -14 0.0909091
25012 -15 0.0909091
25024 -16 0.0833333
25035 -17 0.0909091
25046 -18 0.0909091
25058 -19 0.0833333
25070 -20 0.0833333
25082 -21 0.0833333
25094 -22 0.0833333
25106 -23 0.0833333
25118 -24 0.0833333
25131 -25 0.0769231
25143 -26 0.0833333
25157 -27 0.0714286
25170 -28 0.0769231
25183 -29 0.0769231
25198 -30 0.0666667
25212 -31 0.0714286
25227 -32 0.0666667
25242 -33 0.0666667
25258 -34 0.0625
25275 -35 0.0588235
25293 -36 0.0555556
25312 -37 0.0526316
25332 -38 0.05
25355 -39 0.0434783
25379 -40 0.0416667
25408 -41 0.0344828
25444 -42 0.0277778
25501 -43 0.0175439
25621 -42 -0.00833333
25668 -41 -0.0212766
25701 -40 -0.030303
25729 -39 -0.0357143
25753 -38 -0.0416667
25775 -37 -0.0454545
25795 -36 -0.05
25813 -35 -0.0555556
25831 -34 -0.0555556
25848 -33 -0.0588235
25864 -32 -0.0625
25879 -31 -0.0666667
25894 -30 -0.0666667
25908 -29 -0.0714286
25922 -28 -0.0714286
25936 -27 -0.0714286
25949 -26 -0.0769231
25962 -25 -0.0769231
25975 -24 -0.0769231
25988 -23 -0.0769231
26000 -22 -0.0833333
26012 -21 -0.0833333
26024 -20 -0.0833333
26036 -19 -0.0833333
26048 -18 -0.0833333
26060 -17 -0.0833333
26071 -16 -0.0909091
26083 -15 -0.0833333
26094 -14 -0.0909091
26105 -13 -0.0909091
26116 -12 -0.0909091
26128 -11 -0.0833333
26139 -10 -0.0909091
26150 -9 -0.0909091
26161 -8 -0.0909091
26172 -7 -0.0909091
26183 -6 -0.0909091
26195 -5 -0.0833333
26206 -4 -0.0909091
26217 -3 -0.0909091
26228 -2 -0.0909091
26239 -1 -0.0909091
26247 0 -0.125
26250 1 -0.333333
26262 2 -0.0833333
26273 3 -0.0909091
26284 4 -0.0909091
26296 5 -0.0833333
26308 6 -0.0833333
26319 7 -0.0909091
26331 8 -0.0833333
26343 9 -0.0833333
26356 10 -0.0769231
26368 11 -0.0833333
26381 12 -0.0769231
26394 13 -0.0769231
26407 14 -0.0769231
26420 15 -0.0769231
26434 16 -0.0714286
26448 17 -0.0714286
26462 18 -0.0714286
26477 19 -0.0666667
26493 20 -0.0625
26509 21 -0.0625
26526 22 -0.0588235
26544 23 -0.0555556
26563 24 -0.0526316
26583 25 -0.05
26605 26 -0.0454545
26630 27 -0.04
26659 28 -0.0344828
26696 29 -0.027027
26755 30 -0.0169492
26867 29 0.00892857
26915 28 0.0208333
26949 27 0.0294118
26977 26 0.0357143
27001 25 0.0416667
27022 24 0.047619
27042 23 0.05
27061 22 0.0526316
27078 21 0.0588235
27095 20 0.0588235
27111 19 0.0625
27126 18 0.0666667
27141 17 0.0666667
27155 16 0.0714286
27169 15 0.0714286
27182 14 0.0769231
27196 13 0.0714286
27209 12 0.0769231
27221 11 0.0833333
27234 10 0.0769231
27246 9 0.0833333
27258 8 0.0833333
27270 7 0.0833333
27282 6 0.0833333
27294 5 0.0833333
27305 4 0.0909091
27317 3 0.0833333
27328 2 0.0909091
27339 1 0.0909091
27348 0 0.111111
27351 -1 0.333333
27362 -2 0.0909091
27373 -3 0.0909091
27384 -4 0.0909091
27395 -5 0.0909091
27406 -6 0.0909091
27417 -7 0.0909091
27428 -8 0.0909091
27439 -9 0.0909091
27450 -10 0.0909091
27461 -11 0.0909091
27472 -12 0.0909091
27483 -13 0.0909091
27495 -14 0.0833333
27506 -15 0.0909091
27517 -16 0.0909091
27529 -17 0.0833333
27540 -18 0.0909091
27552 -19 0.0833333
27564 -20 0.0833333
27575 -21 0.0909091
27588 -22 0.0769231
27600 -23 0.0833333
27612 -24 0.0833333
27624 -25 0.0833333
27637 -26 0.0769231
27650 -27 0.0769231
27664 -28 0.0714286
27677 -29 0.0769231
27691 -30 0.0714286
27706 -31 0.0666667
27736 -32 0.0333333
27752 -33 0.0625
27769 -34 0.0588235
27787 -35 0.0555556
27806 -36 0.0526316
27826 -37 0.05
27849 -38 0.0434783
27874 -39 0.04
27902 -40 0.0357143
27939 -41 0.027027
27998 -42 0.0169492
28113 -41 -0.00869565
28161 -40 -0.0208333
28195 -39 -0.0294118
28222 -38 -0.037037
28246 -37 -0.0416667
28268 -36 -0.0454545
28288 -35 -0.05
28307 -34 -0.0526316
28324 -33 -0.0588235
28342 -32 -0.0555556
28357 -31 -0.0666667
28373 -30 -0.0625
28387 -29 -0.0714286
28402 -28 -0.0666667
28416 -27 -0.0714286
28429 -26 -0.0769231
28443 -25 -0.0714286
28456 -24 -0.0769231
28469 -23 -0.0769231
28481 -22 -0.0833333
28494 -21 -0.0769231
28506 -20 -0.0833333
28518 -19 -0.0833333
28530 -18 -0.0833333
28541 -17 -0.0909091
28553 -16 -0.0833333
28565 -15 -0.0833333
28576 -14 -0.0909091
28587 -13 -0.0909091
28599 -12 -0.0833333
28610 -11 -0.0909091
28621 -10 -0.0909091
28632 -9 -0.0909091
28644 -8 -0.0833333
28654 -7 -0.1
28666 -6 -0.0833333
28677 -5 -0.0909091
28688 -4 -0.0909091
28699 -3 -0.0909091
28710 -2 -0.0909091
28733 -1 -0.0434783
28744 0 -0.0909091
28755 1 -0.0909091
28766 2 -0.0909091
28778 3 -0.0833333
28789 4 -0.0909091
28801 5 -0.0833333
28813 6 -0.0833333
28825 7 -0.0833333
28837 8 -0.0833333
28849 9 -0.0833333
28861 10 -0.0833333
28874 11 -0.0769231
28887 12 -0.0769231
28900 13 -0.0769231
28913 14 -0.0769231
28927 15 -0.0714286
28941 16 -0.0714286
28955 17 -0.0714286
28970 18 -0.0666667
28986 19 -0.0625
29002 20 -0.0625
29020 21 -0.0555556
29036 22 -0.0625
29055 23 -0.0526316
29076 24 -0.047619
29098 25 -0.0454545
29123 26 -0.04
29151 27 -0.0357143
29187 28 -0.0277778
29243 29 -0.0178571
29365 28 0.00819672
29412 27 0.0212766
29445 26 0.030303
29472 25 0.037037
29496 24 0.0416667
29518 23 0.0454545
29537 22 0.0526316
29556 21 0.0526316
29573 20 0.0588235
29590 19 0.0588235
29606 18 0.0625
29621 17 0.0666667
29636 16 0.0666667
29650 15 0.0714286
29664 14 0.0714286
29678 13 0.0714286
29691 12 0.0769231
29704 11 0.0769231
29716 10 0.0833333
29742 9 0.0384615
29753 8 0.0909091
29765 7 0.0833333
29777 6 0.0833333
29789 5 0.0833333
29800 4 0.0909091
29812 3 0.0833333
29824 2 0.0833333
29835 1 0.0909091
29843 0 0.125
29846 -1 0.333333
29857 -2 0.0909091
29868 -3 0.0909091
29879 -4 0.0909091
29890 -5 0.0909091
29901 -6 0.0909091
29912 -7 0.0909091
29923 -8 0.0909091
29934 -9 0.0909091
29945 -10 0.0909091
29957 -11 0.0833333
29968 -12 0.0909091
29979 -13 0.0909091
29990 -14 0.0909091
30001 -15 0.0909091
30013 -16 0.0833333
30024 -17 0.0909091
30036 -18 0.0833333
30047 -19 0.0909091
30059 -20 0.0833333
30071 -21 0.0833333
30083 -22 0.0833333
30095 -23 0.0833333
30107 -24 0.0833333
30121 -25 0.0714286
30133 -26 0.0833333
30146 -27 0.0769231
30159 -28 0.0769231
30173 -29 0.0714286
30187 -30 0.0714286
30202 -31 0.0666667
30217 -32 0.0666667
30232 -33 0.0666667
30249 -34 0.0588235
30266 -35 0.0588235
30284 -36 0.0555556
30303 -37 0.0526316
30323 -38 0.05
30346 -39 0.0434783
30372 -40 0.0384615
30401 -41 0.0344828
30439 -42 0.0263158
30509 -43 0.0142857
30597 -42 -0.0113636
30649 -41 -0.0192308
30684 -40 -0.0285714
30712 -39 -0.0357143
30737 -38 -0.04
30759 -37 -0.0454545
30780 -36 -0.047619
30798 -35 -0.0555556
30816 -34 -0.0555556
30833 -33 -0.0588235
30849 -32 -0.0625
30865 -31 -0.0625
30880 -30 -0.0666667
30894 -29 -0.0714286
30908 -28 -0.0714286
30922 -27 -0.0714286
30935 -26 -0.0769231
30948 -25 -0.0769231
30961 -24 -0.0769231
30974 -23 -0.0769231
30986 -22 -0.0833333
30999 -21 -0.0769231
31011 -20 -0.0833333
31023 -19 -0.0833333
31034 -18 -0.0909091
31046 -17 -0.0833333
31058 -16 -0.0833333
31069 -15 -0.0909091
31081 -14 -0.0833333
31092 -13 -0.0909091
31103 -12 -0.0909091
31114 -11 -0.0909091
31126 -10 -0.0833333
31137 -9 -0.0909091
31148 -8 -0.0909091
31160 -7 -0.0833333
31170 -6 -0.1
31181 -5 -0.0909091
31192 -4 -0.0909091
31204 -3 -0.0833333
31215 -2 -0.0909091
31226 -1 -0.0909091
31234 0 -0.125
31237 1 -0.333333
31249 2 -0.0833333
31260 3 -0.0909091
31271 4 -0.0909091
31283 5 -0.0833333
31295 6 -0.0833333
31307 7 -0.0833333
31318 8 -0.0909091
31331 9 -0.0769231
31343 10 -0.0833333
31355 11 -0.0833333
31368 12 -0.0769231
31381 13 -0.0769231
31394 14 -0.0769231
31407 15 -0.0769231
31421 16 -0.0714286
31435 17 -0.0714286
31450 18 -0.0666667
31465 19 -0.0666667
31480 20 -0.0666667
31496 21 -0.0625
31513 22 -0.0588235
31531 23 -0.0555556
31550 24 -0.0526316
31571 25 -0.047619
31593 26 -0.0454545
31618 27 -0.04
31648 28 -0.0333333
31684 29 -0.0277778
31746 30 -0.016129
31852 29 0.00943396
31902 28 0.02
31935 27 0.030303
31964 26 0.0344828
31987 25 0.0434783
32009 24 0.0454545
32029 23 0.05
32048 22 0.0526316
32066 21 0.0555556
32082 20 0.0625
32098 19 0.0625
32113 18 0.0666667
32128 17 0.0666667
32142 16 0.0714286
32156 15 0.0714286
32170 14 0.0714286
32183 13 0.0769231
32196 12 0.0769231
32209 11 0.0769231
32221 10 0.0833333
32234 9 0.0769231
32246 8 0.0833333
32258 7 0.0833333
32270 6 0.0833333
32281 5 0.0909091
32293 4 0.0833333
32304 3 0.0909091
32316 2 0.0833333
32327 1 0.0909091
32336 0 0.111111
32338 -1 0.5
32350 -2 0.0833333
32361 -3 0.0909091
32372 -4 0.0909091
32383 -5 0.0909091
32394 -6 0.0909091
32405 -7 0.0909091
32416 -8 0.0909091
32427 -9 0.0909091
32438 -10 0.0909091
32450 -11 0.0833333
32461 -12 0.0909091
32472 -13 0.0909091
32483 -14 0.0909091
32494 -15 0.0909091
32506 -16 0.0833333
32517 -17 0.0909091
32529 -18 0.0833333
32540 -19 0.0909091
32552 -20 0.0833333
32564 -21 0.0833333
32576 -22 0.0833333
32588 -23 0.0833333
32601 -24 0.0769231
32613 -25 0.0833333
32626 -26 0.0769231
32639 -27 0.0769231
32653 -28 0.0714286
32667 -29 0.0714286
32681 -30 0.0714286
32695 -31 0.0714286
32710 -32 0.0666667
32726 -33 0.0625
32742 -34 0.0625
32759 -35 0.0588235
32797 -36 0.0263158
32817 -37 0.05
32840 -38 0.0434783
32866 -39 0.0384615
32896 -40 0.0333333
32935 -41 0.025641
33013 -42 0.0128205
33085 -41 -0.0138889
33140 -40 -0.0181818
33175 -39 -0.0285714
33204 -38 -0.0344828
33229 -37 -0.04
33251 -36 -0.0454545
33271 -35 -0.05
33290 -34 -0.0526316
33308 -33 -0.0555556
33325 -32 -0.0588235
33341 -31 -0.0625
33357 -30 -0.0625
33372 -29 -0.0666667
33386 -28 -0.0714286
33400 -27 -0.0714286
33414 -26 -0.0714286
33428 -25 -0.0714286
33441 -24 -0.0769231
33454 -23 -0.0769231
33467 -22 -0.0769231
33479 -21 -0.0833333
33491 -20 -0.0833333
33503 -19 -0.0833333
33515 -18 -0.0833333
33527 -17 -0.0833333
33539 -16 -0.0833333
33550 -15 -0.0909091
33562 -14 -0.0833333
33573 -13 -0.0909091
33584 -12 -0.0909091
33596 -11 -0.0833333
33607 -10 -0.0909091
33618 -9 -0.0909091
33629 -8 -0.0909091
33641 -7 -0.0833333
33652 -6 -0.0909091
33663 -5 -0.0909091
33674 -4 -0.0909091
33685 -3 -0.0909091
33696 -2 -0.0909091
33708 -1 -0.0833333
33719 0 -0.0909091
33730 1 -0.0909091
33741 2 -0.0909091
33754 3 -0.0769231
33764 4 -0.1
33788 5 -0.0416667
33799 6 -0.0909091
33811 7 -0.0833333
33824 8 -0.0769231
33836 9 -0.0833333
33848 10 -0.0833333
33861 11 -0.0769231
33874 12 -0.0769231
33887 13 -0.0769231
33900 14 -0.0769231
33914 15 -0.0714286
33928 16 -0.0714286
33943 17 -0.0666667
33959 18 -0.0625
33973 19 -0.0714286
33990 20 -0.0588235
34007 21 -0.0588235
34025 22 -0.0555556
34044 23 -0.0526316
34064 24 -0.05
34087 25 -0.0434783
34112 26 -0.04
34141 27 -0.0344828
34179 28 -0.0263158
34243 29 -0.015625
34343 28 0.01
34393 27 0.02
34427 26 0.0294118
34455 25 0.0357143
34479 24 0.0416667
34501 23 0.0454545
34521 22 0.05
34540 21 0.0526316
34558 20 0.0555556
34574 19 0.0625
34590 18 0.0625
34606 17 0.0625
34620 16 0.0714286
34636 15 0.0625
34649 14 0.0769231
34662 13 0.0769231
34677 12 0.0666667
34689 11 0.0833333
34701 10 0.0833333
34714 9 0.0769231
34726 8 0.0833333
34738 7 0.0833333
34750 6 0.0833333
34762 5 0.0833333
34774 4 0.0833333
34797 3 0.0434783
34808 2 0.0909091
34820 1 0.0833333
34828 0 0.125
34831 -1 0.333333
34842 -2 0.0909091
34853 -3 0.0909091
34864 -4 0.0909091
34875 -5 0.0909091
34887 -6 0.0833333
34898 -7 0.0909091
34909 -8 0.0909091
34920 -9 0.0909091
34931 -10 0.0909091
34942 -11 0.0909091
34953 -12 0.0909091
34964 -13 0.0909091
34975 -14 0.0909091
34987 -15 0.0833333
34998 -16 0.0909091
35009 -17 0.0909091
35021 -18 0.0833333
35033 -19 0.0833333
35044 -20 0.0909091
35056 -21 0.0833333
35068 -22 0.0833333
35081 -23 0.0769231
35093 -24 0.0833333
35106 -25 0.0769231
35118 -26 0.0833333
35132 -27 0.0714286
35145 -28 0.0769231
35159 -29 0.0714286
35173 -30 0.0714286
35187 -31 0.0714286
35202 -32 0.0666667
35218 -33 0.0625
35234 -34 0.0625
35251 -35 0.0588235
35269 -36 0.0555556
35288 -37 0.0526316
35309 -38 0.047619
35332 -39 0.0434783
35357 -40 0.04
35387 -41 0.0333333
35425 -42 0.0263158
35492 -43 0.0149254
35584 -42 -0.0108696
35636 -41 -0.0192308
35671 -40 -0.0285714
35699 -39 -0.0357143
35723 -38 -0.0416667
35745 -37 -0.0454545
35766 -36 -0.047619
35785 -35 -0.0526316
35820 -34 -0.0285714
35835 -33 -0.0666667
35851 -32 -0.0625
35866 -31 -0.0666667
35880 -30 -0.0714286
35896 -29 -0.0625
35908 -28 -0.0833333
35921 -27 -0.0769231
35934 -26 -0.0769231
35947 -25 -0.0769231
35960 -24 -0.0769231
35972 -23 -0.0833333
35985 -22 -0.0769231
35997 -21 -0.0833333
36009 -20 -0.0833333
36020 -19 -0.0909091
36033 -18 -0.0769231
36044 -17 -0.0909091
36055 -16 -0.0909091
36066 -15 -0.0909091
36078 -14 -0.0833333
36089 -13 -0.0909091
36100 -12 -0.0909091
36111 -11 -0.0909091
36123 -10 -0.0833333
36134 -9 -0.0909091
36146 -8 -0.0833333
36156 -7 -0.1
36167 -6 -0.0909091
36178 -5 -0.0909091
36189 -4 -0.0909091
36201 -3 -0.0833333
36212 -2 -0.0909091
36220 0 -0.25
36223 1 -0.333333
36234 2 -0.0909091
36246 3 -0.0833333
36257 4 -0.0909091
36269 5 -0.0833333
36280 6 -0.0909091
36292 7 -0.0833333
36304 8 -0.0833333
36316 9 -0.0833333
36329 10 -0.0769231
36341 11 -0.0833333
36354 12 -0.0769231
36366 13 -0.0833333
36379 14 -0.0769231
36393 15 -0.0714286
36407 16 -0.0714286
36421 17 -0.0714286
36435 18 -0.0714286
36450 19 -0.0666667
36466 20 -0.0625
36482 21 -0.0625
36499 22 -0.0588235
36516 23 -0.0588235
36535 24 -0.0526316
36556 25 -0.047619
36578 26 -0.0454545
36603 27 -0.04
36631 28 -0.0357143
36667 29 -0.0277778
36724 30 -0.0175439
36844 29 0.00833333
36891 28 0.0212766
36924 27 0.030303
36951 26 0.037037
36975 25 0.0416667
36997 24 0.0454545
37017 23 0.05
37035 22 0.0555556
37053 21 0.0555556
37069 20 0.0625
37085 19 0.0625
37100 18 0.0666667
37115 17 0.0666667
37129 16 0.0714286
37143 15 0.0714286
37157 14 0.0714286
37170 13 0.0769231
37183 12 0.0769231
37196 11 0.0769231
37208 10 0.0833333
37220 9 0.0833333
37233 8 0.0769231
37244 7 0.0909091
37256 6 0.0833333
37268 5 0.0833333
37280 4 0.0833333
37291 3 0.0909091
37302 2 0.0909091
37314 1 0.0833333
37322 0 0.125
37325 -1 0.333333
37336 -2 0.0909091
37347 -3 0.0909091
37358 -4 0.0909091
37369 -5 0.0909091
37381 -6 0.0833333
37391 -7 0.1
37402 -8 0.0909091
37413 -9 0.0909091
37425 -10 0.0833333
37436 -11 0.0909091
37447 -12 0.0909091
37458 -13 0.0909091
37469 -14 0.0909091
37480 -15 0.0909091
37492 -16 0.0833333
37503 -17 0.0909091
37515 -18 0.0833333
37526 -19 0.0909091
37538 -20 0.0833333
37550 -21 0.0833333
37562 -22 0.0833333
37574 -23 0.0833333
37586 -24 0.0833333
37599 -25 0.0769231
37612 -26 0.0769231
37625 -27 0.0769231
37638 -28 0.0769231
37652 -29 0.0714286
