77 -13 -0.000118638
198 -12 -0.00826446
279 -11 -0.0123457
335 -10 -0.0178571
382 -9 -0.0212766
423 -8 -0.0243902
462 -7 -0.025641
500 -6 -0.0263158
537 -5 -0.027027
574 -4 -0.027027
611 -3 -0.027027
651 -2 -0.025
693 -1 -0.0238095
741 0 -0.0208333
783 0 -0.0238095
800 1 -0.0588235
903 2 -0.00970874
1034 1 0.00763359
1096 0 0.016129
1113 -1 0.0588235
1167 -2 0.0185185
1213 -3 0.0217391
1254 -4 0.0243902
1292 -5 0.0263158
1330 -6 0.0263158
1366 -7 0.0277778
1441 -8 0.0133333
1480 -9 0.025641
1523 -10 0.0232558
1571 -11 0.0208333
1632 -12 0.0163934
1750 -13 0.00847458
1857 -12 -0.00934579
1940 -11 -0.0120482
1996 -10 -0.0178571
2043 -9 -0.0212766
2085 -8 -0.0238095
2124 -7 -0.025641
2162 -6 -0.0263158
2199 -5 -0.027027
2236 -4 -0.027027
2273 -3 -0.027027
2313 -2 -0.025
2355 -1 -0.0238095
2403 0 -0.0208333
2461 1 -0.0172414
2563 2 -0.00980392
2697 1 0.00746269
2759 0 0.016129
2775 -1 0.0625
2830 -2 0.0181818
2875 -3 0.0222222
2916 -4 0.0243902
2955 -5 0.025641
2992 -6 0.027027
3029 -7 0.027027
3065 -8 0.0277778
3103 -9 0.0263158
3142 -10 0.025641
3185 -11 0.0232558
3233 -12 0.0208333
3293 -13 0.0166667
3408 -14 0.00869565
3521 -13 -0.00884956
3604 -12 -0.0120482
3660 -11 -0.0178571
3706 -10 -0.0217391
3748 -9 -0.0238095
3787 -8 -0.025641
3825 -7 -0.0263158
3862 -6 -0.027027
3899 -5 -0.027027
3936 -4 -0.027027
3976 -3 -0.025
4018 -2 -0.0238095
4066 -1 -0.0208333
4109 0 -0.0232558
4126 1 -0.0588235
4232 2 -0.00943396
4356 1 0.00806452
4419 0 0.015873
4436 -1 0.0588235
4491 -2 0.0181818
4536 -3 0.0222222
4577 -4 0.0243902
4616 -5 0.025641
4653 -6 0.027027
4690 -7 0.027027
4727 -8 0.027027
4764 -9 0.027027
4804 -10 0.025
4846 -11 0.0238095
4894 -12 0.0208333
4954 -13 0.0166667
5064 -14 0.00909091
5185 -13 -0.00826446
5267 -12 -0.0121951
5322 -11 -0.0181818
5369 -10 -0.0212766
5411 -9 -0.0238095
5450 -8 -0.025641
5487 -7 -0.027027
5524 -6 -0.027027
5561 -5 -0.027027
5600 -4 -0.025641
5638 -3 -0.0263158
5680 -2 -0.0238095
5728 -1 -0.0208333
5770 0 -0.0238095
5787 1 -0.0588235
5887 2 -0.01
6024 1 0.00729927
6085 0 0.0163934
6101 -1 0.0625
6156 -2 0.0181818
6201 -3 0.0222222
6242 -4 0.0243902
6281 -5 0.025641
6318 -6 0.027027
6354 -7 0.0277778
6391 -8 0.027027
6429 -9 0.0263158
6469 -10 0.025
6511 -11 0.0238095
6560 -12 0.0204082
6621 -13 0.0163934
6748 -14 0.00787402
6841 -13 -0.0107527
6926 -12 -0.0117647
6983 -11 -0.0175439
7029 -10 -0.0217391
7072 -9 -0.0232558
7111 -8 -0.025641
7148 -7 -0.027027
7185 -6 -0.027027
7222 -5 -0.027027
7260 -4 -0.0263158
7300 -3 -0.025
7342 -2 -0.0238095
7390 -1 -0.0208333
7432 0 -0.0238095
7449 1 -0.0588235
7550 2 -0.00990099
7684 1 0.00746269
7763 0 0.0126582
7817 -1 0.0185185
7862 -2 0.0222222
7903 -3 0.0243902
7942 -4 0.025641
7980 -5 0.0263158
8016 -6 0.0277778
8052 -7 0.0277778
8090 -8 0.0263158
8130 -9 0.025
8172 -10 0.0238095
8220 -11 0.0208333
8280 -12 0.0166667
8393 -13 0.00884956
8508 -12 -0.00869565
8591 -11 -0.0120482
8647 -10 -0.0178571
8693 -9 -0.0217391
8735 -8 -0.0238095
8774 -7 -0.025641
8812 -6 -0.0263158
8849 -5 -0.027027
8886 -4 -0.027027
8924 -3 -0.0263158
8963 -2 -0.025641
9005 -1 -0.0238095
9053 0 -0.0208333
9112 1 -0.0169492
9216 2 -0.00961538
9346 1 0.00769231
9408 0 0.016129
9425 -1 0.0588235
9479 -2 0.0185185
9525 -3 0.0217391
9566 -4 0.0243902
9604 -5 0.0263158
9642 -6 0.0263158
9678 -7 0.0277778
9715 -8 0.027027
9753 -9 0.0263158
9792 -10 0.025641
9835 -11 0.0232558
9883 -12 0.0208333
9943 -13 0.0166667
10058 -14 0.00869565
10170 -13 -0.00892857
10253 -12 -0.0120482
10309 -11 -0.0178571
10355 -10 -0.0217391
10397 -9 -0.0238095
10436 -8 -0.025641
10474 -7 -0.0263158
10511 -6 -0.027027
10548 -5 -0.027027
10585 -4 -0.027027
10625 -3 -0.025
10667 -2 -0.0238095
10715 -1 -0.0208333
10757 0 -0.0238095
10773 1 -0.0625
10874 2 -0.00990099
11011 1 0.00729927
11072 0 0.0163934
11089 -1 0.0588235
11143 -2 0.0185185
11188 -3 0.0222222
11229 -4 0.0243902
11268 -5 0.025641
11305 -6 0.027027
11342 -7 0.027027
11378 -8 0.0277778
11416 -9 0.0263158
11456 -10 0.025
11499 -11 0.0232558
11547 -12 0.0208333
11608 -13 0.0163934
11733 -14 0.008
11829 -13 -0.0104167
11914 -12 -0.0117647
11970 -11 -0.0178571
12017 -10 -0.0212766
12059 -9 -0.0238095
12098 -8 -0.025641
12136 -7 -0.0263158
12173 -6 -0.027027
12210 -5 -0.027027
12247 -4 -0.027027
12287 -3 -0.025
12329 -2 -0.0238095
12377 -1 -0.0208333
12419 0 -0.0238095
12435 1 -0.0625
12535 2 -0.01
12675 1 0.00714286
12735 0 0.0166667
12751 -1 0.0625
12805 -2 0.0185185
12851 -3 0.0217391
12892 -4 0.0243902
12930 -5 0.0263158
12967 -6 0.027027
13004 -7 0.027027
13041 -8 0.027027
13078 -9 0.027027
13118 -10 0.025
13160 -11 0.0238095
13209 -12 0.0204082
13270 -13 0.0163934
13386 -14 0.00862069
13494 -13 -0.00925926
13578 -12 -0.0119048
13634 -11 -0.0178571
13680 -10 -0.0217391
13722 -9 -0.0238095
13761 -8 -0.025641
13799 -7 -0.0263158
13836 -6 -0.027027
13873 -5 -0.027027
13911 -4 -0.0263158
13950 -3 -0.025641
13993 -2 -0.0232558
14040 -1 -0.0212766
14083 0 -0.0232558
14099 1 -0.0625
14202 2 -0.00970874
14334 1 0.00757576
14396 0 0.016129
14412 -1 0.0625
14467 -2 0.0181818
14512 -3 0.0222222
14554 -4 0.0238095
14592 -5 0.0263158
14629 -6 0.027027
14666 -7 0.027027
14703 -8 0.027027
14740 -9 0.027027
14780 -10 0.025
14823 -11 0.0232558
14871 -12 0.0208333
14932 -13 0.0163934
15051 -14 0.00840336
15156 -13 -0.00952381
15239 -12 -0.0120482
15295 -11 -0.0178571
15343 -10 -0.0208333
15384 -9 -0.0243902
15423 -8 -0.025641
15461 -7 -0.0263158
15498 -6 -0.027027
15535 -5 -0.027027
15572 -4 -0.027027
15612 -3 -0.025
15654 -2 -0.0238095
15702 -1 -0.0208333
15743 0 -0.0243902
15760 1 -0.0588235
15859 2 -0.010101
15999 1 0.00714286
16060 0 0.0163934
16077 -1 0.0588235
16131 -2 0.0185185
16176 -3 0.0222222
16217 -4 0.0243902
16255 -5 0.0263158
16293 -6 0.0263158
16329 -7 0.0277778
16366 -8 0.027027
16404 -9 0.0263158
16443 -10 0.025641
16486 -11 0.0232558
16535 -12 0.0204082
16595 -13 0.0166667
16720 -14 0.008
16817 -13 -0.0103093
16901 -12 -0.0119048
16958 -11 -0.0175439
17004 -10 -0.0217391
17046 -9 -0.0238095
17086 -8 -0.025
17123 -7 -0.027027
17160 -6 -0.027027
17197 -5 -0.027027
17235 -4 -0.0263158
17274 -3 -0.025641
17317 -2 -0.0232558
17364 -1 -0.0212766
17406 0 -0.0238095
17423 1 -0.0588235
17522 2 -0.010101
17661 1 0.00719424
17722 0 0.0163934
17739 -1 0.0588235
17793 -2 0.0185185
17838 -3 0.0222222
17879 -4 0.0243902
17918 -5 0.025641
17955 -6 0.027027
17992 -7 0.027027
18028 -8 0.0277778
18066 -9 0.0263158
18106 -10 0.025
18148 -11 0.0238095
18197 -12 0.0204082
18258 -13 0.0163934
18381 -14 0.00813008
18479 -13 -0.0102041
18564 -12 -0.0117647
18620 -11 -0.0178571
18667 -10 -0.0212766
18709 -9 -0.0238095
18748 -8 -0.025641
18786 -7 -0.0263158
18823 -6 -0.027027
18860 -5 -0.027027
18897 -4 -0.027027
18937 -3 -0.025
18979 -2 -0.0238095
19027 -1 -0.0208333
19069 0 -0.0238095
19086 1 -0.0588235
19187 2 -0.00990099
19323 1 0.00735294
19384 0 0.0163934
19401 -1 0.0588235
19455 -2 0.0185185
19500 -3 0.0222222
19541 -4 0.0243902
19580 -5 0.025641
19617 -6 0.027027
19654 -7 0.027027
19691 -8 0.027027
19728 -9 0.027027
19768 -10 0.025
19811 -11 0.0232558
19859 -12 0.0208333
19920 -13 0.0163934
20041 -14 0.00826446
20142 -13 -0.00990099
20227 -12 -0.0117647
20283 -11 -0.0178571
20329 -10 -0.0217391
20371 -9 -0.0238095
20410 -8 -0.025641
20448 -7 -0.0263158
20485 -6 -0.027027
20522 -5 -0.027027
20560 -4 -0.0263158
20599 -3 -0.025641
20641 -2 -0.0238095
20689 -1 -0.0208333
20731 0 -0.0238095
20747 1 -0.0625
20846 2 -0.010101
20987 1 0.0070922
21048 0 0.0163934
21064 -1 0.0625
21118 -2 0.0185185
21163 -3 0.0222222
21204 -4 0.0243902
21243 -5 0.025641
21280 -6 0.027027
21317 -7 0.027027
21354 -8 0.027027
21391 -9 0.027027
21431 -10 0.025
21474 -11 0.0232558
21522 -12 0.0208333
21583 -13 0.0163934
21711 -14 0.0078125
21803 -13 -0.0108696
21888 -12 -0.0117647
21945 -11 -0.0175439
21991 -10 -0.0217391
22033 -9 -0.0238095
22073 -8 -0.025
22110 -7 -0.027027
22147 -6 -0.027027
22184 -5 -0.027027
22222 -4 -0.0263158
22261 -3 -0.025641
22304 -2 -0.0232558
22351 -1 -0.0212766
22393 0 -0.0238095
22410 1 -0.0588235
22508 2 -0.0102041
22649 1 0.0070922
22710 0 0.0163934
22727 -1 0.0588235
22780 -2 0.0188679
22826 -3 0.0217391
22867 -4 0.0243902
22905 -5 0.0263158
22943 -6 0.0263158
22979 -7 0.0277778
23016 -8 0.027027
23054 -9 0.0263158
23093 -10 0.025641
23136 -11 0.0232558
23185 -12 0.0204082
23245 -13 0.0166667
23371 -14 0.00793651
23466 -13 -0.0105263
23551 -12 -0.0117647
23607 -11 -0.0178571
23654 -10 -0.0212766
23696 -9 -0.0238095
23735 -8 -0.025641
23773 -7 -0.0263158
23810 -6 -0.027027
23847 -5 -0.027027
23885 -4 -0.0263158
23924 -3 -0.025641
23967 -2 -0.0232558
24014 -1 -0.0212766
24056 0 -0.0238095
24073 1 -0.0588235
24173 2 -0.01
24311 1 0.00724638
24372 0 0.0163934
24388 -1 0.0625
24443 -2 0.0181818
24488 -3 0.0222222
24529 -4 0.0243902
24568 -5 0.025641
24605 -6 0.027027
24641 -7 0.0277778
24678 -8 0.027027
24716 -9 0.0263158
24755 -10 0.025641
24798 -11 0.0232558
24848 -12 0.02
24907 -13 0.0169492
25031 -14 0.00806452
25129 -13 -0.0102041
25214 -12 -0.0117647
25270 -11 -0.0178571
25317 -10 -0.0212766
25358 -9 -0.0243902
25398 -8 -0.025
25435 -7 -0.027027
25472 -6 -0.027027
25509 -5 -0.027027
25547 -4 -0.0263158
25586 -3 -0.025641
25629 -2 -0.0232558
25676 -1 -0.0212766
25718 0 -0.0238095
25734 1 -0.0625
25831 2 -0.0103093
25975 1 0.00694444
26036 0 0.0163934
26052 -1 0.0625
26106 -2 0.0185185
26151 -3 0.0222222
26192 -4 0.0243902
26231 -5 0.025641
26268 -6 0.027027
26305 -7 0.027027
26341 -8 0.0277778
26379 -9 0.0263158
26419 -10 0.025
26462 -11 0.0232558
26510 -12 0.0208333
26571 -13 0.0163934
26704 -14 0.0075188
26790 -13 -0.0116279
26875 -12 -0.0117647
26932 -11 -0.0175439
26979 -10 -0.0212766
27021 -9 -0.0238095
27060 -8 -0.025641
27098 -7 -0.0263158
27135 -6 -0.027027
27172 -5 -0.027027
27209 -4 -0.027027
27249 -3 -0.025
27291 -2 -0.0238095
27339 -1 -0.0208333
27380 0 -0.0243902
27397 1 -0.0588235
27496 2 -0.010101
27636 1 0.00714286
27697 0 0.0163934
27714 -1 0.0588235
27768 -2 0.0185185
27813 -3 0.0222222
27854 -4 0.0243902
27893 -5 0.025641
27930 -6 0.027027
27966 -7 0.0277778
28003 -8 0.027027
28041 -9 0.0263158
28080 -10 0.025641
28123 -11 0.0232558
28172 -12 0.0204082
28232 -13 0.0166667
28357 -14 0.008
28453 -13 -0.0104167
28538 -12 -0.0117647
28595 -11 -0.0175439
28641 -10 -0.0217391
28683 -9 -0.0238095
28722 -8 -0.025641
28760 -7 -0.0263158
28797 -6 -0.027027
28834 -5 -0.027027
28872 -4 -0.0263158
28911 -3 -0.025641
28953 -2 -0.0238095
29001 -1 -0.0208333
29043 0 -0.0238095
29059 1 -0.0625
29157 2 -0.0102041
29300 1 0.00699301
29361 0 0.0163934
29377 -1 0.0625
29431 -2 0.0185185
29476 -3 0.0222222
29517 -4 0.0243902
29556 -5 0.025641
29593 -6 0.027027
29629 -7 0.0277778
29666 -8 0.027027
29704 -9 0.0263158
29744 -10 0.025
29786 -11 0.0238095
29835 -12 0.0204082
29896 -13 0.0163934
30027 -14 0.00763359
30115 -13 -0.0113636
30200 -12 -0.0117647
30257 -11 -0.0175439
30304 -10 -0.0212766
30346 -9 -0.0238095
30385 -8 -0.025641
30422 -7 -0.027027
30459 -6 -0.027027
30496 -5 -0.027027
30534 -4 -0.0263158
30573 -3 -0.025641
30616 -2 -0.0232558
30663 -1 -0.0212766
30705 0 -0.0238095
30721 1 -0.0625
30819 2 -0.0102041
30963 1 0.00694444
31023 0 0.0166667
31039 -1 0.0625
31093 -2 0.0185185
31139 -3 0.0217391
31180 -4 0.0243902
31218 -5 0.0263158
31255 -6 0.027027
31292 -7 0.027027
31329 -8 0.027027
31366 -9 0.027027
31406 -10 0.025
31449 -11 0.0232558
31498 -12 0.0204082
31559 -13 0.0163934
31690 -14 0.00763359
31777 -13 -0.0114943
31863 -12 -0.0116279
31919 -11 -0.0178571
31966 -10 -0.0212766
32008 -9 -0.0238095
32047 -8 -0.025641
32085 -7 -0.0263158
32122 -6 -0.027027
32159 -5 -0.027027
32196 -4 -0.027027
32236 -3 -0.025
32278 -2 -0.0238095
32326 -1 -0.0208333
32367 0 -0.0243902
32384 1 -0.0588235
32482 2 -0.0102041
32625 1 0.00699301
32685 0 0.0166667
32702 -1 0.0588235
32756 -2 0.0185185
32801 -3 0.0222222
32842 -4 0.0243902
32880 -5 0.0263158
32918 -6 0.0263158
32954 -7 0.0277778
32991 -8 0.027027
33029 -9 0.0263158
33068 -10 0.025641
33111 -11 0.0232558
33160 -12 0.0204082
33221 -13 0.0163934
33354 -14 0.0075188
33439 -13 -0.0117647
33525 -12 -0.0116279
33581 -11 -0.0178571
33628 -10 -0.0212766
33670 -9 -0.0238095
33709 -8 -0.025641
33747 -7 -0.0263158
33784 -6 -0.027027
33821 -5 -0.027027
33859 -4 -0.0263158
33898 -3 -0.025641
33940 -2 -0.0238095
33989 -1 -0.0204082
34030 0 -0.0243902
34046 1 -0.0625
34143 2 -0.0103093
34288 1 0.00689655
34349 0 0.0163934
34365 -1 0.0625
34418 -2 0.0188679
34464 -3 0.0217391
34505 -4 0.0243902
34543 -5 0.0263158
34580 -6 0.027027
34617 -7 0.027027
34654 -8 0.027027
34692 -9 0.0263158
34731 -10 0.025641
34774 -11 0.0232558
34823 -12 0.0204082
34884 -13 0.0163934
