16 4 -3.66892e-05
56 3 0.025
95 2 0.025641
133 1 0.0263158
170 0 0.027027
198 0 0.0357143
207 -1 0.111111
244 -2 0.027027
280 -3 0.0277778
316 -4 0.0277778
351 -5 0.0285714
387 -6 0.0277778
423 -7 0.0277778
458 -8 0.0285714
493 -9 0.0285714
529 -10 0.0277778
565 -11 0.0277778
601 -12 0.0277778
637 -13 0.0277778
674 -14 0.027027
711 -15 0.027027
749 -16 0.0263158
788 -17 0.025641
827 -18 0.025641
867 -19 0.025
909 -20 0.0238095
951 -21 0.0238095
997 -22 0.0217391
1042 -23 0.0222222
1091 -24 0.0204082
1142 -25 0.0196078
1198 -26 0.0178571
1260 -27 0.016129
1330 -28 0.0142857
1415 -29 0.0117647
1532 -30 0.00854701
1924 -29 -0.00255102
2025 -28 -0.00990099
2102 -27 -0.012987
2167 -26 -0.0153846
2224 -25 -0.0175439
2276 -24 -0.0192308
2325 -23 -0.0204082
2370 -22 -0.0222222
2413 -21 -0.0232558
2454 -20 -0.0243902
2494 -19 -0.025
2533 -18 -0.025641
2570 -17 -0.027027
2607 -16 -0.027027
2642 -15 -0.0285714
2678 -14 -0.0277778
2712 -13 -0.0294118
2746 -12 -0.0294118
2780 -11 -0.0294118
2814 -10 -0.0294118
2847 -9 -0.030303
2880 -8 -0.030303
2913 -7 -0.030303
2946 -6 -0.030303
2980 -5 -0.0294118
3013 -4 -0.030303
3047 -3 -0.0294118
3080 -2 -0.030303
3114 -1 -0.0294118
3140 0 -0.0384615
3149 1 -0.111111
3184 2 -0.0285714
3219 3 -0.0285714
3255 4 -0.0277778
3292 5 -0.027027
3330 6 -0.0263158
3369 7 -0.025641
3410 8 -0.0243902
3452 9 -0.0238095
3496 10 -0.0227273
3542 11 -0.0217391
3592 12 -0.02
3646 13 -0.0185185
3704 14 -0.0172414
3772 15 -0.0147059
3853 16 -0.0123457
3966 17 -0.00884956
4372 16 0.00246305
4473 15 0.00990099
4552 14 0.0126582
4618 13 0.0151515
4678 12 0.0166667
4732 11 0.0185185
4783 10 0.0196078
4831 9 0.0208333
4876 8 0.0222222
4920 7 0.0227273
4962 6 0.0238095
5003 5 0.0243902
5043 4 0.025
5082 3 0.025641
5120 2 0.0263158
5158 1 0.0263158
5185 0 0.037037
5195 -1 0.1
5231 -2 0.0277778
5268 -3 0.027027
5304 -4 0.0277778
5339 -5 0.0285714
5375 -6 0.0277778
5410 -7 0.0285714
5446 -8 0.0277778
5482 -9 0.0277778
5517 -10 0.0285714
5553 -11 0.0277778
5589 -12 0.0277778
5626 -13 0.027027
5663 -14 0.027027
5700 -15 0.027027
5738 -16 0.0263158
5777 -17 0.025641
5816 -18 0.025641
5857 -19 0.0243902
5898 -20 0.0243902
5941 -21 0.0232558
5986 -22 0.0222222
6032 -23 0.0217391
6081 -24 0.0204082
6133 -25 0.0192308
6189 -26 0.0178571
6251 -27 0.016129
6321 -28 0.0142857
6406 -29 0.0117647
6526 -30 0.00833333
6910 -29 -0.00260417
7013 -28 -0.00970874
7090 -27 -0.012987
7155 -26 -0.0153846
7212 -25 -0.0175439
7264 -24 -0.0192308
7313 -23 -0.0204082
7358 -22 -0.0222222
7442 -21 -0.0119048
7482 -20 -0.025
7520 -19 -0.0263158
7558 -18 -0.0263158
7594 -17 -0.0277778
7630 -16 -0.0277778
7665 -15 -0.0285714
7699 -14 -0.0294118
7734 -13 -0.0285714
7767 -12 -0.030303
7801 -11 -0.0294118
7834 -10 -0.030303
7868 -9 -0.0294118
7900 -8 -0.03125
7933 -7 -0.030303
7966 -6 -0.030303
8000 -5 -0.0294118
8033 -4 -0.030303
8067 -3 -0.0294118
8101 -2 -0.0294118
8126 0 -0.08
8135 1 -0.111111
8170 2 -0.0285714
8206 3 -0.0277778
8242 4 -0.0277778
8278 5 -0.0277778
8316 6 -0.0263158
8355 7 -0.025641
8396 8 -0.0243902
8438 9 -0.0238095
8481 10 -0.0232558
8528 11 -0.0212766
8577 12 -0.0204082
8631 13 -0.0185185
8690 14 -0.0169492
8757 15 -0.0149254
8837 16 -0.0125
8949 17 -0.00892857
9359 16 0.00243902
9461 15 0.00980392
9539 14 0.0128205
9606 13 0.0149254
9665 12 0.0169492
9720 11 0.0181818
9770 10 0.02
9818 9 0.0208333
9864 8 0.0217391
9908 7 0.0227273
9950 6 0.0238095
9991 5 0.0243902
10031 4 0.025
10070 3 0.025641
10108 2 0.0263158
10146 1 0.0263158
10173 0 0.037037
10183 -1 0.1
10219 -2 0.0277778
10256 -3 0.027027
10292 -4 0.0277778
10328 -5 0.0277778
10363 -6 0.0285714
10399 -7 0.0277778
10435 -8 0.0277778
10470 -9 0.0285714
10506 -10 0.0277778
10542 -11 0.0277778
10578 -12 0.0277778
10614 -13 0.0277778
10651 -14 0.027027
10689 -15 0.0263158
10727 -16 0.0263158
10765 -17 0.0263158
10805 -18 0.025
10845 -19 0.025
10887 -20 0.0238095
10930 -21 0.0232558
10974 -22 0.0227273
11021 -23 0.0212766
11070 -24 0.0204082
11122 -25 0.0192308
11178 -26 0.0178571
11240 -27 0.016129
11310 -28 0.0142857
11396 -29 0.0116279
11517 -30 0.00826446
11897 -29 -0.00263158
12000 -28 -0.00970874
12077 -27 -0.012987
12142 -26 -0.0153846
12199 -25 -0.0175439
12251 -24 -0.0192308
12300 -23 -0.0204082
12345 -22 -0.0222222
12389 -21 -0.0227273
12430 -20 -0.0243902
12469 -19 -0.025641
12508 -18 -0.025641
12545 -17 -0.027027
12582 -16 -0.027027
12617 -15 -0.0285714
12653 -14 -0.0277778
12687 -13 -0.0294118
12721 -12 -0.0294118
12755 -11 -0.0294118
12788 -10 -0.030303
12822 -9 -0.0294118
12855 -8 -0.030303
12888 -7 -0.030303
12921 -6 -0.030303
12954 -5 -0.030303
12987 -4 -0.030303
13021 -3 -0.0294118
13054 -2 -0.030303
13088 -1 -0.0294118
13114 0 -0.0384615
13123 1 -0.111111
13157 2 -0.0294118
13193 3 -0.0277778
13229 4 -0.0277778
13266 5 -0.027027
13304 6 -0.0263158
13343 7 -0.025641
13383 8 -0.025
13425 9 -0.0238095
13469 10 -0.0227273
13515 11 -0.0217391
13565 12 -0.02
13618 13 -0.0188679
13677 14 -0.0169492
13744 15 -0.0149254
13824 16 -0.0125
13936 17 -0.00892857
14348 16 0.00242718
14449 15 0.00990099
14527 14 0.0128205
14594 13 0.0149254
14653 12 0.0169492
14707 11 0.0185185
14758 10 0.0196078
14806 9 0.0208333
14851 8 0.0222222
14895 7 0.0227273
14937 6 0.0238095
14978 5 0.0243902
15018 4 0.025
15057 3 0.025641
15095 2 0.0263158
15133 1 0.0263158
15160 0 0.037037
15170 -1 0.1
15206 -2 0.0277778
15243 -3 0.027027
15279 -4 0.0277778
15315 -5 0.0277778
15350 -6 0.0285714
15386 -7 0.0277778
15421 -8 0.0285714
15457 -9 0.0277778
15493 -10 0.0277778
15528 -11 0.0285714
15565 -12 0.027027
15601 -13 0.0277778
15638 -14 0.027027
15675 -15 0.027027
15713 -16 0.0263158
15752 -17 0.025641
15791 -18 0.025641
15831 -19 0.025
15873 -20 0.0238095
15916 -21 0.0232558
15960 -22 0.0227273
16007 -23 0.0212766
16055 -24 0.0208333
16108 -25 0.0188679
16164 -26 0.0178571
16226 -27 0.016129
16296 -28 0.0142857
16382 -29 0.0116279
16503 -30 0.00826446
16883 -29 -0.00263158
16986 -28 -0.00970874
17063 -27 -0.012987
17129 -26 -0.0151515
17186 -25 -0.0175439
17238 -24 -0.0192308
17287 -23 -0.0204082
17332 -22 -0.0222222
17376 -21 -0.0227273
17417 -20 -0.0243902
17457 -19 -0.025
17495 -18 -0.0263158
17533 -17 -0.0263158
17569 -16 -0.0277778
17605 -15 -0.0277778
17640 -14 -0.0285714
17674 -13 -0.0294118
17709 -12 -0.0285714
17742 -11 -0.030303
17776 -10 -0.0294118
17809 -9 -0.030303
17842 -8 -0.030303
17875 -7 -0.030303
17909 -6 -0.0294118
17942 -5 -0.030303
17975 -4 -0.030303
18008 -3 -0.030303
18042 -2 -0.0294118
18076 -1 -0.0294118
18102 0 -0.0384615
18110 1 -0.125
18145 2 -0.0285714
18180 3 -0.0285714
18216 4 -0.0277778
18253 5 -0.027027
18291 6 -0.0263158
18330 7 -0.025641
18371 8 -0.0243902
18412 9 -0.0243902
18456 10 -0.0227273
18503 11 -0.0212766
18552 12 -0.0204082
18605 13 -0.0188679
18664 14 -0.0169492
18731 15 -0.0149254
18811 16 -0.0125
18922 17 -0.00900901
19337 16 0.00240964
19438 15 0.00990099
19515 14 0.012987
19582 13 0.0149254
19641 12 0.0169492
19695 11 0.0185185
19746 10 0.0196078
19794 9 0.0208333
19839 8 0.0222222
19883 7 0.0227273
19925 6 0.0238095
19966 5 0.0243902
20006 4 0.025
20045 3 0.025641
20083 2 0.0263158
20121 1 0.0263158
20148 0 0.037037
20158 -1 0.1
20194 -2 0.0277778
20231 -3 0.027027
20267 -4 0.0277778
20303 -5 0.0277778
20338 -6 0.0285714
20374 -7 0.0277778
20409 -8 0.0285714
20445 -9 0.0277778
20481 -10 0.0277778
20517 -11 0.0277778
20553 -12 0.0277778
20590 -13 0.027027
20626 -14 0.0277778
20664 -15 0.0263158
20702 -16 0.0263158
20740 -17 0.0263158
20780 -18 0.025
20820 -19 0.025
20862 -20 0.0238095
20905 -21 0.0232558
20949 -22 0.0227273
20995 -23 0.0217391
21045 -24 0.02
21097 -25 0.0192308
21153 -26 0.0178571
21215 -27 0.016129
21286 -28 0.0140845
21371 -29 0.0117647
21493 -30 0.00819672
21870 -29 -0.00265252
21974 -28 -0.00961538
22051 -27 -0.012987
22116 -26 -0.0153846
22174 -25 -0.0172414
22226 -24 -0.0192308
22275 -23 -0.0204082
22320 -22 -0.0222222
22363 -21 -0.0232558
22405 -20 -0.0238095
22444 -19 -0.025641
22483 -18 -0.025641
22520 -17 -0.027027
22557 -16 -0.027027
22592 -15 -0.0285714
22627 -14 -0.0285714
22662 -13 -0.0285714
22696 -12 -0.0294118
22730 -11 -0.0294118
22763 -10 -0.030303
22797 -9 -0.0294118
22830 -8 -0.030303
22863 -7 -0.030303
22896 -6 -0.030303
22929 -5 -0.030303
22962 -4 -0.030303
22995 -3 -0.030303
23029 -2 -0.0294118
23063 -1 -0.0294118
23089 0 -0.0384615
23097 1 -0.125
23132 2 -0.0285714
23167 3 -0.0285714
23203 4 -0.0277778
23240 5 -0.027027
23278 6 -0.0263158
23317 7 -0.025641
23357 8 -0.025
23399 9 -0.0238095
23443 10 -0.0227273
23489 11 -0.0217391
23539 12 -0.02
23592 13 -0.0188679
23650 14 -0.0172414
23717 15 -0.0149254
23797 16 -0.0125
23908 17 -0.00900901
24326 16 0.00239234
24426 15 0.01
24504 14 0.0128205
24570 13 0.0151515
24629 12 0.0169492
24684 11 0.0181818
24734 10 0.02
24782 9 0.0208333
24827 8 0.0222222
24871 7 0.0227273
24913 6 0.0238095
24954 5 0.0243902
24994 4 0.025
25033 3 0.025641
25071 2 0.0263158
25109 1 0.0263158
25137 0 0.0357143
25146 -1 0.111111
25183 -2 0.027027
25219 -3 0.0277778
25255 -4 0.0277778
25291 -5 0.0277778
25327 -6 0.0277778
25362 -7 0.0285714
25398 -8 0.0277778
25433 -9 0.0285714
25469 -10 0.0277778
25505 -11 0.0277778
25541 -12 0.0277778
25578 -13 0.027027
25615 -14 0.027027
25652 -15 0.027027
25690 -16 0.0263158
25729 -17 0.025641
25768 -18 0.025641
25809 -19 0.0243902
25850 -20 0.0243902
25893 -21 0.0232558
25937 -22 0.0227273
25984 -23 0.0212766
26033 -24 0.0204082
26085 -25 0.0192308
26141 -26 0.0178571
26203 -27 0.016129
26274 -28 0.0140845
26359 -29 0.0117647
26481 -30 0.00819672
26858 -29 -0.00265252
26961 -28 -0.00970874
27039 -27 -0.0128205
27104 -26 -0.0153846
27161 -25 -0.0175439
27213 -24 -0.0192308
27262 -23 -0.0204082
27307 -22 -0.0222222
27350 -21 -0.0232558
27391 -20 -0.0243902
27431 -19 -0.025
27469 -18 -0.0263158
27507 -17 -0.0263158
27543 -16 -0.0277778
27579 -15 -0.0277778
27614 -14 -0.0285714
27648 -13 -0.0294118
27682 -12 -0.0294118
27716 -11 -0.0294118
27750 -10 -0.0294118
27783 -9 -0.030303
27816 -8 -0.030303
27849 -7 -0.030303
27882 -6 -0.030303
27915 -5 -0.030303
27948 -4 -0.030303
27981 -3 -0.030303
28015 -2 -0.0294118
28049 -1 -0.0294118
28075 0 -0.0384615
28083 1 -0.125
28118 2 -0.0285714
28153 3 -0.0285714
28189 4 -0.0277778
28226 5 -0.027027
28264 6 -0.0263158
28303 7 -0.025641
28343 8 -0.025
28385 9 -0.0238095
28429 10 -0.0227273
28475 11 -0.0217391
28524 12 -0.0204082
28578 13 -0.0185185
28636 14 -0.0172414
28703 15 -0.0149254
28783 16 -0.0125
28894 17 -0.00900901
29312 16 0.00239234
29412 15 0.01
29490 14 0.0128205
29556 13 0.0151515
29615 12 0.0169492
29670 11 0.0181818
29720 10 0.02
29768 9 0.0208333
29814 8 0.0217391
29857 7 0.0232558
29900 6 0.0232558
29941 5 0.0243902
29980 4 0.025641
30019 3 0.025641
30058 2 0.025641
30095 1 0.027027
30123 0 0.0357143
30132 -1 0.111111
30169 -2 0.027027
30205 -3 0.0277778
30241 -4 0.0277778
30277 -5 0.0277778
30313 -6 0.0277778
30348 -7 0.0285714
30384 -8 0.0277778
30419 -9 0.0285714
30455 -10 0.0277778
30491 -11 0.0277778
30527 -12 0.0277778
30563 -13 0.0277778
30600 -14 0.027027
30637 -15 0.027027
30675 -16 0.0263158
30714 -17 0.025641
30753 -18 0.025641
30794 -19 0.0243902
30835 -20 0.0243902
30878 -21 0.0232558
30923 -22 0.0222222
30969 -23 0.0217391
31018 -24 0.0204082
31070 -25 0.0192308
31127 -26 0.0175439
31189 -27 0.016129
31259 -28 0.0142857
31345 -29 0.0116279
31467 -30 0.00819672
31843 -29 -0.00265957
31947 -28 -0.00961538
32025 -27 -0.0128205
32090 -26 -0.0153846
32148 -25 -0.0172414
32200 -24 -0.0192308
32249 -23 -0.0204082
32294 -22 -0.0222222
32337 -21 -0.0232558
32379 -20 -0.0238095
32419 -19 -0.025
32457 -18 -0.0263158
32495 -17 -0.0263158
32531 -16 -0.0277778
32567 -15 -0.0277778
32602 -14 -0.0285714
32637 -13 -0.0285714
32671 -12 -0.0294118
32705 -11 -0.0294118
32738 -10 -0.030303
32771 -9 -0.030303
32805 -8 -0.0294118
32838 -7 -0.030303
32871 -6 -0.030303
32904 -5 -0.030303
32937 -4 -0.030303
32971 -3 -0.0294118
33004 -2 -0.030303
33038 -1 -0.0294118
33064 0 -0.0384615
33073 1 -0.111111
33108 2 -0.0285714
33143 3 -0.0285714
33179 4 -0.0277778
33216 5 -0.027027
33254 6 -0.0263158
33293 7 -0.025641
33333 8 -0.025
33375 9 -0.0238095
33419 10 -0.0227273
33465 11 -0.0217391
33514 12 -0.0204082
33568 13 -0.0185185
33626 14 -0.0172414
33693 15 -0.0149254
33773 16 -0.0125
33883 17 -0.00909091
34302 16 0.00238663
34402 15 0.01
34479 14 0.012987
34545 13 0.0151515
34604 12 0.0169492
34658 11 0.0185185
34709 10 0.0196078
34757 9 0.0208333
34802 8 0.0222222
34846 7 0.0227273
34888 6 0.0238095
34929 5 0.0243902
34969 4 0.025
35008 3 0.025641
35046 2 0.0263158
35084 1 0.0263158
35112 0 0.0357143
35121 -1 0.111111
35158 -2 0.027027
35194 -3 0.0277778
35230 -4 0.0277778
35266 -5 0.0277778
35302 -6 0.0277778
35338 -7 0.0277778
35373 -8 0.0285714
35409 -9 0.0277778
35445 -10 0.0277778
35480 -11 0.0285714
35517 -12 0.027027
35553 -13 0.0277778
35590 -14 0.027027
35627 -15 0.027027
35665 -16 0.0263158
35704 -17 0.025641
35743 -18 0.025641
35784 -19 0.0243902
35825 -20 0.0243902
35868 -21 0.0232558
35913 -22 0.0222222
35959 -23 0.0217391
36008 -24 0.0204082
36060 -25 0.0192308
36117 -26 0.0175439
36179 -27 0.016129
36249 -28 0.0142857
36334 -29 0.0117647
36456 -30 0.00819672
36832 -29 -0.00265957
36936 -28 -0.00961538
37013 -27 -0.012987
37078 -26 -0.0153846
37135 -25 -0.0175439
37188 -24 -0.0188679
37236 -23 -0.0208333
37281 -22 -0.0222222
37324 -21 -0.0232558
37366 -20 -0.0238095
37405 -19 -0.025641
37443 -18 -0.0263158
37481 -17 -0.0263158
37517 -16 -0.0277778
37553 -15 -0.0277778
37588 -14 -0.0285714
37622 -13 -0.0294118
37656 -12 -0.0294118
37690 -11 -0.0294118
37723 -10 -0.030303
37757 -9 -0.0294118
37790 -8 -0.030303
37823 -7 -0.030303
37856 -6 -0.030303
37889 -5 -0.030303
37922 -4 -0.030303
37955 -3 -0.030303
37989 -2 -0.0294118
38023 -1 -0.0294118
38048 0 -0.04
38057 1 -0.111111
38092 2 -0.0285714
38127 3 -0.0285714
38163 4 -0.0277778
38200 5 -0.027027
38237 6 -0.027027
38276 7 -0.025641
38316 8 -0.025
38358 9 -0.0238095
38402 10 -0.0227273
38448 11 -0.0217391
38498 12 -0.02
38551 13 -0.0188679
38610 14 -0.0169492
38676 15 -0.0151515
38757 16 -0.0123457
38868 17 -0.00900901
39286 16 0.00239234
39386 15 0.01
39464 14 0.0128205
39530 13 0.0151515
39590 12 0.0166667
39644 11 0.0185185
39695 10 0.0196078
39743 9 0.0208333
39789 8 0.0217391
39832 7 0.0232558
39875 6 0.0232558
39916 5 0.0243902
39956 4 0.025
39995 3 0.025641
40033 2 0.0263158
40071 1 0.0263158
40098 0 0.037037
40108 -1 0.1
40145 -2 0.027027
40181 -3 0.0277778
40217 -4 0.0277778
40253 -5 0.0277778
40289 -6 0.0277778
40325 -7 0.0277778
40360 -8 0.0285714
40396 -9 0.0277778
40432 -10 0.0277778
40468 -11 0.0277778
40504 -12 0.0277778
40541 -13 0.027027
40579 -14 0.0263158
40615 -15 0.0277778
40653 -16 0.0263158
40692 -17 0.025641
40731 -18 0.025641
40772 -19 0.0243902
40814 -20 0.0238095
40857 -21 0.0232558
40901 -22 0.0227273
40948 -23 0.0212766
40997 -24 0.0204082
41049 -25 0.0192308
41105 -26 0.0178571
41167 -27 0.016129
41238 -28 0.0140845
41324 -29 0.0116279
41447 -30 0.00813008
41817 -29 -0.0027027
41922 -28 -0.00952381
42000 -27 -0.0128205
42065 -26 -0.0153846
42123 -25 -0.0172414
42175 -24 -0.0192308
42223 -23 -0.0208333
42269 -22 -0.0217391
42312 -21 -0.0232558
42353 -20 -0.0243902
42393 -19 -0.025
42432 -18 -0.025641
42469 -17 -0.027027
42505 -16 -0.0277778
42541 -15 -0.0277778
42576 -14 -0.0285714
42611 -13 -0.0285714
42645 -12 -0.0294118
42679 -11 -0.0294118
42712 -10 -0.030303
42745 -9 -0.030303
42779 -8 -0.0294118
42812 -7 -0.030303
42845 -6 -0.030303
42878 -5 -0.030303
42911 -4 -0.030303
42944 -3 -0.030303
42978 -2 -0.0294118
43012 -1 -0.0294118
43037 0 -0.04
43046 1 -0.111111
43081 2 -0.0285714
43116 3 -0.0285714
43152 4 -0.0277778
43189 5 -0.027027
43227 6 -0.0263158
43266 7 -0.025641
43306 8 -0.025
43348 9 -0.0238095
43392 10 -0.0227273
43438 11 -0.0217391
43487 12 -0.0204082
43540 13 -0.0188679
43599 14 -0.0169492
43665 15 -0.0151515
43745 16 -0.0125
43854 17 -0.00917431
44278 16 0.00235849
44377 15 0.010101
44455 14 0.0128205
44521 13 0.0151515
44580 12 0.0169492
44634 11 0.0185185
44685 10 0.0196078
44732 9 0.0212766
44778 8 0.0217391
44821 7 0.0232558
44864 6 0.0232558
44904 5 0.025
44945 4 0.0243902
44983 3 0.0263158
45021 2 0.0263158
45059 1 0.0263158
45087 0 0.0357143
45096 -1 0.111111
45133 -2 0.027027
45169 -3 0.0277778
45205 -4 0.0277778
45240 -5 0.0285714
45276 -6 0.0277778
45311 -7 0.0285714
45347 -8 0.0277778
45383 -9 0.0277778
45418 -10 0.0285714
45454 -11 0.0277778
45490 -12 0.0277778
45527 -13 0.027027
45564 -14 0.027027
45601 -15 0.027027
45639 -16 0.0263158
45678 -17 0.025641
45717 -18 0.025641
45757 -19 0.025
45799 -20 0.0238095
45842 -21 0.0232558
45886 -22 0.0227273
45933 -23 0.0212766
45982 -24 0.0204082
46034 -25 0.0192308
46091 -26 0.0175439
46153 -27 0.016129
46224 -28 0.0140845
46310 -29 0.0116279
46434 -30 0.00806452
46803 -29 -0.00271003
46908 -28 -0.00952381
46986 -27 -0.0128205
47051 -26 -0.0153846
47109 -25 -0.0172414
47161 -24 -0.0192308
47210 -23 -0.0204082
47255 -22 -0.0222222
47299 -21 -0.0227273
47340 -20 -0.0243902
47380 -19 -0.025
47418 -18 -0.0263158
47456 -17 -0.0263158
47492 -16 -0.0277778
47528 -15 -0.0277778
47563 -14 -0.0285714
47598 -13 -0.0285714
47632 -12 -0.0294118
47666 -11 -0.0294118
47699 -10 -0.030303
47732 -9 -0.030303
47766 -8 -0.0294118
47799 -7 -0.030303
47832 -6 -0.030303
47865 -5 -0.030303
47898 -4 -0.030303
47932 -3 -0.0294118
47965 -2 -0.030303
47999 -1 -0.0294118
48025 0 -0.0384615
48033 1 -0.125
48068 2 -0.0285714
48104 3 -0.0277778
48140 4 -0.0277778
48176 5 -0.0277778
48214 6 -0.0263158
48253 7 -0.025641
48293 8 -0.025
48335 9 -0.0238095
48379 10 -0.0227273
48425 11 -0.0217391
48475 12 -0.02
48528 13 -0.0188679
48586 14 -0.0172414
48653 15 -0.0149254
48732 16 -0.0126582
48842 17 -0.00909091
49266 16 0.00235849
49366 15 0.01
49443 14 0.012987
49509 13 0.0151515
49569 12 0.0166667
49622 11 0.0188679
49673 10 0.0196078
49720 9 0.0212766
49766 8 0.0217391
49809 7 0.0232558
49852 6 0.0232558
49893 5 0.0243902
49932 4 0.025641
49971 3 0.025641
50010 2 0.025641
50047 1 0.027027
50075 0 0.0357143
50084 -1 0.111111
50121 -2 0.027027
50157 -3 0.0277778
50193 -4 0.0277778
50229 -5 0.0277778
50265 -6 0.0277778
50300 -7 0.0285714
50336 -8 0.0277778
50372 -9 0.0277778
50407 -10 0.0285714
50443 -11 0.0277778
50479 -12 0.0277778
50516 -13 0.027027
50553 -14 0.027027
50590 -15 0.027027
50628 -16 0.0263158
50667 -17 0.025641
50706 -18 0.025641
50747 -19 0.0243902
50788 -20 0.0243902
50831 -21 0.0232558
50876 -22 0.0222222
50922 -23 0.0217391
50971 -24 0.0204082
51023 -25 0.0192308
51080 -26 0.0175439
51143 -27 0.015873
51213 -28 0.0142857
51299 -29 0.0116279
51422 -30 0.00813008
51790 -29 -0.00271739
51895 -28 -0.00952381
51973 -27 -0.0128205
52039 -26 -0.0151515
52096 -25 -0.0175439
52149 -24 -0.0188679
52197 -23 -0.0208333
52243 -22 -0.0217391
52286 -21 -0.0232558
52327 -20 -0.0243902
52367 -19 -0.025
52405 -18 -0.0263158
52443 -17 -0.0263158
52479 -16 -0.0277778
52515 -15 -0.0277778
52550 -14 -0.0285714
52584 -13 -0.0294118
52619 -12 -0.0285714
52652 -11 -0.030303
52686 -10 -0.0294118
52719 -9 -0.030303
52752 -8 -0.030303
52785 -7 -0.030303
52818 -6 -0.030303
52851 -5 -0.030303
52884 -4 -0.030303
52918 -3 -0.0294118
52951 -2 -0.030303
52985 -1 -0.0294118
53011 0 -0.0384615
53019 1 -0.125
53055 2 -0.0277778
53090 3 -0.0285714
53125 4 -0.0285714
53162 5 -0.027027
53200 6 -0.0263158
53239 7 -0.025641
53279 8 -0.025
53321 9 -0.0238095
53365 10 -0.0227273
53411 11 -0.0217391
53460 12 -0.0204082
53513 13 -0.0188679
53572 14 -0.0169492
53638 15 -0.0151515
53718 16 -0.0125
53827 17 -0.00917431
54253 16 0.00234742
54352 15 0.010101
54430 14 0.0128205
54496 13 0.0151515
54555 12 0.0169492
54609 11 0.0185185
54660 10 0.0196078
54707 9 0.0212766
54753 8 0.0217391
54797 7 0.0227273
54839 6 0.0238095
54880 5 0.0243902
54920 4 0.025
54959 3 0.025641
54997 2 0.0263158
55035 1 0.0263158
55062 0 0.037037
55072 -1 0.1
55108 -2 0.0277778
55144 -3 0.0277778
55181 -4 0.027027
55216 -5 0.0285714
55252 -6 0.0277778
55288 -7 0.0277778
55323 -8 0.0285714
55359 -9 0.0277778
55395 -10 0.0277778
55431 -11 0.0277778
55467 -12 0.0277778
55503 -13 0.0277778
55540 -14 0.027027
55578 -15 0.0263158
55615 -16 0.027027
55654 -17 0.025641
55694 -18 0.025
55734 -19 0.025
55776 -20 0.0238095
55818 -21 0.0238095
55863 -22 0.0222222
55909 -23 0.0217391
55958 -24 0.0204082
56011 -25 0.0188679
56067 -26 0.0178571
56129 -27 0.016129
56200 -28 0.0140845
56286 -29 0.0116279
56409 -30 0.00813008
56778 -29 -0.00271003
56883 -28 -0.00952381
56961 -27 -0.0128205
57026 -26 -0.0153846
57084 -25 -0.0172414
