3 -14 0.000212495
12 -13 -0.111111
21 -12 -0.111111
30 -11 -0.111111
39 -10 -0.111111
48 -9 -0.111111
57 -8 -0.111111
66 -7 -0.111111
75 -6 -0.111111
84 -5 -0.111111
93 -4 -0.111111
102 -3 -0.111111
111 -2 -0.111111
120 -1 -0.111111
129 0 -0.111111
136 0 -0.142857
139 1 -0.333333
148 2 -0.111111
157 3 -0.111111
166 4 -0.111111
175 5 -0.111111
184 6 -0.111111
193 7 -0.111111
203 8 -0.1
212 9 -0.111111
221 10 -0.111111
231 11 -0.1
240 12 -0.111111
250 13 -0.1
259 14 -0.111111
269 15 -0.1
289 16 -0.05
299 17 -0.1
309 18 -0.1
319 19 -0.1
329 20 -0.1
339 21 -0.1
350 22 -0.0909091
360 23 -0.1
371 24 -0.0909091
382 25 -0.0909091
393 26 -0.0909091
404 27 -0.0909091
416 28 -0.0833333
427 29 -0.0909091
439 30 -0.0833333
451 31 -0.0833333
463 32 -0.0833333
476 33 -0.0769231
489 34 -0.0769231
502 35 -0.0769231
516 36 -0.0714286
530 37 -0.0714286
545 38 -0.0666667
561 39 -0.0625
577 40 -0.0625
593 41 -0.0625
611 42 -0.0555556
630 43 -0.0526316
651 44 -0.047619
673 45 -0.0454545
698 46 -0.04
727 47 -0.0344828
764 48 -0.027027
821 49 -0.0175439
947 48 0.00793651
994 47 0.0212766
1028 46 0.0294118
1056 45 0.0357143
1080 44 0.0416667
1102 43 0.0454545
1122 42 0.05
1141 41 0.0526316
1158 40 0.0588235
1175 39 0.0588235
1191 38 0.0625
1206 37 0.0666667
1221 36 0.0666667
1235 35 0.0714286
1248 34 0.0769231
1262 33 0.0714286
1275 32 0.0769231
1300 31 0.04
1312 30 0.0833333
1323 29 0.0909091
1335 28 0.0833333
1360 27 0.04
1369 26 0.111111
1380 25 0.0909091
1390 24 0.1
1401 23 0.0909091
1411 22 0.1
1422 21 0.0909091
1432 20 0.1
1442 19 0.1
1452 18 0.1
1462 17 0.1
1472 16 0.1
1481 15 0.111111
1491 14 0.1
1501 13 0.1
1510 12 0.111111
1520 11 0.1
1529 10 0.111111
1539 9 0.1
1548 8 0.111111
1557 7 0.111111
1566 6 0.111111
1577 5 0.0909091
1585 4 0.125
1594 3 0.111111
1603 2 0.111111
1610 0 0.285714
1612 -1 0.5
1621 -2 0.111111
1630 -3 0.111111
1639 -4 0.111111
1649 -5 0.1
1659 -6 0.1
1667 -7 0.125
1676 -8 0.111111
1685 -9 0.111111
1694 -10 0.111111
1704 -11 0.1
1712 -12 0.125
1721 -13 0.111111
1730 -14 0.111111
1739 -15 0.111111
1748 -16 0.111111
1757 -17 0.111111
1766 -18 0.111111
1776 -19 0.1
1786 -20 0.1
1794 -21 0.125
1803 -22 0.111111
1813 -23 0.1
1822 -24 0.111111
1832 -25 0.1
1841 -26 0.111111
1851 -27 0.1
1861 -28 0.1
1870 -29 0.111111
1880 -30 0.1
1890 -31 0.1
1900 -32 0.1
1910 -33 0.1
1920 -34 0.1
1931 -35 0.0909091
1941 -36 0.1
1952 -37 0.0909091
1962 -38 0.1
1973 -39 0.0909091
1984 -40 0.0909091
1995 -41 0.0909091
2007 -42 0.0833333
2018 -43 0.0909091
2030 -44 0.0833333
2042 -45 0.0833333
2054 -46 0.0833333
2067 -47 0.0769231
2080 -48 0.0769231
2094 -49 0.0714286
2107 -50 0.0769231
2121 -51 0.0714286
2136 -52 0.0666667
2151 -53 0.0666667
2167 -54 0.0625
2184 -55 0.0588235
2202 -56 0.0555556
2221 -57 0.0526316
2242 -58 0.047619
2264 -59 0.0454545
2290 -60 0.0384615
2319 -61 0.0344828
2358 -62 0.025641
2426 -63 0.0147059
2518 -62 -0.0108696
2570 -61 -0.0192308
2605 -60 -0.0285714
2633 -59 -0.0357143
2680 -58 -0.0212766
2700 -57 -0.05
2719 -56 -0.0526316
2736 -55 -0.0588235
2753 -54 -0.0588235
2768 -53 -0.0666667
2784 -52 -0.0625
2798 -51 -0.0714286
2812 -50 -0.0714286
2826 -49 -0.0714286
2839 -48 -0.0769231
2852 -47 -0.0769231
2864 -46 -0.0833333
2877 -45 -0.0769231
2889 -44 -0.0833333
2900 -43 -0.0909091
2912 -42 -0.0833333
2923 -41 -0.0909091
2934 -40 -0.0909091
2945 -39 -0.0909091
2956 -38 -0.0909091
2967 -37 -0.0909091
2977 -36 -0.1
2988 -35 -0.0909091
2998 -34 -0.1
3008 -33 -0.1
3018 -32 -0.1
3028 -31 -0.1
3038 -30 -0.1
3048 -29 -0.1
3057 -28 -0.111111
3067 -27 -0.1
3077 -26 -0.1
3087 -25 -0.1
3095 -24 -0.125
3105 -23 -0.1
3114 -22 -0.111111
3123 -21 -0.111111
3133 -20 -0.1
3142 -19 -0.111111
3151 -18 -0.111111
3160 -17 -0.111111
3169 -16 -0.111111
3179 -15 -0.1
3187 -14 -0.125
3196 -13 -0.111111
3205 -12 -0.111111
3214 -11 -0.111111
3223 -10 -0.111111
3232 -9 -0.111111
3241 -8 -0.111111
3251 -7 -0.1
3259 -6 -0.125
3268 -5 -0.111111
3277 -4 -0.111111
3286 -3 -0.111111
3296 -2 -0.1
3314 -1 -0.0555556
3323 0 -0.111111
3333 1 -0.1
3341 2 -0.125
3350 3 -0.111111
3359 4 -0.111111
3369 5 -0.1
3378 6 -0.111111
3387 7 -0.111111
3397 8 -0.1
3406 9 -0.111111
3416 10 -0.1
3425 11 -0.111111
3435 12 -0.1
3445 13 -0.1
3454 14 -0.111111
3464 15 -0.1
3474 16 -0.1
3484 17 -0.1
3495 18 -0.0909091
3505 19 -0.1
3515 20 -0.1
3526 21 -0.0909091
3537 22 -0.0909091
3547 23 -0.1
3558 24 -0.0909091
3570 25 -0.0833333
3581 26 -0.0909091
3593 27 -0.0833333
3605 28 -0.0833333
3616 29 -0.0909091
3629 30 -0.0769231
3641 31 -0.0833333
3654 32 -0.0769231
3668 33 -0.0714286
3681 34 -0.0769231
3695 35 -0.0714286
3710 36 -0.0666667
3725 37 -0.0666667
3741 38 -0.0625
3758 39 -0.0588235
3776 40 -0.0555556
3794 41 -0.0555556
3815 42 -0.047619
3836 43 -0.047619
3861 44 -0.04
3890 45 -0.0344828
3925 46 -0.0285714
3977 47 -0.0192308
4121 46 0.00694444
4166 45 0.0222222
4199 44 0.030303
4226 43 0.037037
4250 42 0.0416667
4271 41 0.047619
4291 40 0.05
4310 39 0.0526316
4327 38 0.0588235
4344 37 0.0588235
4359 36 0.0666667
4374 35 0.0666667
4389 34 0.0666667
4403 33 0.0714286
4417 32 0.0714286
4430 31 0.0769231
4443 30 0.0769231
4455 29 0.0833333
4468 28 0.0769231
4480 27 0.0833333
4491 26 0.0909091
4503 25 0.0833333
4514 24 0.0909091
4525 23 0.0909091
4536 22 0.0909091
4547 21 0.0909091
4558 20 0.0909091
4569 19 0.0909091
4579 18 0.1
4589 17 0.1
4600 16 0.0909091
4610 15 0.1
4620 14 0.1
4630 13 0.1
4639 12 0.111111
4650 11 0.0909091
4660 10 0.1
4668 9 0.125
4678 8 0.1
4687 7 0.111111
4697 6 0.1
4706 5 0.111111
4716 4 0.1
4725 3 0.111111
4734 2 0.111111
4743 1 0.111111
4753 0 0.1
4762 -1 0.111111
4771 -2 0.111111
4778 0 -0.285714
4780 -1 0.5
4790 -2 0.1
4798 -3 0.125
4807 -4 0.111111
4817 -5 0.1
4825 -6 0.125
4834 -7 0.111111
4843 -8 0.111111
4852 -9 0.111111
4861 -10 0.111111
4870 -11 0.111111
4880 -12 0.1
4889 -13 0.111111
4898 -14 0.111111
4907 -15 0.111111
4917 -16 0.1
4925 -17 0.125
4934 -18 0.111111
4944 -19 0.1
4953 -20 0.111111
4962 -21 0.111111
4971 -22 0.111111
4981 -23 0.1
4990 -24 0.111111
5000 -25 0.1
5009 -26 0.111111
5019 -27 0.1
5029 -28 0.1
5038 -29 0.111111
5048 -30 0.1
5058 -31 0.1
5068 -32 0.1
5078 -33 0.1
5089 -34 0.0909091
5099 -35 0.1
5109 -36 0.1
5120 -37 0.0909091
5131 -38 0.0909091
5141 -39 0.1
5152 -40 0.0909091
5164 -41 0.0833333
5175 -42 0.0909091
5187 -43 0.0833333
5199 -44 0.0833333
5211 -45 0.0833333
5223 -46 0.0833333
5236 -47 0.0769231
5249 -48 0.0769231
5262 -49 0.0769231
5276 -50 0.0714286
5291 -51 0.0666667
5305 -52 0.0714286
5321 -53 0.0625
5337 -54 0.0625
5354 -55 0.0588235
5372 -56 0.0555556
5391 -57 0.0526316
5412 -58 0.047619
5435 -59 0.0434783
5462 -60 0.037037
5493 -61 0.0322581
5534 -62 0.0243902
5728 -61 -0.00515464
5765 -60 -0.027027
5794 -59 -0.0344828
5820 -58 -0.0384615
5842 -57 -0.0454545
5863 -56 -0.047619
5881 -55 -0.0555556
5899 -54 -0.0555556
5916 -53 -0.0588235
5932 -52 -0.0625
5947 -51 -0.0666667
5962 -50 -0.0666667
5976 -49 -0.0714286
5990 -48 -0.0714286
6003 -47 -0.0769231
6016 -46 -0.0769231
6029 -45 -0.0769231
6041 -44 -0.0833333
6053 -43 -0.0833333
6065 -42 -0.0833333
6077 -41 -0.0833333
6088 -40 -0.0909091
6100 -39 -0.0833333
6111 -38 -0.0909091
6121 -37 -0.1
6132 -36 -0.0909091
6142 -35 -0.1
6153 -34 -0.0909091
6163 -33 -0.1
6173 -32 -0.1
6184 -31 -0.0909091
6194 -30 -0.1
6203 -29 -0.111111
6213 -28 -0.1
6223 -27 -0.1
6234 -26 -0.0909091
6242 -25 -0.125
6252 -24 -0.1
6261 -23 -0.111111
6271 -22 -0.1
6280 -21 -0.111111
6289 -20 -0.111111
6299 -19 -0.1
6308 -18 -0.111111
6317 -17 -0.111111
6326 -16 -0.111111
6345 -15 -0.0526316
6354 -14 -0.111111
6363 -13 -0.111111
6372 -12 -0.111111
6381 -11 -0.111111
6390 -10 -0.111111
6399 -9 -0.111111
6408 -8 -0.111111
6418 -7 -0.1
6426 -6 -0.125
6435 -5 -0.111111
6444 -4 -0.111111
6453 -3 -0.111111
6462 -2 -0.111111
6470 0 -0.25
6471 1 -1
6480 2 -0.111111
6490 3 -0.1
6499 4 -0.111111
6508 5 -0.111111
6517 6 -0.111111
6526 7 -0.111111
6536 8 -0.1
6545 9 -0.111111
6554 10 -0.111111
6564 11 -0.1
6573 12 -0.111111
6583 13 -0.1
6593 14 -0.1
6602 15 -0.111111
6612 16 -0.1
6622 17 -0.1
6632 18 -0.1
6642 19 -0.1
6652 20 -0.1
6662 21 -0.1
6674 22 -0.0833333
6684 23 -0.1
6694 24 -0.1
6705 25 -0.0909091
6715 26 -0.1
6726 27 -0.0909091
6738 28 -0.0833333
6749 29 -0.0909091
6761 30 -0.0833333
6773 31 -0.0833333
6785 32 -0.0833333
6797 33 -0.0833333
6810 34 -0.0769231
6823 35 -0.0769231
6836 36 -0.0769231
6850 37 -0.0714286
6864 38 -0.0714286
6879 39 -0.0666667
6894 40 -0.0666667
6911 41 -0.0588235
6927 42 -0.0625
6945 43 -0.0555556
6964 44 -0.0526316
6985 45 -0.047619
7008 46 -0.0434783
7033 47 -0.04
7063 48 -0.0333333
7100 49 -0.027027
7161 50 -0.0163934
7275 49 0.00877193
7325 48 0.02
7359 47 0.0294118
7387 46 0.0357143
7412 45 0.04
7434 44 0.0454545
7454 43 0.05
7473 42 0.0526316
7490 41 0.0588235
7507 40 0.0588235
7523 39 0.0625
7538 38 0.0666667
7553 37 0.0666667
7567 36 0.0714286
7581 35 0.0714286
7594 34 0.0769231
7607 33 0.0769231
7620 32 0.0769231
7632 31 0.0833333
7644 30 0.0833333
7656 29 0.0833333
7667 28 0.0909091
7679 27 0.0833333
7690 26 0.0909091
7701 25 0.0909091
7712 24 0.0909091
7723 23 0.0909091
7733 22 0.1
7744 21 0.0909091
7754 20 0.1
7764 19 0.1
7775 18 0.0909091
7785 17 0.1
7795 16 0.1
7804 15 0.111111
7814 14 0.1
7824 13 0.1
7833 12 0.111111
7843 11 0.1
7852 10 0.111111
7862 9 0.1
7871 8 0.111111
7881 7 0.1
7890 6 0.111111
7899 5 0.111111
7908 4 0.111111
7918 3 0.1
7927 2 0.111111
7936 1 0.111111
7945 0 0.111111
7954 -1 0.111111
7963 -2 0.111111
7972 -3 0.111111
7981 -4 0.111111
7991 -5 0.1
8000 -6 0.111111
8009 -7 0.111111
8018 -8 0.111111
8027 -9 0.111111
8036 -10 0.111111
8045 -11 0.111111
8054 -12 0.111111
8063 -13 0.111111
8072 -14 0.111111
8081 -15 0.111111
8090 -16 0.111111
8100 -17 0.1
8109 -18 0.111111
8118 -19 0.111111
8127 -20 0.111111
8137 -21 0.1
8146 -22 0.111111
8155 -23 0.111111
8165 -24 0.1
8175 -25 0.1
8184 -26 0.111111
8194 -27 0.1
8204 -28 0.1
8213 -29 0.111111
8223 -30 0.1
8233 -31 0.1
8243 -32 0.1
8254 -33 0.0909091
8264 -34 0.1
8274 -35 0.1
8285 -36 0.0909091
8296 -37 0.0909091
8307 -38 0.0909091
8318 -39 0.0909091
8329 -40 0.0909091
8340 -41 0.0909091
8352 -42 0.0833333
8364 -43 0.0833333
8388 -44 0.0416667
8401 -45 0.0769231
8414 -46 0.0769231
8427 -47 0.0769231
8441 -48 0.0714286
8455 -49 0.0714286
8470 -50 0.0666667
8485 -51 0.0666667
8501 -52 0.0625
8518 -53 0.0588235
8536 -54 0.0555556
8555 -55 0.0526316
8576 -56 0.047619
8599 -57 0.0434783
8625 -58 0.0384615
8655 -59 0.0333333
8694 -60 0.025641
8776 -61 0.0121951
8844 -60 -0.0147059
8900 -59 -0.0178571
8936 -58 -0.0277778
8964 -57 -0.0357143
8989 -56 -0.04
9011 -55 -0.0454545
9031 -54 -0.05
9050 -53 -0.0526316
9068 -52 -0.0555556
9085 -51 -0.0588235
9100 -50 -0.0666667
9116 -49 -0.0625
9130 -48 -0.0714286
9144 -47 -0.0714286
9158 -46 -0.0714286
9171 -45 -0.0769231
9184 -44 -0.0769231
9197 -43 -0.0769231
9209 -42 -0.0833333
9221 -41 -0.0833333
9233 -40 -0.0833333
9244 -39 -0.0909091
9256 -38 -0.0833333
9267 -37 -0.0909091
9278 -36 -0.0909091
9289 -35 -0.0909091
9299 -34 -0.1
9310 -33 -0.0909091
9320 -32 -0.1
9331 -31 -0.0909091
9341 -30 -0.1
9351 -29 -0.1
9361 -28 -0.1
9371 -27 -0.1
9390 -26 -0.0526316
9400 -25 -0.1
9409 -24 -0.111111
9419 -23 -0.1
9428 -22 -0.111111
9438 -21 -0.1
9447 -20 -0.111111
9456 -19 -0.111111
9466 -18 -0.1
9475 -17 -0.111111
9484 -16 -0.111111
9493 -15 -0.111111
9502 -14 -0.111111
9512 -13 -0.1
9521 -12 -0.111111
9530 -11 -0.111111
9539 -10 -0.111111
9548 -9 -0.111111
9557 -8 -0.111111
9566 -7 -0.111111
9575 -6 -0.111111
9584 -5 -0.111111
9593 -4 -0.111111
9602 -3 -0.111111
9611 -2 -0.111111
9620 -1 -0.111111
9629 0 -0.111111
9638 1 -0.111111
9647 2 -0.111111
9656 3 -0.111111
9665 4 -0.111111
9675 5 -0.1
9684 6 -0.111111
9693 7 -0.111111
9702 8 -0.111111
9712 9 -0.1
9721 10 -0.111111
9730 11 -0.111111
9740 12 -0.1
9750 13 -0.1
9759 14 -0.111111
9769 15 -0.1
9779 16 -0.1
9788 17 -0.111111
9798 18 -0.1
9808 19 -0.1
9818 20 -0.1
9829 21 -0.0909091
9839 22 -0.1
9849 23 -0.1
9860 24 -0.0909091
9871 25 -0.0909091
9882 26 -0.0909091
9893 27 -0.0909091
9904 28 -0.0909091
9915 29 -0.0909091
9927 30 -0.0833333
9939 31 -0.0833333
9951 32 -0.0833333
9963 33 -0.0833333
9976 34 -0.0769231
9989 35 -0.0769231
10002 36 -0.0769231
10016 37 -0.0714286
10030 38 -0.0714286
10045 39 -0.0666667
10061 40 -0.0625
10077 41 -0.0625
10093 42 -0.0625
10111 43 -0.0555556
10130 44 -0.0526316
10151 45 -0.047619
10173 46 -0.0454545
10199 47 -0.0384615
10228 48 -0.0344828
10265 49 -0.027027
10324 50 -0.0169492
10444 49 0.00833333
10492 48 0.0208333
10526 47 0.0294118
10555 46 0.0344828
10579 45 0.0416667
10601 44 0.0454545
10621 43 0.05
10640 42 0.0526316
10657 41 0.0588235
10674 40 0.0588235
10690 39 0.0625
10705 38 0.0666667
10719 37 0.0714286
10734 36 0.0666667
10747 35 0.0769231
10761 34 0.0714286
10773 33 0.0833333
10786 32 0.0769231
10798 31 0.0833333
10811 30 0.0769231
10822 29 0.0909091
10834 28 0.0833333
10845 27 0.0909091
10857 26 0.0833333
10868 25 0.0909091
10878 24 0.1
10889 23 0.0909091
10900 22 0.0909091
10910 21 0.1
10921 20 0.0909091
10931 19 0.1
10941 18 0.1
10951 17 0.1
10961 16 0.1
10971 15 0.1
10980 14 0.111111
10990 13 0.1
11000 12 0.1
11009 11 0.111111
11019 10 0.1
11028 9 0.111111
11037 8 0.111111
11047 7 0.1
11056 6 0.111111
11065 5 0.111111
11075 4 0.1
11084 3 0.111111
11093 2 0.111111
11102 1 0.111111
11109 0 0.142857
11111 -1 0.5
11120 -2 0.111111
11129 -3 0.111111
11138 -4 0.111111
11147 -5 0.111111
11156 -6 0.111111
11165 -7 0.111111
11174 -8 0.111111
11183 -9 0.111111
11192 -10 0.111111
11202 -11 0.1
11211 -12 0.111111
11220 -13 0.111111
11229 -14 0.111111
11238 -15 0.111111
11247 -16 0.111111
11256 -17 0.111111
11265 -18 0.111111
11274 -19 0.111111
11284 -20 0.1
11293 -21 0.111111
11302 -22 0.111111
11312 -23 0.1
11321 -24 0.111111
11331 -25 0.1
11340 -26 0.111111
11350 -27 0.1
11359 -28 0.111111
11369 -29 0.1
11379 -30 0.1
11389 -31 0.1
11399 -32 0.1
11409 -33 0.1
11419 -34 0.1
11429 -35 0.1
11440 -36 0.0909091
11450 -37 0.1
11472 -38 0.0454545
11483 -39 0.0909091
11494 -40 0.0909091
11505 -41 0.0909091
11517 -42 0.0833333
11529 -43 0.0833333
11541 -44 0.0833333
11553 -45 0.0833333
11566 -46 0.0769231
11579 -47 0.0769231
11592 -48 0.0769231
11606 -49 0.0714286
11620 -50 0.0714286
11634 -51 0.0714286
11650 -52 0.0625
11666 -53 0.0625
11683 -54 0.0588235
11700 -55 0.0588235
11719 -56 0.0526316
11740 -57 0.047619
11762 -58 0.0454545
11787 -59 0.04
11817 -60 0.0333333
11854 -61 0.027027
11919 -62 0.0153846
12020 -61 -0.00990099
12071 -60 -0.0196078
12106 -59 -0.0285714
12134 -58 -0.0357143
12158 -57 -0.0416667
12180 -56 -0.0454545
12200 -55 -0.05
12219 -54 -0.0526316
12236 -53 -0.0588235
12252 -52 -0.0625
12268 -51 -0.0625
12283 -50 -0.0666667
12298 -49 -0.0666667
12312 -48 -0.0714286
12325 -47 -0.0769231
12339 -46 -0.0714286
12351 -45 -0.0833333
12364 -44 -0.0769231
12376 -43 -0.0833333
12388 -42 -0.0833333
12400 -41 -0.0833333
12411 -40 -0.0909091
12423 -39 -0.0833333
12434 -38 -0.0909091
12445 -37 -0.0909091
12456 -36 -0.0909091
12477 -35 -0.047619
12487 -34 -0.1
12497 -33 -0.1
12507 -32 -0.1
12518 -31 -0.0909091
12527 -30 -0.111111
12537 -29 -0.1
12547 -28 -0.1
12557 -27 -0.1
12566 -26 -0.111111
12576 -25 -0.1
12585 -24 -0.111111
12595 -23 -0.1
12604 -22 -0.111111
12614 -21 -0.1
12623 -20 -0.111111
12632 -19 -0.111111
12641 -18 -0.111111
12650 -17 -0.111111
12660 -16 -0.1
12669 -15 -0.111111
12678 -14 -0.111111
12687 -13 -0.111111
12696 -12 -0.111111
12705 -11 -0.111111
12714 -10 -0.111111
12723 -9 -0.111111
12732 -8 -0.111111
12741 -7 -0.111111
12750 -6 -0.111111
12759 -5 -0.111111
12768 -4 -0.111111
12777 -3 -0.111111
12786 -2 -0.111111
12795 -1 -0.111111
12802 0 -0.142857
12804 1 -0.5
12813 2 -0.111111
12822 3 -0.111111
12831 4 -0.111111
12840 5 -0.111111
12850 6 -0.1
12859 7 -0.111111
12868 8 -0.111111
12877 9 -0.111111
12887 10 -0.1
12896 11 -0.111111
12906 12 -0.1
12915 13 -0.111111
12925 14 -0.1
12934 15 -0.111111
12944 16 -0.1
12954 17 -0.1
12964 18 -0.1
12974 19 -0.1
12984 20 -0.1
12994 21 -0.1
13004 22 -0.1
13015 23 -0.0909091
13025 24 -0.1
13036 25 -0.0909091
13047 26 -0.0909091
13058 27 -0.0909091
13069 28 -0.0909091
13080 29 -0.0909091
13092 30 -0.0833333
13104 31 -0.0833333
13116 32 -0.0833333
13128 33 -0.0833333
13141 34 -0.0769231
13154 35 -0.0769231
13167 36 -0.0769231
13181 37 -0.0714286
13195 38 -0.0714286
13210 39 -0.0666667
13225 40 -0.0666667
13241 41 -0.0625
13257 42 -0.0625
13275 43 -0.0555556
13294 44 -0.0526316
13314 45 -0.05
13336 46 -0.0454545
13361 47 -0.04
13390 48 -0.0344828
13425 49 -0.0285714
13478 50 -0.0188679
13620 49 0.00704225
13665 48 0.0222222
13698 47 0.030303
13725 46 0.037037
13749 45 0.0416667
13770 44 0.047619
13790 43 0.05
13809 42 0.0526316
13826 41 0.0588235
13843 40 0.0588235
13858 39 0.0666667
13874 38 0.0625
13888 37 0.0714286
13902 36 0.0714286
13916 35 0.0714286
13929 34 0.0769231
13942 33 0.0769231
13954 32 0.0833333
13967 31 0.0769231
13979 30 0.0833333
13991 29 0.0833333
14002 28 0.0909091
14014 27 0.0833333
14025 26 0.0909091
14036 25 0.0909091
14047 24 0.0909091
14057 23 0.1
14068 22 0.0909091
14078 21 0.1
14089 20 0.0909091
14099 19 0.1
14109 18 0.1
14119 17 0.1
14129 16 0.1
14139 15 0.1
14148 14 0.111111
14158 13 0.1
14168 12 0.1
14177 11 0.111111
14187 10 0.1
14196 9 0.111111
14206 8 0.1
14215 7 0.111111
14224 6 0.111111
14233 5 0.111111
14243 4 0.1
14252 3 0.111111
14261 2 0.111111
14270 1 0.111111
14277 0 0.142857
14279 -1 0.5
14288 -2 0.111111
14297 -3 0.111111
14307 -4 0.1
14316 -5 0.111111
14325 -6 0.111111
14334 -7 0.111111
14343 -8 0.111111
14352 -9 0.111111
14361 -10 0.111111
14370 -11 0.111111
14379 -12 0.111111
14388 -13 0.111111
14397 -14 0.111111
14406 -15 0.111111
14415 -16 0.111111
14424 -17 0.111111
14434 -18 0.1
14443 -19 0.111111
14452 -20 0.111111
14461 -21 0.111111
14471 -22 0.1
14480 -23 0.111111
14499 -24 0.0526316
14509 -25 0.1
14518 -26 0.111111
14528 -27 0.1
14538 -28 0.1
14548 -29 0.1
14557 -30 0.111111
14568 -31 0.0909091
14578 -32 0.1
14588 -33 0.1
14598 -34 0.1
14609 -35 0.0909091
14619 -36 0.1
14630 -37 0.0909091
14641 -38 0.0909091
14652 -39 0.0909091
14663 -40 0.0909091
14675 -41 0.0833333
14686 -42 0.0909091
14698 -43 0.0833333
14710 -44 0.0833333
14723 -45 0.0769231
14735 -46 0.0833333
14748 -47 0.0769231
14762 -48 0.0714286
14776 -49 0.0714286
14790 -50 0.0714286
14805 -51 0.0666667
14820 -52 0.0666667
14836 -53 0.0625
14853 -54 0.0588235
14871 -55 0.0555556
14891 -56 0.05
14912 -57 0.047619
14935 -58 0.0434783
14961 -59 0.0384615
14992 -60 0.0322581
15033 -61 0.0243902
15228 -60 -0.00512821
15265 -59 -0.027027
15295 -58 -0.0333333
15320 -57 -0.04
15342 -56 -0.0454545
15363 -55 -0.047619
15381 -54 -0.0555556
15399 -53 -0.0555556
15416 -52 -0.0588235
15432 -51 -0.0625
15447 -50 -0.0666667
15462 -49 -0.0666667
15476 -48 -0.0714286
15490 -47 -0.0714286
15516 -46 -0.0384615
15529 -45 -0.0769231
15541 -44 -0.0833333
15553 -43 -0.0833333
15565 -42 -0.0833333
15577 -41 -0.0833333
15588 -40 -0.0909091
15599 -39 -0.0909091
15610 -38 -0.0909091
15621 -37 -0.0909091
15632 -36 -0.0909091
15642 -35 -0.1
15653 -34 -0.0909091
15663 -33 -0.1
15673 -32 -0.1
15683 -31 -0.1
15693 -30 -0.1
15703 -29 -0.1
15713 -28 -0.1
15723 -27 -0.1
15732 -26 -0.111111
15742 -25 -0.1
15752 -24 -0.1
15761 -23 -0.111111
15770 -22 -0.111111
15780 -21 -0.1
15789 -20 -0.111111
15798 -19 -0.111111
15808 -18 -0.1
15817 -17 -0.111111
15826 -16 -0.111111
15835 -15 -0.111111
15844 -14 -0.111111
15853 -13 -0.111111
15862 -12 -0.111111
15872 -11 -0.1
15881 -10 -0.111111
15890 -9 -0.111111
15899 -8 -0.111111
15908 -7 -0.111111
15917 -6 -0.111111
15926 -5 -0.111111
15935 -4 -0.111111
15944 -3 -0.111111
15953 -2 -0.111111
15962 -1 -0.111111
15969 0 -0.142857
15971 1 -0.5
15980 2 -0.111111
15989 3 -0.111111
15998 4 -0.111111
16008 5 -0.1
16017 6 -0.111111
16026 7 -0.111111
16035 8 -0.111111
16045 9 -0.1
16054 10 -0.111111
16064 11 -0.1
16073 12 -0.111111
16083 13 -0.1
16092 14 -0.111111
16102 15 -0.1
16112 16 -0.1
16122 17 -0.1
16131 18 -0.111111
16141 19 -0.1
16152 20 -0.0909091
16162 21 -0.1
16172 22 -0.1
16183 23 -0.0909091
16193 24 -0.1
16204 25 -0.0909091
16215 26 -0.0909091
16226 27 -0.0909091
16237 28 -0.0909091
16249 29 -0.0833333
16260 30 -0.0909091
16272 31 -0.0833333
16284 32 -0.0833333
16297 33 -0.0769231
16309 34 -0.0833333
16322 35 -0.0769231
16336 36 -0.0714286
16350 37 -0.0714286
16364 38 -0.0714286
16379 39 -0.0666667
16394 40 -0.0666667
16410 41 -0.0625
16427 42 -0.0588235
16445 43 -0.0555556
16464 44 -0.0526316
16485 45 -0.047619
16507 46 -0.0454545
16532 47 -0.04
16562 48 -0.0333333
16599 49 -0.027027
16660 50 -0.0163934
16776 49 0.00862069
16825 48 0.0204082
16859 47 0.0294118
16887 46 0.0357143
16912 45 0.04
16934 44 0.0454545
16954 43 0.05
16972 42 0.0555556
16990 41 0.0555556
17007 40 0.0588235
17023 39 0.0625
17038 38 0.0666667
17053 37 0.0666667
17067 36 0.0714286
17080 35 0.0769231
17094 34 0.0714286
17107 33 0.0769231
17119 32 0.0833333
17132 31 0.0769231
17144 30 0.0833333
17156 29 0.0833333
17167 28 0.0909091
17179 27 0.0833333
17190 26 0.0909091
17201 25 0.0909091
17212 24 0.0909091
17223 23 0.0909091
17233 22 0.1
17244 21 0.0909091
17254 20 0.1
17264 19 0.1
17274 18 0.1
17284 17 0.1
17294 16 0.1
17304 15 0.1
17314 14 0.1
17324 13 0.1
17333 12 0.111111
17343 11 0.1
17352 10 0.111111
17362 9 0.1
17371 8 0.111111
17380 7 0.111111
17390 6 0.1
17399 5 0.111111
17408 4 0.111111
17417 3 0.111111
17427 2 0.1
17436 1 0.111111
17443 0 0.142857
17445 -1 0.5
17454 -2 0.111111
17463 -3 0.111111
17472 -4 0.111111
17481 -5 0.111111
17490 -6 0.111111
17499 -7 0.111111
17508 -8 0.111111
17526 -9 0.0555556
17535 -10 0.111111
17544 -11 0.111111
17554 -12 0.1
17563 -13 0.111111
17572 -14 0.111111
17581 -15 0.111111
17590 -16 0.111111
17599 -17 0.111111
17609 -18 0.1
17618 -19 0.111111
17627 -20 0.111111
17636 -21 0.111111
17646 -22 0.1
17655 -23 0.111111
17665 -24 0.1
17674 -25 0.111111
17684 -26 0.1
17693 -27 0.111111
17703 -28 0.1
17713 -29 0.1
17723 -30 0.1
17733 -31 0.1
17743 -32 0.1
17753 -33 0.1
17764 -34 0.0909091
17774 -35 0.1
17785 -36 0.0909091
17795 -37 0.1
17806 -38 0.0909091
17817 -39 0.0909091
17829 -40 0.0833333
17840 -41 0.0909091
17852 -42 0.0833333
17863 -43 0.0909091
17875 -44 0.0833333
17888 -45 0.0769231
17901 -46 0.0769231
17914 -47 0.0769231
17927 -48 0.0769231
17941 -49 0.0714286
17955 -50 0.0714286
17970 -51 0.0666667
17985 -52 0.0666667
18001 -53 0.0625
18018 -54 0.0588235
18036 -55 0.0555556
18055 -56 0.0526316
18076 -57 0.047619
18099 -58 0.0434783
18124 -59 0.04
18155 -60 0.0322581
18194 -61 0.025641
18274 -62 0.0125
18344 -61 -0.0142857
18400 -60 -0.0178571
18435 -59 -0.0285714
18464 -58 -0.0344828
18489 -57 -0.04
18511 -56 -0.0454545
18531 -55 -0.05
18550 -54 -0.0526316
18568 -53 -0.0555556
18584 -52 -0.0625
18600 -51 -0.0625
18615 -50 -0.0666667
18630 -49 -0.0666667
18644 -48 -0.0714286
18658 -47 -0.0714286
18671 -46 -0.0769231
18684 -45 -0.0769231
18697 -44 -0.0769231
18709 -43 -0.0833333
18721 -42 -0.0833333
18733 -41 -0.0833333
18744 -40 -0.0909091
18755 -39 -0.0909091
18767 -38 -0.0833333
18778 -37 -0.0909091
18788 -36 -0.1
18799 -35 -0.0909091
18810 -34 -0.0909091
18820 -33 -0.1
18830 -32 -0.1
18840 -31 -0.1
18851 -30 -0.0909091
18861 -29 -0.1
18870 -28 -0.111111
18880 -27 -0.1
18890 -26 -0.1
18900 -25 -0.1
18909 -24 -0.111111
18919 -23 -0.1
18928 -22 -0.111111
18937 -21 -0.111111
18947 -20 -0.1
18956 -19 -0.111111
18965 -18 -0.111111
18975 -17 -0.1
18984 -16 -0.111111
18993 -15 -0.111111
19002 -14 -0.111111
19011 -13 -0.111111
19020 -12 -0.111111
19029 -11 -0.111111
19038 -10 -0.111111
19047 -9 -0.111111
19056 -8 -0.111111
19065 -7 -0.111111
19074 -6 -0.111111
19083 -5 -0.111111
19092 -4 -0.111111
19101 -3 -0.111111
19110 -2 -0.111111
19120 -1 -0.1
19129 0 -0.111111
19138 1 -0.111111
19147 2 -0.111111
19156 3 -0.111111
19165 4 -0.111111
19174 5 -0.111111
19183 6 -0.111111
19193 7 -0.1
19202 8 -0.111111
19211 9 -0.111111
19221 10 -0.1
19230 11 -0.111111
19240 12 -0.1
19249 13 -0.111111
19259 14 -0.1
19268 15 -0.111111
19278 16 -0.1
19288 17 -0.1
19298 18 -0.1
19308 19 -0.1
19318 20 -0.1
19328 21 -0.1
19338 22 -0.1
19349 23 -0.0909091
19359 24 -0.1
19370 25 -0.0909091
19381 26 -0.0909091
19392 27 -0.0909091
19403 28 -0.0909091
19415 29 -0.0833333
19426 30 -0.0909091
19438 31 -0.0833333
19450 32 -0.0833333
19463 33 -0.0769231
19475 34 -0.0833333
19488 35 -0.0769231
19502 36 -0.0714286
19515 37 -0.0769231
19544 38 -0.0344828
19560 39 -0.0625
19576 40 -0.0625
19592 41 -0.0625
19610 42 -0.0555556
19629 43 -0.0526316
19650 44 -0.047619
19672 45 -0.0454545
19697 46 -0.04
19726 47 -0.0344828
19763 48 -0.027027
19819 49 -0.0178571
19946 48 0.00787402
19994 47 0.0208333
20027 46 0.030303
20055 45 0.0357143
20080 44 0.04
20101 43 0.047619
20121 42 0.05
20140 41 0.0526316
20157 40 0.0588235
20174 39 0.0588235
20190 38 0.0625
20205 37 0.0666667
20220 36 0.0666667
20234 35 0.0714286
20247 34 0.0769231
20261 33 0.0714286
20274 32 0.0769231
20286 31 0.0833333
20299 30 0.0769231
20311 29 0.0833333
20322 28 0.0909091
20334 27 0.0833333
20345 26 0.0909091
20357 25 0.0833333
20368 24 0.0909091
20378 23 0.1
20389 22 0.0909091
20400 21 0.0909091
20410 20 0.1
20420 19 0.1
20431 18 0.0909091
20441 17 0.1
20451 16 0.1
20461 15 0.1
20470 14 0.111111
20480 13 0.1
20490 12 0.1
20500 11 0.1
20509 10 0.111111
20519 9 0.1
20537 8 0.0555556
20547 7 0.1
20556 6 0.111111
20565 5 0.111111
20574 4 0.111111
20584 3 0.1
20593 2 0.111111
20602 1 0.111111
20609 0 0.142857
20611 -1 0.5
20620 -2 0.111111
20629 -3 0.111111
20638 -4 0.111111
20647 -5 0.111111
20656 -6 0.111111
20665 -7 0.111111
20674 -8 0.111111
20683 -9 0.111111
20692 -10 0.111111
20701 -11 0.111111
20710 -12 0.111111
20720 -13 0.1
20729 -14 0.111111
20738 -15 0.111111
20747 -16 0.111111
20756 -17 0.111111
20765 -18 0.111111
20774 -19 0.111111
20784 -20 0.1
20793 -21 0.111111
20802 -22 0.111111
20812 -23 0.1
20821 -24 0.111111
20830 -25 0.111111
20840 -26 0.1
20850 -27 0.1
20859 -28 0.111111
20869 -29 0.1
20879 -30 0.1
20889 -31 0.1
20899 -32 0.1
20909 -33 0.1
20919 -34 0.1
20929 -35 0.1
20940 -36 0.0909091
20950 -37 0.1
20961 -38 0.0909091
20972 -39 0.0909091
20983 -40 0.0909091
20994 -41 0.0909091
21005 -42 0.0909091
21017 -43 0.0833333
21029 -44 0.0833333
21041 -45 0.0833333
21053 -46 0.0833333
21066 -47 0.0769231
21079 -48 0.0769231
21092 -49 0.0769231
21106 -50 0.0714286
21120 -51 0.0714286
21135 -52 0.0666667
21150 -53 0.0666667
21166 -54 0.0625
21183 -55 0.0588235
21201 -56 0.0555556
21220 -57 0.0526316
21240 -58 0.05
21263 -59 0.0434783
21288 -60 0.04
21318 -61 0.0333333
21356 -62 0.0263158
21424 -63 0.0147059
21518 -62 -0.0106383
21570 -61 -0.0192308
21604 -60 -0.0294118
21633 -59 -0.0344828
21657 -58 -0.0416667
21679 -57 -0.0454545
21699 -56 -0.05
21718 -55 -0.0526316
21735 -54 -0.0588235
21752 -53 -0.0588235
21768 -52 -0.0625
21783 -51 -0.0666667
21797 -50 -0.0714286
21811 -49 -0.0714286
21825 -48 -0.0714286
21838 -47 -0.0769231
21851 -46 -0.0769231
21864 -45 -0.0769231
21876 -44 -0.0833333
21888 -43 -0.0833333
21900 -42 -0.0833333
21911 -41 -0.0909091
21922 -40 -0.0909091
21934 -39 -0.0833333
21945 -38 -0.0909091
21955 -37 -0.1
21966 -36 -0.0909091
21976 -35 -0.1
21987 -34 -0.0909091
21997 -33 -0.1
22007 -32 -0.1
22017 -31 -0.1
22027 -30 -0.1
22037 -29 -0.1
22047 -28 -0.1
22057 -27 -0.1
22066 -26 -0.111111
22076 -25 -0.1
22085 -24 -0.111111
22095 -23 -0.1
22104 -22 -0.111111
22114 -21 -0.1
22123 -20 -0.111111
22132 -19 -0.111111
22141 -18 -0.111111
22150 -17 -0.111111
22160 -16 -0.1
22169 -15 -0.111111
22178 -14 -0.111111
22187 -13 -0.111111
22196 -12 -0.111111
22205 -11 -0.111111
22214 -10 -0.111111
22223 -9 -0.111111
22232 -8 -0.111111
22241 -7 -0.111111
22250 -6 -0.111111
22259 -5 -0.111111
22268 -4 -0.111111
22277 -3 -0.111111
22286 -2 -0.111111
22295 -1 -0.111111
22302 0 -0.142857
22304 1 -0.5
22313 2 -0.111111
22322 3 -0.111111
22331 4 -0.111111
22341 5 -0.1
22350 6 -0.111111
22359 7 -0.111111
22368 8 -0.111111
22378 9 -0.1
22387 10 -0.111111
22396 11 -0.111111
22406 12 -0.1
22415 13 -0.111111
22425 14 -0.1
22435 15 -0.1
22444 16 -0.111111
22454 17 -0.1
22464 18 -0.1
22474 19 -0.1
22484 20 -0.1
22494 21 -0.1
22505 22 -0.0909091
22515 23 -0.1
22526 24 -0.0909091
22537 25 -0.0909091
22547 26 -0.1
22558 27 -0.0909091
22570 28 -0.0833333
22581 29 -0.0909091
22604 30 -0.0434783
22617 31 -0.0769231
22629 32 -0.0833333
22642 33 -0.0769231
22655 34 -0.0769231
22668 35 -0.0769231
22682 36 -0.0714286
22696 37 -0.0714286
22710 38 -0.0714286
22726 39 -0.0625
22742 40 -0.0625
22759 41 -0.0588235
22776 42 -0.0588235
22795 43 -0.0526316
22816 44 -0.047619
22838 45 -0.0454545
22863 46 -0.04
22892 47 -0.0344828
22928 48 -0.0277778
22984 49 -0.0178571
23115 48 0.00763359
23161 47 0.0217391
23195 46 0.0294118
23223 45 0.0357143
23247 44 0.0416667
23269 43 0.0454545
23289 42 0.05
23307 41 0.0555556
23325 40 0.0555556
23341 39 0.0625
23357 38 0.0625
23372 37 0.0666667
23387 36 0.0666667
23401 35 0.0714286
23415 34 0.0714286
23428 33 0.0769231
23441 32 0.0769231
23454 31 0.0769231
23466 30 0.0833333
23478 29 0.0833333
23490 28 0.0833333
23501 27 0.0909091
23513 26 0.0833333
23524 25 0.0909091
23535 24 0.0909091
23546 23 0.0909091
23557 22 0.0909091
23567 21 0.1
23578 20 0.0909091
23588 19 0.1
23608 18 0.05
23618 17 0.1
23628 16 0.1
23638 15 0.1
23648 14 0.1
23658 13 0.1
23667 12 0.111111
23677 11 0.1
23686 10 0.111111
23696 9 0.1
23705 8 0.111111
23714 7 0.111111
23724 6 0.1
23733 5 0.111111
23742 4 0.111111
23751 3 0.111111
23761 2 0.1
23770 1 0.111111
23777 0 0.142857
23779 -1 0.5
23788 -2 0.111111
23797 -3 0.111111
23806 -4 0.111111
23815 -5 0.111111
23824 -6 0.111111
23833 -7 0.111111
23842 -8 0.111111
23851 -9 0.111111
23860 -10 0.111111
23869 -11 0.111111
23879 -12 0.1
23888 -13 0.111111
23897 -14 0.111111
23906 -15 0.111111
23915 -16 0.111111
23924 -17 0.111111
23933 -18 0.111111
23943 -19 0.1
23952 -20 0.111111
23961 -21 0.111111
23970 -22 0.111111
23980 -23 0.1
23989 -24 0.111111
23999 -25 0.1
24008 -26 0.111111
24018 -27 0.1
24028 -28 0.1
24037 -29 0.111111
24047 -30 0.1
24057 -31 0.1
24067 -32 0.1
24077 -33 0.1
24088 -34 0.0909091
24098 -35 0.1
24108 -36 0.1
24119 -37 0.0909091
24130 -38 0.0909091
24141 -39 0.0909091
24152 -40 0.0909091
24163 -41 0.0909091
24174 -42 0.0909091
24186 -43 0.0833333
24198 -44 0.0833333
24210 -45 0.0833333
24222 -46 0.0833333
24235 -47 0.0769231
24248 -48 0.0769231
24262 -49 0.0714286
24276 -50 0.0714286
24290 -51 0.0714286
24305 -52 0.0666667
24320 -53 0.0666667
24336 -54 0.0625
24353 -55 0.0588235
24371 -56 0.0555556
24391 -57 0.05
24412 -58 0.047619
24435 -59 0.0434783
24461 -60 0.0384615
24493 -61 0.03125
24534 -62 0.0243902
24727 -61 -0.00518135
24764 -60 -0.027027
24794 -59 -0.0333333
24819 -58 -0.04
24841 -57 -0.0454545
24862 -56 -0.047619
24881 -55 -0.0526316
24899 -54 -0.0555556
24915 -53 -0.0625
24931 -52 -0.0625
24947 -51 -0.0625
24961 -50 -0.0714286
24976 -49 -0.0666667
24989 -48 -0.0769231
25003 -47 -0.0714286
25016 -46 -0.0769231
25028 -45 -0.0833333
25041 -44 -0.0769231
25053 -43 -0.0833333
25064 -42 -0.0909091
25076 -41 -0.0833333
25087 -40 -0.0909091
25099 -39 -0.0833333
25110 -38 -0.0909091
25120 -37 -0.1
25131 -36 -0.0909091
25142 -35 -0.0909091
25152 -34 -0.1
25162 -33 -0.1
25173 -32 -0.0909091
25183 -31 -0.1
25193 -30 -0.1
25203 -29 -0.1
25213 -28 -0.1
25222 -27 -0.111111
25232 -26 -0.1
25242 -25 -0.1
25251 -24 -0.111111
25261 -23 -0.1
25270 -22 -0.111111
25279 -21 -0.111111
25289 -20 -0.1
25298 -19 -0.111111
25307 -18 -0.111111
25316 -17 -0.111111
25325 -16 -0.111111
25335 -15 -0.1
25344 -14 -0.111111
25353 -13 -0.111111
25362 -12 -0.111111
25371 -11 -0.111111
25380 -10 -0.111111
25389 -9 -0.111111
25398 -8 -0.111111
25407 -7 -0.111111
25416 -6 -0.111111
25425 -5 -0.111111
25434 -4 -0.111111
25443 -3 -0.111111
25452 -2 -0.111111
25461 -1 -0.111111
25468 0 -0.142857
25471 1 -0.333333
25480 2 -0.111111
25489 3 -0.111111
25498 4 -0.111111
25507 5 -0.111111
25516 6 -0.111111
25526 7 -0.1
25535 8 -0.111111
25544 9 -0.111111
25554 10 -0.1
25563 11 -0.111111
25573 12 -0.1
25582 13 -0.111111
25592 14 -0.1
25601 15 -0.111111
25611 16 -0.1
25621 17 -0.1
25631 18 -0.1
25641 19 -0.1
25651 20 -0.1
25661 21 -0.1
25672 22 -0.0909091
25682 23 -0.1
25693 24 -0.0909091
25704 25 -0.0909091
25715 26 -0.0909091
25726 27 -0.0909091
25737 28 -0.0909091
25760 29 -0.0434783
25772 30 -0.0833333
25784 31 -0.0833333
25796 32 -0.0833333
25809 33 -0.0769231
25822 34 -0.0769231
25835 35 -0.0769231
25849 36 -0.0714286
25864 37 -0.0666667
25878 38 -0.0714286
25894 39 -0.0625
25910 40 -0.0625
25927 41 -0.0588235
25945 42 -0.0555556
25964 43 -0.0526316
25984 44 -0.05
26007 45 -0.0434783
26032 46 -0.04
26062 47 -0.0333333
26099 48 -0.027027
26160 49 -0.0163934
26274 48 0.00877193
26324 47 0.02
26358 46 0.0294118
26387 45 0.0344828
26411 44 0.0416667
26433 43 0.0454545
26453 42 0.05
26472 41 0.0526316
26489 40 0.0588235
26506 39 0.0588235
26522 38 0.0625
26537 37 0.0666667
26552 36 0.0666667
26566 35 0.0714286
26580 34 0.0714286
26593 33 0.0769231
26606 32 0.0769231
26619 31 0.0769231
26631 30 0.0833333
26643 29 0.0833333
26655 28 0.0833333
26667 27 0.0833333
26678 26 0.0909091
26689 25 0.0909091
26700 24 0.0909091
26711 23 0.0909091
26722 22 0.0909091
26733 21 0.0909091
26743 20 0.1
26764 19 0.047619
26774 18 0.1
26784 17 0.1
26794 16 0.1
26803 15 0.111111
26813 14 0.1
26823 13 0.1
26833 12 0.1
26842 11 0.111111
26852 10 0.1
26861 9 0.111111
26871 8 0.1
26880 7 0.111111
26889 6 0.111111
26898 5 0.111111
26908 4 0.1
26917 3 0.111111
26926 2 0.111111
26935 1 0.111111
26942 0 0.142857
26944 -1 0.5
26953 -2 0.111111
26962 -3 0.111111
26971 -4 0.111111
26980 -5 0.111111
26990 -6 0.1
26999 -7 0.111111
27008 -8 0.111111
27017 -9 0.111111
27026 -10 0.111111
27035 -11 0.111111
27044 -12 0.111111
27053 -13 0.111111
27062 -14 0.111111
27071 -15 0.111111
27080 -16 0.111111
27089 -17 0.111111
27099 -18 0.1
27108 -19 0.111111
27117 -20 0.111111
27126 -21 0.111111
27136 -22 0.1
27145 -23 0.111111
27154 -24 0.111111
27164 -25 0.1
27173 -26 0.111111
27183 -27 0.1
27193 -28 0.1
27202 -29 0.111111
27212 -30 0.1
27222 -31 0.1
27232 -32 0.1
27242 -33 0.1
27253 -34 0.0909091
27263 -35 0.1
27273 -36 0.1
27284 -37 0.0909091
27295 -38 0.0909091
27305 -39 0.1
27316 -40 0.0909091
27328 -41 0.0833333
27339 -42 0.0909091
27351 -43 0.0833333
27362 -44 0.0909091
27375 -45 0.0769231
27387 -46 0.0833333
27400 -47 0.0769231
27412 -48 0.0833333
27426 -49 0.0714286
27440 -50 0.0714286
27454 -51 0.0714286
27469 -52 0.0666667
27484 -53 0.0666667
27500 -54 0.0625
27517 -55 0.0588235
27535 -56 0.0555556
27554 -57 0.0526316
27574 -58 0.05
27597 -59 0.0434783
27623 -60 0.0384615
27653 -61 0.0333333
27691 -62 0.0263158
27763 -63 0.0138889
27848 -62 -0.0117647
27902 -61 -0.0185185
27937 -60 -0.0285714
27965 -59 -0.0357143
27990 -58 -0.04
28012 -57 -0.0454545
28032 -56 -0.05
28051 -55 -0.0526316
28068 -54 -0.0588235
28085 -53 -0.0588235
28101 -52 -0.0625
28116 -51 -0.0666667
28130 -50 -0.0714286
28145 -49 -0.0666667
28158 -48 -0.0769231
28171 -47 -0.0769231
28184 -46 -0.0769231
28197 -45 -0.0769231
28209 -44 -0.0833333
28221 -43 -0.0833333
28233 -42 -0.0833333
28244 -41 -0.0909091
28256 -40 -0.0833333
28267 -39 -0.0909091
28278 -38 -0.0909091
28289 -37 -0.0909091
28299 -36 -0.1
28310 -35 -0.0909091
28320 -34 -0.1
28330 -33 -0.1
28341 -32 -0.0909091
28351 -31 -0.1
28361 -30 -0.1
28371 -29 -0.1
28380 -28 -0.111111
28390 -27 -0.1
28400 -26 -0.1
28409 -25 -0.111111
28419 -24 -0.1
28428 -23 -0.111111
28438 -22 -0.1
28447 -21 -0.111111
28456 -20 -0.111111
28465 -19 -0.111111
28475 -18 -0.1
28484 -17 -0.111111
28493 -16 -0.111111
28502 -15 -0.111111
28511 -14 -0.111111
28520 -13 -0.111111
28529 -12 -0.111111
28539 -11 -0.1
28547 -10 -0.125
28556 -9 -0.111111
28565 -8 -0.111111
28574 -7 -0.111111
28583 -6 -0.111111
28592 -5 -0.111111
28601 -4 -0.111111
28610 -3 -0.111111
28620 -2 -0.1
28629 -1 -0.111111
28635 0 -0.166667
28638 1 -0.333333
28647 2 -0.111111
28656 3 -0.111111
28665 4 -0.111111
28674 5 -0.111111
28683 6 -0.111111
28693 7 -0.1
28702 8 -0.111111
28711 9 -0.111111
28721 10 -0.1
28730 11 -0.111111
28739 12 -0.111111
28749 13 -0.1
28759 14 -0.1
28768 15 -0.111111
28788 16 -0.05
28798 17 -0.1
28808 18 -0.1
28818 19 -0.1
28828 20 -0.1
28838 21 -0.1
28849 22 -0.0909091
28859 23 -0.1
28870 24 -0.0909091
28881 25 -0.0909091
28892 26 -0.0909091
28903 27 -0.0909091
28915 28 -0.0833333
28926 29 -0.0909091
28938 30 -0.0833333
28950 31 -0.0833333
28963 32 -0.0769231
28975 33 -0.0833333
28988 34 -0.0769231
29002 35 -0.0714286
29015 36 -0.0769231
29030 37 -0.0666667
29044 38 -0.0714286
29060 39 -0.0625
29076 40 -0.0625
29092 41 -0.0625
29110 42 -0.0555556
29129 43 -0.0526316
29150 44 -0.047619
29172 45 -0.0454545
29197 46 -0.04
29226 47 -0.0344828
29263 48 -0.027027
29320 49 -0.0175439
29445 48 0.008
29493 47 0.0208333
29527 46 0.0294118
29555 45 0.0357143
29579 44 0.0416667
29601 43 0.0454545
29621 42 0.05
29640 41 0.0526316
29657 40 0.0588235
29674 39 0.0588235
29689 38 0.0666667
29705 37 0.0625
29719 36 0.0714286
29733 35 0.0714286
29747 34 0.0714286
29760 33 0.0769231
29773 32 0.0769231
29798 31 0.04
29810 30 0.0833333
29822 29 0.0833333
29834 28 0.0833333
29845 27 0.0909091
29856 26 0.0909091
29868 25 0.0833333
29878 24 0.1
29889 23 0.0909091
29899 22 0.1
29910 21 0.0909091
29921 20 0.0909091
29930 19 0.111111
29940 18 0.1
29950 17 0.1
29960 16 0.1
29970 15 0.1
29980 14 0.1
29990 13 0.1
29999 12 0.111111
30009 11 0.1
30018 10 0.111111
30028 9 0.1
30037 8 0.111111
30046 7 0.111111
30056 6 0.1
30065 5 0.111111
30074 4 0.111111
30083 3 0.111111
30092 2 0.111111
30102 1 0.1
30108 0 0.166667
30111 -1 0.333333
30120 -2 0.111111
30129 -3 0.111111
30138 -4 0.111111
30147 -5 0.111111
30156 -6 0.111111
30165 -7 0.111111
30174 -8 0.111111
30183 -9 0.111111
30192 -10 0.111111
30201 -11 0.111111
30210 -12 0.111111
30219 -13 0.111111
30228 -14 0.111111
30237 -15 0.111111
30246 -16 0.111111
30256 -17 0.1
30265 -18 0.111111
30274 -19 0.111111
30283 -20 0.111111
30293 -21 0.1
30302 -22 0.111111
30311 -23 0.111111
30321 -24 0.1
30330 -25 0.111111
30340 -26 0.1
30349 -27 0.111111
30359 -28 0.1
30369 -29 0.1
30378 -30 0.111111
30388 -31 0.1
30398 -32 0.1
30408 -33 0.1
30419 -34 0.0909091
30429 -35 0.1
30439 -36 0.1
30450 -37 0.0909091
30461 -38 0.0909091
30471 -39 0.1
30482 -40 0.0909091
30494 -41 0.0833333
30505 -42 0.0909091
30517 -43 0.0833333
30528 -44 0.0909091
30540 -45 0.0833333
30553 -46 0.0769231
30565 -47 0.0833333
30578 -48 0.0769231
30592 -49 0.0714286
30605 -50 0.0769231
30620 -51 0.0666667
30634 -52 0.0714286
30650 -53 0.0625
30666 -54 0.0625
30682 -55 0.0625
30700 -56 0.0555556
30719 -57 0.0526316
30740 -58 0.047619
30762 -59 0.0454545
30788 -60 0.0384615
30817 -61 0.0344828
30855 -62 0.0263158
30923 -63 0.0147059
31017 -62 -0.0106383
31069 -61 -0.0192308
31104 -60 -0.0285714
31132 -59 -0.0357143
31157 -58 -0.04
31179 -57 -0.0454545
31199 -56 -0.05
31217 -55 -0.0555556
31235 -54 -0.0555556
31251 -53 -0.0625
31267 -52 -0.0625
31282 -51 -0.0666667
31297 -50 -0.0666667
31311 -49 -0.0714286
31325 -48 -0.0714286
31338 -47 -0.0769231
31351 -46 -0.0769231
31363 -45 -0.0833333
31375 -44 -0.0833333
31387 -43 -0.0833333
31399 -42 -0.0833333
31411 -41 -0.0833333
31422 -40 -0.0909091
31433 -39 -0.0909091
31444 -38 -0.0909091
31455 -37 -0.0909091
31465 -36 -0.1
31476 -35 -0.0909091
31486 -34 -0.1
31497 -33 -0.0909091
31507 -32 -0.1
31517 -31 -0.1
31527 -30 -0.1
31537 -29 -0.1
31546 -28 -0.111111
31556 -27 -0.1
31566 -26 -0.1
31575 -25 -0.111111
31585 -24 -0.1
31594 -23 -0.111111
31604 -22 -0.1
31613 -21 -0.111111
31622 -20 -0.111111
31632 -19 -0.1
31641 -18 -0.111111
31650 -17 -0.111111
31659 -16 -0.111111
31668 -15 -0.111111
31677 -14 -0.111111
31686 -13 -0.111111
31695 -12 -0.111111
31704 -11 -0.111111
31713 -10 -0.111111
31722 -9 -0.111111
31731 -8 -0.111111
31740 -7 -0.111111
31750 -6 -0.1
31759 -5 -0.111111
31768 -4 -0.111111
31777 -3 -0.111111
31795 -2 -0.0555556
31822 -1 -0.037037
31831 0 -0.111111
31840 1 -0.111111
31849 2 -0.111111
31859 3 -0.1
31868 4 -0.111111
31877 5 -0.111111
31887 6 -0.1
31896 7 -0.111111
31905 8 -0.111111
31915 9 -0.1
31925 10 -0.1
31934 11 -0.111111
31944 12 -0.1
31954 13 -0.1
31964 14 -0.1
31974 15 -0.1
31984 16 -0.1
31994 17 -0.1
32004 18 -0.1
32015 19 -0.0909091
32025 20 -0.1
32036 21 -0.0909091
32047 22 -0.0909091
32058 23 -0.0909091
32069 24 -0.0909091
32081 25 -0.0833333
32092 26 -0.0909091
32104 27 -0.0833333
32116 28 -0.0833333
32128 29 -0.0833333
32141 30 -0.0769231
32154 31 -0.0769231
32167 32 -0.0769231
32181 33 -0.0714286
32195 34 -0.0714286
32210 35 -0.0666667
32225 36 -0.0666667
32241 37 -0.0625
32258 38 -0.0588235
32276 39 -0.0555556
32295 40 -0.0526316
32315 41 -0.05
32338 42 -0.0434783
32363 43 -0.04
32392 44 -0.0344828
32428 45 -0.0277778
32484 46 -0.0178571
32614 45 0.00769231
32661 44 0.0212766
32694 43 0.030303
32722 42 0.0357143
32746 41 0.0416667
32769 40 0.0434783
32788 39 0.0526316
32807 38 0.0526316
32841 37 0.0294118
32857 36 0.0625
32872 35 0.0666667
32886 34 0.0714286
32900 33 0.0714286
32914 32 0.0714286
32927 31 0.0769231
32940 30 0.0769231
32954 29 0.0714286
32965 28 0.0909091
32977 27 0.0833333
32989 26 0.0833333
33001 25 0.0833333
33012 24 0.0909091
33023 23 0.0909091
33034 22 0.0909091
33046 21 0.0833333
33056 20 0.1
33066 19 0.1
33077 18 0.0909091
33087 17 0.1
33097 16 0.1
33107 15 0.1
33117 14 0.1
33128 13 0.0909091
33138 12 0.1
33148 11 0.1
33157 10 0.111111
33166 9 0.111111
33176 8 0.1
33185 7 0.111111
33195 6 0.1
33204 5 0.111111
33213 4 0.111111
33223 3 0.1
33232 2 0.111111
33241 1 0.111111
33251 0 0.1
33260 -1 0.111111
33269 -2 0.111111
33275 0 -0.333333
33278 -1 0.333333
33287 -2 0.111111
33296 -3 0.111111
33305 -4 0.111111
33314 -5 0.111111
33323 -6 0.111111
33332 -7 0.111111
33341 -8 0.111111
33350 -9 0.111111
33359 -10 0.111111
33368 -11 0.111111
33377 -12 0.111111
33386 -13 0.111111
33396 -14 0.1
33405 -15 0.111111
33414 -16 0.111111
33423 -17 0.111111
33432 -18 0.111111
33441 -19 0.111111
33451 -20 0.1
33460 -21 0.111111
33469 -22 0.111111
33479 -23 0.1
33488 -24 0.111111
33498 -25 0.1
33507 -26 0.111111
33517 -27 0.1
33526 -28 0.111111
33536 -29 0.1
33546 -30 0.1
33556 -31 0.1
33566 -32 0.1
33576 -33 0.1
33586 -34 0.1
33597 -35 0.0909091
33607 -36 0.1
33618 -37 0.0909091
33628 -38 0.1
33639 -39 0.0909091
33651 -40 0.0833333
33662 -41 0.0909091
33673 -42 0.0909091
33685 -43 0.0833333
33696 -44 0.0909091
33709 -45 0.0769231
33721 -46 0.0833333
33734 -47 0.0769231
33747 -48 0.0769231
33760 -49 0.0769231
33774 -50 0.0714286
33788 -51 0.0714286
33803 -52 0.0666667
33818 -53 0.0666667
33852 -54 0.0294118
33869 -55 0.0588235
33889 -56 0.05
33910 -57 0.047619
33933 -58 0.0434783
33959 -59 0.0384615
33989 -60 0.0333333
34030 -61 0.0243902
34229 -60 -0.00502513
34265 -59 -0.0277778
34295 -58 -0.0333333
34320 -57 -0.04
34342 -56 -0.0454545
34362 -55 -0.05
34382 -54 -0.05
34399 -53 -0.0588235
34416 -52 -0.0588235
34432 -51 -0.0625
34447 -50 -0.0666667
34461 -49 -0.0714286
34476 -48 -0.0666667
34489 -47 -0.0769231
34503 -46 -0.0714286
34516 -45 -0.0769231
34528 -44 -0.0833333
34541 -43 -0.0769231
34553 -42 -0.0833333
34564 -41 -0.0909091
34576 -40 -0.0833333
34587 -39 -0.0909091
34599 -38 -0.0833333
34609 -37 -0.1
34620 -36 -0.0909091
34631 -35 -0.0909091
34642 -34 -0.0909091
34652 -33 -0.1
34662 -32 -0.1
34672 -31 -0.1
34683 -30 -0.0909091
34693 -29 -0.1
34702 -28 -0.111111
34712 -27 -0.1
34722 -26 -0.1
34732 -25 -0.1
34742 -24 -0.1
34751 -23 -0.111111
34760 -22 -0.111111
34770 -21 -0.1
34779 -20 -0.111111
34788 -19 -0.111111
34798 -18 -0.1
34807 -17 -0.111111
34816 -16 -0.111111
34825 -15 -0.111111
34853 -14 -0.0357143
34862 -13 -0.111111
34871 -12 -0.111111
34880 -11 -0.111111
34889 -10 -0.111111
34898 -9 -0.111111
34907 -8 -0.111111
34917 -7 -0.1
34925 -6 -0.125
34934 -5 -0.111111
34943 -4 -0.111111
34952 -3 -0.111111
34961 -2 -0.111111
34968 0 -0.285714
34970 1 -0.5
34979 2 -0.111111
34989 3 -0.1
34998 4 -0.111111
35007 5 -0.111111
35016 6 -0.111111
35025 7 -0.111111
35035 8 -0.1
35044 9 -0.111111
35053 10 -0.111111
35063 11 -0.1
35072 12 -0.111111
35082 13 -0.1
35092 14 -0.1
35101 15 -0.111111
35111 16 -0.1
35121 17 -0.1
35131 18 -0.1
35141 19 -0.1
35151 20 -0.1
35161 21 -0.1
35172 22 -0.0909091
35182 23 -0.1
35193 24 -0.0909091
35203 25 -0.1
35214 26 -0.0909091
35225 27 -0.0909091
35237 28 -0.0833333
35248 29 -0.0909091
35260 30 -0.0833333
35273 31 -0.0769231
35284 32 -0.0909091
35296 33 -0.0833333
35309 34 -0.0769231
35322 35 -0.0769231
35335 36 -0.0769231
35349 37 -0.0714286
35363 38 -0.0714286
35378 39 -0.0666667
35394 40 -0.0625
35410 41 -0.0625
35427 42 -0.0588235
35445 43 -0.0555556
35464 44 -0.0526316
35484 45 -0.05
35507 46 -0.0434783
35532 47 -0.04
35563 48 -0.0322581
35600 49 -0.027027
35663 50 -0.015873
35772 49 0.00917431
35822 48 0.02
35857 47 0.0285714
35885 46 0.0357143
35910 45 0.04
35932 44 0.0454545
35952 43 0.05
35971 42 0.0526316
35988 41 0.0588235
36005 40 0.0588235
36021 39 0.0625
36036 38 0.0666667
36051 37 0.0666667
36065 36 0.0714286
36079 35 0.0714286
36092 34 0.0769231
36105 33 0.0769231
36118 32 0.0769231
36130 31 0.0833333
36142 30 0.0833333
36154 29 0.0833333
36166 28 0.0833333
36177 27 0.0909091
36188 26 0.0909091
36199 25 0.0909091
36210 24 0.0909091
36221 23 0.0909091
36232 22 0.0909091
36242 21 0.1
36253 20 0.0909091
36263 19 0.1
36273 18 0.1
36283 17 0.1
36293 16 0.1
36303 15 0.1
36312 14 0.111111
36322 13 0.1
36332 12 0.1
36341 11 0.111111
36351 10 0.1
36360 9 0.111111
36370 8 0.1
36379 7 0.111111
36388 6 0.111111
36398 5 0.1
36407 4 0.111111
36416 3 0.111111
36425 2 0.111111
36434 1 0.111111
36441 0 0.142857
36443 -1 0.5
36452 -2 0.111111
36461 -3 0.111111
36471 -4 0.1
36480 -5 0.111111
36489 -6 0.111111
36498 -7 0.111111
36507 -8 0.111111
36516 -9 0.111111
36525 -10 0.111111
36534 -11 0.111111
36543 -12 0.111111
36552 -13 0.111111
36561 -14 0.111111
36570 -15 0.111111
36579 -16 0.111111
36588 -17 0.111111
36598 -18 0.1
36607 -19 0.111111
36616 -20 0.111111
36625 -21 0.111111
36635 -22 0.1
36644 -23 0.111111
36653 -24 0.111111
36663 -25 0.1
36672 -26 0.111111
36682 -27 0.1
36692 -28 0.1
36701 -29 0.111111
36711 -30 0.1
36721 -31 0.1
36731 -32 0.1
36741 -33 0.1
36751 -34 0.1
36762 -35 0.0909091
36772 -36 0.1
36783 -37 0.0909091
36793 -38 0.1
36804 -39 0.0909091
36815 -40 0.0909091
36826 -41 0.0909091
36838 -42 0.0833333
36849 -43 0.0909091
36861 -44 0.0833333
36886 -45 0.04
36898 -46 0.0833333
36911 -47 0.0769231
36924 -48 0.0769231
36938 -49 0.0714286
36952 -50 0.0714286
36967 -51 0.0666667
36982 -52 0.0666667
36998 -53 0.0625
37015 -54 0.0588235
37033 -55 0.0555556
37052 -56 0.0526316
37072 -57 0.05
37095 -58 0.0434783
37120 -59 0.04
37150 -60 0.0333333
37187 -61 0.027027
37251 -62 0.015625
37354 -61 -0.00970874
37404 -60 -0.02
37439 -59 -0.0285714
37467 -58 -0.0357143
37491 -57 -0.0416667
37513 -56 -0.0454545
37533 -55 -0.05
37552 -54 -0.0526316
37569 -53 -0.0588235
37586 -52 -0.0588235
37601 -51 -0.0666667
37616 -50 -0.0666667
37631 -49 -0.0666667
37645 -48 -0.0714286
37659 -47 -0.0714286
37672 -46 -0.0769231
37685 -45 -0.0769231
37697 -44 -0.0833333
37709 -43 -0.0833333
37721 -42 -0.0833333
37733 -41 -0.0833333
37745 -40 -0.0833333
37756 -39 -0.0909091
37767 -38 -0.0909091
37778 -37 -0.0909091
37789 -36 -0.0909091
37799 -35 -0.1
37810 -34 -0.0909091
37820 -33 -0.1
37831 -32 -0.0909091
37841 -31 -0.1
37851 -30 -0.1
37861 -29 -0.1
37871 -28 -0.1
37900 -27 -0.0344828
37909 -26 -0.111111
37919 -25 -0.1
37928 -24 -0.111111
37937 -23 -0.111111
37947 -22 -0.1
37956 -21 -0.111111
37965 -20 -0.111111
37975 -19 -0.1
37984 -18 -0.111111
37993 -17 -0.111111
38002 -16 -0.111111
38011 -15 -0.111111
38020 -14 -0.111111
38029 -13 -0.111111
38038 -12 -0.111111
38047 -11 -0.111111
38056 -10 -0.111111
38065 -9 -0.111111
38074 -8 -0.111111
38083 -7 -0.111111
38092 -6 -0.111111
38101 -5 -0.111111
38110 -4 -0.111111
38119 -3 -0.111111
38128 -2 -0.111111
38137 -1 -0.111111
38146 0 -0.111111
38156 1 -0.1
38165 2 -0.111111
38174 3 -0.111111
38183 4 -0.111111
38192 5 -0.111111
38202 6 -0.1
38211 7 -0.111111
38220 8 -0.111111
38230 9 -0.1
38239 10 -0.111111
38249 11 -0.1
38258 12 -0.111111
38268 13 -0.1
38278 14 -0.1
38287 15 -0.111111
38297 16 -0.1
38307 17 -0.1
38317 18 -0.1
38328 19 -0.0909091
38338 20 -0.1
38348 21 -0.1
38359 22 -0.0909091
38370 23 -0.0909091
38381 24 -0.0909091
38392 25 -0.0909091
38403 26 -0.0909091
38414 27 -0.0909091
38426 28 -0.0833333
38438 29 -0.0833333
38450 30 -0.0833333
38462 31 -0.0833333
38475 32 -0.0769231
38488 33 -0.0769231
38501 34 -0.0769231
38515 35 -0.0714286
38529 36 -0.0714286
38544 37 -0.0666667
38559 38 -0.0666667
38575 39 -0.0625
38592 40 -0.0588235
38610 41 -0.0555556
38628 42 -0.0555556
38649 43 -0.047619
38671 44 -0.0454545
38696 45 -0.04
38725 46 -0.0344828
38762 47 -0.027027
38818 48 -0.0178571
38946 47 0.0078125
38993 46 0.0212766
39027 45 0.0294118
39055 44 0.0357143
39079 43 0.0416667
39101 42 0.0454545
39121 41 0.05
39139 40 0.0555556
39157 39 0.0555556
39173 38 0.0625
39189 37 0.0625
39205 36 0.0625
39219 35 0.0714286
39233 34 0.0714286
39247 33 0.0714286
39260 32 0.0769231
39273 31 0.0769231
39286 30 0.0769231
39298 29 0.0833333
39310 28 0.0833333
39322 27 0.0833333
39333 26 0.0909091
39345 25 0.0833333
39356 24 0.0909091
39367 23 0.0909091
39378 22 0.0909091
39389 21 0.0909091
39399 20 0.1
39410 19 0.0909091
39420 18 0.1
39430 17 0.1
39440 16 0.1
39450 15 0.1
39460 14 0.1
39470 13 0.1
39480 12 0.1
39489 11 0.111111
39499 10 0.1
39509 9 0.1
39518 8 0.111111
39527 7 0.111111
39537 6 0.1
39546 5 0.111111
39556 4 0.1
39565 3 0.111111
39574 2 0.111111
39583 1 0.111111
39592 0 0.111111
39601 -1 0.111111
39608 0 -0.142857
39611 -1 0.333333
39620 -2 0.111111
39629 -3 0.111111
39638 -4 0.111111
39647 -5 0.111111
39656 -6 0.111111
39665 -7 0.111111
39674 -8 0.111111
39683 -9 0.111111
39692 -10 0.111111
39701 -11 0.111111
39710 -12 0.111111
39719 -13 0.111111
39728 -14 0.111111
39737 -15 0.111111
