27 2 -3.02618e-05
137 1 0.00909091
244 0 0.00934579
321 0 0.012987
347 -1 0.0384615
448 -2 0.00990099
546 -3 0.0102041
643 -4 0.0103093
738 -5 0.0105263
833 -6 0.0105263
926 -7 0.0107527
1019 -8 0.0107527
1111 -9 0.0108696
1204 -10 0.0107527
1296 -11 0.0108696
1389 -12 0.0107527
1482 -13 0.0107527
1577 -14 0.0105263
1674 -15 0.0103093
1772 -16 0.0102041
1874 -17 0.00980392
1979 -18 0.00952381
2089 -19 0.00909091
2206 -20 0.00854701
2332 -21 0.00793651
2470 -22 0.00724638
2629 -23 0.00628931
2828 -24 0.00502513
3157 -25 0.00303951
3720 -24 -0.0017762
3986 -23 -0.0037594
4173 -22 -0.00534759
4328 -21 -0.00645161
4465 -20 -0.00729927
4590 -19 -0.008
4707 -18 -0.00854701
4818 -17 -0.00900901
4925 -16 -0.00934579
5027 -15 -0.00980392
5127 -14 -0.01
5225 -13 -0.0102041
5321 -12 -0.0104167
5415 -11 -0.0106383
5508 -10 -0.0107527
5600 -9 -0.0108696
5691 -8 -0.010989
5781 -7 -0.0111111
5872 -6 -0.010989
5963 -5 -0.010989
6055 -4 -0.0108696
6147 -3 -0.0108696
6241 -2 -0.0106383
6336 -1 -0.0105263
6408 0 -0.0138889
6433 1 -0.04
6532 2 -0.010101
6634 3 -0.00980392
6739 4 -0.00952381
6848 5 -0.00917431
6963 6 -0.00869565
7085 7 -0.00819672
7216 8 -0.00763359
7361 9 -0.00689655
7528 10 -0.00598802
7736 11 -0.00480769
8085 12 -0.00286533
8680 11 0.00168067
8972 10 0.00342466
9178 9 0.00485437
9349 8 0.00584795
9501 7 0.00657895
9639 6 0.00724638
9767 5 0.0078125
9888 4 0.00826446
10002 3 0.00877193
10112 2 0.00909091
10219 1 0.00934579
10295 0 0.0131579
10322 -1 0.037037
10422 -2 0.01
10520 -3 0.0102041
10617 -4 0.0103093
10712 -5 0.0105263
10807 -6 0.0105263
10900 -7 0.0107527
10993 -8 0.0107527
11085 -9 0.0108696
11177 -10 0.0108696
11269 -11 0.0108696
11362 -12 0.0107527
11456 -13 0.0106383
11550 -14 0.0106383
11646 -15 0.0104167
11744 -16 0.0102041
11845 -17 0.00990099
11949 -18 0.00961538
12058 -19 0.00917431
12174 -20 0.00862069
12298 -21 0.00806452
12436 -22 0.00724638
12595 -23 0.00628931
12794 -24 0.00502513
13133 -25 0.00294985
13678 -24 -0.00183486
13953 -23 -0.00363636
14144 -22 -0.0052356
14302 -21 -0.00632911
14440 -20 -0.00724638
14566 -19 -0.00793651
14683 -18 -0.00854701
14795 -17 -0.00892857
14901 -16 -0.00943396
15003 -15 -0.00980392
15103 -14 -0.01
15200 -13 -0.0103093
15296 -12 -0.0104167
15390 -11 -0.0106383
15483 -10 -0.0107527
15574 -9 -0.010989
15665 -8 -0.010989
15756 -7 -0.010989
15847 -6 -0.010989
15937 -5 -0.0111111
16029 -4 -0.0108696
16121 -3 -0.0108696
16215 -2 -0.0106383
16310 -1 -0.0105263
16382 0 -0.0138889
16406 1 -0.0416667
16505 2 -0.010101
16607 3 -0.00980392
16711 4 -0.00961538
16820 5 -0.00917431
16934 6 -0.00877193
17055 7 -0.00826446
17185 8 -0.00769231
17330 9 -0.00689655
17497 10 -0.00598802
17705 11 -0.00480769
18056 12 -0.002849
18649 11 0.00168634
18942 10 0.00341297
19149 9 0.00483092
19322 8 0.00578035
19474 7 0.00657895
19613 6 0.00719424
19741 5 0.0078125
19863 4 0.00819672
19978 3 0.00869565
20088 2 0.00909091
20194 1 0.00943396
20271 0 0.012987
20297 -1 0.0384615
20398 -2 0.00990099
20496 -3 0.0102041
20592 -4 0.0104167
20687 -5 0.0105263
20782 -6 0.0105263
20875 -7 0.0107527
20968 -8 0.0107527
21060 -9 0.0108696
21153 -10 0.0107527
21245 -11 0.0108696
21339 -12 0.0106383
21433 -13 0.0106383
21528 -14 0.0105263
21625 -15 0.0103093
21725 -16 0.01
21827 -17 0.00980392
21933 -18 0.00943396
22044 -19 0.00900901
22162 -20 0.00847458
22288 -21 0.00793651
22427 -22 0.00719424
22587 -23 0.00625
22786 -24 0.00502513
23115 -25 0.00303951
23677 -24 -0.00177936
23943 -23 -0.0037594
24129 -22 -0.00537634
24283 -21 -0.00649351
24419 -20 -0.00735294
24543 -19 -0.00806452
24659 -18 -0.00862069
24769 -17 -0.00909091
24875 -16 -0.00943396
24976 -15 -0.00990099
25075 -14 -0.010101
25172 -13 -0.0103093
25268 -12 -0.0104167
25362 -11 -0.0106383
25455 -10 -0.0107527
25546 -9 -0.010989
25637 -8 -0.010989
25728 -7 -0.010989
25819 -6 -0.010989
25910 -5 -0.010989
26003 -4 -0.0107527
26096 -3 -0.0107527
26189 -2 -0.0107527
26285 -1 -0.0104167
26357 0 -0.0138889
26382 1 -0.04
26481 2 -0.010101
26583 3 -0.00980392
26688 4 -0.00952381
26797 5 -0.00917431
26912 6 -0.00869565
27033 7 -0.00826446
27164 8 -0.00763359
27308 9 -0.00694444
27474 10 -0.0060241
27681 11 -0.00483092
28024 12 -0.00291545
28631 11 0.00164745
28921 10 0.00344828
29126 9 0.00487805
29297 8 0.00584795
29449 7 0.00657895
29587 6 0.00724638
29715 5 0.0078125
29836 4 0.00826446
29951 3 0.00869565
30063 2 0.00892857
30169 1 0.00943396
30246 0 0.012987
30272 -1 0.0384615
30373 -2 0.00990099
30471 -3 0.0102041
30568 -4 0.0103093
30664 -5 0.0104167
30758 -6 0.0106383
30852 -7 0.0106383
30944 -8 0.0108696
31037 -9 0.0107527
31129 -10 0.0108696
31221 -11 0.0108696
31313 -12 0.0108696
31407 -13 0.0106383
31501 -14 0.0106383
31598 -15 0.0103093
31696 -16 0.0102041
31797 -17 0.00990099
31902 -18 0.00952381
32012 -19 0.00909091
32128 -20 0.00862069
32254 -21 0.00793651
32392 -22 0.00724638
32552 -23 0.00625
32750 -24 0.00505051
33077 -25 0.0030581
33643 -24 -0.00176678
33909 -23 -0.0037594
34097 -22 -0.00531915
34252 -21 -0.00645161
34389 -20 -0.00729927
34515 -19 -0.00793651
34632 -18 -0.00854701
34743 -17 -0.00900901
34850 -16 -0.00934579
34952 -15 -0.00980392
35052 -14 -0.01
35149 -13 -0.0103093
35245 -12 -0.0104167
35340 -11 -0.0105263
35432 -10 -0.0108696
35524 -9 -0.0108696
35615 -8 -0.010989
35706 -7 -0.010989
35797 -6 -0.010989
35889 -5 -0.0108696
35981 -4 -0.0108696
36074 -3 -0.0107527
36168 -2 -0.0106383
36262 -1 -0.0106383
36334 0 -0.0138889
36359 1 -0.04
36458 2 -0.010101
36559 3 -0.00990099
36664 4 -0.00952381
36772 5 -0.00925926
36886 6 -0.00877193
37007 7 -0.00826446
37138 8 -0.00763359
37282 9 -0.00694444
37448 10 -0.0060241
37655 11 -0.00483092
38003 12 -0.00287356
38600 11 0.00167504
38893 10 0.00341297
39101 9 0.00480769
39273 8 0.00581395
39425 7 0.00657895
39563 6 0.00724638
39691 5 0.0078125
39813 4 0.00819672
39927 3 0.00877193
40038 2 0.00900901
40144 1 0.00943396
40221 0 0.012987
40248 -1 0.037037
40348 -2 0.01
40446 -3 0.0102041
40543 -4 0.0103093
40638 -5 0.0105263
40732 -6 0.0106383
40826 -7 0.0106383
40918 -8 0.0108696
41010 -9 0.0108696
41102 -10 0.0108696
41194 -11 0.0108696
41287 -12 0.0107527
41380 -13 0.0107527
41474 -14 0.0106383
41570 -15 0.0104167
41668 -16 0.0102041
41769 -17 0.00990099
41873 -18 0.00961538
41983 -19 0.00909091
42100 -20 0.00854701
42226 -21 0.00793651
42365 -22 0.00719424
42527 -23 0.00617284
42730 -24 0.00492611
43078 -25 0.00287356
43606 -24 -0.00189394
43883 -23 -0.00361011
44072 -22 -0.00529101
44229 -21 -0.00636943
44366 -20 -0.00729927
44493 -19 -0.00787402
44610 -18 -0.00854701
44721 -17 -0.00900901
44826 -16 -0.00952381
44929 -15 -0.00970874
45028 -14 -0.010101
45125 -13 -0.0103093
45220 -12 -0.0105263
45314 -11 -0.0106383
45407 -10 -0.0107527
45498 -9 -0.010989
45589 -8 -0.010989
45680 -7 -0.010989
45770 -6 -0.0111111
45861 -5 -0.010989
45953 -4 -0.0108696
46046 -3 -0.0107527
46139 -2 -0.0107527
46234 -1 -0.0105263
46307 0 -0.0136986
46331 1 -0.0416667
46430 2 -0.010101
46532 3 -0.00980392
46637 4 -0.00952381
46746 5 -0.00917431
46861 6 -0.00869565
46982 7 -0.00826446
47113 8 -0.00763359
47258 9 -0.00689655
47424 10 -0.0060241
47632 11 -0.00480769
47978 12 -0.00289017
48578 11 0.00166667
48869 10 0.00343643
49076 9 0.00483092
49247 8 0.00584795
49399 7 0.00657895
49537 6 0.00724638
49666 5 0.00775194
49787 4 0.00826446
49902 3 0.00869565
50012 2 0.00909091
50119 1 0.00934579
50196 0 0.012987
50222 -1 0.0384615
50323 -2 0.00990099
50422 -3 0.010101
50519 -4 0.0103093
50614 -5 0.0105263
50709 -6 0.0105263
50803 -7 0.0106383
50896 -8 0.0107527
50988 -9 0.0108696
51081 -10 0.0107527
51173 -11 0.0108696
51267 -12 0.0106383
51361 -13 0.0106383
51456 -14 0.0105263
51553 -15 0.0103093
51652 -16 0.010101
51753 -17 0.00990099
51858 -18 0.00952381
51968 -19 0.00909091
52085 -20 0.00854701
52210 -21 0.008
52348 -22 0.00724638
52506 -23 0.00632911
52704 -24 0.00505051
53027 -25 0.00309598
53600 -24 -0.0017452
53864 -23 -0.00378788
54051 -22 -0.00534759
54205 -21 -0.00649351
54341 -20 -0.00735294
54466 -19 -0.008
54583 -18 -0.00854701
54693 -17 -0.00909091
54799 -16 -0.00943396
54901 -15 -0.00980392
55000 -14 -0.010101
55098 -13 -0.0102041
55193 -12 -0.0105263
55287 -11 -0.0106383
55380 -10 -0.0107527
55472 -9 -0.0108696
55563 -8 -0.010989
55654 -7 -0.010989
55744 -6 -0.0111111
55836 -5 -0.0108696
55928 -4 -0.0108696
56021 -3 -0.0107527
56114 -2 -0.0107527
56210 -1 -0.0104167
56282 0 -0.0138889
56307 1 -0.04
56406 2 -0.010101
56508 3 -0.00980392
56613 4 -0.00952381
56722 5 -0.00917431
56837 6 -0.00869565
56958 7 -0.00826446
57089 8 -0.00763359
57234 9 -0.00689655
57400 10 -0.0060241
57607 11 -0.00483092
57951 12 -0.00290698
58554 11 0.00165837
58844 10 0.00344828
59049 9 0.00487805
59221 8 0.00581395
59373 7 0.00657895
59512 6 0.00719424
59640 5 0.0078125
59762 4 0.00819672
59877 3 0.00869565
59988 2 0.00900901
60094 1 0.00943396
60171 0 0.012987
60198 -1 0.037037
60299 -2 0.00990099
60397 -3 0.0102041
60494 -4 0.0103093
60589 -5 0.0105263
60683 -6 0.0106383
60776 -7 0.0107527
60868 -8 0.0108696
60960 -9 0.0108696
61052 -10 0.0108696
61144 -11 0.0108696
61236 -12 0.0108696
61330 -13 0.0106383
61424 -14 0.0106383
61520 -15 0.0104167
61618 -16 0.0102041
61718 -17 0.01
61823 -18 0.00952381
61932 -19 0.00917431
62048 -20 0.00862069
62172 -21 0.00806452
62309 -22 0.00729927
62467 -23 0.00632911
62664 -24 0.00507614
62993 -25 0.00303951
63559 -24 -0.00176678
63828 -23 -0.00371747
64018 -22 -0.00526316
64175 -21 -0.00636943
64313 -20 -0.00724638
64439 -19 -0.00793651
64557 -18 -0.00847458
64669 -17 -0.00892857
64775 -16 -0.00943396
64878 -15 -0.00970874
64978 -14 -0.01
65076 -13 -0.0102041
65172 -12 -0.0104167
65266 -11 -0.0106383
65359 -10 -0.0107527
65451 -9 -0.0108696
65542 -8 -0.010989
65633 -7 -0.010989
65724 -6 -0.010989
65816 -5 -0.0108696
65908 -4 -0.0108696
66000 -3 -0.0108696
66093 -2 -0.0107527
66189 -1 -0.0104167
66260 0 -0.0140845
66285 1 -0.04
66384 2 -0.010101
66486 3 -0.00980392
66590 4 -0.00961538
66699 5 -0.00917431
66813 6 -0.00877193
66933 7 -0.00833333
67063 8 -0.00769231
67207 9 -0.00694444
67373 10 -0.0060241
67579 11 -0.00485437
67922 12 -0.00291545
68526 11 0.00165563
68817 10 0.00343643
69023 9 0.00485437
69196 8 0.00578035
69348 7 0.00657895
69487 6 0.00719424
69615 5 0.0078125
69737 4 0.00819672
69852 3 0.00869565
69962 2 0.00909091
70069 1 0.00934579
70146 0 0.012987
70172 -1 0.0384615
70273 -2 0.00990099
70371 -3 0.0102041
70468 -4 0.0103093
70563 -5 0.0105263
70657 -6 0.0106383
70750 -7 0.0107527
70842 -8 0.0108696
70934 -9 0.0108696
71026 -10 0.0108696
71118 -11 0.0108696
71211 -12 0.0107527
71304 -13 0.0107527
71398 -14 0.0106383
71495 -15 0.0103093
71593 -16 0.0102041
71695 -17 0.00980392
71800 -18 0.00952381
71910 -19 0.00909091
72027 -20 0.00854701
72154 -21 0.00787402
72293 -22 0.00719424
72455 -23 0.00617284
72658 -24 0.00492611
73007 -25 0.00286533
73532 -24 -0.00190476
73809 -23 -0.00361011
73999 -22 -0.00526316
74156 -21 -0.00636943
74294 -20 -0.00724638
74419 -19 -0.008
74536 -18 -0.00854701
74647 -17 -0.00900901
74752 -16 -0.00952381
74855 -15 -0.00970874
74954 -14 -0.010101
75050 -13 -0.0104167
75145 -12 -0.0105263
75239 -11 -0.0106383
75331 -10 -0.0108696
75423 -9 -0.0108696
75514 -8 -0.010989
75604 -7 -0.0111111
75695 -6 -0.010989
75786 -5 -0.010989
75878 -4 -0.0108696
75971 -3 -0.0107527
76064 -2 -0.0107527
76159 -1 -0.0105263
76232 0 -0.0136986
76257 1 -0.04
76356 2 -0.010101
76458 3 -0.00980392
76563 4 -0.00952381
76672 5 -0.00917431
76787 6 -0.00869565
76908 7 -0.00826446
77039 8 -0.00763359
77183 9 -0.00694444
77350 10 -0.00598802
77557 11 -0.00483092
77899 12 -0.00292398
78508 11 0.00164204
78797 10 0.00346021
79002 9 0.00487805
79173 8 0.00584795
79324 7 0.00662252
79462 6 0.00724638
79590 5 0.0078125
79711 4 0.00826446
79826 3 0.00869565
79936 2 0.00909091
80043 1 0.00934579
80120 0 0.012987
80146 -1 0.0384615
80247 -2 0.00990099
80345 -3 0.0102041
80443 -4 0.0102041
80538 -5 0.0105263
80633 -6 0.0105263
80727 -7 0.0106383
80821 -8 0.0106383
80914 -9 0.0107527
81006 -10 0.0108696
81099 -11 0.0107527
81192 -12 0.0107527
81285 -13 0.0107527
81380 -14 0.0105263
81477 -15 0.0103093
81575 -16 0.0102041
81676 -17 0.00990099
81781 -18 0.00952381
81890 -19 0.00917431
82007 -20 0.00854701
82132 -21 0.008
82270 -22 0.00724638
82430 -23 0.00625
82628 -24 0.00505051
82960 -25 0.00301205
83517 -24 -0.00179533
83785 -23 -0.00373134
83974 -22 -0.00529101
84128 -21 -0.00649351
84265 -20 -0.00729927
84391 -19 -0.00793651
84508 -18 -0.00854701
84619 -17 -0.00900901
84724 -16 -0.00952381
84826 -15 -0.00980392
84926 -14 -0.01
85023 -13 -0.0103093
85119 -12 -0.0104167
85213 -11 -0.0106383
85306 -10 -0.0107527
85398 -9 -0.0108696
85489 -8 -0.010989
85580 -7 -0.010989
85671 -6 -0.010989
85762 -5 -0.010989
85854 -4 -0.0108696
85947 -3 -0.0107527
86041 -2 -0.0106383
86136 -1 -0.0105263
86208 0 -0.0138889
86233 1 -0.04
86332 2 -0.010101
86433 3 -0.00990099
86538 4 -0.00952381
86647 5 -0.00917431
86761 6 -0.00877193
86882 7 -0.00826446
87012 8 -0.00769231
87156 9 -0.00694444
87322 10 -0.0060241
87528 11 -0.00485437
87872 12 -0.00290698
88476 11 0.00165563
88767 10 0.00343643
88973 9 0.00485437
89146 8 0.00578035
89298 7 0.00657895
89436 6 0.00724638
89565 5 0.00775194
89686 4 0.00826446
89801 3 0.00869565
89912 2 0.00900901
90019 1 0.00934579
90096 0 0.012987
90122 -1 0.0384615
90223 -2 0.00990099
90321 -3 0.0102041
90418 -4 0.0103093
90513 -5 0.0105263
90607 -6 0.0106383
90700 -7 0.0107527
90792 -8 0.0108696
90884 -9 0.0108696
90976 -10 0.0108696
91067 -11 0.010989
91160 -12 0.0107527
91253 -13 0.0107527
91347 -14 0.0106383
91443 -15 0.0104167
91541 -16 0.0102041
91642 -17 0.00990099
91747 -18 0.00952381
91857 -19 0.00909091
91973 -20 0.00862069
92099 -21 0.00793651
92238 -22 0.00719424
92399 -23 0.00621118
92599 -24 0.005
92936 -25 0.00296736
93484 -24 -0.00182482
93757 -23 -0.003663
93947 -22 -0.00526316
94104 -21 -0.00636943
94242 -20 -0.00724638
94367 -19 -0.008
94485 -18 -0.00847458
94595 -17 -0.00909091
94701 -16 -0.00943396
94804 -15 -0.00970874
94903 -14 -0.010101
95000 -13 -0.0103093
95096 -12 -0.0104167
95190 -11 -0.0106383
95282 -10 -0.0108696
95374 -9 -0.0108696
95465 -8 -0.010989
95556 -7 -0.010989
95647 -6 -0.010989
95739 -5 -0.0108696
95831 -4 -0.0108696
95923 -3 -0.0108696
96017 -2 -0.0106383
96113 -1 -0.0104167
96185 0 -0.0138889
96210 1 -0.04
96309 2 -0.010101
96412 3 -0.00970874
96517 4 -0.00952381
96626 5 -0.00917431
96740 6 -0.00877193
96861 7 -0.00826446
96991 8 -0.00769231
97135 9 -0.00694444
97300 10 -0.00606061
97505 11 -0.00487805
97840 12 -0.00298507
98462 11 0.00160772
98748 10 0.0034965
98951 9 0.00492611
99122 8 0.00584795
99272 7 0.00666667
99410 6 0.00724638
99538 5 0.0078125
99659 4 0.00826446
99775 3 0.00862069
99885 2 0.00909091
99992 1 0.00934579
100069 0 0.012987
100095 -1 0.0384615
100196 -2 0.00990099
100294 -3 0.0102041
100391 -4 0.0103093
100486 -5 0.0105263
100581 -6 0.0105263
100674 -7 0.0107527
100767 -8 0.0107527
100859 -9 0.0108696
100952 -10 0.0107527
101044 -11 0.0108696
101137 -12 0.0107527
101230 -13 0.0107527
