34 0 -0.000135227
59 0 0.04
68 -1 0.111111
103 -2 0.0285714
137 -3 0.0294118
171 -4 0.0294118
204 -5 0.030303
238 -6 0.0294118
272 -7 0.0294118
306 -8 0.0294118
340 -9 0.0294118
374 -10 0.0294118
408 -11 0.0294118
443 -12 0.0285714
478 -13 0.0285714
513 -14 0.0285714
549 -15 0.0277778
585 -16 0.0277778
622 -17 0.027027
660 -18 0.0263158
700 -19 0.025
739 -20 0.025641
780 -21 0.0243902
823 -22 0.0232558
867 -23 0.0227273
913 -24 0.0217391
963 -25 0.02
1016 -26 0.0188679
1074 -27 0.0172414
1138 -28 0.015625
1213 -29 0.0133333
1308 -30 0.0105263
1478 -31 0.00588235
1698 -30 -0.00454545
1825 -29 -0.00787402
1911 -28 -0.0116279
1980 -27 -0.0144928
2039 -26 -0.0169492
2093 -25 -0.0185185
2143 -24 -0.02
2189 -23 -0.0217391
2232 -22 -0.0232558
2274 -21 -0.0238095
2314 -20 -0.025
2352 -19 -0.0263158
2389 -18 -0.027027
2426 -17 -0.027027
2461 -16 -0.0285714
2496 -15 -0.0285714
2530 -14 -0.0294118
2563 -13 -0.030303
2596 -12 -0.030303
2629 -11 -0.030303
2661 -10 -0.03125
2693 -9 -0.03125
2725 -8 -0.03125
2757 -7 -0.03125
2789 -6 -0.03125
2820 -5 -0.0322581
2852 -4 -0.03125
2884 -3 -0.03125
2916 -2 -0.03125
2949 -1 -0.030303
2973 0 -0.0416667
2981 1 -0.125
3014 2 -0.030303
3047 3 -0.030303
3081 4 -0.0294118
3116 5 -0.0285714
3151 6 -0.0285714
3187 7 -0.0277778
3224 8 -0.027027
3262 9 -0.0263158
3302 10 -0.025
3343 11 -0.0243902
3387 12 -0.0227273
3432 13 -0.0222222
3481 14 -0.0204082
3534 15 -0.0188679
3594 16 -0.0166667
3662 17 -0.0147059
3747 18 -0.0117647
3883 19 -0.00735294
4167 18 0.00352113
4280 17 0.00884956
4361 16 0.0123457
4428 15 0.0149254
4487 14 0.0169492
4540 13 0.0188679
4590 12 0.02
4636 11 0.0217391
4680 10 0.0227273
4723 9 0.0232558
4763 8 0.025
4803 7 0.025
4841 6 0.0263158
4879 5 0.0263158
4915 4 0.0277778
4951 3 0.0277778
4987 2 0.0277778
5022 1 0.0285714
5047 0 0.04
5056 -1 0.111111
5091 -2 0.0285714
5125 -3 0.0294118
5159 -4 0.0294118
5193 -5 0.0294118
5226 -6 0.030303
5260 -7 0.0294118
5294 -8 0.0294118
5328 -9 0.0294118
5362 -10 0.0294118
5396 -11 0.0294118
5431 -12 0.0285714
5466 -13 0.0285714
5501 -14 0.0285714
5537 -15 0.0277778
5574 -16 0.027027
5611 -17 0.027027
5649 -18 0.0263158
5688 -19 0.025641
5728 -20 0.025
5769 -21 0.0243902
5812 -22 0.0232558
5857 -23 0.0222222
5903 -24 0.0217391
5953 -25 0.02
6007 -26 0.0185185
6065 -27 0.0172414
6130 -28 0.0153846
6205 -29 0.0133333
6302 -30 0.0103093
6483 -31 0.00552486
6681 -30 -0.00505051
6812 -29 -0.00763359
6898 -28 -0.0116279
6967 -27 -0.0144928
7027 -26 -0.0166667
7081 -25 -0.0185185
7130 -24 -0.0204082
7177 -23 -0.0212766
7220 -22 -0.0232558
7262 -21 -0.0238095
7301 -20 -0.025641
7340 -19 -0.025641
7377 -18 -0.027027
7413 -17 -0.0277778
7448 -16 -0.0285714
7483 -15 -0.0285714
7517 -14 -0.0294118
7550 -13 -0.030303
7583 -12 -0.030303
7615 -11 -0.03125
7648 -10 -0.030303
7680 -9 -0.03125
7711 -8 -0.0322581
7743 -7 -0.03125
7775 -6 -0.03125
7806 -5 -0.0322581
7838 -4 -0.03125
7870 -3 -0.03125
7902 -2 -0.03125
7934 -1 -0.03125
7958 0 -0.0416667
7966 1 -0.125
7999 2 -0.030303
8032 3 -0.030303
8066 4 -0.0294118
8101 5 -0.0285714
8136 6 -0.0285714
8171 7 -0.0285714
8208 8 -0.027027
8246 9 -0.0263158
8286 10 -0.025
8327 11 -0.0243902
8370 12 -0.0232558
8415 13 -0.0222222
8464 14 -0.0204082
8517 15 -0.0188679
8576 16 -0.0169492
8645 17 -0.0144928
8730 18 -0.0117647
8863 19 -0.0075188
9152 18 0.00346021
9265 17 0.00884956
9346 16 0.0123457
9413 15 0.0149254
9472 14 0.0169492
9525 13 0.0188679
9575 12 0.02
9621 11 0.0217391
9666 10 0.0222222
9708 9 0.0238095
9749 8 0.0243902
9789 7 0.025
9827 6 0.0263158
9865 5 0.0263158
9901 4 0.0277778
9937 3 0.0277778
9973 2 0.0277778
10008 1 0.0285714
10034 0 0.0384615
10043 -1 0.111111
10078 -2 0.0285714
10112 -3 0.0294118
10146 -4 0.0294118
10180 -5 0.0294118
10214 -6 0.0294118
10248 -7 0.0294118
10282 -8 0.0294118
10316 -9 0.0294118
10350 -10 0.0294118
10385 -11 0.0285714
10419 -12 0.0294118
10454 -13 0.0285714
10490 -14 0.0277778
10526 -15 0.0277778
10563 -16 0.027027
10600 -17 0.027027
10638 -18 0.0263158
10677 -19 0.025641
10718 -20 0.0243902
10759 -21 0.0243902
10802 -22 0.0232558
10847 -23 0.0222222
10894 -24 0.0212766
10944 -25 0.02
10998 -26 0.0185185
11056 -27 0.0172414
11121 -28 0.0153846
11198 -29 0.012987
11295 -30 0.0103093
11487 -31 0.00520833
11666 -30 -0.00558659
11799 -29 -0.0075188
11886 -28 -0.0114943
11956 -27 -0.0142857
12016 -26 -0.0166667
12070 -25 -0.0185185
12120 -24 -0.02
12166 -23 -0.0217391
12209 -22 -0.0232558
12251 -21 -0.0238095
12291 -20 -0.025
12329 -19 -0.0263158
12366 -18 -0.027027
12402 -17 -0.0277778
12438 -16 -0.0277778
12472 -15 -0.0294118
12506 -14 -0.0294118
12540 -13 -0.0294118
12572 -12 -0.03125
12605 -11 -0.030303
12637 -10 -0.03125
12669 -9 -0.03125
12701 -8 -0.03125
12733 -7 -0.03125
12764 -6 -0.0322581
12796 -5 -0.03125
12828 -4 -0.03125
12859 -3 -0.0322581
12891 -2 -0.03125
12924 -1 -0.030303
12948 0 -0.0416667
12956 1 -0.125
12989 2 -0.030303
13022 3 -0.030303
13056 4 -0.0294118
13090 5 -0.0294118
13125 6 -0.0285714
13161 7 -0.0277778
13198 8 -0.027027
13236 9 -0.0263158
13275 10 -0.025641
13316 11 -0.0243902
13359 12 -0.0232558
13404 13 -0.0222222
13453 14 -0.0204082
13506 15 -0.0188679
13565 16 -0.0169492
13633 17 -0.0147059
13717 18 -0.0119048
13847 19 -0.00769231
14146 18 0.00334448
14257 17 0.00900901
14337 16 0.0125
14403 15 0.0151515
14462 14 0.0169492
14515 13 0.0188679
14564 12 0.0204082
14611 11 0.0212766
14655 10 0.0227273
14697 9 0.0238095
14737 8 0.025
14777 7 0.025
14815 6 0.0263158
14852 5 0.027027
14889 4 0.027027
14925 3 0.0277778
14960 2 0.0285714
14995 1 0.0285714
15021 0 0.0384615
15030 -1 0.111111
15064 -2 0.0294118
15098 -3 0.0294118
15132 -4 0.0294118
15166 -5 0.0294118
15200 -6 0.0294118
15233 -7 0.030303
15267 -8 0.0294118
15301 -9 0.0294118
15335 -10 0.0294118
15369 -11 0.0294118
15404 -12 0.0285714
15439 -13 0.0285714
15474 -14 0.0285714
15510 -15 0.0277778
15546 -16 0.0277778
15583 -17 0.027027
15621 -18 0.0263158
15660 -19 0.025641
15700 -20 0.025
15741 -21 0.0243902
15784 -22 0.0232558
15829 -23 0.0222222
15875 -24 0.0217391
15925 -25 0.02
15978 -26 0.0188679
16036 -27 0.0172414
16101 -28 0.0153846
16177 -29 0.0131579
16273 -30 0.0104167
16452 -31 0.00558659
16654 -30 -0.00495049
16785 -29 -0.00763359
16871 -28 -0.0116279
16940 -27 -0.0144928
17000 -26 -0.0166667
17054 -25 -0.0185185
17104 -24 -0.02
17150 -23 -0.0217391
17194 -22 -0.0227273
17236 -21 -0.0238095
17275 -20 -0.025641
17314 -19 -0.025641
17351 -18 -0.027027
17387 -17 -0.0277778
17423 -16 -0.0277778
17457 -15 -0.0294118
17491 -14 -0.0294118
17525 -13 -0.0294118
17558 -12 -0.030303
17591 -11 -0.030303
17623 -10 -0.03125
17655 -9 -0.03125
17687 -8 -0.03125
17719 -7 -0.03125
17750 -6 -0.0322581
17782 -5 -0.03125
17814 -4 -0.03125
17846 -3 -0.03125
17878 -2 -0.03125
17910 -1 -0.03125
17935 0 -0.04
17943 1 -0.125
17976 2 -0.030303
18009 3 -0.030303
18043 4 -0.0294118
18078 5 -0.0285714
18113 6 -0.0285714
18149 7 -0.0277778
18186 8 -0.027027
18224 9 -0.0263158
18263 10 -0.025641
18305 11 -0.0238095
18348 12 -0.0232558
18394 13 -0.0217391
18443 14 -0.0204082
18496 15 -0.0188679
18555 16 -0.0169492
18624 17 -0.0144928
18710 18 -0.0116279
18846 19 -0.00735294
19127 18 0.00355872
19241 17 0.00877193
19322 16 0.0123457
19389 15 0.0149254
19448 14 0.0169492
19502 13 0.0185185
19551 12 0.0204082
19598 11 0.0212766
19642 10 0.0227273
19684 9 0.0238095
19725 8 0.0243902
19765 7 0.025
19803 6 0.0263158
19841 5 0.0263158
19877 4 0.0277778
19913 3 0.0277778
19949 2 0.0277778
19984 1 0.0285714
20010 0 0.0384615
20019 -1 0.111111
20053 -2 0.0294118
20087 -3 0.0294118
20121 -4 0.0294118
20155 -5 0.0294118
20189 -6 0.0294118
20223 -7 0.0294118
20256 -8 0.030303
20290 -9 0.0294118
20325 -10 0.0285714
20359 -11 0.0294118
20394 -12 0.0285714
20429 -13 0.0285714
20464 -14 0.0285714
20500 -15 0.0277778
20536 -16 0.0277778
20574 -17 0.0263158
20612 -18 0.0263158
20650 -19 0.0263158
20690 -20 0.025
20732 -21 0.0238095
20774 -22 0.0238095
20819 -23 0.0222222
20865 -24 0.0217391
20915 -25 0.02
20968 -26 0.0188679
21026 -27 0.0172414
21091 -28 0.0153846
21167 -29 0.0131579
21263 -30 0.0104167
21440 -31 0.00564972
21645 -30 -0.00487805
21774 -29 -0.00775194
21860 -28 -0.0116279
21929 -27 -0.0144928
21989 -26 -0.0166667
22043 -25 -0.0185185
22093 -24 -0.02
22139 -23 -0.0217391
22182 -22 -0.0232558
22224 -21 -0.0238095
22264 -20 -0.025
22302 -19 -0.0263158
22339 -18 -0.027027
22376 -17 -0.027027
22411 -16 -0.0285714
22445 -15 -0.0294118
22479 -14 -0.0294118
22513 -13 -0.0294118
22546 -12 -0.030303
22578 -11 -0.03125
22611 -10 -0.030303
22643 -9 -0.03125
22675 -8 -0.03125
22706 -7 -0.0322581
22738 -6 -0.03125
22770 -5 -0.03125
22802 -4 -0.03125
22833 -3 -0.0322581
22866 -2 -0.030303
22898 -1 -0.03125
22922 0 -0.0416667
22930 1 -0.125
22963 2 -0.030303
22997 3 -0.0294118
23031 4 -0.0294118
23065 5 -0.0294118
23100 6 -0.0285714
23136 7 -0.0277778
23173 8 -0.027027
23211 9 -0.0263158
23251 10 -0.025
23292 11 -0.0243902
23335 12 -0.0232558
23381 13 -0.0217391
23430 14 -0.0204082
23483 15 -0.0188679
23542 16 -0.0169492
23611 17 -0.0144928
23696 18 -0.0117647
23831 19 -0.00740741
24116 18 0.00350877
24229 17 0.00884956
24310 16 0.0123457
24377 15 0.0149254
24436 14 0.0169492
24489 13 0.0188679
24539 12 0.02
24586 11 0.0212766
24630 10 0.0227273
24672 9 0.0238095
24713 8 0.0243902
24752 7 0.025641
24791 6 0.025641
24828 5 0.027027
24865 4 0.027027
24901 3 0.0277778
24937 2 0.0277778
24972 1 0.0285714
24998 0 0.0384615
25006 -1 0.125
25041 -2 0.0285714
25075 -3 0.0294118
25109 -4 0.0294118
25143 -5 0.0294118
25177 -6 0.0294118
25211 -7 0.0294118
25244 -8 0.030303
25278 -9 0.0294118
25313 -10 0.0285714
25347 -11 0.0294118
25382 -12 0.0285714
25417 -13 0.0285714
25452 -14 0.0285714
25488 -15 0.0277778
25525 -16 0.027027
25562 -17 0.027027
25600 -18 0.0263158
25639 -19 0.025641
25679 -20 0.025
25720 -21 0.0243902
25763 -22 0.0232558
25808 -23 0.0222222
25855 -24 0.0212766
25904 -25 0.0204082
25958 -26 0.0185185
26016 -27 0.0172414
26081 -28 0.0153846
26157 -29 0.0131579
26253 -30 0.0104167
26435 -31 0.00549451
26631 -30 -0.00510204
26762 -29 -0.00763359
26848 -28 -0.0116279
26918 -27 -0.0142857
26978 -26 -0.0166667
27032 -25 -0.0185185
27081 -24 -0.0204082
27127 -23 -0.0217391
27171 -22 -0.0227273
27212 -21 -0.0243902
27252 -20 -0.025
27290 -19 -0.0263158
27328 -18 -0.0263158
27364 -17 -0.0277778
27399 -16 -0.0285714
27434 -15 -0.0285714
27468 -14 -0.0294118
27501 -13 -0.030303
27534 -12 -0.030303
27566 -11 -0.03125
27599 -10 -0.030303
27631 -9 -0.03125
27662 -8 -0.0322581
27694 -7 -0.03125
27726 -6 -0.03125
27757 -5 -0.0322581
27789 -4 -0.03125
27821 -3 -0.03125
27853 -2 -0.03125
27885 -1 -0.03125
27909 0 -0.0416667
27918 1 -0.111111
27951 2 -0.030303
27984 3 -0.030303
28018 4 -0.0294118
28052 5 -0.0294118
28087 6 -0.0285714
28123 7 -0.0277778
28160 8 -0.027027
28198 9 -0.0263158
28237 10 -0.025641
28278 11 -0.0243902
28321 12 -0.0232558
28367 13 -0.0217391
28416 14 -0.0204082
28469 15 -0.0188679
28528 16 -0.0169492
28596 17 -0.0147059
28681 18 -0.0117647
28814 19 -0.0075188
29105 18 0.00343643
29217 17 0.00892857
29298 16 0.0123457
29364 15 0.0151515
29423 14 0.0169492
29477 13 0.0185185
29526 12 0.0204082
29572 11 0.0217391
29617 10 0.0222222
29659 9 0.0238095
29700 8 0.0243902
29739 7 0.025641
29777 6 0.0263158
29815 5 0.0263158
29851 4 0.0277778
29887 3 0.0277778
29923 2 0.0277778
29958 1 0.0285714
29984 0 0.0384615
29993 -1 0.111111
30027 -2 0.0294118
30061 -3 0.0294118
30095 -4 0.0294118
30129 -5 0.0294118
30162 -6 0.030303
30196 -7 0.0294118
30230 -8 0.0294118
30264 -9 0.0294118
30298 -10 0.0294118
30332 -11 0.0294118
30367 -12 0.0285714
30401 -13 0.0294118
30437 -14 0.0277778
30473 -15 0.0277778
30509 -16 0.0277778
30546 -17 0.027027
30584 -18 0.0263158
30623 -19 0.025641
30663 -20 0.025
30704 -21 0.0243902
30746 -22 0.0238095
30791 -23 0.0222222
30838 -24 0.0212766
30887 -25 0.0204082
30940 -26 0.0188679
30999 -27 0.0169492
31063 -28 0.015625
31139 -29 0.0131579
31235 -30 0.0104167
31412 -31 0.00564972
31618 -30 -0.00485437
31748 -29 -0.00769231
31833 -28 -0.0117647
31903 -27 -0.0142857
31963 -26 -0.0166667
32017 -25 -0.0185185
32066 -24 -0.0204082
32113 -23 -0.0212766
32156 -22 -0.0232558
32198 -21 -0.0238095
32238 -20 -0.025
32276 -19 -0.0263158
32313 -18 -0.027027
32350 -17 -0.027027
32385 -16 -0.0285714
32420 -15 -0.0285714
32454 -14 -0.0294118
32487 -13 -0.030303
32520 -12 -0.030303
32553 -11 -0.030303
32585 -10 -0.03125
32617 -9 -0.03125
32649 -8 -0.03125
32681 -7 -0.03125
32712 -6 -0.0322581
32744 -5 -0.03125
32776 -4 -0.03125
32808 -3 -0.03125
32840 -2 -0.03125
32872 -1 -0.03125
32896 0 -0.0416667
32905 1 -0.111111
32938 2 -0.030303
32971 3 -0.030303
33005 4 -0.0294118
33039 5 -0.0294118
33074 6 -0.0285714
33111 7 -0.027027
33147 8 -0.0277778
33186 9 -0.025641
33225 10 -0.025641
33266 11 -0.0243902
33310 12 -0.0227273
33355 13 -0.0222222
33404 14 -0.0204082
33458 15 -0.0185185
33517 16 -0.0169492
33586 17 -0.0144928
33671 18 -0.0117647
33808 19 -0.00729927
34089 18 0.00355872
34203 17 0.00877193
34284 16 0.0123457
34351 15 0.0149254
34410 14 0.0169492
34464 13 0.0185185
34513 12 0.0204082
34560 11 0.0212766
34604 10 0.0227273
34646 9 0.0238095
34687 8 0.0243902
34727 7 0.025
34765 6 0.0263158
34803 5 0.0263158
34839 4 0.0277778
34876 3 0.027027
34911 2 0.0285714
34946 1 0.0285714
34972 0 0.0384615
34981 -1 0.111111
35015 -2 0.0294118
35049 -3 0.0294118
35083 -4 0.0294118
35117 -5 0.0294118
35151 -6 0.0294118
35185 -7 0.0294118
35219 -8 0.0294118
35253 -9 0.0294118
35287 -10 0.0294118
35321 -11 0.0294118
35356 -12 0.0285714
35391 -13 0.0285714
35426 -14 0.0285714
35462 -15 0.0277778
35499 -16 0.027027
35536 -17 0.027027
35574 -18 0.0263158
35613 -19 0.025641
35653 -20 0.025
35694 -21 0.0243902
35737 -22 0.0232558
35781 -23 0.0227273
35828 -24 0.0212766
35878 -25 0.02
35931 -26 0.0188679
35989 -27 0.0172414
36054 -28 0.0153846
36129 -29 0.0133333
36225 -30 0.0104167
36399 -31 0.00574713
36609 -30 -0.0047619
36738 -29 -0.00775194
36824 -28 -0.0116279
36893 -27 -0.0144928
36953 -26 -0.0166667
37006 -25 -0.0188679
37056 -24 -0.02
37102 -23 -0.0217391
37146 -22 -0.0227273
37187 -21 -0.0243902
37227 -20 -0.025
37265 -19 -0.0263158
37302 -18 -0.027027
37338 -17 -0.0277778
37374 -16 -0.0277778
37408 -15 -0.0294118
37442 -14 -0.0294118
37476 -13 -0.0294118
37509 -12 -0.030303
37541 -11 -0.03125
37573 -10 -0.03125
37605 -9 -0.03125
37637 -8 -0.03125
37669 -7 -0.03125
37701 -6 -0.03125
37732 -5 -0.0322581
37764 -4 -0.03125
37796 -3 -0.03125
37828 -2 -0.03125
37860 -1 -0.03125
37885 0 -0.04
37893 1 -0.125
37926 2 -0.030303
37959 3 -0.030303
37993 4 -0.0294118
38027 5 -0.0294118
38062 6 -0.0285714
38098 7 -0.0277778
38135 8 -0.027027
38173 9 -0.0263158
38213 10 -0.025
38254 11 -0.0243902
38297 12 -0.0232558
38343 13 -0.0217391
38392 14 -0.0204082
38445 15 -0.0188679
38504 16 -0.0169492
38573 17 -0.0144928
38659 18 -0.0116279
38794 19 -0.00740741
39078 18 0.00352113
39191 17 0.00884956
39272 16 0.0123457
39339 15 0.0149254
39398 14 0.0169492
39452 13 0.0185185
39501 12 0.0204082
39548 11 0.0212766
39592 10 0.0227273
39634 9 0.0238095
39675 8 0.0243902
39715 7 0.025
39753 6 0.0263158
39791 5 0.0263158
39827 4 0.0277778
39863 3 0.0277778
39899 2 0.0277778
39934 1 0.0285714
39960 0 0.0384615
39969 -1 0.111111
40005 -2 0.0277778
40037 -3 0.03125
40071 -4 0.0294118
40106 -5 0.0285714
40139 -6 0.030303
40173 -7 0.0294118
40207 -8 0.0294118
40241 -9 0.0294118
40275 -10 0.0294118
40309 -11 0.0294118
40344 -12 0.0285714
40380 -13 0.0277778
40415 -14 0.0285714
40451 -15 0.0277778
40487 -16 0.0277778
40524 -17 0.027027
40562 -18 0.0263158
40601 -19 0.025641
40641 -20 0.025
40683 -21 0.0238095
40725 -22 0.0238095
40770 -23 0.0222222
40817 -24 0.0212766
40867 -25 0.02
40920 -26 0.0188679
40978 -27 0.0172414
41043 -28 0.0153846
41119 -29 0.0131579
41215 -30 0.0104167
41394 -31 0.00558659
41595 -30 -0.00497512
41725 -29 -0.00769231
41811 -28 -0.0116279
41880 -27 -0.0144928
41940 -26 -0.0166667
41994 -25 -0.0185185
42044 -24 -0.02
42090 -23 -0.0217391
42133 -22 -0.0232558
42176 -21 -0.0232558
42214 -20 -0.0263158
42253 -19 -0.025641
42290 -18 -0.027027
42326 -17 -0.0277778
42361 -16 -0.0285714
42396 -15 -0.0285714
42430 -14 -0.0294118
42463 -13 -0.030303
42496 -12 -0.030303
42528 -11 -0.03125
42561 -10 -0.030303
42593 -9 -0.03125
42624 -8 -0.0322581
42656 -7 -0.03125
42688 -6 -0.03125
42719 -5 -0.0322581
42752 -4 -0.030303
42783 -3 -0.0322581
42815 -2 -0.03125
42847 -1 -0.03125
42871 0 -0.0416667
42880 1 -0.111111
42912 2 -0.03125
42946 3 -0.0294118
42980 4 -0.0294118
43014 5 -0.0294118
43049 6 -0.0285714
43085 7 -0.0277778
43122 8 -0.027027
43160 9 -0.0263158
43199 10 -0.025641
43240 11 -0.0243902
43283 12 -0.0232558
43329 13 -0.0217391
43378 14 -0.0204082
43431 15 -0.0188679
43490 16 -0.0169492
43558 17 -0.0147059
43643 18 -0.0117647
43777 19 -0.00746269
44067 18 0.00344828
44179 17 0.00892857
44259 16 0.0125
44326 15 0.0149254
44385 14 0.0169492
44439 13 0.0185185
44488 12 0.0204082
44534 11 0.0217391
44578 10 0.0227273
44621 9 0.0232558
44661 8 0.025
44701 7 0.025
44739 6 0.0263158
44777 5 0.0263158
44813 4 0.0277778
44849 3 0.0277778
44885 2 0.0277778
44920 1 0.0285714
44946 0 0.0384615
44954 -1 0.125
44989 -2 0.0285714
45024 -3 0.0285714
45057 -4 0.030303
45090 -5 0.030303
45124 -6 0.0294118
45158 -7 0.0294118
45192 -8 0.0294118
45226 -9 0.0294118
45260 -10 0.0294118
45294 -11 0.0294118
45329 -12 0.0285714
45364 -13 0.0285714
45399 -14 0.0285714
45435 -15 0.0277778
45471 -16 0.0277778
45509 -17 0.0263158
45547 -18 0.0263158
45586 -19 0.025641
45626 -20 0.025
45667 -21 0.0243902
45710 -22 0.0232558
45755 -23 0.0222222
45802 -24 0.0212766
45852 -25 0.02
45905 -26 0.0188679
45964 -27 0.0169492
46029 -28 0.0153846
46105 -29 0.0131579
46203 -30 0.0102041
46396 -31 0.00518135
46573 -30 -0.00564972
46707 -29 -0.00746269
46794 -28 -0.0114943
46864 -27 -0.0142857
46925 -26 -0.0163934
46979 -25 -0.0185185
47029 -24 -0.02
47075 -23 -0.0217391
47119 -22 -0.0227273
47161 -21 -0.0238095
47201 -20 -0.025
47239 -19 -0.0263158
47276 -18 -0.027027
47313 -17 -0.027027
47348 -16 -0.0285714
47383 -15 -0.0285714
47417 -14 -0.0294118
47450 -13 -0.030303
47483 -12 -0.030303
47516 -11 -0.030303
47548 -10 -0.03125
47581 -9 -0.030303
47612 -8 -0.0322581
47644 -7 -0.03125
47676 -6 -0.03125
47708 -5 -0.03125
47740 -4 -0.03125
47772 -3 -0.03125
47804 -2 -0.03125
47836 -1 -0.03125
47860 0 -0.0416667
47869 1 -0.111111
47901 2 -0.03125
47935 3 -0.0294118
47969 4 -0.0294118
48003 5 -0.0294118
48038 6 -0.0285714
48074 7 -0.0277778
48111 8 -0.027027
48149 9 -0.0263158
48189 10 -0.025
48230 11 -0.0243902
48273 12 -0.0232558
48319 13 -0.0217391
48368 14 -0.0204082
48421 15 -0.0188679
48480 16 -0.0169492
48549 17 -0.0144928
48634 18 -0.0117647
48769 19 -0.00740741
49054 18 0.00350877
49167 17 0.00884956
49248 16 0.0123457
49315 15 0.0149254
49374 14 0.0169492
49427 13 0.0188679
49477 12 0.02
49523 11 0.0217391
49567 10 0.0227273
49610 9 0.0232558
49650 8 0.025
49690 7 0.025
49728 6 0.0263158
49766 5 0.0263158
49802 4 0.0277778
49838 3 0.0277778
49874 2 0.0277778
49909 1 0.0285714
49935 0 0.0384615
49943 -1 0.125
49978 -2 0.0285714
50012 -3 0.0294118
50046 -4 0.0294118
50080 -5 0.0294118
50113 -6 0.030303
50147 -7 0.0294118
50181 -8 0.0294118
50215 -9 0.0294118
50249 -10 0.0294118
50283 -11 0.0294118
50318 -12 0.0285714
50353 -13 0.0285714
50388 -14 0.0285714
50424 -15 0.0277778
50461 -16 0.027027
50498 -17 0.027027
50536 -18 0.0263158
50574 -19 0.0263158
50614 -20 0.025
50656 -21 0.0238095
50698 -22 0.0238095
50743 -23 0.0222222
50790 -24 0.0212766
50839 -25 0.0204082
50893 -26 0.0185185
50951 -27 0.0172414
51015 -28 0.015625
51091 -29 0.0131579
51187 -30 0.0104167
51361 -31 0.00574713
51571 -30 -0.0047619
51700 -29 -0.00775194
51785 -28 -0.0117647
51854 -27 -0.0144928
51914 -26 -0.0166667
51968 -25 -0.0185185
52017 -24 -0.0204082
52063 -23 -0.0217391
52107 -22 -0.0227273
52148 -21 -0.0243902
52188 -20 -0.025
52226 -19 -0.0263158
52264 -18 -0.0263158
52300 -17 -0.0277778
52335 -16 -0.0285714
52370 -15 -0.0285714
52403 -14 -0.030303
52437 -13 -0.0294118
52470 -12 -0.030303
52502 -11 -0.03125
52534 -10 -0.03125
52566 -9 -0.03125
52598 -8 -0.03125
52630 -7 -0.03125
52662 -6 -0.03125
52693 -5 -0.0322581
52725 -4 -0.03125
52757 -3 -0.03125
52789 -2 -0.03125
52821 -1 -0.03125
52845 0 -0.0416667
52854 1 -0.111111
52887 2 -0.030303
52920 3 -0.030303
52954 4 -0.0294118
52988 5 -0.0294118
53023 6 -0.0285714
53059 7 -0.0277778
53096 8 -0.027027
53134 9 -0.0263158
53174 10 -0.025
53215 11 -0.0243902
53258 12 -0.0232558
53304 13 -0.0217391
53353 14 -0.0204082
53406 15 -0.0188679
53466 16 -0.0166667
53535 17 -0.0144928
53621 18 -0.0116279
53758 19 -0.00729927
54037 18 0.00358423
54151 17 0.00877193
54233 16 0.0121951
54300 15 0.0149254
54359 14 0.0169492
54413 13 0.0185185
54462 12 0.0204082
54509 11 0.0212766
54553 10 0.0227273
54596 9 0.0232558
54637 8 0.0243902
54676 7 0.025641
54715 6 0.025641
54753 5 0.0263158
54789 4 0.0277778
54826 3 0.027027
54861 2 0.0285714
54896 1 0.0285714
54922 0 0.0384615
54931 -1 0.111111
54966 -2 0.0285714
55000 -3 0.0294118
55034 -4 0.0294118
55068 -5 0.0294118
55102 -6 0.0294118
55135 -7 0.030303
55169 -8 0.0294118
55203 -9 0.0294118
55237 -10 0.0294118
55272 -11 0.0285714
55306 -12 0.0294118
55341 -13 0.0285714
55377 -14 0.0277778
55413 -15 0.0277778
55449 -16 0.0277778
55486 -17 0.027027
55524 -18 0.0263158
55563 -19 0.025641
55603 -20 0.025
55644 -21 0.0243902
55687 -22 0.0232558
55731 -23 0.0227273
55778 -24 0.0212766
55828 -25 0.02
55881 -26 0.0188679
55939 -27 0.0172414
56003 -28 0.015625
56078 -29 0.0133333
56174 -30 0.0104167
56346 -31 0.00581395
56561 -30 -0.00465116
56688 -29 -0.00787402
56774 -28 -0.0116279
56843 -27 -0.0144928
56902 -26 -0.0169492
56956 -25 -0.0185185
57005 -24 -0.0204082
57052 -23 -0.0212766
57095 -22 -0.0232558
57136 -21 -0.0243902
57176 -20 -0.025
57214 -19 -0.0263158
57252 -18 -0.0263158
57288 -17 -0.0277778
57323 -16 -0.0285714
57357 -15 -0.0294118
57391 -14 -0.0294118
57425 -13 -0.0294118
57458 -12 -0.030303
57490 -11 -0.03125
57522 -10 -0.03125
57554 -9 -0.03125
57586 -8 -0.03125
57618 -7 -0.03125
57649 -6 -0.0322581
57681 -5 -0.03125
57713 -4 -0.03125
57745 -3 -0.03125
57777 -2 -0.03125
57809 -1 -0.03125
57833 0 -0.0416667
57841 1 -0.125
57874 2 -0.030303
57907 3 -0.030303
57941 4 -0.0294118
57976 5 -0.0285714
58011 6 -0.0285714
58047 7 -0.0277778
58084 8 -0.027027
58122 9 -0.0263158
58161 10 -0.025641
58202 11 -0.0243902
58245 12 -0.0232558
58291 13 -0.0217391
58340 14 -0.0204082
58393 15 -0.0188679
58452 16 -0.0169492
58521 17 -0.0144928
58606 18 -0.0117647
58740 19 -0.00746269
59028 18 0.00347222
59140 17 0.00892857
59221 16 0.0123457
59288 15 0.0149254
59347 14 0.0169492
59400 13 0.0188679
59450 12 0.02
59497 11 0.0212766
59541 10 0.0227273
59583 9 0.0238095
59624 8 0.0243902
59663 7 0.025641
59702 6 0.025641
59739 5 0.027027
59776 4 0.027027
59812 3 0.0277778
59847 2 0.0285714
59882 1 0.0285714
59908 0 0.0384615
59917 -1 0.111111
59951 -2 0.0294118
59985 -3 0.0294118
60019 -4 0.0294118
60053 -5 0.0294118
60087 -6 0.0294118
60121 -7 0.0294118
60155 -8 0.0294118
60189 -9 0.0294118
60223 -10 0.0294118
60257 -11 0.0294118
60292 -12 0.0285714
60327 -13 0.0285714
60362 -14 0.0285714
60398 -15 0.0277778
60434 -16 0.0277778
60472 -17 0.0263158
60510 -18 0.0263158
60548 -19 0.0263158
60589 -20 0.0243902
60630 -21 0.0243902
60673 -22 0.0232558
60717 -23 0.0227273
60764 -24 0.0212766
60814 -25 0.02
60868 -26 0.0185185
60926 -27 0.0172414
60991 -28 0.0153846
61067 -29 0.0131579
61165 -30 0.0102041
61354 -31 0.00529101
61537 -30 -0.00546448
61670 -29 -0.0075188
61757 -28 -0.0114943
61827 -27 -0.0142857
61887 -26 -0.0166667
61941 -25 -0.0185185
61991 -24 -0.02
62038 -23 -0.0212766
62081 -22 -0.0232558
62123 -21 -0.0238095
62163 -20 -0.025
62201 -19 -0.0263158
62239 -18 -0.0263158
62275 -17 -0.0277778
62310 -16 -0.0285714
62345 -15 -0.0285714
62379 -14 -0.0294118
62412 -13 -0.030303
62445 -12 -0.030303
62478 -11 -0.030303
62510 -10 -0.03125
62542 -9 -0.03125
62574 -8 -0.03125
62606 -7 -0.03125
62638 -6 -0.03125
62670 -5 -0.03125
62701 -4 -0.0322581
62733 -3 -0.03125
62766 -2 -0.030303
62798 -1 -0.03125
62822 0 -0.0416667
62830 1 -0.125
62863 2 -0.030303
62897 3 -0.0294118
62930 4 -0.030303
62965 5 -0.0285714
63000 6 -0.0285714
63036 7 -0.0277778
63073 8 -0.027027
63111 9 -0.0263158
63151 10 -0.025
63192 11 -0.0243902
63235 12 -0.0232558
63281 13 -0.0217391
63329 14 -0.0208333
63383 15 -0.0185185
63442 16 -0.0169492
63510 17 -0.0147059
63596 18 -0.0116279
63730 19 -0.00746269
64017 18 0.00348432
64130 17 0.00884956
64210 16 0.0125
64277 15 0.0149254
64336 14 0.0169492
64390 13 0.0185185
64439 12 0.0204082
64486 11 0.0212766
64530 10 0.0227273
64572 9 0.0238095
64613 8 0.0243902
64652 7 0.025641
64691 6 0.025641
64728 5 0.027027
64765 4 0.027027
64801 3 0.0277778
64836 2 0.0285714
64871 1 0.0285714
64897 0 0.0384615
64906 -1 0.111111
64940 -2 0.0294118
64974 -3 0.0294118
65008 -4 0.0294118
65042 -5 0.0294118
65076 -6 0.0294118
65110 -7 0.0294118
65144 -8 0.0294118
65177 -9 0.030303
65212 -10 0.0285714
65246 -11 0.0294118
65281 -12 0.0285714
65315 -13 0.0294118
65351 -14 0.0277778
65387 -15 0.0277778
65423 -16 0.0277778
65460 -17 0.027027
65498 -18 0.0263158
65537 -19 0.025641
65577 -20 0.025
65618 -21 0.0243902
65660 -22 0.0238095
65705 -23 0.0222222
65751 -24 0.0217391
65801 -25 0.02
65854 -26 0.0188679
65911 -27 0.0175439
65976 -28 0.0153846
66051 -29 0.0133333
66146 -30 0.0105263
66316 -31 0.00588235
66536 -30 -0.00454545
66662 -29 -0.00793651
66747 -28 -0.0117647
66816 -27 -0.0144928
66876 -26 -0.0166667
66930 -25 -0.0185185
66979 -24 -0.0204082
67025 -23 -0.0217391
67069 -22 -0.0227273
67110 -21 -0.0243902
67150 -20 -0.025
67188 -19 -0.0263158
67225 -18 -0.027027
67261 -17 -0.0277778
67296 -16 -0.0285714
67331 -15 -0.0285714
67365 -14 -0.0294118
67399 -13 -0.0294118
67431 -12 -0.03125
67464 -11 -0.030303
67496 -10 -0.03125
67528 -9 -0.03125
67560 -8 -0.03125
67591 -7 -0.0322581
67624 -6 -0.030303
67655 -5 -0.0322581
67686 -4 -0.0322581
67718 -3 -0.03125
67750 -2 -0.03125
67783 -1 -0.030303
67807 0 -0.0416667
67815 1 -0.125
67848 2 -0.030303
67881 3 -0.030303
67915 4 -0.0294118
67950 5 -0.0285714
67985 6 -0.0285714
68021 7 -0.0277778
68058 8 -0.027027
68096 9 -0.0263158
68135 10 -0.025641
68176 11 -0.0243902
68220 12 -0.0227273
68266 13 -0.0217391
68315 14 -0.0204082
68368 15 -0.0188679
68427 16 -0.0169492
68496 17 -0.0144928
68582 18 -0.0116279
68720 19 -0.00724638
68999 18 0.00358423
69113 17 0.00877193
69194 16 0.0123457
69261 15 0.0149254
69321 14 0.0166667
69374 13 0.0188679
69424 12 0.02
69471 11 0.0212766
69515 10 0.0227273
69558 9 0.0232558
69599 8 0.0243902
69638 7 0.025641
69677 6 0.025641
69714 5 0.027027
69751 4 0.027027
69787 3 0.0277778
69823 2 0.0277778
69858 1 0.0285714
69884 0 0.0384615
69893 -1 0.111111
69927 -2 0.0294118
69962 -3 0.0285714
69996 -4 0.0294118
70029 -5 0.030303
70063 -6 0.0294118
70097 -7 0.0294118
70131 -8 0.0294118
70165 -9 0.0294118
70199 -10 0.0294118
70234 -11 0.0285714
70268 -12 0.0294118
70303 -13 0.0285714
70339 -14 0.0277778
70375 -15 0.0277778
70411 -16 0.0277778
70448 -17 0.027027
70486 -18 0.0263158
70525 -19 0.025641
70565 -20 0.025
70606 -21 0.0243902
70649 -22 0.0232558
70694 -23 0.0222222
70740 -24 0.0217391
70790 -25 0.02
70843 -26 0.0188679
70901 -27 0.0172414
70966 -28 0.0153846
71041 -29 0.0133333
71137 -30 0.0104167
71312 -31 0.00571429
71520 -30 -0.00480769
71649 -29 -0.00775194
71735 -28 -0.0116279
71804 -27 -0.0144928
71864 -26 -0.0166667
71917 -25 -0.0188679
71967 -24 -0.02
72013 -23 -0.0217391
72057 -22 -0.0227273
72098 -21 -0.0243902
72138 -20 -0.025
72176 -19 -0.0263158
72213 -18 -0.027027
72250 -17 -0.027027
72285 -16 -0.0285714
72319 -15 -0.0294118
72353 -14 -0.0294118
72387 -13 -0.0294118
72420 -12 -0.030303
72452 -11 -0.03125
72485 -10 -0.030303
72517 -9 -0.03125
72548 -8 -0.0322581
72580 -7 -0.03125
72612 -6 -0.03125
72644 -5 -0.03125
72675 -4 -0.0322581
72707 -3 -0.03125
72739 -2 -0.03125
72771 -1 -0.03125
72796 0 -0.04
72804 1 -0.125
72837 2 -0.030303
72870 3 -0.030303
72904 4 -0.0294118
72938 5 -0.0294118
72974 6 -0.0277778
73009 7 -0.0285714
73046 8 -0.027027
73084 9 -0.0263158
73124 10 -0.025
73165 11 -0.0243902
73208 12 -0.0232558
73254 13 -0.0217391
73303 14 -0.0204082
73356 15 -0.0188679
73415 16 -0.0169492
73484 17 -0.0144928
73569 18 -0.0117647
73703 19 -0.00746269
73990 18 0.00348432
74103 17 0.00884956
74184 16 0.0123457
74251 15 0.0149254
74310 14 0.0169492
74363 13 0.0188679
74412 12 0.0204082
74459 11 0.0212766
74503 10 0.0227273
74545 9 0.0238095
74586 8 0.0243902
74626 7 0.025
74664 6 0.0263158
74701 5 0.027027
74738 4 0.027027
74774 3 0.0277778
74810 2 0.0277778
74845 1 0.0285714
74870 0 0.04
74879 -1 0.111111
74914 -2 0.0285714
74948 -3 0.0294118
74982 -4 0.0294118
75016 -5 0.0294118
75050 -6 0.0294118
75083 -7 0.030303
