#Zeit [t] Spannung [V] Heizspannung [V] Temperatur [°C] +/- Temp Widerstand [Ohm] +/- Widerstand Leistung [Watt] +/- Leistung# Versuch 25 - Die spezifische Wärme von Festkörpern
# Offset 0.03 mV
# Be 43.0g bei Raumtemperatur
0 1.1 21.772185587 0.198406323
30 1.1 21.772185587 0.198406323
60 1.1 21.772185587 0.198406323
90 1.1 21.772185587 0.198406323
120 1.1 21.772185587 0.198406323
150 1.1 21.772185587 0.198406323
180 1.1 21.772185587 0.198406323
210 1.1 21.772185587 0.198406323
240 1.1 21.772185587 0.198406323
270 1.1 21.772185587 0.198406323
300 1.1 21.772185587 0.198406323


0 1.1 0 21.772185587 0.198406323 0.0 0.2 0.0 0.05
30 1.39 35.79 27.503219904 0.196844992 71.58 1.44550287444 17.895 0.361375718609
60 1.72 36.99 33.970539081 0.195123547 73.98 1.4930559802 18.495 0.373263995049
90 2.05 37.58 40.382020872 0.193460908 75.16 1.5164465833 18.79 0.379111645825
120 2.38 38.63 46.739605875 0.191857075 77.26 1.55808954813 19.315 0.389522387033
150 2.71 39.19 53.045234688 0.190312048 78.38 1.58030685628 19.595 0.39507671407
180 3.03 39.87 59.112 0.18887 79.74 1.60729183411 19.935 0.401822958528
210 3.36 41.14 65.320966533 0.187440803 82.28 1.65770906977 20.57 0.414427267443
240 3.68 41.52 71.297649125 0.186111075 83.04 1.67279904352 20.76 0.41819976088
270 4 42.46 77.232665157 0.184836643 84.92 1.71013524611 21.23 0.427533811528
300 4.18 0 80.553465375 0.184144075 0.0 0.2 0.0 0.05
330 4.13 0 79.632269 0.1843347 0.0 0.2 0.0 0.05
360 4.07 0 78.525570176 0.184565232 0.0 0.2 0.0 0.05
390 4.03 0 77.787 0.18472 0.0 0.2 0.0 0.05
420 3.98 0 76.862913875 0.184914675 0.0 0.2 0.0 0.05
450 3.93 0 75.937851 0.1851107 0.0 0.2 0.0 0.05
480 3.89 0 75.197092904 0.185268492 0.0 0.2 0.0 0.05
510 3.84 0 74.270254869 0.185466947 0.0 0.2 0.0 0.05
540 3.8 0 73.528067897 0.185626683 0.0 0.2 0.0 0.05
570 3.76 0 72.785240253 0.185787283 0.0 0.2 0.0 0.05
600 3.72 0 72.041768481 0.185948747 0.0 0.2 0.0 0.05
630 3.67 0 71.111517696 0.186151792 0.0 0.2 0.0 0.05
660 3.64 0 70.552878729 0.186274267 0.0 0.2 0.0 0.05
690 3.6 0 69.807453837 0.186438323 0.0 0.2 0.0 0.05
720 3.57 0 69.247953576 0.186561932 0.0 0.2 0.0 0.05
750 3.53 0 68.501375 0.1867275 0.0 0.2 0.0 0.05
780 3.49 0 67.754132424 0.186893932 0.0 0.2 0.0 0.05
810 3.46 0 67.193262663 0.187019323 0.0 0.2 0.0 0.05
840 3.43 0 66.632016 0.1871452 0.0 0.2 0.0 0.05
870 3.39 0 65.883098304 0.187313792 0.0 0.2 0.0 0.05
900 3.39 0 65.883098304 0.187313792 0.0 0.2 0.0 0.05


# Al 52.2g bei Raumtemperatur
0 1.13 22.367159 0.1982427
30 1.13 22.367159 0.1982427
60 1.13 22.367159 0.1982427
90 1.13 22.367159 0.1982427
120 1.13 22.367159 0.1982427
150 1.13 22.367159 0.1982427
180 1.13 22.367159 0.1982427
210 1.13 22.367159 0.1982427
240 1.13 22.367159 0.1982427
270 1.13 22.367159 0.1982427
300 1.13 22.367159 0.1982427


0 1.13 0 22.367159 0.1982427 0.0 0.2 0.0 0.05
30 1.68 30.2 33.189634125 0.195329075 60.4 1.22444436378 15.1 0.306111090946
60 2.19 31.27 43.085648064 0.192773312 62.54 1.26668884893 15.635 0.316672212232
90 2.72 32.47 53.235523781 0.190266147 64.94 1.31410861043 16.235 0.328527152607
120 3.25 33.64 63.256539432 0.187910668 67.28 1.36038206398 16.82 0.340095515995
150 3.79 34.70 73.342421184 0.185666752 69.4 1.40233519531 17.35 0.350583798827
180 4.33 36.20 83.311383 0.1835803 72.4 1.46174690012 18.1 0.365436725029
210 4.86 36.91 92.990259483 0.181685603 73.82 1.48988488146 18.455 0.372471220365
240 5.40 37.96 102.752663577 0.179911163 75.92 1.53151511909 18.98 0.382878779772
270 5.91 0 111.888488448 0.178379888 0.0 0.2 0.0 0.05
300 5.72 0 108.494037881 0.178933947 0.0 0.2 0.0 0.05
330 5.56 0 105.627259593 0.179415643 0.0 0.2 0.0 0.05
360 5.42 0 103.112423171 0.179848467 0.0 0.2 0.0 0.05
390 5.29 0 100.771728984 0.180259852 0.0 0.2 0.0 0.05
420 5.16 0 98.425627473 0.180680363 0.0 0.2 0.0 0.05
450 5.04 0 96.255093309 0.181076627 0.0 0.2 0.0 0.05
480 4.92 0 94.079757321 0.181480667 0.0 0.2 0.0 0.05
510 4.81 0 92.081401368 0.181857868 0.0 0.2 0.0 0.05
540 4.71 0 90.261084288 0.182206448 0.0 0.2 0.0 0.05
570 4.61 0 88.437254408 0.182560428 0.0 0.2 0.0 0.05
600 4.51 0 86.609857728 0.182919808 0.0 0.2 0.0 0.05
630 4.42 0 84.962106471 0.183247867 0.0 0.2 0.0 0.05
660 4.33 0 83.311383 0.1835803 0.0 0.2 0.0 0.05
690 4.24 0 81.657647949 0.183917107 0.0 0.2 0.0 0.05
720 4.16 0 80.185101173 0.184220163 0.0 0.2 0.0 0.05
750 4.08 0 78.710116125 0.184526675 0.0 0.2 0.0 0.05
780 4.00 0 77.232665157 0.184836643 0.0 0.2 0.0 0.05
810 3.93 0 75.937851 0.1851107 0.0 0.2 0.0 0.05
840 3.86 0 74.641109183 0.185387403 0.0 0.2 0.0 0.05
870 3.79 0 73.342421184 0.185666752 0.0 0.2 0.0 0.05
900 3.73 0 72.227697 0.1859083 0.0 0.2 0.0 0.05
930 3.66 0 70.925345523 0.186192563 0.0 0.2 0.0 0.05
960 3.60 0 69.807453837 0.186438323 0.0 0.2 0.0 0.05
990 3.54 0 68.688081759 0.186686027 0.0 0.2 0.0 0.05
1020 3.49 0 67.754132424 0.186893932 0.0 0.2 0.0 0.05
1050 3.42 0 66.444849771 0.187187267 0.0 0.2 0.0 0.05
1080 3.38 0 65.695763375 0.187356075 0.0 0.2 0.0 0.05
1110 3.33 0 64.758453 0.1875683 0.0 0.2 0.0 0.05
1140 3.29 0 64.007838584 0.187739052 0.0 0.2 0.0 0.05
1170 3.23 0 62.880632 0.1879968 0.0 0.2 0.0 0.05
1200 3.19 0 62.128299264 0.188169712 0.0 0.2 0.0 0.05
1230 3.15 0 61.375273152 0.188343488 0.0 0.2 0.0 0.05
1260 3.10 0 60.433010187 0.188561923 0.0 0.2 0.0 0.05
1290 3.06 0 59.678411343 0.188737643 0.0 0.2 0.0 0.05
1320 3.02 0 58.923107891 0.188914227 0.0 0.2 0.0 0.05
1350 2.98 0 58.167096375 0.189091675 0.0 0.2 0.0 0.05
1380 2.94 0 57.410373339 0.189269987 0.0 0.2 0.0 0.05


# Be 43.0g bei Tieftemperatur
0 -7.57 -176.640904 0.2660592
30 -7.58 -176.907013929 0.266160667
60 -7.60 -177.439538323 0.266363763
90 -7.61 -177.705952896 0.266465392
120 -7.61 -177.705952896 0.266465392
150 -7.62 -177.972469125 0.266567075
180 -7.63 -178.239087064 0.266668812
210 -7.64 -178.505806767 0.266770603
240 -7.64 -178.505806767 0.266770603
270 -7.64 -178.505806767 0.266770603
300 -7.65 -178.772628288 0.266872448


0 -7.65 0 -178.772628288 0.266872448 0.0 0.2 0.0 0.05
30 -7.40 7.36 -172.132511463 0.264342523 14.72 0.355909201904 3.68 0.088977300476
60 -7.13 8.79 -165.031726464 0.261648112 17.58 0.404502855367 4.395 0.101125713842
90 -6.91 9.53 -159.299345656 0.259481772 19.06 0.430480475748 4.765 0.107620118937
120 -6.70 10.82 -153.871726753 0.257438283 21.64 0.476776509488 5.41 0.119194127372
150 -6.50 11.60 -148.742237493 0.255514243 23.2 0.505268245588 5.8 0.126317061397
180 -6.31 12.23 -143.904672136 0.253706412 24.46 0.528504153248 6.115 0.132126038312
210 -6.13 12.84 -139.353235264 0.252011712 25.68 0.55116690757 6.42 0.137791726892
240 -5.97 13.71 -135.333 0.25052 27.42 0.583731582151 6.855 0.145932895538
270 -5.80 14.31 -131.087525383 0.248950203 28.62 0.606334693053 7.155 0.151583673263
300 -5.65 14.95 -127.363578688 0.247578048 29.9 0.630558482617 7.475 0.157639620654
330 -5.49 15.55 -123.413950272 0.246127808 31.1 0.653363604741 7.775 0.163340901185
360 -5.35 15.94 -119.976976648 0.244870188 31.88 0.668231816064 7.97 0.167057954016
390 -5.21 16.57 -116.557535616 0.243623152 33.14 0.692317730526 8.285 0.173079432631
420 -5.07 16.75 -113.155479 0.2423867 33.5 0.699213844257 8.375 0.174803461064
450 -4.93 17.39 -109.770658624 0.241160832 34.78 0.723781292933 8.695 0.180945323233
480 -4.80 17.75 -106.642915083 0.240032003 35.5 0.737631344236 8.875 0.184407836059
510 -4.67 18.36 -103.529787 0.2389123 36.72 0.761146083219 9.18 0.190286520805
540 -4.54 18.66 -100.431155737 0.237801723 37.32 0.772730845767 9.33 0.193182711442
570 -4.42 19.25 -97.583645125 0.236784675 38.5 0.795550124128 9.625 0.198887531032
600 -4.30 19.48 -94.748292433 0.235775403 38.96 0.804457979014 9.74 0.201114494754
630 -4.18 20.03 -91.925004349 0.234773907 40.06 0.825785347412 10.015 0.206446336853
660 -4.06 20.00 -89.113687561 0.233780187 40.0 0.824621125124 10.0 0.206155281281
690 -3.89 20.74 -85.151299392 0.232385728 41.48 0.853367540981 10.37 0.213341885245
720 -3.81 20.77 -83.294819136 0.231734912 41.54 0.854534165496 10.385 0.213633541374
750 -3.70 21.16 -80.750631853 0.230845683 42.32 0.869708548883 10.58 0.217427137221
780 -3.54 21.61 -77.067373437 0.229563923 43.22 0.887235797294 10.805 0.221808949324
810 -3.46 21.89 -75.233407141 0.228928227 43.78 0.898151078605 10.945 0.224537769651
840 -3.35 22.18 -72.719979048 0.228059788 44.36 0.909463490196 11.09 0.227365872549
870 -3.27 22.65 -70.898013 0.2274323 45.3 0.927812481054 11.325 0.231953120264
900 -3.17 22.76 -68.627592 0.2266528 45.52 0.932109521462 11.38 0.233027380365
930 -3.31 0 -71.808368536 0.227745612 0.0 0.2 0.0 0.05
960 -3.47 0 -75.462375 0.2290075 0.0 0.2 0.0 0.05
990 -3.63 0 -79.136682264 0.230283212 0.0 0.2 0.0 0.05
1020 -3.79 0 -82.831511512 0.231572748 0.0 0.2 0.0 0.05
1050 -3.94 0 -86.314248757 0.232794243 0.0 0.2 0.0 0.05
1080 -4.09 0 -89.815399552 0.234027888 0.0 0.2 0.0 0.05
1110 -4.24 0 -93.335146147 0.235273683 0.0 0.2 0.0 0.05
1140 -4.39 0 -96.873670792 0.236531628 0.0 0.2 0.0 0.05
1170 -4.52 0 -99.955722375 0.237631675 0.0 0.2 0.0 0.05
1200 -4.66 0 -103.290917581 0.238826547 0.0 0.2 0.0 0.05
1230 -4.79 0 -106.402926312 0.239945548 0.0 0.2 0.0 0.05
1260 -4.92 0 -109.529541375 0.241073675 0.0 0.2 0.0 0.05
1290 -5.04 0 -112.428714387 0.242123123 0.0 0.2 0.0 0.05
1320 -5.17 0 -115.583752 0.2432688 0.0 0.2 0.0 0.05
1350 -5.29 0 -118.509363712 0.244334448 0.0 0.2 0.0 0.05
1380 -5.41 0 -121.447809856 0.245407872 0.0 0.2 0.0 0.05
1410 -5.52 0 -124.152739875 0.246398675 0.0 0.2 0.0 0.05
1440 -5.64 0 -127.116046167 0.247487003 0.0 0.2 0.0 0.05
1470 -5.75 0 -129.843921768 0.248491468 0.0 0.2 0.0 0.05
1500 -5.86 0 -132.582882421 0.249502467 0.0 0.2 0.0 0.05


# Al 52.5g bei Tieftemperatur
0 -7.36 -171.075944971 0.263940867
30 -7.38 -171.604027389 0.264141587
60 -7.39 -171.868219192 0.264242028
90 -7.40 -172.132511463 0.264342523
120 -7.42 -172.661397625 0.264543675
150 -7.43 -172.925991624 0.264644332
180 -7.45 -173.455481728 0.264845808
210 -7.46 -173.720377941 0.264946627
240 -7.47 -173.985375 0.2650475
270 -7.48 -174.250472959 0.265148427
300 -7.49 -174.515671872 0.265249408


0 -7.50 0 -174.780971793 0.265350443 0.0 0.2 0.0 0.05
30 -7.42 5.764 -172.661397625 0.264543675 11.528 0.305217813373 2.882 0.0763044533432
60 -7.33 6.18 -170.284573504 0.263640192 12.36 0.31797459018 3.09 0.0794936475449
90 -7.23 6.50 -167.653169784 0.262641452 13.0 0.328024389337 3.25 0.0820060973343
120 -7.16 6.92 -165.817116831 0.261945547 13.84 0.341494128793 3.46 0.0853735321982
150 -7.07 7.28 -163.463619 0.2610547 14.56 0.353266811348 3.64 0.088316702837
180 -6.98 7.55 -161.118119109 0.260168227 15.1 0.36222092706 3.775 0.0905552317649
210 -6.88 7.95 -158.521340539 0.259188387 15.9 0.375664744154 3.975 0.0939161860384
240 -6.80 8.30 -156.450955683 0.258408403 16.6 0.387587409496 4.15 0.0968968523741
270 -6.70 8.68 -153.871726753 0.257438283 17.36 0.400684214813 4.34 0.100171053703
300 -6.61 9.06 -151.558693696 0.256569792 18.12 0.413924824092 4.53 0.103481206023
330 -6.52 9.30 -149.253457375 0.255705675 18.6 0.422355300665 4.65 0.105588825166
360 -6.43 9.66 -146.955978424 0.254845932 19.32 0.435091898339 4.83 0.108772974585
390 -6.33 9.98 -144.412274304 0.253895792 19.96 0.446498197085 4.99 0.111624549271
420 -6.23 10.27 -141.878044584 0.252951052 20.54 0.456898938497 5.135 0.114224734624
450 -6.13 10.67 -139.353235264 0.252011712 21.34 0.471336652511 5.335 0.117834163128
480 -6.05 11.03 -137.340134208 0.251264128 22.06 0.484414533225 5.515 0.121103633306
510 -5.95 11.42 -134.832145528 0.250334508 22.84 0.498664456323 5.71 0.124666114081
540 -5.85 11.53 -132.333426048 0.249410288 23.06 0.502698159933 5.765 0.125674539983
570 -5.75 12.03 -129.843921768 0.248491468 24.06 0.521107896697 6.015 0.130276974174
600 -5.65 12.30 -127.363578688 0.247578048 24.6 0.531096977962 6.15 0.13277424449
630 -5.56 12.50 -125.139058111 0.246760587 25.0 0.538516480713 6.25 0.134629120178
660 -5.46 12.78 -122.675972541 0.245857427 25.56 0.548931179657 6.39 0.137232794914
690 -5.36 13.09 -120.221891571 0.244959667 26.18 0.560497065113 6.545 0.140124266278
720 -5.26 13.31 -117.776761201 0.244067307 26.62 0.568726436875 6.655 0.142181609219
750 -5.17 13.59 -115.583752 0.2432688 27.18 0.579224446998 6.795 0.144806111749
780 -5.07 14.30 -113.155479 0.2423867 28.6 0.605957094191 7.15 0.151489273548
810 -4.96 14.66 -110.494533691 0.241422627 29.32 0.619568365881 7.33 0.15489209147
840 -4.87 15.04 -108.325261 0.2406387 30.08 0.633973627212 7.52 0.158493406803
870 -4.77 15.10 -105.923208 0.2397728 30.2 0.636251522591 7.55 0.159062880648
900 -4.68 0 -103.768742199 0.238998107 0.0 0.2 0.0 0.05
930 -4.86 0 -108.084665721 0.240551867 0.0 0.2 0.0 0.05
960 -5.01 0 -111.702739776 0.241860032 0.0 0.2 0.0 0.05
990 -5.14 0 -114.854343517 0.243003603 0.0 0.2 0.0 0.05
1020 -5.27 0 -118.020873 0.2441563 0.0 0.2 0.0 0.05
1050 -5.39 0 -120.957173592 0.245228428 0.0 0.2 0.0 0.05
1080 -5.50 0 -123.660123193 0.246218043 0.0 0.2 0.0 0.05
1110 -5.61 0 -126.373994496 0.247214192 0.0 0.2 0.0 0.05
1140 -5.71 0 -128.850688216 0.248125452 0.0 0.2 0.0 0.05
1170 -5.81 0 -131.336521536 0.249042112 0.0 0.2 0.0 0.05
1200 -5.90 0 -133.581630513 0.249871723 0.0 0.2 0.0 0.05
1230 -5.98 0 -135.583566409 0.250612827 0.0 0.2 0.0 0.05
1260 -6.07 0 -137.842849 0.2514507 0.0 0.2 0.0 0.05
1290 -6.15 0 -139.857446088 0.252199148 0.0 0.2 0.0 0.05
1320 -6.22 0 -141.625140625 0.252856875 0.0 0.2 0.0 0.05
1350 -6.29 0 -143.397448512 0.253517248 0.0 0.2 0.0 0.05
1380 -6.36 0 -145.174388271 0.254180267 0.0 0.2 0.0 0.05
1410 -6.42 0 -146.701180125 0.254750675 0.0 0.2 0.0 0.05
1440 -6.48 0 -148.231400259 0.255323027 0.0 0.2 0.0 0.05
1470 -6.54 0 -149.765060337 0.255897323 0.0 0.2 0.0 0.05
1500 -6.59 0 -151.045746552 0.256377388 0.0 0.2 0.0 0.05
