%!PS-Adobe-2.0 EPSF-2.0
%%Title: 2minLog.tex
%%Creator: gnuplot 4.4 patchlevel 4
%%CreationDate: Sat Mar 30 11:40:04 2013
%%DocumentFonts: 
%%BoundingBox: 50 50 410 302
%%EndComments
%%BeginProlog
/gnudict 256 dict def
gnudict begin
%
% The following true/false flags may be edited by hand if desired.
% The unit line width and grayscale image gamma correction may also be changed.
%
/Color true def
/Blacktext false def
/Solid false def
/Dashlength 1 def
/Landscape false def
/Level1 false def
/Rounded false def
/ClipToBoundingBox false def
/TransparentPatterns false def
/gnulinewidth 5.000 def
/userlinewidth gnulinewidth def
/Gamma 1.0 def
%
/vshift -73 def
/dl1 {
  10.0 Dashlength mul mul
  Rounded { currentlinewidth 0.75 mul sub dup 0 le { pop 0.01 } if } if
} def
/dl2 {
  10.0 Dashlength mul mul
  Rounded { currentlinewidth 0.75 mul add } if
} def
/hpt_ 31.5 def
/vpt_ 31.5 def
/hpt hpt_ def
/vpt vpt_ def
Level1 {} {
/SDict 10 dict def
systemdict /pdfmark known not {
  userdict /pdfmark systemdict /cleartomark get put
} if
SDict begin [
  /Title (2minLog.tex)
  /Subject (gnuplot plot)
  /Creator (gnuplot 4.4 patchlevel 4)
  /Author (niklas)
%  /Producer (gnuplot)
%  /Keywords ()
  /CreationDate (Sat Mar 30 11:40:04 2013)
  /DOCINFO pdfmark
end
} ifelse
/doclip {
  ClipToBoundingBox {
    newpath 50 50 moveto 410 50 lineto 410 302 lineto 50 302 lineto closepath
    clip
  } if
} def
%
% Gnuplot Prolog Version 4.4 (August 2010)
%
%/SuppressPDFMark true def
%
/M {moveto} bind def
/L {lineto} bind def
/R {rmoveto} bind def
/V {rlineto} bind def
/N {newpath moveto} bind def
/Z {closepath} bind def
/C {setrgbcolor} bind def
/f {rlineto fill} bind def
/g {setgray} bind def
/Gshow {show} def   % May be redefined later in the file to support UTF-8
/vpt2 vpt 2 mul def
/hpt2 hpt 2 mul def
/Lshow {currentpoint stroke M 0 vshift R 
	Blacktext {gsave 0 setgray show grestore} {show} ifelse} def
/Rshow {currentpoint stroke M dup stringwidth pop neg vshift R
	Blacktext {gsave 0 setgray show grestore} {show} ifelse} def
/Cshow {currentpoint stroke M dup stringwidth pop -2 div vshift R 
	Blacktext {gsave 0 setgray show grestore} {show} ifelse} def
/UP {dup vpt_ mul /vpt exch def hpt_ mul /hpt exch def
  /hpt2 hpt 2 mul def /vpt2 vpt 2 mul def} def
/DL {Color {setrgbcolor Solid {pop []} if 0 setdash}
 {pop pop pop 0 setgray Solid {pop []} if 0 setdash} ifelse} def
/BL {stroke userlinewidth 2 mul setlinewidth
	Rounded {1 setlinejoin 1 setlinecap} if} def
/AL {stroke userlinewidth 2 div setlinewidth
	Rounded {1 setlinejoin 1 setlinecap} if} def
/UL {dup gnulinewidth mul /userlinewidth exch def
	dup 1 lt {pop 1} if 10 mul /udl exch def} def
/PL {stroke userlinewidth setlinewidth
	Rounded {1 setlinejoin 1 setlinecap} if} def
3.8 setmiterlimit
% Default Line colors
/LCw {1 1 1} def
/LCb {0 0 0} def
/LCa {0 0 0} def
/LC0 {1 0 0} def
/LC1 {0 1 0} def
/LC2 {0 0 1} def
/LC3 {1 0 1} def
/LC4 {0 1 1} def
/LC5 {1 1 0} def
/LC6 {0 0 0} def
/LC7 {1 0.3 0} def
/LC8 {0.5 0.5 0.5} def
% Default Line Types
/LTw {PL [] 1 setgray} def
/LTb {BL [] LCb DL} def
/LTa {AL [1 udl mul 2 udl mul] 0 setdash LCa setrgbcolor} def
/LT0 {PL [] LC0 DL} def
/LT1 {PL [4 dl1 2 dl2] LC1 DL} def
/LT2 {PL [2 dl1 3 dl2] LC2 DL} def
/LT3 {PL [1 dl1 1.5 dl2] LC3 DL} def
/LT4 {PL [6 dl1 2 dl2 1 dl1 2 dl2] LC4 DL} def
/LT5 {PL [3 dl1 3 dl2 1 dl1 3 dl2] LC5 DL} def
/LT6 {PL [2 dl1 2 dl2 2 dl1 6 dl2] LC6 DL} def
/LT7 {PL [1 dl1 2 dl2 6 dl1 2 dl2 1 dl1 2 dl2] LC7 DL} def
/LT8 {PL [2 dl1 2 dl2 2 dl1 2 dl2 2 dl1 2 dl2 2 dl1 4 dl2] LC8 DL} def
/Pnt {stroke [] 0 setdash gsave 1 setlinecap M 0 0 V stroke grestore} def
/Dia {stroke [] 0 setdash 2 copy vpt add M
  hpt neg vpt neg V hpt vpt neg V
  hpt vpt V hpt neg vpt V closepath stroke
  Pnt} def
/Pls {stroke [] 0 setdash vpt sub M 0 vpt2 V
  currentpoint stroke M
  hpt neg vpt neg R hpt2 0 V stroke
 } def
/Box {stroke [] 0 setdash 2 copy exch hpt sub exch vpt add M
  0 vpt2 neg V hpt2 0 V 0 vpt2 V
  hpt2 neg 0 V closepath stroke
  Pnt} def
/Crs {stroke [] 0 setdash exch hpt sub exch vpt add M
  hpt2 vpt2 neg V currentpoint stroke M
  hpt2 neg 0 R hpt2 vpt2 V stroke} def
/TriU {stroke [] 0 setdash 2 copy vpt 1.12 mul add M
  hpt neg vpt -1.62 mul V
  hpt 2 mul 0 V
  hpt neg vpt 1.62 mul V closepath stroke
  Pnt} def
/Star {2 copy Pls Crs} def
/BoxF {stroke [] 0 setdash exch hpt sub exch vpt add M
  0 vpt2 neg V hpt2 0 V 0 vpt2 V
  hpt2 neg 0 V closepath fill} def
/TriUF {stroke [] 0 setdash vpt 1.12 mul add M
  hpt neg vpt -1.62 mul V
  hpt 2 mul 0 V
  hpt neg vpt 1.62 mul V closepath fill} def
/TriD {stroke [] 0 setdash 2 copy vpt 1.12 mul sub M
  hpt neg vpt 1.62 mul V
  hpt 2 mul 0 V
  hpt neg vpt -1.62 mul V closepath stroke
  Pnt} def
/TriDF {stroke [] 0 setdash vpt 1.12 mul sub M
  hpt neg vpt 1.62 mul V
  hpt 2 mul 0 V
  hpt neg vpt -1.62 mul V closepath fill} def
/DiaF {stroke [] 0 setdash vpt add M
  hpt neg vpt neg V hpt vpt neg V
  hpt vpt V hpt neg vpt V closepath fill} def
/Pent {stroke [] 0 setdash 2 copy gsave
  translate 0 hpt M 4 {72 rotate 0 hpt L} repeat
  closepath stroke grestore Pnt} def
/PentF {stroke [] 0 setdash gsave
  translate 0 hpt M 4 {72 rotate 0 hpt L} repeat
  closepath fill grestore} def
/Circle {stroke [] 0 setdash 2 copy
  hpt 0 360 arc stroke Pnt} def
/CircleF {stroke [] 0 setdash hpt 0 360 arc fill} def
/C0 {BL [] 0 setdash 2 copy moveto vpt 90 450 arc} bind def
/C1 {BL [] 0 setdash 2 copy moveto
	2 copy vpt 0 90 arc closepath fill
	vpt 0 360 arc closepath} bind def
/C2 {BL [] 0 setdash 2 copy moveto
	2 copy vpt 90 180 arc closepath fill
	vpt 0 360 arc closepath} bind def
/C3 {BL [] 0 setdash 2 copy moveto
	2 copy vpt 0 180 arc closepath fill
	vpt 0 360 arc closepath} bind def
/C4 {BL [] 0 setdash 2 copy moveto
	2 copy vpt 180 270 arc closepath fill
	vpt 0 360 arc closepath} bind def
/C5 {BL [] 0 setdash 2 copy moveto
	2 copy vpt 0 90 arc
	2 copy moveto
	2 copy vpt 180 270 arc closepath fill
	vpt 0 360 arc} bind def
/C6 {BL [] 0 setdash 2 copy moveto
	2 copy vpt 90 270 arc closepath fill
	vpt 0 360 arc closepath} bind def
/C7 {BL [] 0 setdash 2 copy moveto
	2 copy vpt 0 270 arc closepath fill
	vpt 0 360 arc closepath} bind def
/C8 {BL [] 0 setdash 2 copy moveto
	2 copy vpt 270 360 arc closepath fill
	vpt 0 360 arc closepath} bind def
/C9 {BL [] 0 setdash 2 copy moveto
	2 copy vpt 270 450 arc closepath fill
	vpt 0 360 arc closepath} bind def
/C10 {BL [] 0 setdash 2 copy 2 copy moveto vpt 270 360 arc closepath fill
	2 copy moveto
	2 copy vpt 90 180 arc closepath fill
	vpt 0 360 arc closepath} bind def
/C11 {BL [] 0 setdash 2 copy moveto
	2 copy vpt 0 180 arc closepath fill
	2 copy moveto
	2 copy vpt 270 360 arc closepath fill
	vpt 0 360 arc closepath} bind def
/C12 {BL [] 0 setdash 2 copy moveto
	2 copy vpt 180 360 arc closepath fill
	vpt 0 360 arc closepath} bind def
/C13 {BL [] 0 setdash 2 copy moveto
	2 copy vpt 0 90 arc closepath fill
	2 copy moveto
	2 copy vpt 180 360 arc closepath fill
	vpt 0 360 arc closepath} bind def
/C14 {BL [] 0 setdash 2 copy moveto
	2 copy vpt 90 360 arc closepath fill
	vpt 0 360 arc} bind def
/C15 {BL [] 0 setdash 2 copy vpt 0 360 arc closepath fill
	vpt 0 360 arc closepath} bind def
/Rec {newpath 4 2 roll moveto 1 index 0 rlineto 0 exch rlineto
	neg 0 rlineto closepath} bind def
/Square {dup Rec} bind def
/Bsquare {vpt sub exch vpt sub exch vpt2 Square} bind def
/S0 {BL [] 0 setdash 2 copy moveto 0 vpt rlineto BL Bsquare} bind def
/S1 {BL [] 0 setdash 2 copy vpt Square fill Bsquare} bind def
/S2 {BL [] 0 setdash 2 copy exch vpt sub exch vpt Square fill Bsquare} bind def
/S3 {BL [] 0 setdash 2 copy exch vpt sub exch vpt2 vpt Rec fill Bsquare} bind def
/S4 {BL [] 0 setdash 2 copy exch vpt sub exch vpt sub vpt Square fill Bsquare} bind def
/S5 {BL [] 0 setdash 2 copy 2 copy vpt Square fill
	exch vpt sub exch vpt sub vpt Square fill Bsquare} bind def
/S6 {BL [] 0 setdash 2 copy exch vpt sub exch vpt sub vpt vpt2 Rec fill Bsquare} bind def
/S7 {BL [] 0 setdash 2 copy exch vpt sub exch vpt sub vpt vpt2 Rec fill
	2 copy vpt Square fill Bsquare} bind def
/S8 {BL [] 0 setdash 2 copy vpt sub vpt Square fill Bsquare} bind def
/S9 {BL [] 0 setdash 2 copy vpt sub vpt vpt2 Rec fill Bsquare} bind def
/S10 {BL [] 0 setdash 2 copy vpt sub vpt Square fill 2 copy exch vpt sub exch vpt Square fill
	Bsquare} bind def
/S11 {BL [] 0 setdash 2 copy vpt sub vpt Square fill 2 copy exch vpt sub exch vpt2 vpt Rec fill
	Bsquare} bind def
/S12 {BL [] 0 setdash 2 copy exch vpt sub exch vpt sub vpt2 vpt Rec fill Bsquare} bind def
/S13 {BL [] 0 setdash 2 copy exch vpt sub exch vpt sub vpt2 vpt Rec fill
	2 copy vpt Square fill Bsquare} bind def
/S14 {BL [] 0 setdash 2 copy exch vpt sub exch vpt sub vpt2 vpt Rec fill
	2 copy exch vpt sub exch vpt Square fill Bsquare} bind def
/S15 {BL [] 0 setdash 2 copy Bsquare fill Bsquare} bind def
/D0 {gsave translate 45 rotate 0 0 S0 stroke grestore} bind def
/D1 {gsave translate 45 rotate 0 0 S1 stroke grestore} bind def
/D2 {gsave translate 45 rotate 0 0 S2 stroke grestore} bind def
/D3 {gsave translate 45 rotate 0 0 S3 stroke grestore} bind def
/D4 {gsave translate 45 rotate 0 0 S4 stroke grestore} bind def
/D5 {gsave translate 45 rotate 0 0 S5 stroke grestore} bind def
/D6 {gsave translate 45 rotate 0 0 S6 stroke grestore} bind def
/D7 {gsave translate 45 rotate 0 0 S7 stroke grestore} bind def
/D8 {gsave translate 45 rotate 0 0 S8 stroke grestore} bind def
/D9 {gsave translate 45 rotate 0 0 S9 stroke grestore} bind def
/D10 {gsave translate 45 rotate 0 0 S10 stroke grestore} bind def
/D11 {gsave translate 45 rotate 0 0 S11 stroke grestore} bind def
/D12 {gsave translate 45 rotate 0 0 S12 stroke grestore} bind def
/D13 {gsave translate 45 rotate 0 0 S13 stroke grestore} bind def
/D14 {gsave translate 45 rotate 0 0 S14 stroke grestore} bind def
/D15 {gsave translate 45 rotate 0 0 S15 stroke grestore} bind def
/DiaE {stroke [] 0 setdash vpt add M
  hpt neg vpt neg V hpt vpt neg V
  hpt vpt V hpt neg vpt V closepath stroke} def
/BoxE {stroke [] 0 setdash exch hpt sub exch vpt add M
  0 vpt2 neg V hpt2 0 V 0 vpt2 V
  hpt2 neg 0 V closepath stroke} def
/TriUE {stroke [] 0 setdash vpt 1.12 mul add M
  hpt neg vpt -1.62 mul V
  hpt 2 mul 0 V
  hpt neg vpt 1.62 mul V closepath stroke} def
/TriDE {stroke [] 0 setdash vpt 1.12 mul sub M
  hpt neg vpt 1.62 mul V
  hpt 2 mul 0 V
  hpt neg vpt -1.62 mul V closepath stroke} def
/PentE {stroke [] 0 setdash gsave
  translate 0 hpt M 4 {72 rotate 0 hpt L} repeat
  closepath stroke grestore} def
/CircE {stroke [] 0 setdash 
  hpt 0 360 arc stroke} def
/Opaque {gsave closepath 1 setgray fill grestore 0 setgray closepath} def
/DiaW {stroke [] 0 setdash vpt add M
  hpt neg vpt neg V hpt vpt neg V
  hpt vpt V hpt neg vpt V Opaque stroke} def
/BoxW {stroke [] 0 setdash exch hpt sub exch vpt add M
  0 vpt2 neg V hpt2 0 V 0 vpt2 V
  hpt2 neg 0 V Opaque stroke} def
/TriUW {stroke [] 0 setdash vpt 1.12 mul add M
  hpt neg vpt -1.62 mul V
  hpt 2 mul 0 V
  hpt neg vpt 1.62 mul V Opaque stroke} def
/TriDW {stroke [] 0 setdash vpt 1.12 mul sub M
  hpt neg vpt 1.62 mul V
  hpt 2 mul 0 V
  hpt neg vpt -1.62 mul V Opaque stroke} def
/PentW {stroke [] 0 setdash gsave
  translate 0 hpt M 4 {72 rotate 0 hpt L} repeat
  Opaque stroke grestore} def
/CircW {stroke [] 0 setdash 
  hpt 0 360 arc Opaque stroke} def
/BoxFill {gsave Rec 1 setgray fill grestore} def
/Density {
  /Fillden exch def
  currentrgbcolor
  /ColB exch def /ColG exch def /ColR exch def
  /ColR ColR Fillden mul Fillden sub 1 add def
  /ColG ColG Fillden mul Fillden sub 1 add def
  /ColB ColB Fillden mul Fillden sub 1 add def
  ColR ColG ColB setrgbcolor} def
/BoxColFill {gsave Rec PolyFill} def
/PolyFill {gsave Density fill grestore grestore} def
/h {rlineto rlineto rlineto gsave closepath fill grestore} bind def
%
% PostScript Level 1 Pattern Fill routine for rectangles
% Usage: x y w h s a XX PatternFill
%	x,y = lower left corner of box to be filled
%	w,h = width and height of box
%	  a = angle in degrees between lines and x-axis
%	 XX = 0/1 for no/yes cross-hatch
%
/PatternFill {gsave /PFa [ 9 2 roll ] def
  PFa 0 get PFa 2 get 2 div add PFa 1 get PFa 3 get 2 div add translate
  PFa 2 get -2 div PFa 3 get -2 div PFa 2 get PFa 3 get Rec
  gsave 1 setgray fill grestore clip
  currentlinewidth 0.5 mul setlinewidth
  /PFs PFa 2 get dup mul PFa 3 get dup mul add sqrt def
  0 0 M PFa 5 get rotate PFs -2 div dup translate
  0 1 PFs PFa 4 get div 1 add floor cvi
	{PFa 4 get mul 0 M 0 PFs V} for
  0 PFa 6 get ne {
	0 1 PFs PFa 4 get div 1 add floor cvi
	{PFa 4 get mul 0 2 1 roll M PFs 0 V} for
 } if
  stroke grestore} def
%
/languagelevel where
 {pop languagelevel} {1} ifelse
 2 lt
	{/InterpretLevel1 true def}
	{/InterpretLevel1 Level1 def}
 ifelse
%
% PostScript level 2 pattern fill definitions
%
/Level2PatternFill {
/Tile8x8 {/PaintType 2 /PatternType 1 /TilingType 1 /BBox [0 0 8 8] /XStep 8 /YStep 8}
	bind def
/KeepColor {currentrgbcolor [/Pattern /DeviceRGB] setcolorspace} bind def
<< Tile8x8
 /PaintProc {0.5 setlinewidth pop 0 0 M 8 8 L 0 8 M 8 0 L stroke} 
>> matrix makepattern
/Pat1 exch def
<< Tile8x8
 /PaintProc {0.5 setlinewidth pop 0 0 M 8 8 L 0 8 M 8 0 L stroke
	0 4 M 4 8 L 8 4 L 4 0 L 0 4 L stroke}
>> matrix makepattern
/Pat2 exch def
<< Tile8x8
 /PaintProc {0.5 setlinewidth pop 0 0 M 0 8 L
	8 8 L 8 0 L 0 0 L fill}
>> matrix makepattern
/Pat3 exch def
<< Tile8x8
 /PaintProc {0.5 setlinewidth pop -4 8 M 8 -4 L
	0 12 M 12 0 L stroke}
>> matrix makepattern
/Pat4 exch def
<< Tile8x8
 /PaintProc {0.5 setlinewidth pop -4 0 M 8 12 L
	0 -4 M 12 8 L stroke}
>> matrix makepattern
/Pat5 exch def
<< Tile8x8
 /PaintProc {0.5 setlinewidth pop -2 8 M 4 -4 L
	0 12 M 8 -4 L 4 12 M 10 0 L stroke}
>> matrix makepattern
/Pat6 exch def
<< Tile8x8
 /PaintProc {0.5 setlinewidth pop -2 0 M 4 12 L
	0 -4 M 8 12 L 4 -4 M 10 8 L stroke}
>> matrix makepattern
/Pat7 exch def
<< Tile8x8
 /PaintProc {0.5 setlinewidth pop 8 -2 M -4 4 L
	12 0 M -4 8 L 12 4 M 0 10 L stroke}
>> matrix makepattern
/Pat8 exch def
<< Tile8x8
 /PaintProc {0.5 setlinewidth pop 0 -2 M 12 4 L
	-4 0 M 12 8 L -4 4 M 8 10 L stroke}
>> matrix makepattern
/Pat9 exch def
/Pattern1 {PatternBgnd KeepColor Pat1 setpattern} bind def
/Pattern2 {PatternBgnd KeepColor Pat2 setpattern} bind def
/Pattern3 {PatternBgnd KeepColor Pat3 setpattern} bind def
/Pattern4 {PatternBgnd KeepColor Landscape {Pat5} {Pat4} ifelse setpattern} bind def
/Pattern5 {PatternBgnd KeepColor Landscape {Pat4} {Pat5} ifelse setpattern} bind def
/Pattern6 {PatternBgnd KeepColor Landscape {Pat9} {Pat6} ifelse setpattern} bind def
/Pattern7 {PatternBgnd KeepColor Landscape {Pat8} {Pat7} ifelse setpattern} bind def
} def
%
%
%End of PostScript Level 2 code
%
/PatternBgnd {
  TransparentPatterns {} {gsave 1 setgray fill grestore} ifelse
} def
%
% Substitute for Level 2 pattern fill codes with
% grayscale if Level 2 support is not selected.
%
/Level1PatternFill {
/Pattern1 {0.250 Density} bind def
/Pattern2 {0.500 Density} bind def
/Pattern3 {0.750 Density} bind def
/Pattern4 {0.125 Density} bind def
/Pattern5 {0.375 Density} bind def
/Pattern6 {0.625 Density} bind def
/Pattern7 {0.875 Density} bind def
} def
%
% Now test for support of Level 2 code
%
Level1 {Level1PatternFill} {Level2PatternFill} ifelse
%
/Symbol-Oblique /Symbol findfont [1 0 .167 1 0 0] makefont
dup length dict begin {1 index /FID eq {pop pop} {def} ifelse} forall
currentdict end definefont pop
end
%%EndProlog
gnudict begin
gsave
doclip
50 50 translate
0.050 0.050 scale
0 setgray
newpath
1.000 UL
LTb
LCb setrgbcolor
1210 704 M
63 0 V
5530 0 R
-63 0 V
stroke
LTb
1210 1112 M
31 0 V
5562 0 R
-31 0 V
1210 1351 M
31 0 V
5562 0 R
-31 0 V
1210 1521 M
31 0 V
5562 0 R
-31 0 V
1210 1653 M
31 0 V
5562 0 R
-31 0 V
1210 1760 M
31 0 V
5562 0 R
-31 0 V
-5562 91 R
31 0 V
5562 0 R
-31 0 V
-5562 78 R
31 0 V
5562 0 R
-31 0 V
-5562 70 R
31 0 V
5562 0 R
-31 0 V
-5562 62 R
63 0 V
5530 0 R
-63 0 V
1210 2469 M
31 0 V
5562 0 R
-31 0 V
1210 2708 M
31 0 V
5562 0 R
-31 0 V
1210 2878 M
31 0 V
5562 0 R
-31 0 V
1210 3010 M
31 0 V
5562 0 R
-31 0 V
1210 3117 M
31 0 V
5562 0 R
-31 0 V
-5562 91 R
31 0 V
5562 0 R
-31 0 V
-5562 78 R
31 0 V
5562 0 R
-31 0 V
-5562 70 R
31 0 V
5562 0 R
-31 0 V
-5562 62 R
63 0 V
5530 0 R
-63 0 V
1210 3826 M
31 0 V
5562 0 R
-31 0 V
1210 4065 M
31 0 V
5562 0 R
-31 0 V
1210 4235 M
31 0 V
5562 0 R
-31 0 V
1210 4367 M
31 0 V
5562 0 R
-31 0 V
1210 4474 M
31 0 V
5562 0 R
-31 0 V
-5562 91 R
31 0 V
5562 0 R
-31 0 V
-5562 78 R
31 0 V
5562 0 R
-31 0 V
-5562 70 R
31 0 V
5562 0 R
-31 0 V
-5562 62 R
63 0 V
stroke 1273 4775 M
5530 0 R
-63 0 V
1210 704 M
0 63 V
0 4008 R
0 -63 V
2009 704 M
0 63 V
0 4008 R
0 -63 V
2808 704 M
0 63 V
0 4008 R
0 -63 V
3607 704 M
0 63 V
0 4008 R
0 -63 V
4406 704 M
0 63 V
0 4008 R
0 -63 V
5205 704 M
0 63 V
0 4008 R
0 -63 V
6004 704 M
0 63 V
0 4008 R
0 -63 V
6803 704 M
0 63 V
0 4008 R
0 -63 V
stroke
1210 4775 N
0 -4071 V
5593 0 V
0 4071 V
-5593 0 V
Z stroke
1.000 UP
1.000 UL
LTb
2.000 UL
LT0
LC0 setrgbcolor
LCb setrgbcolor
LT0
LC0 setrgbcolor
5948 4602 M
591 0 V
1378 1252 M
48 0 V
48 0 V
48 0 V
48 0 V
48 0 V
48 0 V
48 0 V
48 0 V
49 0 V
48 0 V
48 0 V
48 0 V
48 0 V
48 0 V
48 0 V
48 0 V
48 0 V
48 0 V
48 0 V
48 0 V
49 0 V
48 0 V
48 0 V
48 0 V
48 0 V
48 0 V
48 0 V
48 0 V
48 0 V
48 0 V
48 0 V
49 0 V
48 0 V
48 0 V
48 0 V
48 0 V
48 0 V
48 0 V
48 0 V
48 0 V
48 0 V
48 0 V
48 0 V
49 0 V
48 0 V
48 0 V
48 0 V
48 0 V
48 0 V
48 0 V
48 0 V
48 0 V
48 0 V
48 0 V
48 0 V
49 0 V
48 0 V
48 0 V
48 0 V
48 0 V
48 0 V
48 0 V
48 0 V
48 0 V
48 0 V
48 0 V
49 0 V
48 0 V
48 0 V
48 0 V
48 0 V
48 0 V
48 0 V
48 0 V
48 0 V
48 0 V
48 0 V
48 0 V
49 0 V
48 0 V
48 0 V
48 0 V
48 0 V
48 0 V
48 0 V
48 0 V
48 0 V
48 0 V
48 0 V
48 0 V
49 0 V
48 0 V
48 0 V
48 0 V
48 0 V
48 0 V
48 0 V
48 0 V
48 0 V
stroke
LT0
LC2 setrgbcolor
LCb setrgbcolor
LT0
LC0 setrgbcolor
LC2 setrgbcolor
5948 4382 M
591 0 V
1378 3365 M
48 -21 V
48 -21 V
48 -20 V
48 -21 V
48 -20 V
48 -20 V
48 -21 V
48 -20 V
49 -21 V
48 -20 V
48 -20 V
48 -21 V
48 -20 V
48 -20 V
48 -20 V
48 -20 V
48 -20 V
48 -21 V
48 -20 V
48 -20 V
49 -20 V
48 -19 V
48 -20 V
48 -20 V
48 -20 V
48 -20 V
48 -19 V
48 -20 V
48 -20 V
48 -19 V
48 -20 V
49 -19 V
48 -20 V
48 -19 V
48 -19 V
48 -19 V
48 -19 V
48 -19 V
48 -19 V
48 -19 V
48 -19 V
48 -19 V
48 -19 V
49 -18 V
48 -19 V
48 -18 V
48 -19 V
48 -18 V
48 -18 V
48 -18 V
48 -18 V
48 -18 V
48 -18 V
48 -18 V
48 -17 V
49 -18 V
48 -17 V
48 -17 V
48 -18 V
48 -17 V
48 -17 V
48 -16 V
48 -17 V
48 -17 V
48 -16 V
48 -16 V
49 -16 V
48 -16 V
48 -16 V
48 -16 V
48 -16 V
48 -15 V
48 -15 V
48 -15 V
48 -15 V
48 -15 V
48 -15 V
48 -14 V
49 -15 V
48 -14 V
48 -14 V
48 -14 V
48 -13 V
48 -14 V
48 -13 V
48 -13 V
48 -13 V
48 -13 V
48 -12 V
48 -13 V
49 -12 V
48 -12 V
48 -12 V
48 -11 V
48 -12 V
48 -11 V
48 -11 V
48 -11 V
48 -11 V
stroke
LT0
LC0 setrgbcolor
LC3 setrgbcolor
LCb setrgbcolor
LT0
LC0 setrgbcolor
LC3 setrgbcolor
5948 4162 M
591 0 V
1378 4415 M
48 -102 V
48 -101 V
48 -101 V
48 -101 V
48 -101 V
48 -101 V
48 -101 V
48 -100 V
49 -100 V
48 -100 V
48 -99 V
48 -99 V
48 -98 V
48 -97 V
48 -96 V
48 -96 V
48 -94 V
48 -93 V
48 -92 V
48 -89 V
49 -88 V
48 -85 V
48 -83 V
48 -80 V
48 -77 V
48 -74 V
48 -70 V
48 -66 V
48 -61 V
48 -58 V
48 -53 V
49 -49 V
48 -44 V
48 -40 V
48 -36 V
48 -32 V
48 -28 V
48 -25 V
48 -22 V
48 -19 V
48 -16 V
48 -15 V
48 -12 V
49 -10 V
48 -9 V
48 -8 V
48 -6 V
48 -6 V
48 -5 V
48 -4 V
48 -3 V
48 -3 V
48 -2 V
48 -2 V
48 -2 V
49 -1 V
48 -2 V
48 -1 V
48 -1 V
48 0 V
48 -1 V
48 0 V
48 -1 V
48 0 V
48 0 V
48 -1 V
49 0 V
48 0 V
48 0 V
48 0 V
48 -1 V
48 0 V
48 0 V
48 0 V
48 0 V
48 0 V
48 0 V
48 0 V
49 0 V
48 0 V
48 0 V
48 0 V
48 0 V
48 0 V
48 0 V
48 0 V
48 0 V
48 0 V
48 0 V
48 0 V
49 0 V
48 0 V
48 0 V
48 0 V
48 0 V
48 0 V
48 0 V
48 0 V
48 0 V
stroke
LT0
LC0 setrgbcolor
LCa setrgbcolor
LCb setrgbcolor
LT0
LC0 setrgbcolor
LCa setrgbcolor
5948 3942 M
591 0 V
1378 4504 M
48 -89 V
48 -88 V
48 -87 V
48 -84 V
48 -83 V
48 -80 V
48 -78 V
48 -76 V
49 -73 V
48 -70 V
48 -68 V
48 -65 V
48 -62 V
48 -59 V
48 -57 V
48 -53 V
48 -51 V
48 -48 V
48 -46 V
48 -43 V
49 -41 V
48 -39 V
48 -37 V
48 -35 V
48 -33 V
48 -32 V
48 -31 V
48 -29 V
48 -28 V
48 -27 V
48 -26 V
49 -25 V
48 -24 V
48 -24 V
48 -23 V
48 -23 V
48 -22 V
48 -21 V
48 -21 V
48 -21 V
48 -21 V
48 -20 V
48 -20 V
49 -20 V
48 -19 V
48 -20 V
48 -19 V
48 -19 V
48 -19 V
48 -18 V
48 -19 V
48 -18 V
48 -18 V
48 -18 V
48 -18 V
49 -17 V
48 -18 V
48 -17 V
48 -18 V
48 -17 V
48 -17 V
48 -17 V
48 -17 V
48 -16 V
48 -17 V
48 -16 V
49 -16 V
48 -16 V
48 -16 V
48 -16 V
48 -15 V
48 -16 V
48 -15 V
48 -15 V
48 -15 V
48 -15 V
48 -15 V
48 -14 V
49 -15 V
48 -14 V
48 -14 V
48 -14 V
48 -13 V
48 -14 V
48 -13 V
48 -13 V
48 -13 V
48 -13 V
48 -12 V
48 -13 V
49 -12 V
48 -12 V
48 -12 V
48 -11 V
48 -12 V
48 -11 V
48 -11 V
48 -11 V
48 -11 V
1.000 UP
stroke
1.000 UL
LT4
LC4 setrgbcolor
LC1 setrgbcolor
LCb setrgbcolor
LT4
LC4 setrgbcolor
LC1 setrgbcolor
5948 3722 M
591 0 V
-591 31 R
0 -62 V
591 62 R
0 -62 V
1378 4468 M
0 48 V
-31 -48 R
62 0 V
-62 48 R
62 0 V
9 -104 R
0 50 V
-31 -50 R
62 0 V
-62 50 R
62 0 V
9 -140 R
0 54 V
-31 -54 R
62 0 V
-62 54 R
62 0 V
9 -132 R
0 57 V
-31 -57 R
62 0 V
-62 57 R
62 0 V
9 -134 R
0 61 V
-31 -61 R
62 0 V
-62 61 R
62 0 V
9 -54 R
0 60 V
-31 -60 R
62 0 V
-62 60 R
62 0 V
8 -163 R
0 66 V
-31 -66 R
62 0 V
-62 66 R
62 0 V
10 -250 R
0 77 V
-31 -77 R
62 0 V
-62 77 R
62 0 V
9 -7 R
0 73 V
-31 -73 R
62 0 V
-62 73 R
62 0 V
9 -146 R
0 77 V
-31 -77 R
62 0 V
-62 77 R
62 0 V
9 -212 R
0 86 V
-31 -86 R
62 0 V
-62 86 R
62 0 V
9 -189 R
0 94 V
-31 -94 R
62 0 V
-62 94 R
62 0 V
9 -49 R
0 90 V
-31 -90 R
62 0 V
-62 90 R
62 0 V
9 -277 R
0 105 V
-31 -105 R
62 0 V
-62 105 R
62 0 V
9 -15 R
0 98 V
-31 -98 R
62 0 V
-62 98 R
62 0 V
9 -183 R
0 104 V
-31 -104 R
62 0 V
-62 104 R
62 0 V
9 -187 R
0 112 V
-31 -112 R
62 0 V
stroke 2049 3426 M
-62 112 R
62 0 V
9 -15 R
0 104 V
-31 -104 R
62 0 V
-62 104 R
62 0 V
9 -410 R
0 132 V
-31 -132 R
62 0 V
-62 132 R
62 0 V
9 -165 R
0 136 V
-31 -136 R
62 0 V
-62 136 R
62 0 V
9 -80 R
0 130 V
-31 -130 R
62 0 V
-62 130 R
62 0 V
9 -94 R
0 126 V
-31 -126 R
62 0 V
-62 126 R
62 0 V
9 -251 R
0 139 V
-31 -139 R
62 0 V
-62 139 R
62 0 V
9 -81 R
0 133 V
-31 -133 R
62 0 V
-62 133 R
62 0 V
9 -276 R
0 150 V
-31 -150 R
62 0 V
-62 150 R
62 0 V
9 -213 R
0 157 V
-31 -157 R
62 0 V
-62 157 R
62 0 V
9 -64 R
0 146 V
-31 -146 R
62 0 V
-62 146 R
62 0 V
9 -434 R
0 183 V
-31 -183 R
62 0 V
-62 183 R
62 0 V
9 -214 R
0 188 V
-31 -188 R
62 0 V
-62 188 R
62 0 V
9 4 R
0 161 V
-31 -161 R
62 0 V
-62 161 R
62 0 V
9 -264 R
0 175 V
-31 -175 R
62 0 V
-62 175 R
62 0 V
9 -233 R
0 183 V
-31 -183 R
62 0 V
-62 183 R
62 0 V
9 -199 R
0 186 V
-31 -186 R
62 0 V
-62 186 R
62 0 V
9 -270 R
0 199 V
-31 -199 R
62 0 V
-62 199 R
62 0 V
stroke 2729 2907 M
9 -363 R
0 226 V
-31 -226 R
62 0 V
-62 226 R
62 0 V
9 210 R
0 160 V
-31 -160 R
62 0 V
-62 160 R
62 0 V
9 -469 R
0 204 V
-31 -204 R
62 0 V
-62 204 R
62 0 V
9 -83 R
0 186 V
-31 -186 R
62 0 V
-62 186 R
62 0 V
8 -126 R
0 177 V
-31 -177 R
62 0 V
-62 177 R
62 0 V
10 -84 R
0 164 V
-31 -164 R
62 0 V
-62 164 R
62 0 V
9 -640 R
0 239 V
-31 -239 R
62 0 V
-62 239 R
62 0 V
9 -188 R
0 230 V
-31 -230 R
62 0 V
-62 230 R
62 0 V
9 -118 R
0 210 V
-31 -210 R
62 0 V
-62 210 R
62 0 V
9 -489 R
0 262 V
-31 -262 R
62 0 V
-62 262 R
62 0 V
9 -95 R
0 230 V
-31 -230 R
62 0 V
-62 230 R
62 0 V
9 -230 R
0 230 V
-31 -230 R
62 0 V
-62 230 R
62 0 V
9 -430 R
0 268 V
-31 -268 R
62 0 V
-62 268 R
62 0 V
9 44 R
0 210 V
-31 -210 R
62 0 V
-62 210 R
62 0 V
9 -593 R
0 283 V
-31 -283 R
62 0 V
-62 283 R
62 0 V
9 -63 R
0 239 V
-31 -239 R
62 0 V
-62 239 R
62 0 V
9 -266 R
0 244 V
-31 -244 R
62 0 V
-62 244 R
62 0 V
9 -272 R
0 249 V
stroke 3418 2663 M
-31 -249 R
62 0 V
-62 249 R
62 0 V
9 -194 R
0 239 V
-31 -239 R
62 0 V
-62 239 R
62 0 V
9 -540 R
0 301 V
-31 -301 R
62 0 V
-62 301 R
62 0 V
9 -183 R
0 275 V
-31 -275 R
62 0 V
-62 275 R
62 0 V
9 -208 R
0 262 V
-31 -262 R
62 0 V
-62 262 R
62 0 V
9 -262 R
0 262 V
-31 -262 R
62 0 V
-62 262 R
62 0 V
9 -295 R
0 268 V
-31 -268 R
62 0 V
-62 268 R
62 0 V
9 -464 R
0 311 V
-31 -311 R
62 0 V
-62 311 R
62 0 V
9 34 R
0 239 V
-31 -239 R
62 0 V
-62 239 R
62 0 V
9 -459 R
0 283 V
-31 -283 R
62 0 V
-62 283 R
62 0 V
9 -179 R
0 262 V
-31 -262 R
62 0 V
-62 262 R
62 0 V
9 -201 R
0 249 V
-31 -249 R
62 0 V
-62 249 R
62 0 V
9 -1092 R
0 469 V
-31 -469 R
62 0 V
-62 469 R
62 0 V
9 128 R
0 301 V
-31 -301 R
62 0 V
-62 301 R
62 0 V
9 -445 R
0 336 V
-31 -336 R
62 0 V
-62 336 R
62 0 V
9 -74 R
0 275 V
-31 -275 R
62 0 V
-62 275 R
62 0 V
9 -351 R
0 292 V
-31 -292 R
62 0 V
-62 292 R
62 0 V
9 -334 R
0 301 V
-31 -301 R
62 0 V
stroke 4129 2168 M
-62 301 R
62 0 V
9 -220 R
0 283 V
-31 -283 R
62 0 V
-62 283 R
62 0 V
9 -772 R
0 408 V
-31 -408 R
62 0 V
-62 408 R
62 0 V
9 376 R
0 226 V
-31 -226 R
62 0 V
-62 226 R
62 0 V
9 -386 R
0 256 V
-31 -256 R
62 0 V
-62 256 R
62 0 V
9 -564 R
0 323 V
-31 -323 R
62 0 V
-62 323 R
62 0 V
9 -639 R
0 408 V
-31 -408 R
62 0 V
-62 408 R
62 0 V
9 -44 R
0 311 V
-31 -311 R
62 0 V
-62 311 R
62 0 V
9 -359 R
0 323 V
-31 -323 R
62 0 V
-62 323 R
62 0 V
9 -375 R
0 336 V
-31 -336 R
62 0 V
-62 336 R
62 0 V
9 -192 R
0 301 V
-31 -301 R
62 0 V
-62 301 R
62 0 V
9 -709 R
0 408 V
-31 -408 R
62 0 V
-62 408 R
62 0 V
9 -262 R
0 366 V
-31 -366 R
62 0 V
-62 366 R
62 0 V
9 -366 R
0 366 V
-31 -366 R
62 0 V
-62 366 R
62 0 V
9 -62 R
0 292 V
-31 -292 R
62 0 V
-62 292 R
62 0 V
9 -596 R
0 366 V
-31 -366 R
62 0 V
-62 366 R
62 0 V
9 -304 R
0 350 V
-31 -350 R
62 0 V
-62 350 R
62 0 V
9 -194 R
0 311 V
-31 -311 R
62 0 V
-62 311 R
62 0 V
stroke 4809 2435 M
9 -763 R
0 436 V
-31 -436 R
62 0 V
-62 436 R
62 0 V
9 102 R
0 292 V
-31 -292 R
62 0 V
-62 292 R
62 0 V
9 -830 R
0 436 V
-31 -436 R
62 0 V
-62 436 R
62 0 V
9 -436 R
0 436 V
-31 -436 R
62 0 V
-62 436 R
62 0 V
9 -996 R
0 648 V
-31 -648 R
62 0 V
-62 648 R
62 0 V
9 208 R
0 350 V
-31 -350 R
62 0 V
-62 350 R
62 0 V
9 -150 R
0 301 V
-31 -301 R
62 0 V
-62 301 R
62 0 V
9 -563 R
0 366 V
-31 -366 R
62 0 V
-62 366 R
62 0 V
9 -435 R
0 386 V
-31 -386 R
62 0 V
-62 386 R
62 0 V
9 -551 R
0 436 V
-31 -436 R
62 0 V
-62 436 R
62 0 V
9 16 R
0 311 V
-31 -311 R
62 0 V
-62 311 R
62 0 V
10 -411 R
0 336 V
-31 -336 R
62 0 V
-62 336 R
62 0 V
8 -1516 R
0 776 V
5267 844 M
62 0 V
-62 776 R
62 0 V
9 348 R
0 350 V
-31 -350 R
62 0 V
-62 350 R
62 0 V
9 -867 R
0 511 V
-31 -511 R
62 0 V
-62 511 R
62 0 V
9 -202 R
0 408 V
-31 -408 R
62 0 V
-62 408 R
62 0 V
9 -496 R
0 436 V
-31 -436 R
62 0 V
-62 436 R
62 0 V
9 -805 R
0 567 V
stroke 5498 1870 M
-31 -567 R
62 0 V
-62 567 R
62 0 V
9 -419 R
0 511 V
-31 -511 R
62 0 V
-62 511 R
62 0 V
9 -1118 R
0 776 V
5547 844 M
62 0 V
-62 776 R
62 0 V
9 -508 R
0 648 V
-31 -648 R
62 0 V
-62 648 R
62 0 V
9 77 R
0 386 V
-31 -386 R
62 0 V
-62 386 R
62 0 V
9 -1111 R
0 648 V
-31 -648 R
62 0 V
-62 648 R
62 0 V
9 146 R
0 366 V
-31 -366 R
62 0 V
-62 366 R
62 0 V
9 -969 R
0 567 V
-31 -567 R
62 0 V
-62 567 R
62 0 V
10 -110 R
0 408 V
-31 -408 R
62 0 V
-62 408 R
62 0 V
9 -717 R
0 511 V
-31 -511 R
62 0 V
-62 511 R
62 0 V
9 -56 R
0 366 V
-31 -366 R
62 0 V
-62 366 R
62 0 V
8 -701 R
0 469 V
-31 -469 R
62 0 V
-62 469 R
62 0 V
9 -589 R
0 511 V
-31 -511 R
62 0 V
-62 511 R
62 0 V
9 -391 R
0 469 V
-31 -469 R
62 0 V
-62 469 R
62 0 V
9 -368 R
0 436 V
-31 -436 R
62 0 V
-62 436 R
62 0 V
9 -202 R
0 366 V
-31 -366 R
62 0 V
-62 366 R
62 0 V
9 -600 R
0 436 V
-31 -436 R
62 0 V
-62 436 R
62 0 V
1378 4492 Pls
1418 4437 Pls
1458 4350 Pls
1498 4273 Pls
1538 4199 Pls
1578 4205 Pls
1617 4105 Pls
1658 3927 Pls
1698 3995 Pls
1738 3924 Pls
1778 3793 Pls
1818 3695 Pls
1858 3738 Pls
1898 3559 Pls
1938 3645 Pls
1978 3563 Pls
2018 3485 Pls
2058 3577 Pls
2098 3286 Pls
2138 3256 Pls
2178 3308 Pls
2218 3343 Pls
2258 3224 Pls
2298 3279 Pls
2338 3146 Pls
2378 3087 Pls
2418 3173 Pls
2458 2907 Pls
2498 2878 Pls
2538 3055 Pls
2578 2960 Pls
2618 2907 Pls
2658 2893 Pls
2698 2816 Pls
2738 2668 Pls
2778 3066 Pls
2818 2782 Pls
2858 2893 Pls
2897 2947 Pls
2938 3033 Pls
2978 2601 Pls
3018 2646 Pls
3058 2746 Pls
3098 2498 Pls
3138 2646 Pls
3178 2646 Pls
3218 2469 Pls
3258 2746 Pls
3298 2407 Pls
3338 2601 Pls
3378 2577 Pls
3418 2552 Pls
3458 2601 Pls
3498 2338 Pls
3538 2439 Pls
3578 2498 Pls
3618 2498 Pls
3658 2469 Pls
3698 2300 Pls
3738 2601 Pls
3778 2407 Pls
3818 2498 Pls
3858 2552 Pls
3898 1851 Pls
3938 2338 Pls
3978 2216 Pls
4018 2439 Pls
4058 2374 Pls
4098 2338 Pls
4138 2407 Pls
4178 1999 Pls
4218 2668 Pls
4258 2526 Pls
4298 2259 Pls
4338 1999 Pls
4378 2300 Pls
4418 2259 Pls
4458 2216 Pls
4498 2338 Pls
4538 1999 Pls
4578 2117 Pls
4618 2117 Pls
4658 2374 Pls
4698 2117 Pls
4738 2168 Pls
4778 2300 Pls
4818 1929 Pls
4858 2374 Pls
4898 1929 Pls
4938 1929 Pls
4978 1521 Pls
5018 2168 Pls
5058 2338 Pls
5098 2117 Pls
5138 2061 Pls
5178 1929 Pls
5218 2300 Pls
5259 2216 Pls
5298 1351 Pls
5338 2168 Pls
5378 1760 Pls
5418 1999 Pls
5458 1929 Pls
5498 1653 Pls
5538 1760 Pls
5578 1351 Pls
5618 1521 Pls
5658 2061 Pls
5698 1521 Pls
5738 2117 Pls
5778 1653 Pls
5819 1999 Pls
5859 1760 Pls
5899 2117 Pls
5938 1851 Pls
5978 1760 Pls
6018 1851 Pls
6058 1929 Pls
6098 2117 Pls
6138 1929 Pls
6243 3722 Pls
1.000 UL
LTb
LCb setrgbcolor
1210 4775 N
0 -4071 V
5593 0 V
0 4071 V
-5593 0 V
Z stroke
1.000 UP
1.000 UL
LTb
stroke
grestore
end
showpage
%%Trailer
