%!PS-Adobe-2.0 EPSF-2.0
%%Title: 4min.tex
%%Creator: gnuplot 4.4 patchlevel 4
%%CreationDate: Sat Mar 30 11:40:04 2013
%%DocumentFonts: 
%%BoundingBox: 50 50 410 302
%%EndComments
%%BeginProlog
/gnudict 256 dict def
gnudict begin
%
% The following true/false flags may be edited by hand if desired.
% The unit line width and grayscale image gamma correction may also be changed.
%
/Color true def
/Blacktext false def
/Solid false def
/Dashlength 1 def
/Landscape false def
/Level1 false def
/Rounded false def
/ClipToBoundingBox false def
/TransparentPatterns false def
/gnulinewidth 5.000 def
/userlinewidth gnulinewidth def
/Gamma 1.0 def
%
/vshift -73 def
/dl1 {
  10.0 Dashlength mul mul
  Rounded { currentlinewidth 0.75 mul sub dup 0 le { pop 0.01 } if } if
} def
/dl2 {
  10.0 Dashlength mul mul
  Rounded { currentlinewidth 0.75 mul add } if
} def
/hpt_ 31.5 def
/vpt_ 31.5 def
/hpt hpt_ def
/vpt vpt_ def
Level1 {} {
/SDict 10 dict def
systemdict /pdfmark known not {
  userdict /pdfmark systemdict /cleartomark get put
} if
SDict begin [
  /Title (4min.tex)
  /Subject (gnuplot plot)
  /Creator (gnuplot 4.4 patchlevel 4)
  /Author (niklas)
%  /Producer (gnuplot)
%  /Keywords ()
  /CreationDate (Sat Mar 30 11:40:04 2013)
  /DOCINFO pdfmark
end
} ifelse
/doclip {
  ClipToBoundingBox {
    newpath 50 50 moveto 410 50 lineto 410 302 lineto 50 302 lineto closepath
    clip
  } if
} def
%
% Gnuplot Prolog Version 4.4 (August 2010)
%
%/SuppressPDFMark true def
%
/M {moveto} bind def
/L {lineto} bind def
/R {rmoveto} bind def
/V {rlineto} bind def
/N {newpath moveto} bind def
/Z {closepath} bind def
/C {setrgbcolor} bind def
/f {rlineto fill} bind def
/g {setgray} bind def
/Gshow {show} def   % May be redefined later in the file to support UTF-8
/vpt2 vpt 2 mul def
/hpt2 hpt 2 mul def
/Lshow {currentpoint stroke M 0 vshift R 
	Blacktext {gsave 0 setgray show grestore} {show} ifelse} def
/Rshow {currentpoint stroke M dup stringwidth pop neg vshift R
	Blacktext {gsave 0 setgray show grestore} {show} ifelse} def
/Cshow {currentpoint stroke M dup stringwidth pop -2 div vshift R 
	Blacktext {gsave 0 setgray show grestore} {show} ifelse} def
/UP {dup vpt_ mul /vpt exch def hpt_ mul /hpt exch def
  /hpt2 hpt 2 mul def /vpt2 vpt 2 mul def} def
/DL {Color {setrgbcolor Solid {pop []} if 0 setdash}
 {pop pop pop 0 setgray Solid {pop []} if 0 setdash} ifelse} def
/BL {stroke userlinewidth 2 mul setlinewidth
	Rounded {1 setlinejoin 1 setlinecap} if} def
/AL {stroke userlinewidth 2 div setlinewidth
	Rounded {1 setlinejoin 1 setlinecap} if} def
/UL {dup gnulinewidth mul /userlinewidth exch def
	dup 1 lt {pop 1} if 10 mul /udl exch def} def
/PL {stroke userlinewidth setlinewidth
	Rounded {1 setlinejoin 1 setlinecap} if} def
3.8 setmiterlimit
% Default Line colors
/LCw {1 1 1} def
/LCb {0 0 0} def
/LCa {0 0 0} def
/LC0 {1 0 0} def
/LC1 {0 1 0} def
/LC2 {0 0 1} def
/LC3 {1 0 1} def
/LC4 {0 1 1} def
/LC5 {1 1 0} def
/LC6 {0 0 0} def
/LC7 {1 0.3 0} def
/LC8 {0.5 0.5 0.5} def
% Default Line Types
/LTw {PL [] 1 setgray} def
/LTb {BL [] LCb DL} def
/LTa {AL [1 udl mul 2 udl mul] 0 setdash LCa setrgbcolor} def
/LT0 {PL [] LC0 DL} def
/LT1 {PL [4 dl1 2 dl2] LC1 DL} def
/LT2 {PL [2 dl1 3 dl2] LC2 DL} def
/LT3 {PL [1 dl1 1.5 dl2] LC3 DL} def
/LT4 {PL [6 dl1 2 dl2 1 dl1 2 dl2] LC4 DL} def
/LT5 {PL [3 dl1 3 dl2 1 dl1 3 dl2] LC5 DL} def
/LT6 {PL [2 dl1 2 dl2 2 dl1 6 dl2] LC6 DL} def
/LT7 {PL [1 dl1 2 dl2 6 dl1 2 dl2 1 dl1 2 dl2] LC7 DL} def
/LT8 {PL [2 dl1 2 dl2 2 dl1 2 dl2 2 dl1 2 dl2 2 dl1 4 dl2] LC8 DL} def
/Pnt {stroke [] 0 setdash gsave 1 setlinecap M 0 0 V stroke grestore} def
/Dia {stroke [] 0 setdash 2 copy vpt add M
  hpt neg vpt neg V hpt vpt neg V
  hpt vpt V hpt neg vpt V closepath stroke
  Pnt} def
/Pls {stroke [] 0 setdash vpt sub M 0 vpt2 V
  currentpoint stroke M
  hpt neg vpt neg R hpt2 0 V stroke
 } def
/Box {stroke [] 0 setdash 2 copy exch hpt sub exch vpt add M
  0 vpt2 neg V hpt2 0 V 0 vpt2 V
  hpt2 neg 0 V closepath stroke
  Pnt} def
/Crs {stroke [] 0 setdash exch hpt sub exch vpt add M
  hpt2 vpt2 neg V currentpoint stroke M
  hpt2 neg 0 R hpt2 vpt2 V stroke} def
/TriU {stroke [] 0 setdash 2 copy vpt 1.12 mul add M
  hpt neg vpt -1.62 mul V
  hpt 2 mul 0 V
  hpt neg vpt 1.62 mul V closepath stroke
  Pnt} def
/Star {2 copy Pls Crs} def
/BoxF {stroke [] 0 setdash exch hpt sub exch vpt add M
  0 vpt2 neg V hpt2 0 V 0 vpt2 V
  hpt2 neg 0 V closepath fill} def
/TriUF {stroke [] 0 setdash vpt 1.12 mul add M
  hpt neg vpt -1.62 mul V
  hpt 2 mul 0 V
  hpt neg vpt 1.62 mul V closepath fill} def
/TriD {stroke [] 0 setdash 2 copy vpt 1.12 mul sub M
  hpt neg vpt 1.62 mul V
  hpt 2 mul 0 V
  hpt neg vpt -1.62 mul V closepath stroke
  Pnt} def
/TriDF {stroke [] 0 setdash vpt 1.12 mul sub M
  hpt neg vpt 1.62 mul V
  hpt 2 mul 0 V
  hpt neg vpt -1.62 mul V closepath fill} def
/DiaF {stroke [] 0 setdash vpt add M
  hpt neg vpt neg V hpt vpt neg V
  hpt vpt V hpt neg vpt V closepath fill} def
/Pent {stroke [] 0 setdash 2 copy gsave
  translate 0 hpt M 4 {72 rotate 0 hpt L} repeat
  closepath stroke grestore Pnt} def
/PentF {stroke [] 0 setdash gsave
  translate 0 hpt M 4 {72 rotate 0 hpt L} repeat
  closepath fill grestore} def
/Circle {stroke [] 0 setdash 2 copy
  hpt 0 360 arc stroke Pnt} def
/CircleF {stroke [] 0 setdash hpt 0 360 arc fill} def
/C0 {BL [] 0 setdash 2 copy moveto vpt 90 450 arc} bind def
/C1 {BL [] 0 setdash 2 copy moveto
	2 copy vpt 0 90 arc closepath fill
	vpt 0 360 arc closepath} bind def
/C2 {BL [] 0 setdash 2 copy moveto
	2 copy vpt 90 180 arc closepath fill
	vpt 0 360 arc closepath} bind def
/C3 {BL [] 0 setdash 2 copy moveto
	2 copy vpt 0 180 arc closepath fill
	vpt 0 360 arc closepath} bind def
/C4 {BL [] 0 setdash 2 copy moveto
	2 copy vpt 180 270 arc closepath fill
	vpt 0 360 arc closepath} bind def
/C5 {BL [] 0 setdash 2 copy moveto
	2 copy vpt 0 90 arc
	2 copy moveto
	2 copy vpt 180 270 arc closepath fill
	vpt 0 360 arc} bind def
/C6 {BL [] 0 setdash 2 copy moveto
	2 copy vpt 90 270 arc closepath fill
	vpt 0 360 arc closepath} bind def
/C7 {BL [] 0 setdash 2 copy moveto
	2 copy vpt 0 270 arc closepath fill
	vpt 0 360 arc closepath} bind def
/C8 {BL [] 0 setdash 2 copy moveto
	2 copy vpt 270 360 arc closepath fill
	vpt 0 360 arc closepath} bind def
/C9 {BL [] 0 setdash 2 copy moveto
	2 copy vpt 270 450 arc closepath fill
	vpt 0 360 arc closepath} bind def
/C10 {BL [] 0 setdash 2 copy 2 copy moveto vpt 270 360 arc closepath fill
	2 copy moveto
	2 copy vpt 90 180 arc closepath fill
	vpt 0 360 arc closepath} bind def
/C11 {BL [] 0 setdash 2 copy moveto
	2 copy vpt 0 180 arc closepath fill
	2 copy moveto
	2 copy vpt 270 360 arc closepath fill
	vpt 0 360 arc closepath} bind def
/C12 {BL [] 0 setdash 2 copy moveto
	2 copy vpt 180 360 arc closepath fill
	vpt 0 360 arc closepath} bind def
/C13 {BL [] 0 setdash 2 copy moveto
	2 copy vpt 0 90 arc closepath fill
	2 copy moveto
	2 copy vpt 180 360 arc closepath fill
	vpt 0 360 arc closepath} bind def
/C14 {BL [] 0 setdash 2 copy moveto
	2 copy vpt 90 360 arc closepath fill
	vpt 0 360 arc} bind def
/C15 {BL [] 0 setdash 2 copy vpt 0 360 arc closepath fill
	vpt 0 360 arc closepath} bind def
/Rec {newpath 4 2 roll moveto 1 index 0 rlineto 0 exch rlineto
	neg 0 rlineto closepath} bind def
/Square {dup Rec} bind def
/Bsquare {vpt sub exch vpt sub exch vpt2 Square} bind def
/S0 {BL [] 0 setdash 2 copy moveto 0 vpt rlineto BL Bsquare} bind def
/S1 {BL [] 0 setdash 2 copy vpt Square fill Bsquare} bind def
/S2 {BL [] 0 setdash 2 copy exch vpt sub exch vpt Square fill Bsquare} bind def
/S3 {BL [] 0 setdash 2 copy exch vpt sub exch vpt2 vpt Rec fill Bsquare} bind def
/S4 {BL [] 0 setdash 2 copy exch vpt sub exch vpt sub vpt Square fill Bsquare} bind def
/S5 {BL [] 0 setdash 2 copy 2 copy vpt Square fill
	exch vpt sub exch vpt sub vpt Square fill Bsquare} bind def
/S6 {BL [] 0 setdash 2 copy exch vpt sub exch vpt sub vpt vpt2 Rec fill Bsquare} bind def
/S7 {BL [] 0 setdash 2 copy exch vpt sub exch vpt sub vpt vpt2 Rec fill
	2 copy vpt Square fill Bsquare} bind def
/S8 {BL [] 0 setdash 2 copy vpt sub vpt Square fill Bsquare} bind def
/S9 {BL [] 0 setdash 2 copy vpt sub vpt vpt2 Rec fill Bsquare} bind def
/S10 {BL [] 0 setdash 2 copy vpt sub vpt Square fill 2 copy exch vpt sub exch vpt Square fill
	Bsquare} bind def
/S11 {BL [] 0 setdash 2 copy vpt sub vpt Square fill 2 copy exch vpt sub exch vpt2 vpt Rec fill
	Bsquare} bind def
/S12 {BL [] 0 setdash 2 copy exch vpt sub exch vpt sub vpt2 vpt Rec fill Bsquare} bind def
/S13 {BL [] 0 setdash 2 copy exch vpt sub exch vpt sub vpt2 vpt Rec fill
	2 copy vpt Square fill Bsquare} bind def
/S14 {BL [] 0 setdash 2 copy exch vpt sub exch vpt sub vpt2 vpt Rec fill
	2 copy exch vpt sub exch vpt Square fill Bsquare} bind def
/S15 {BL [] 0 setdash 2 copy Bsquare fill Bsquare} bind def
/D0 {gsave translate 45 rotate 0 0 S0 stroke grestore} bind def
/D1 {gsave translate 45 rotate 0 0 S1 stroke grestore} bind def
/D2 {gsave translate 45 rotate 0 0 S2 stroke grestore} bind def
/D3 {gsave translate 45 rotate 0 0 S3 stroke grestore} bind def
/D4 {gsave translate 45 rotate 0 0 S4 stroke grestore} bind def
/D5 {gsave translate 45 rotate 0 0 S5 stroke grestore} bind def
/D6 {gsave translate 45 rotate 0 0 S6 stroke grestore} bind def
/D7 {gsave translate 45 rotate 0 0 S7 stroke grestore} bind def
/D8 {gsave translate 45 rotate 0 0 S8 stroke grestore} bind def
/D9 {gsave translate 45 rotate 0 0 S9 stroke grestore} bind def
/D10 {gsave translate 45 rotate 0 0 S10 stroke grestore} bind def
/D11 {gsave translate 45 rotate 0 0 S11 stroke grestore} bind def
/D12 {gsave translate 45 rotate 0 0 S12 stroke grestore} bind def
/D13 {gsave translate 45 rotate 0 0 S13 stroke grestore} bind def
/D14 {gsave translate 45 rotate 0 0 S14 stroke grestore} bind def
/D15 {gsave translate 45 rotate 0 0 S15 stroke grestore} bind def
/DiaE {stroke [] 0 setdash vpt add M
  hpt neg vpt neg V hpt vpt neg V
  hpt vpt V hpt neg vpt V closepath stroke} def
/BoxE {stroke [] 0 setdash exch hpt sub exch vpt add M
  0 vpt2 neg V hpt2 0 V 0 vpt2 V
  hpt2 neg 0 V closepath stroke} def
/TriUE {stroke [] 0 setdash vpt 1.12 mul add M
  hpt neg vpt -1.62 mul V
  hpt 2 mul 0 V
  hpt neg vpt 1.62 mul V closepath stroke} def
/TriDE {stroke [] 0 setdash vpt 1.12 mul sub M
  hpt neg vpt 1.62 mul V
  hpt 2 mul 0 V
  hpt neg vpt -1.62 mul V closepath stroke} def
/PentE {stroke [] 0 setdash gsave
  translate 0 hpt M 4 {72 rotate 0 hpt L} repeat
  closepath stroke grestore} def
/CircE {stroke [] 0 setdash 
  hpt 0 360 arc stroke} def
/Opaque {gsave closepath 1 setgray fill grestore 0 setgray closepath} def
/DiaW {stroke [] 0 setdash vpt add M
  hpt neg vpt neg V hpt vpt neg V
  hpt vpt V hpt neg vpt V Opaque stroke} def
/BoxW {stroke [] 0 setdash exch hpt sub exch vpt add M
  0 vpt2 neg V hpt2 0 V 0 vpt2 V
  hpt2 neg 0 V Opaque stroke} def
/TriUW {stroke [] 0 setdash vpt 1.12 mul add M
  hpt neg vpt -1.62 mul V
  hpt 2 mul 0 V
  hpt neg vpt 1.62 mul V Opaque stroke} def
/TriDW {stroke [] 0 setdash vpt 1.12 mul sub M
  hpt neg vpt 1.62 mul V
  hpt 2 mul 0 V
  hpt neg vpt -1.62 mul V Opaque stroke} def
/PentW {stroke [] 0 setdash gsave
  translate 0 hpt M 4 {72 rotate 0 hpt L} repeat
  Opaque stroke grestore} def
/CircW {stroke [] 0 setdash 
  hpt 0 360 arc Opaque stroke} def
/BoxFill {gsave Rec 1 setgray fill grestore} def
/Density {
  /Fillden exch def
  currentrgbcolor
  /ColB exch def /ColG exch def /ColR exch def
  /ColR ColR Fillden mul Fillden sub 1 add def
  /ColG ColG Fillden mul Fillden sub 1 add def
  /ColB ColB Fillden mul Fillden sub 1 add def
  ColR ColG ColB setrgbcolor} def
/BoxColFill {gsave Rec PolyFill} def
/PolyFill {gsave Density fill grestore grestore} def
/h {rlineto rlineto rlineto gsave closepath fill grestore} bind def
%
% PostScript Level 1 Pattern Fill routine for rectangles
% Usage: x y w h s a XX PatternFill
%	x,y = lower left corner of box to be filled
%	w,h = width and height of box
%	  a = angle in degrees between lines and x-axis
%	 XX = 0/1 for no/yes cross-hatch
%
/PatternFill {gsave /PFa [ 9 2 roll ] def
  PFa 0 get PFa 2 get 2 div add PFa 1 get PFa 3 get 2 div add translate
  PFa 2 get -2 div PFa 3 get -2 div PFa 2 get PFa 3 get Rec
  gsave 1 setgray fill grestore clip
  currentlinewidth 0.5 mul setlinewidth
  /PFs PFa 2 get dup mul PFa 3 get dup mul add sqrt def
  0 0 M PFa 5 get rotate PFs -2 div dup translate
  0 1 PFs PFa 4 get div 1 add floor cvi
	{PFa 4 get mul 0 M 0 PFs V} for
  0 PFa 6 get ne {
	0 1 PFs PFa 4 get div 1 add floor cvi
	{PFa 4 get mul 0 2 1 roll M PFs 0 V} for
 } if
  stroke grestore} def
%
/languagelevel where
 {pop languagelevel} {1} ifelse
 2 lt
	{/InterpretLevel1 true def}
	{/InterpretLevel1 Level1 def}
 ifelse
%
% PostScript level 2 pattern fill definitions
%
/Level2PatternFill {
/Tile8x8 {/PaintType 2 /PatternType 1 /TilingType 1 /BBox [0 0 8 8] /XStep 8 /YStep 8}
	bind def
/KeepColor {currentrgbcolor [/Pattern /DeviceRGB] setcolorspace} bind def
<< Tile8x8
 /PaintProc {0.5 setlinewidth pop 0 0 M 8 8 L 0 8 M 8 0 L stroke} 
>> matrix makepattern
/Pat1 exch def
<< Tile8x8
 /PaintProc {0.5 setlinewidth pop 0 0 M 8 8 L 0 8 M 8 0 L stroke
	0 4 M 4 8 L 8 4 L 4 0 L 0 4 L stroke}
>> matrix makepattern
/Pat2 exch def
<< Tile8x8
 /PaintProc {0.5 setlinewidth pop 0 0 M 0 8 L
	8 8 L 8 0 L 0 0 L fill}
>> matrix makepattern
/Pat3 exch def
<< Tile8x8
 /PaintProc {0.5 setlinewidth pop -4 8 M 8 -4 L
	0 12 M 12 0 L stroke}
>> matrix makepattern
/Pat4 exch def
<< Tile8x8
 /PaintProc {0.5 setlinewidth pop -4 0 M 8 12 L
	0 -4 M 12 8 L stroke}
>> matrix makepattern
/Pat5 exch def
<< Tile8x8
 /PaintProc {0.5 setlinewidth pop -2 8 M 4 -4 L
	0 12 M 8 -4 L 4 12 M 10 0 L stroke}
>> matrix makepattern
/Pat6 exch def
<< Tile8x8
 /PaintProc {0.5 setlinewidth pop -2 0 M 4 12 L
	0 -4 M 8 12 L 4 -4 M 10 8 L stroke}
>> matrix makepattern
/Pat7 exch def
<< Tile8x8
 /PaintProc {0.5 setlinewidth pop 8 -2 M -4 4 L
	12 0 M -4 8 L 12 4 M 0 10 L stroke}
>> matrix makepattern
/Pat8 exch def
<< Tile8x8
 /PaintProc {0.5 setlinewidth pop 0 -2 M 12 4 L
	-4 0 M 12 8 L -4 4 M 8 10 L stroke}
>> matrix makepattern
/Pat9 exch def
/Pattern1 {PatternBgnd KeepColor Pat1 setpattern} bind def
/Pattern2 {PatternBgnd KeepColor Pat2 setpattern} bind def
/Pattern3 {PatternBgnd KeepColor Pat3 setpattern} bind def
/Pattern4 {PatternBgnd KeepColor Landscape {Pat5} {Pat4} ifelse setpattern} bind def
/Pattern5 {PatternBgnd KeepColor Landscape {Pat4} {Pat5} ifelse setpattern} bind def
/Pattern6 {PatternBgnd KeepColor Landscape {Pat9} {Pat6} ifelse setpattern} bind def
/Pattern7 {PatternBgnd KeepColor Landscape {Pat8} {Pat7} ifelse setpattern} bind def
} def
%
%
%End of PostScript Level 2 code
%
/PatternBgnd {
  TransparentPatterns {} {gsave 1 setgray fill grestore} ifelse
} def
%
% Substitute for Level 2 pattern fill codes with
% grayscale if Level 2 support is not selected.
%
/Level1PatternFill {
/Pattern1 {0.250 Density} bind def
/Pattern2 {0.500 Density} bind def
/Pattern3 {0.750 Density} bind def
/Pattern4 {0.125 Density} bind def
/Pattern5 {0.375 Density} bind def
/Pattern6 {0.625 Density} bind def
/Pattern7 {0.875 Density} bind def
} def
%
% Now test for support of Level 2 code
%
Level1 {Level1PatternFill} {Level2PatternFill} ifelse
%
/Symbol-Oblique /Symbol findfont [1 0 .167 1 0 0] makefont
dup length dict begin {1 index /FID eq {pop pop} {def} ifelse} forall
currentdict end definefont pop
end
%%EndProlog
gnudict begin
gsave
doclip
50 50 translate
0.050 0.050 scale
0 setgray
newpath
1.000 UL
LTb
LCb setrgbcolor
1078 704 M
63 0 V
5662 0 R
-63 0 V
stroke
LTb
1078 1383 M
63 0 V
5662 0 R
-63 0 V
1078 2061 M
63 0 V
5662 0 R
-63 0 V
1078 2740 M
63 0 V
5662 0 R
-63 0 V
1078 3418 M
63 0 V
5662 0 R
-63 0 V
1078 4097 M
63 0 V
5662 0 R
-63 0 V
1078 4775 M
63 0 V
5662 0 R
-63 0 V
1078 704 M
0 63 V
0 4008 R
0 -63 V
1896 704 M
0 63 V
0 4008 R
0 -63 V
2714 704 M
0 63 V
0 4008 R
0 -63 V
3532 704 M
0 63 V
0 4008 R
0 -63 V
4349 704 M
0 63 V
0 4008 R
0 -63 V
5167 704 M
0 63 V
0 4008 R
0 -63 V
5985 704 M
0 63 V
0 4008 R
0 -63 V
6803 704 M
0 63 V
0 4008 R
0 -63 V
stroke
1078 4775 N
0 -4071 V
5725 0 V
0 4071 V
-5725 0 V
Z stroke
1.000 UP
1.000 UL
LTb
2.000 UL
LT0
LC0 setrgbcolor
LCb setrgbcolor
LT0
LC0 setrgbcolor
5948 4602 M
591 0 V
1315 721 M
53 0 V
53 0 V
53 0 V
53 0 V
53 0 V
53 0 V
53 0 V
53 0 V
53 0 V
53 0 V
53 0 V
53 0 V
52 0 V
53 0 V
53 0 V
53 0 V
53 0 V
53 0 V
53 0 V
53 0 V
53 0 V
53 0 V
53 0 V
53 0 V
53 0 V
53 0 V
53 0 V
53 0 V
53 0 V
53 0 V
53 0 V
52 0 V
53 0 V
53 0 V
53 0 V
53 0 V
53 0 V
53 0 V
53 0 V
53 0 V
53 0 V
53 0 V
53 0 V
53 0 V
53 0 V
53 0 V
53 0 V
53 0 V
53 0 V
52 0 V
53 0 V
53 0 V
53 0 V
53 0 V
53 0 V
53 0 V
53 0 V
53 0 V
53 0 V
53 0 V
53 0 V
53 0 V
53 0 V
53 0 V
53 0 V
53 0 V
53 0 V
53 0 V
52 0 V
53 0 V
53 0 V
53 0 V
53 0 V
53 0 V
53 0 V
53 0 V
53 0 V
53 0 V
53 0 V
53 0 V
53 0 V
53 0 V
53 0 V
53 0 V
53 0 V
53 0 V
52 0 V
53 0 V
53 0 V
53 0 V
53 0 V
53 0 V
53 0 V
53 0 V
53 0 V
53 0 V
53 0 V
53 0 V
53 0 V
stroke
LT0
LC2 setrgbcolor
LCb setrgbcolor
LT0
LC0 setrgbcolor
LC2 setrgbcolor
5948 4382 M
591 0 V
1315 1616 M
53 -34 V
53 -33 V
53 -31 V
53 -30 V
53 -29 V
53 -28 V
53 -27 V
53 -26 V
53 -25 V
53 -24 V
53 -23 V
53 -22 V
52 -21 V
53 -21 V
53 -20 V
53 -19 V
53 -18 V
53 -17 V
53 -17 V
53 -17 V
53 -15 V
53 -15 V
53 -15 V
53 -14 V
53 -13 V
53 -13 V
53 -12 V
53 -12 V
53 -12 V
53 -11 V
53 -11 V
52 -10 V
53 -10 V
53 -9 V
53 -9 V
53 -9 V
53 -8 V
53 -9 V
53 -7 V
53 -8 V
53 -7 V
53 -7 V
53 -7 V
53 -6 V
53 -6 V
53 -6 V
53 -6 V
53 -6 V
53 -5 V
52 -5 V
53 -5 V
53 -5 V
53 -4 V
53 -5 V
53 -4 V
53 -4 V
53 -4 V
53 -4 V
53 -3 V
53 -4 V
53 -3 V
53 -3 V
53 -3 V
53 -3 V
53 -3 V
53 -3 V
53 -2 V
53 -3 V
52 -2 V
53 -3 V
53 -2 V
53 -2 V
53 -2 V
53 -2 V
53 -2 V
53 -2 V
53 -2 V
53 -2 V
53 -1 V
53 -2 V
53 -2 V
53 -1 V
53 -2 V
53 -1 V
53 -1 V
53 -1 V
52 -2 V
53 -1 V
53 -1 V
53 -1 V
53 -1 V
53 -1 V
53 -1 V
53 -1 V
53 -1 V
53 -1 V
53 -1 V
53 0 V
53 -1 V
stroke
LT0
LC0 setrgbcolor
LC3 setrgbcolor
LCb setrgbcolor
LT0
LC0 setrgbcolor
LC3 setrgbcolor
5948 4162 M
591 0 V
1315 3618 M
53 -492 V
53 -409 V
53 -339 V
53 -281 V
53 -234 V
53 -194 V
53 -161 V
53 -134 V
53 -111 V
53 -92 V
53 -76 V
53 -64 V
52 -52 V
53 -44 V
53 -37 V
53 -30 V
53 -25 V
53 -20 V
53 -18 V
53 -14 V
53 -12 V
53 -10 V
53 -8 V
53 -7 V
53 -5 V
53 -5 V
53 -4 V
53 -3 V
53 -3 V
53 -2 V
53 -2 V
52 -1 V
53 -2 V
53 -1 V
53 -1 V
53 0 V
53 -1 V
53 0 V
53 -1 V
53 0 V
53 0 V
53 -1 V
53 0 V
53 0 V
53 0 V
53 0 V
53 0 V
53 0 V
53 0 V
52 -1 V
53 0 V
53 0 V
53 0 V
53 0 V
53 0 V
53 0 V
53 0 V
53 0 V
53 0 V
53 0 V
53 0 V
53 0 V
53 0 V
53 0 V
53 0 V
53 0 V
53 0 V
53 0 V
52 0 V
53 0 V
53 0 V
53 0 V
53 0 V
53 0 V
53 0 V
53 0 V
53 0 V
53 0 V
53 0 V
53 0 V
53 0 V
53 0 V
53 0 V
53 0 V
53 0 V
53 0 V
52 0 V
53 0 V
53 0 V
53 0 V
53 0 V
53 0 V
53 0 V
53 0 V
53 0 V
53 0 V
53 0 V
53 0 V
53 0 V
stroke
LT0
LC0 setrgbcolor
LCa setrgbcolor
LCb setrgbcolor
LT0
LC0 setrgbcolor
LCa setrgbcolor
5948 3942 M
591 0 V
1315 4513 M
53 -527 V
53 -441 V
53 -370 V
53 -312 V
53 -263 V
53 -222 V
53 -188 V
53 -159 V
53 -136 V
53 -116 V
53 -99 V
53 -86 V
52 -74 V
53 -64 V
53 -56 V
53 -49 V
53 -44 V
53 -38 V
53 -34 V
53 -31 V
53 -27 V
53 -25 V
53 -23 V
53 -21 V
53 -19 V
53 -17 V
53 -16 V
53 -16 V
53 -14 V
53 -13 V
53 -13 V
52 -11 V
53 -11 V
53 -11 V
53 -10 V
53 -9 V
53 -9 V
53 -9 V
53 -8 V
53 -8 V
53 -8 V
53 -7 V
53 -7 V
53 -6 V
53 -7 V
53 -6 V
53 -6 V
53 -5 V
53 -6 V
52 -5 V
53 -5 V
53 -4 V
53 -5 V
53 -4 V
53 -5 V
53 -4 V
53 -4 V
53 -3 V
53 -4 V
53 -4 V
53 -3 V
53 -3 V
53 -3 V
53 -3 V
53 -3 V
53 -3 V
53 -2 V
53 -3 V
52 -2 V
53 -3 V
53 -2 V
53 -2 V
53 -2 V
53 -2 V
53 -2 V
53 -2 V
53 -2 V
53 -2 V
53 -1 V
53 -2 V
53 -2 V
53 -1 V
53 -2 V
53 -1 V
53 -1 V
53 -1 V
52 -2 V
53 -1 V
53 -1 V
53 -1 V
53 -1 V
53 -1 V
53 -1 V
53 -1 V
53 -1 V
53 -1 V
53 -1 V
53 0 V
53 -1 V
1.000 UP
stroke
1.000 UL
LT4
LC4 setrgbcolor
LC1 setrgbcolor
LCb setrgbcolor
LT4
LC4 setrgbcolor
LC1 setrgbcolor
5948 3722 M
591 0 V
-591 31 R
0 -62 V
591 62 R
0 -62 V
1315 4058 M
0 308 V
-31 -308 R
62 0 V
-62 308 R
62 0 V
10 -408 R
0 304 V
-31 -304 R
62 0 V
-62 304 R
62 0 V
10 -715 R
0 285 V
-31 -285 R
62 0 V
-62 285 R
62 0 V
10 -272 R
0 286 V
-31 -286 R
62 0 V
-62 286 R
62 0 V
10 -656 R
0 266 V
-31 -266 R
62 0 V
-62 266 R
62 0 V
10 -451 R
0 256 V
-31 -256 R
62 0 V
-62 256 R
62 0 V
10 -889 R
0 219 V
-31 -219 R
62 0 V
-62 219 R
62 0 V
10 -120 R
0 225 V
-31 -225 R
62 0 V
-62 225 R
62 0 V
10 -462 R
0 211 V
-31 -211 R
62 0 V
-62 211 R
62 0 V
10 -375 R
0 199 V
-31 -199 R
62 0 V
-62 199 R
62 0 V
10 -369 R
0 187 V
-31 -187 R
62 0 V
-62 187 R
62 0 V
10 -37 R
0 198 V
-31 -198 R
62 0 V
-62 198 R
62 0 V
10 -570 R
0 169 V
-31 -169 R
62 0 V
-62 169 R
62 0 V
10 -143 R
0 171 V
-31 -171 R
62 0 V
-62 171 R
62 0 V
9 -301 R
0 160 V
-31 -160 R
62 0 V
-62 160 R
62 0 V
10 -102 R
0 166 V
-31 -166 R
62 0 V
-62 166 R
62 0 V
10 -483 R
0 135 V
-31 -135 R
62 0 V
stroke 2001 1315 M
-62 135 R
62 0 V
10 -90 R
0 140 V
-31 -140 R
62 0 V
-62 140 R
62 0 V
10 28 R
0 157 V
-31 -157 R
62 0 V
-62 157 R
62 0 V
11 -254 R
0 147 V
-31 -147 R
62 0 V
-62 147 R
62 0 V
10 -379 R
0 123 V
-31 -123 R
62 0 V
-62 123 R
62 0 V
10 -20 R
0 134 V
-31 -134 R
62 0 V
-62 134 R
62 0 V
9 -134 R
0 134 V
-31 -134 R
62 0 V
-62 134 R
62 0 V
10 -121 R
0 135 V
-31 -135 R
62 0 V
-62 135 R
62 0 V
10 -219 R
0 127 V
-31 -127 R
62 0 V
-62 127 R
62 0 V
10 -95 R
0 130 V
-31 -130 R
62 0 V
-62 130 R
62 0 V
10 -391 R
0 96 V
-31 -96 R
62 0 V
-62 96 R
62 0 V
10 101 R
0 123 V
-31 -123 R
62 0 V
-62 123 R
62 0 V
10 -142 R
0 120 V
-31 -120 R
62 0 V
-62 120 R
62 0 V
10 -286 R
0 99 V
-31 -99 R
62 0 V
-62 99 R
62 0 V
10 86 R
0 123 V
-31 -123 R
62 0 V
-62 123 R
62 0 V
9 -206 R
0 113 V
-31 -113 R
62 0 V
-62 113 R
62 0 V
10 -246 R
0 94 V
-31 -94 R
62 0 V
-62 94 R
62 0 V
10 52 R
0 114 V
-31 -114 R
62 0 V
-62 114 R
62 0 V
stroke 2697 1243 M
10 -248 R
0 96 V
-31 -96 R
62 0 V
-62 96 R
62 0 V
10 -159 R
0 86 V
-31 -86 R
62 0 V
-62 86 R
62 0 V
10 -92 R
0 85 V
-31 -85 R
62 0 V
-62 85 R
62 0 V
11 3 R
0 99 V
-31 -99 R
62 0 V
-62 99 R
62 0 V
10 -86 R
0 100 V
-31 -100 R
62 0 V
-62 100 R
62 0 V
9 -238 R
0 78 V
-31 -78 R
62 0 V
-62 78 R
62 0 V
10 16 R
0 94 V
-31 -94 R
62 0 V
-62 94 R
62 0 V
10 -182 R
0 79 V
-31 -79 R
62 0 V
-62 79 R
62 0 V
10 -35 R
0 87 V
-31 -87 R
62 0 V
-62 87 R
62 0 V
10 -68 R
0 90 V
-31 -90 R
62 0 V
-62 90 R
62 0 V
10 -103 R
0 88 V
-31 -88 R
62 0 V
-62 88 R
62 0 V
10 -50 R
0 94 V
-31 -94 R
62 0 V
-62 94 R
62 0 V
10 -113 R
0 91 V
-31 -91 R
62 0 V
-62 91 R
62 0 V
10 -185 R
0 75 V
-31 -75 R
62 0 V
-62 75 R
62 0 V
9 -56 R
0 78 V
-31 -78 R
62 0 V
-62 78 R
62 0 V
10 -53 R
0 82 V
-31 -82 R
62 0 V
-62 82 R
62 0 V
11 -38 R
0 90 V
-31 -90 R
62 0 V
-62 90 R
62 0 V
10 -128 R
0 84 V
stroke 3404 1004 M
-31 -84 R
62 0 V
-62 84 R
62 0 V
10 -72 R
0 86 V
-31 -86 R
62 0 V
-62 86 R
62 0 V
10 -203 R
0 63 V
-31 -63 R
62 0 V
-62 63 R
62 0 V
10 86 R
0 91 V
-31 -91 R
62 0 V
-62 91 R
62 0 V
10 -47 R
0 98 V
-31 -98 R
62 0 V
-62 98 R
62 0 V
9 -248 R
0 72 V
-31 -72 R
62 0 V
-62 72 R
62 0 V
10 -115 R
0 63 V
-31 -63 R
62 0 V
-62 63 R
62 0 V
10 -93 R
0 55 V
-31 -55 R
62 0 V
-62 55 R
62 0 V
10 -25 R
0 63 V
-31 -63 R
62 0 V
-62 63 R
62 0 V
10 -63 R
0 63 V
-31 -63 R
62 0 V
-62 63 R
62 0 V
10 11 R
0 78 V
-31 -78 R
62 0 V
-62 78 R
62 0 V
10 -47 R
0 84 V
-31 -84 R
62 0 V
-62 84 R
62 0 V
10 -115 R
0 78 V
-31 -78 R
62 0 V
-62 78 R
62 0 V
10 -176 R
0 56 V
-31 -56 R
62 0 V
-62 56 R
62 0 V
9 -13 R
0 66 V
-31 -66 R
62 0 V
-62 66 R
62 0 V
11 -30 R
0 75 V
-31 -75 R
62 0 V
-62 75 R
62 0 V
10 -105 R
0 68 V
-31 -68 R
62 0 V
-62 68 R
62 0 V
10 -56 R
0 70 V
-31 -70 R
62 0 V
stroke 4131 852 M
-62 70 R
62 0 V
10 -160 R
0 47 V
-31 -47 R
62 0 V
-62 47 R
62 0 V
10 -70 R
0 38 V
-31 -38 R
62 0 V
-62 38 R
62 0 V
10 51 R
0 65 V
-31 -65 R
62 0 V
-62 65 R
62 0 V
10 -102 R
0 56 V
-31 -56 R
62 0 V
-62 56 R
62 0 V
9 -38 R
0 61 V
-31 -61 R
62 0 V
-62 61 R
62 0 V
10 7 R
0 75 V
-31 -75 R
62 0 V
-62 75 R
62 0 V
10 -184 R
0 49 V
-31 -49 R
62 0 V
-62 49 R
62 0 V
10 -43 R
0 50 V
-31 -50 R
62 0 V
-62 50 R
62 0 V
10 -45 R
0 53 V
-31 -53 R
62 0 V
-62 53 R
62 0 V
10 -70 R
0 47 V
-31 -47 R
62 0 V
-62 47 R
62 0 V
10 6 R
0 63 V
-31 -63 R
62 0 V
-62 63 R
62 0 V
10 -81 R
0 58 V
-31 -58 R
62 0 V
-62 58 R
62 0 V
10 -93 R
0 47 V
-31 -47 R
62 0 V
-62 47 R
62 0 V
10 -30 R
0 53 V
-31 -53 R
62 0 V
-62 53 R
62 0 V
10 -47 R
0 55 V
-31 -55 R
62 0 V
-62 55 R
62 0 V
10 -72 R
0 49 V
-31 -49 R
62 0 V
-62 49 R
62 0 V
10 -89 R
0 33 V
-31 -33 R
62 0 V
-62 33 R
62 0 V
stroke 4827 761 M
10 42 R
0 59 V
-31 -59 R
62 0 V
-62 59 R
62 0 V
10 -117 R
0 40 V
-31 -40 R
62 0 V
-62 40 R
62 0 V
10 -35 R
0 43 V
-31 -43 R
62 0 V
-62 43 R
62 0 V
10 71 R
0 73 V
-31 -73 R
62 0 V
-62 73 R
62 0 V
9 -175 R
0 47 V
-31 -47 R
62 0 V
-62 47 R
62 0 V
10 -41 R
0 49 V
-31 -49 R
62 0 V
-62 49 R
62 0 V
10 -32 R
0 55 V
-31 -55 R
62 0 V
-62 55 R
62 0 V
10 -101 R
0 38 V
-31 -38 R
62 0 V
-62 38 R
62 0 V
10 32 R
0 61 V
-31 -61 R
62 0 V
-62 61 R
62 0 V
11 -73 R
0 58 V
-31 -58 R
62 0 V
-62 58 R
62 0 V
10 -81 R
0 50 V
-31 -50 R
62 0 V
-62 50 R
62 0 V
10 -50 R
0 50 V
-31 -50 R
62 0 V
-62 50 R
62 0 V
9 -50 R
0 50 V
-31 -50 R
62 0 V
-62 50 R
62 0 V
10 -90 R
0 35 V
-31 -35 R
62 0 V
-62 35 R
62 0 V
10 22 R
0 56 V
-31 -56 R
62 0 V
-62 56 R
62 0 V
10 -102 R
0 40 V
-31 -40 R
62 0 V
-62 40 R
62 0 V
10 -51 R
0 35 V
-31 -35 R
62 0 V
-62 35 R
62 0 V
10 -56 R
0 23 V
stroke 5533 736 M
-31 -23 R
62 0 V
-62 23 R
62 0 V
10 26 R
0 47 V
-31 -47 R
62 0 V
-62 47 R
62 0 V
10 -41 R
0 49 V
-31 -49 R
62 0 V
-62 49 R
62 0 V
10 -83 R
0 35 V
-31 -35 R
62 0 V
-62 35 R
62 0 V
9 -24 R
0 40 V
-31 -40 R
62 0 V
-62 40 R
62 0 V
10 -46 R
0 38 V
-31 -38 R
62 0 V
-62 38 R
62 0 V
10 -21 R
0 45 V
-31 -45 R
62 0 V
-62 45 R
62 0 V
10 -56 R
0 40 V
-31 -40 R
62 0 V
-62 40 R
62 0 V
10 -35 R
0 43 V
-31 -43 R
62 0 V
-62 43 R
62 0 V
11 -48 R
0 40 V
-31 -40 R
62 0 V
-62 40 R
62 0 V
10 -51 R
0 35 V
-31 -35 R
62 0 V
-62 35 R
62 0 V
10 -56 R
0 23 V
-31 -23 R
62 0 V
-62 23 R
62 0 V
9 26 R
0 47 V
-31 -47 R
62 0 V
-62 47 R
62 0 V
10 -70 R
0 38 V
-31 -38 R
62 0 V
-62 38 R
62 0 V
10 -59 R
0 27 V
-31 -27 R
62 0 V
-62 27 R
62 0 V
10 -6 R
0 38 V
-31 -38 R
62 0 V
-62 38 R
62 0 V
10 -49 R
0 33 V
-31 -33 R
62 0 V
-62 33 R
62 0 V
10 -33 R
0 33 V
-31 -33 R
62 0 V
stroke 6260 728 M
-62 33 R
62 0 V
10 -33 R
0 33 V
-31 -33 R
62 0 V
-62 33 R
62 0 V
10 24 R
0 55 V
-31 -55 R
62 0 V
-62 55 R
62 0 V
10 -122 R
0 27 V
-31 -27 R
62 0 V
-62 27 R
62 0 V
9 -11 R
0 35 V
-31 -35 R
62 0 V
-62 35 R
62 0 V
10 -30 R
0 38 V
-31 -38 R
62 0 V
-62 38 R
62 0 V
10 -38 R
0 38 V
-31 -38 R
62 0 V
-62 38 R
62 0 V
11 -43 R
0 35 V
-31 -35 R
62 0 V
-62 35 R
62 0 V
10 -35 R
0 35 V
-31 -35 R
62 0 V
-62 35 R
62 0 V
1315 4212 Pls
1356 4110 Pls
1397 3689 Pls
1438 3703 Pls
1479 3323 Pls
1520 3133 Pls
1561 2482 Pls
1602 2583 Pls
1643 2339 Pls
1684 2170 Pls
1725 1993 Pls
1766 2149 Pls
1807 1762 Pls
1848 1790 Pls
1888 1654 Pls
1929 1715 Pls
1970 1383 Pls
2011 1430 Pls
2052 1606 Pls
2094 1505 Pls
2135 1260 Pls
2176 1369 Pls
2216 1369 Pls
2257 1383 Pls
2298 1294 Pls
2339 1328 Pls
2380 1050 Pls
2421 1260 Pls
2462 1240 Pls
2503 1064 Pls
2544 1260 Pls
2584 1172 Pls
2625 1030 Pls
2666 1186 Pls
2707 1043 Pls
2748 975 Pls
2789 969 Pls
2831 1064 Pls
2872 1077 Pls
2912 928 Pls
2953 1030 Pls
2994 935 Pls
3035 982 Pls
3076 1003 Pls
3117 989 Pls
3158 1030 Pls
3199 1009 Pls
3240 908 Pls
3280 928 Pls
3321 955 Pls
3363 1003 Pls
3404 962 Pls
3445 975 Pls
3486 846 Pls
3527 1009 Pls
3568 1057 Pls
3608 894 Pls
3649 846 Pls
3690 813 Pls
3731 846 Pls
3772 846 Pls
3813 928 Pls
3854 962 Pls
3895 928 Pls
3936 819 Pls
3976 867 Pls
4018 908 Pls
4059 874 Pls
4100 887 Pls
4141 785 Pls
4182 758 Pls
4223 860 Pls
4264 819 Pls
4304 840 Pls
4345 914 Pls
4386 792 Pls
4427 799 Pls
4468 806 Pls
4509 785 Pls
4550 846 Pls
4591 826 Pls
4632 785 Pls
4673 806 Pls
4714 813 Pls
4755 792 Pls
4796 745 Pls
4837 833 Pls
4878 765 Pls
4919 772 Pls
4960 901 Pls
5000 785 Pls
5041 792 Pls
5082 813 Pls
5123 758 Pls
5164 840 Pls
5206 826 Pls
5247 799 Pls
5288 799 Pls
5328 799 Pls
5369 751 Pls
5410 819 Pls
5451 765 Pls
5492 751 Pls
5533 724 Pls
5574 785 Pls
5615 792 Pls
5656 751 Pls
5696 765 Pls
5737 758 Pls
5778 779 Pls
5819 765 Pls
5860 772 Pls
5902 765 Pls
5943 751 Pls
5984 724 Pls
6024 785 Pls
6065 758 Pls
6106 731 Pls
6147 758 Pls
6188 745 Pls
6229 745 Pls
6270 745 Pls
6311 813 Pls
6352 731 Pls
6392 751 Pls
6433 758 Pls
6474 758 Pls
6516 751 Pls
6557 751 Pls
6243 3722 Pls
1.000 UL
LTb
LCb setrgbcolor
1078 4775 N
0 -4071 V
5725 0 V
0 4071 V
-5725 0 V
Z stroke
1.000 UP
1.000 UL
LTb
stroke
grestore
end
showpage
%%Trailer
