%!PS-Adobe-2.0 EPSF-2.0
%%Title: 4minLog.tex
%%Creator: gnuplot 4.4 patchlevel 4
%%CreationDate: Sat Mar 30 11:40:04 2013
%%DocumentFonts: 
%%BoundingBox: 50 50 410 302
%%EndComments
%%BeginProlog
/gnudict 256 dict def
gnudict begin
%
% The following true/false flags may be edited by hand if desired.
% The unit line width and grayscale image gamma correction may also be changed.
%
/Color true def
/Blacktext false def
/Solid false def
/Dashlength 1 def
/Landscape false def
/Level1 false def
/Rounded false def
/ClipToBoundingBox false def
/TransparentPatterns false def
/gnulinewidth 5.000 def
/userlinewidth gnulinewidth def
/Gamma 1.0 def
%
/vshift -73 def
/dl1 {
  10.0 Dashlength mul mul
  Rounded { currentlinewidth 0.75 mul sub dup 0 le { pop 0.01 } if } if
} def
/dl2 {
  10.0 Dashlength mul mul
  Rounded { currentlinewidth 0.75 mul add } if
} def
/hpt_ 31.5 def
/vpt_ 31.5 def
/hpt hpt_ def
/vpt vpt_ def
Level1 {} {
/SDict 10 dict def
systemdict /pdfmark known not {
  userdict /pdfmark systemdict /cleartomark get put
} if
SDict begin [
  /Title (4minLog.tex)
  /Subject (gnuplot plot)
  /Creator (gnuplot 4.4 patchlevel 4)
  /Author (niklas)
%  /Producer (gnuplot)
%  /Keywords ()
  /CreationDate (Sat Mar 30 11:40:04 2013)
  /DOCINFO pdfmark
end
} ifelse
/doclip {
  ClipToBoundingBox {
    newpath 50 50 moveto 410 50 lineto 410 302 lineto 50 302 lineto closepath
    clip
  } if
} def
%
% Gnuplot Prolog Version 4.4 (August 2010)
%
%/SuppressPDFMark true def
%
/M {moveto} bind def
/L {lineto} bind def
/R {rmoveto} bind def
/V {rlineto} bind def
/N {newpath moveto} bind def
/Z {closepath} bind def
/C {setrgbcolor} bind def
/f {rlineto fill} bind def
/g {setgray} bind def
/Gshow {show} def   % May be redefined later in the file to support UTF-8
/vpt2 vpt 2 mul def
/hpt2 hpt 2 mul def
/Lshow {currentpoint stroke M 0 vshift R 
	Blacktext {gsave 0 setgray show grestore} {show} ifelse} def
/Rshow {currentpoint stroke M dup stringwidth pop neg vshift R
	Blacktext {gsave 0 setgray show grestore} {show} ifelse} def
/Cshow {currentpoint stroke M dup stringwidth pop -2 div vshift R 
	Blacktext {gsave 0 setgray show grestore} {show} ifelse} def
/UP {dup vpt_ mul /vpt exch def hpt_ mul /hpt exch def
  /hpt2 hpt 2 mul def /vpt2 vpt 2 mul def} def
/DL {Color {setrgbcolor Solid {pop []} if 0 setdash}
 {pop pop pop 0 setgray Solid {pop []} if 0 setdash} ifelse} def
/BL {stroke userlinewidth 2 mul setlinewidth
	Rounded {1 setlinejoin 1 setlinecap} if} def
/AL {stroke userlinewidth 2 div setlinewidth
	Rounded {1 setlinejoin 1 setlinecap} if} def
/UL {dup gnulinewidth mul /userlinewidth exch def
	dup 1 lt {pop 1} if 10 mul /udl exch def} def
/PL {stroke userlinewidth setlinewidth
	Rounded {1 setlinejoin 1 setlinecap} if} def
3.8 setmiterlimit
% Default Line colors
/LCw {1 1 1} def
/LCb {0 0 0} def
/LCa {0 0 0} def
/LC0 {1 0 0} def
/LC1 {0 1 0} def
/LC2 {0 0 1} def
/LC3 {1 0 1} def
/LC4 {0 1 1} def
/LC5 {1 1 0} def
/LC6 {0 0 0} def
/LC7 {1 0.3 0} def
/LC8 {0.5 0.5 0.5} def
% Default Line Types
/LTw {PL [] 1 setgray} def
/LTb {BL [] LCb DL} def
/LTa {AL [1 udl mul 2 udl mul] 0 setdash LCa setrgbcolor} def
/LT0 {PL [] LC0 DL} def
/LT1 {PL [4 dl1 2 dl2] LC1 DL} def
/LT2 {PL [2 dl1 3 dl2] LC2 DL} def
/LT3 {PL [1 dl1 1.5 dl2] LC3 DL} def
/LT4 {PL [6 dl1 2 dl2 1 dl1 2 dl2] LC4 DL} def
/LT5 {PL [3 dl1 3 dl2 1 dl1 3 dl2] LC5 DL} def
/LT6 {PL [2 dl1 2 dl2 2 dl1 6 dl2] LC6 DL} def
/LT7 {PL [1 dl1 2 dl2 6 dl1 2 dl2 1 dl1 2 dl2] LC7 DL} def
/LT8 {PL [2 dl1 2 dl2 2 dl1 2 dl2 2 dl1 2 dl2 2 dl1 4 dl2] LC8 DL} def
/Pnt {stroke [] 0 setdash gsave 1 setlinecap M 0 0 V stroke grestore} def
/Dia {stroke [] 0 setdash 2 copy vpt add M
  hpt neg vpt neg V hpt vpt neg V
  hpt vpt V hpt neg vpt V closepath stroke
  Pnt} def
/Pls {stroke [] 0 setdash vpt sub M 0 vpt2 V
  currentpoint stroke M
  hpt neg vpt neg R hpt2 0 V stroke
 } def
/Box {stroke [] 0 setdash 2 copy exch hpt sub exch vpt add M
  0 vpt2 neg V hpt2 0 V 0 vpt2 V
  hpt2 neg 0 V closepath stroke
  Pnt} def
/Crs {stroke [] 0 setdash exch hpt sub exch vpt add M
  hpt2 vpt2 neg V currentpoint stroke M
  hpt2 neg 0 R hpt2 vpt2 V stroke} def
/TriU {stroke [] 0 setdash 2 copy vpt 1.12 mul add M
  hpt neg vpt -1.62 mul V
  hpt 2 mul 0 V
  hpt neg vpt 1.62 mul V closepath stroke
  Pnt} def
/Star {2 copy Pls Crs} def
/BoxF {stroke [] 0 setdash exch hpt sub exch vpt add M
  0 vpt2 neg V hpt2 0 V 0 vpt2 V
  hpt2 neg 0 V closepath fill} def
/TriUF {stroke [] 0 setdash vpt 1.12 mul add M
  hpt neg vpt -1.62 mul V
  hpt 2 mul 0 V
  hpt neg vpt 1.62 mul V closepath fill} def
/TriD {stroke [] 0 setdash 2 copy vpt 1.12 mul sub M
  hpt neg vpt 1.62 mul V
  hpt 2 mul 0 V
  hpt neg vpt -1.62 mul V closepath stroke
  Pnt} def
/TriDF {stroke [] 0 setdash vpt 1.12 mul sub M
  hpt neg vpt 1.62 mul V
  hpt 2 mul 0 V
  hpt neg vpt -1.62 mul V closepath fill} def
/DiaF {stroke [] 0 setdash vpt add M
  hpt neg vpt neg V hpt vpt neg V
  hpt vpt V hpt neg vpt V closepath fill} def
/Pent {stroke [] 0 setdash 2 copy gsave
  translate 0 hpt M 4 {72 rotate 0 hpt L} repeat
  closepath stroke grestore Pnt} def
/PentF {stroke [] 0 setdash gsave
  translate 0 hpt M 4 {72 rotate 0 hpt L} repeat
  closepath fill grestore} def
/Circle {stroke [] 0 setdash 2 copy
  hpt 0 360 arc stroke Pnt} def
/CircleF {stroke [] 0 setdash hpt 0 360 arc fill} def
/C0 {BL [] 0 setdash 2 copy moveto vpt 90 450 arc} bind def
/C1 {BL [] 0 setdash 2 copy moveto
	2 copy vpt 0 90 arc closepath fill
	vpt 0 360 arc closepath} bind def
/C2 {BL [] 0 setdash 2 copy moveto
	2 copy vpt 90 180 arc closepath fill
	vpt 0 360 arc closepath} bind def
/C3 {BL [] 0 setdash 2 copy moveto
	2 copy vpt 0 180 arc closepath fill
	vpt 0 360 arc closepath} bind def
/C4 {BL [] 0 setdash 2 copy moveto
	2 copy vpt 180 270 arc closepath fill
	vpt 0 360 arc closepath} bind def
/C5 {BL [] 0 setdash 2 copy moveto
	2 copy vpt 0 90 arc
	2 copy moveto
	2 copy vpt 180 270 arc closepath fill
	vpt 0 360 arc} bind def
/C6 {BL [] 0 setdash 2 copy moveto
	2 copy vpt 90 270 arc closepath fill
	vpt 0 360 arc closepath} bind def
/C7 {BL [] 0 setdash 2 copy moveto
	2 copy vpt 0 270 arc closepath fill
	vpt 0 360 arc closepath} bind def
/C8 {BL [] 0 setdash 2 copy moveto
	2 copy vpt 270 360 arc closepath fill
	vpt 0 360 arc closepath} bind def
/C9 {BL [] 0 setdash 2 copy moveto
	2 copy vpt 270 450 arc closepath fill
	vpt 0 360 arc closepath} bind def
/C10 {BL [] 0 setdash 2 copy 2 copy moveto vpt 270 360 arc closepath fill
	2 copy moveto
	2 copy vpt 90 180 arc closepath fill
	vpt 0 360 arc closepath} bind def
/C11 {BL [] 0 setdash 2 copy moveto
	2 copy vpt 0 180 arc closepath fill
	2 copy moveto
	2 copy vpt 270 360 arc closepath fill
	vpt 0 360 arc closepath} bind def
/C12 {BL [] 0 setdash 2 copy moveto
	2 copy vpt 180 360 arc closepath fill
	vpt 0 360 arc closepath} bind def
/C13 {BL [] 0 setdash 2 copy moveto
	2 copy vpt 0 90 arc closepath fill
	2 copy moveto
	2 copy vpt 180 360 arc closepath fill
	vpt 0 360 arc closepath} bind def
/C14 {BL [] 0 setdash 2 copy moveto
	2 copy vpt 90 360 arc closepath fill
	vpt 0 360 arc} bind def
/C15 {BL [] 0 setdash 2 copy vpt 0 360 arc closepath fill
	vpt 0 360 arc closepath} bind def
/Rec {newpath 4 2 roll moveto 1 index 0 rlineto 0 exch rlineto
	neg 0 rlineto closepath} bind def
/Square {dup Rec} bind def
/Bsquare {vpt sub exch vpt sub exch vpt2 Square} bind def
/S0 {BL [] 0 setdash 2 copy moveto 0 vpt rlineto BL Bsquare} bind def
/S1 {BL [] 0 setdash 2 copy vpt Square fill Bsquare} bind def
/S2 {BL [] 0 setdash 2 copy exch vpt sub exch vpt Square fill Bsquare} bind def
/S3 {BL [] 0 setdash 2 copy exch vpt sub exch vpt2 vpt Rec fill Bsquare} bind def
/S4 {BL [] 0 setdash 2 copy exch vpt sub exch vpt sub vpt Square fill Bsquare} bind def
/S5 {BL [] 0 setdash 2 copy 2 copy vpt Square fill
	exch vpt sub exch vpt sub vpt Square fill Bsquare} bind def
/S6 {BL [] 0 setdash 2 copy exch vpt sub exch vpt sub vpt vpt2 Rec fill Bsquare} bind def
/S7 {BL [] 0 setdash 2 copy exch vpt sub exch vpt sub vpt vpt2 Rec fill
	2 copy vpt Square fill Bsquare} bind def
/S8 {BL [] 0 setdash 2 copy vpt sub vpt Square fill Bsquare} bind def
/S9 {BL [] 0 setdash 2 copy vpt sub vpt vpt2 Rec fill Bsquare} bind def
/S10 {BL [] 0 setdash 2 copy vpt sub vpt Square fill 2 copy exch vpt sub exch vpt Square fill
	Bsquare} bind def
/S11 {BL [] 0 setdash 2 copy vpt sub vpt Square fill 2 copy exch vpt sub exch vpt2 vpt Rec fill
	Bsquare} bind def
/S12 {BL [] 0 setdash 2 copy exch vpt sub exch vpt sub vpt2 vpt Rec fill Bsquare} bind def
/S13 {BL [] 0 setdash 2 copy exch vpt sub exch vpt sub vpt2 vpt Rec fill
	2 copy vpt Square fill Bsquare} bind def
/S14 {BL [] 0 setdash 2 copy exch vpt sub exch vpt sub vpt2 vpt Rec fill
	2 copy exch vpt sub exch vpt Square fill Bsquare} bind def
/S15 {BL [] 0 setdash 2 copy Bsquare fill Bsquare} bind def
/D0 {gsave translate 45 rotate 0 0 S0 stroke grestore} bind def
/D1 {gsave translate 45 rotate 0 0 S1 stroke grestore} bind def
/D2 {gsave translate 45 rotate 0 0 S2 stroke grestore} bind def
/D3 {gsave translate 45 rotate 0 0 S3 stroke grestore} bind def
/D4 {gsave translate 45 rotate 0 0 S4 stroke grestore} bind def
/D5 {gsave translate 45 rotate 0 0 S5 stroke grestore} bind def
/D6 {gsave translate 45 rotate 0 0 S6 stroke grestore} bind def
/D7 {gsave translate 45 rotate 0 0 S7 stroke grestore} bind def
/D8 {gsave translate 45 rotate 0 0 S8 stroke grestore} bind def
/D9 {gsave translate 45 rotate 0 0 S9 stroke grestore} bind def
/D10 {gsave translate 45 rotate 0 0 S10 stroke grestore} bind def
/D11 {gsave translate 45 rotate 0 0 S11 stroke grestore} bind def
/D12 {gsave translate 45 rotate 0 0 S12 stroke grestore} bind def
/D13 {gsave translate 45 rotate 0 0 S13 stroke grestore} bind def
/D14 {gsave translate 45 rotate 0 0 S14 stroke grestore} bind def
/D15 {gsave translate 45 rotate 0 0 S15 stroke grestore} bind def
/DiaE {stroke [] 0 setdash vpt add M
  hpt neg vpt neg V hpt vpt neg V
  hpt vpt V hpt neg vpt V closepath stroke} def
/BoxE {stroke [] 0 setdash exch hpt sub exch vpt add M
  0 vpt2 neg V hpt2 0 V 0 vpt2 V
  hpt2 neg 0 V closepath stroke} def
/TriUE {stroke [] 0 setdash vpt 1.12 mul add M
  hpt neg vpt -1.62 mul V
  hpt 2 mul 0 V
  hpt neg vpt 1.62 mul V closepath stroke} def
/TriDE {stroke [] 0 setdash vpt 1.12 mul sub M
  hpt neg vpt 1.62 mul V
  hpt 2 mul 0 V
  hpt neg vpt -1.62 mul V closepath stroke} def
/PentE {stroke [] 0 setdash gsave
  translate 0 hpt M 4 {72 rotate 0 hpt L} repeat
  closepath stroke grestore} def
/CircE {stroke [] 0 setdash 
  hpt 0 360 arc stroke} def
/Opaque {gsave closepath 1 setgray fill grestore 0 setgray closepath} def
/DiaW {stroke [] 0 setdash vpt add M
  hpt neg vpt neg V hpt vpt neg V
  hpt vpt V hpt neg vpt V Opaque stroke} def
/BoxW {stroke [] 0 setdash exch hpt sub exch vpt add M
  0 vpt2 neg V hpt2 0 V 0 vpt2 V
  hpt2 neg 0 V Opaque stroke} def
/TriUW {stroke [] 0 setdash vpt 1.12 mul add M
  hpt neg vpt -1.62 mul V
  hpt 2 mul 0 V
  hpt neg vpt 1.62 mul V Opaque stroke} def
/TriDW {stroke [] 0 setdash vpt 1.12 mul sub M
  hpt neg vpt 1.62 mul V
  hpt 2 mul 0 V
  hpt neg vpt -1.62 mul V Opaque stroke} def
/PentW {stroke [] 0 setdash gsave
  translate 0 hpt M 4 {72 rotate 0 hpt L} repeat
  Opaque stroke grestore} def
/CircW {stroke [] 0 setdash 
  hpt 0 360 arc Opaque stroke} def
/BoxFill {gsave Rec 1 setgray fill grestore} def
/Density {
  /Fillden exch def
  currentrgbcolor
  /ColB exch def /ColG exch def /ColR exch def
  /ColR ColR Fillden mul Fillden sub 1 add def
  /ColG ColG Fillden mul Fillden sub 1 add def
  /ColB ColB Fillden mul Fillden sub 1 add def
  ColR ColG ColB setrgbcolor} def
/BoxColFill {gsave Rec PolyFill} def
/PolyFill {gsave Density fill grestore grestore} def
/h {rlineto rlineto rlineto gsave closepath fill grestore} bind def
%
% PostScript Level 1 Pattern Fill routine for rectangles
% Usage: x y w h s a XX PatternFill
%	x,y = lower left corner of box to be filled
%	w,h = width and height of box
%	  a = angle in degrees between lines and x-axis
%	 XX = 0/1 for no/yes cross-hatch
%
/PatternFill {gsave /PFa [ 9 2 roll ] def
  PFa 0 get PFa 2 get 2 div add PFa 1 get PFa 3 get 2 div add translate
  PFa 2 get -2 div PFa 3 get -2 div PFa 2 get PFa 3 get Rec
  gsave 1 setgray fill grestore clip
  currentlinewidth 0.5 mul setlinewidth
  /PFs PFa 2 get dup mul PFa 3 get dup mul add sqrt def
  0 0 M PFa 5 get rotate PFs -2 div dup translate
  0 1 PFs PFa 4 get div 1 add floor cvi
	{PFa 4 get mul 0 M 0 PFs V} for
  0 PFa 6 get ne {
	0 1 PFs PFa 4 get div 1 add floor cvi
	{PFa 4 get mul 0 2 1 roll M PFs 0 V} for
 } if
  stroke grestore} def
%
/languagelevel where
 {pop languagelevel} {1} ifelse
 2 lt
	{/InterpretLevel1 true def}
	{/InterpretLevel1 Level1 def}
 ifelse
%
% PostScript level 2 pattern fill definitions
%
/Level2PatternFill {
/Tile8x8 {/PaintType 2 /PatternType 1 /TilingType 1 /BBox [0 0 8 8] /XStep 8 /YStep 8}
	bind def
/KeepColor {currentrgbcolor [/Pattern /DeviceRGB] setcolorspace} bind def
<< Tile8x8
 /PaintProc {0.5 setlinewidth pop 0 0 M 8 8 L 0 8 M 8 0 L stroke} 
>> matrix makepattern
/Pat1 exch def
<< Tile8x8
 /PaintProc {0.5 setlinewidth pop 0 0 M 8 8 L 0 8 M 8 0 L stroke
	0 4 M 4 8 L 8 4 L 4 0 L 0 4 L stroke}
>> matrix makepattern
/Pat2 exch def
<< Tile8x8
 /PaintProc {0.5 setlinewidth pop 0 0 M 0 8 L
	8 8 L 8 0 L 0 0 L fill}
>> matrix makepattern
/Pat3 exch def
<< Tile8x8
 /PaintProc {0.5 setlinewidth pop -4 8 M 8 -4 L
	0 12 M 12 0 L stroke}
>> matrix makepattern
/Pat4 exch def
<< Tile8x8
 /PaintProc {0.5 setlinewidth pop -4 0 M 8 12 L
	0 -4 M 12 8 L stroke}
>> matrix makepattern
/Pat5 exch def
<< Tile8x8
 /PaintProc {0.5 setlinewidth pop -2 8 M 4 -4 L
	0 12 M 8 -4 L 4 12 M 10 0 L stroke}
>> matrix makepattern
/Pat6 exch def
<< Tile8x8
 /PaintProc {0.5 setlinewidth pop -2 0 M 4 12 L
	0 -4 M 8 12 L 4 -4 M 10 8 L stroke}
>> matrix makepattern
/Pat7 exch def
<< Tile8x8
 /PaintProc {0.5 setlinewidth pop 8 -2 M -4 4 L
	12 0 M -4 8 L 12 4 M 0 10 L stroke}
>> matrix makepattern
/Pat8 exch def
<< Tile8x8
 /PaintProc {0.5 setlinewidth pop 0 -2 M 12 4 L
	-4 0 M 12 8 L -4 4 M 8 10 L stroke}
>> matrix makepattern
/Pat9 exch def
/Pattern1 {PatternBgnd KeepColor Pat1 setpattern} bind def
/Pattern2 {PatternBgnd KeepColor Pat2 setpattern} bind def
/Pattern3 {PatternBgnd KeepColor Pat3 setpattern} bind def
/Pattern4 {PatternBgnd KeepColor Landscape {Pat5} {Pat4} ifelse setpattern} bind def
/Pattern5 {PatternBgnd KeepColor Landscape {Pat4} {Pat5} ifelse setpattern} bind def
/Pattern6 {PatternBgnd KeepColor Landscape {Pat9} {Pat6} ifelse setpattern} bind def
/Pattern7 {PatternBgnd KeepColor Landscape {Pat8} {Pat7} ifelse setpattern} bind def
} def
%
%
%End of PostScript Level 2 code
%
/PatternBgnd {
  TransparentPatterns {} {gsave 1 setgray fill grestore} ifelse
} def
%
% Substitute for Level 2 pattern fill codes with
% grayscale if Level 2 support is not selected.
%
/Level1PatternFill {
/Pattern1 {0.250 Density} bind def
/Pattern2 {0.500 Density} bind def
/Pattern3 {0.750 Density} bind def
/Pattern4 {0.125 Density} bind def
/Pattern5 {0.375 Density} bind def
/Pattern6 {0.625 Density} bind def
/Pattern7 {0.875 Density} bind def
} def
%
% Now test for support of Level 2 code
%
Level1 {Level1PatternFill} {Level2PatternFill} ifelse
%
/Symbol-Oblique /Symbol findfont [1 0 .167 1 0 0] makefont
dup length dict begin {1 index /FID eq {pop pop} {def} ifelse} forall
currentdict end definefont pop
end
%%EndProlog
gnudict begin
gsave
doclip
50 50 translate
0.050 0.050 scale
0 setgray
newpath
1.000 UL
LTb
LCb setrgbcolor
1210 704 M
63 0 V
5530 0 R
-63 0 V
stroke
LTb
1210 1112 M
31 0 V
5562 0 R
-31 0 V
1210 1351 M
31 0 V
5562 0 R
-31 0 V
1210 1521 M
31 0 V
5562 0 R
-31 0 V
1210 1653 M
31 0 V
5562 0 R
-31 0 V
1210 1760 M
31 0 V
5562 0 R
-31 0 V
-5562 91 R
31 0 V
5562 0 R
-31 0 V
-5562 78 R
31 0 V
5562 0 R
-31 0 V
-5562 70 R
31 0 V
5562 0 R
-31 0 V
-5562 62 R
63 0 V
5530 0 R
-63 0 V
1210 2469 M
31 0 V
5562 0 R
-31 0 V
1210 2708 M
31 0 V
5562 0 R
-31 0 V
1210 2878 M
31 0 V
5562 0 R
-31 0 V
1210 3010 M
31 0 V
5562 0 R
-31 0 V
1210 3117 M
31 0 V
5562 0 R
-31 0 V
-5562 91 R
31 0 V
5562 0 R
-31 0 V
-5562 78 R
31 0 V
5562 0 R
-31 0 V
-5562 70 R
31 0 V
5562 0 R
-31 0 V
-5562 62 R
63 0 V
5530 0 R
-63 0 V
1210 3826 M
31 0 V
5562 0 R
-31 0 V
1210 4065 M
31 0 V
5562 0 R
-31 0 V
1210 4235 M
31 0 V
5562 0 R
-31 0 V
1210 4367 M
31 0 V
5562 0 R
-31 0 V
1210 4474 M
31 0 V
5562 0 R
-31 0 V
-5562 91 R
31 0 V
5562 0 R
-31 0 V
-5562 78 R
31 0 V
5562 0 R
-31 0 V
-5562 70 R
31 0 V
5562 0 R
-31 0 V
-5562 62 R
63 0 V
stroke 1273 4775 M
5530 0 R
-63 0 V
1210 704 M
0 63 V
0 4008 R
0 -63 V
2009 704 M
0 63 V
0 4008 R
0 -63 V
2808 704 M
0 63 V
0 4008 R
0 -63 V
3607 704 M
0 63 V
0 4008 R
0 -63 V
4406 704 M
0 63 V
0 4008 R
0 -63 V
5205 704 M
0 63 V
0 4008 R
0 -63 V
6004 704 M
0 63 V
0 4008 R
0 -63 V
6803 704 M
0 63 V
0 4008 R
0 -63 V
stroke
1210 4775 N
0 -4071 V
5593 0 V
0 4071 V
-5593 0 V
Z stroke
1.000 UP
1.000 UL
LTb
2.000 UL
LT0
LC0 setrgbcolor
LCb setrgbcolor
LT0
LC0 setrgbcolor
5948 4602 M
591 0 V
1442 1252 M
51 0 V
52 0 V
52 0 V
52 0 V
51 0 V
52 0 V
52 0 V
52 0 V
51 0 V
52 0 V
52 0 V
51 0 V
52 0 V
52 0 V
52 0 V
51 0 V
52 0 V
52 0 V
51 0 V
52 0 V
52 0 V
52 0 V
51 0 V
52 0 V
52 0 V
52 0 V
51 0 V
52 0 V
52 0 V
51 0 V
52 0 V
52 0 V
52 0 V
51 0 V
52 0 V
52 0 V
52 0 V
51 0 V
52 0 V
52 0 V
51 0 V
52 0 V
52 0 V
52 0 V
51 0 V
52 0 V
52 0 V
52 0 V
51 0 V
52 0 V
52 0 V
51 0 V
52 0 V
52 0 V
52 0 V
51 0 V
52 0 V
52 0 V
51 0 V
52 0 V
52 0 V
52 0 V
51 0 V
52 0 V
52 0 V
52 0 V
51 0 V
52 0 V
52 0 V
51 0 V
52 0 V
52 0 V
52 0 V
51 0 V
52 0 V
52 0 V
52 0 V
51 0 V
52 0 V
52 0 V
51 0 V
52 0 V
52 0 V
52 0 V
51 0 V
52 0 V
52 0 V
52 0 V
51 0 V
52 0 V
52 0 V
51 0 V
52 0 V
52 0 V
52 0 V
51 0 V
52 0 V
52 0 V
52 0 V
stroke
LT0
LC2 setrgbcolor
LCb setrgbcolor
LT0
LC0 setrgbcolor
LC2 setrgbcolor
5948 4382 M
591 0 V
1442 3592 M
51 -22 V
52 -23 V
52 -22 V
52 -22 V
51 -22 V
52 -23 V
52 -22 V
52 -22 V
51 -22 V
52 -22 V
52 -22 V
51 -22 V
52 -23 V
52 -22 V
52 -22 V
51 -22 V
52 -22 V
52 -21 V
51 -22 V
52 -22 V
52 -22 V
52 -22 V
51 -22 V
52 -21 V
52 -22 V
52 -22 V
51 -21 V
52 -22 V
52 -21 V
51 -22 V
52 -21 V
52 -22 V
52 -21 V
51 -21 V
52 -21 V
52 -21 V
52 -22 V
51 -21 V
52 -21 V
52 -20 V
51 -21 V
52 -21 V
52 -21 V
52 -20 V
51 -21 V
52 -20 V
52 -21 V
52 -20 V
51 -20 V
52 -21 V
52 -20 V
51 -20 V
52 -19 V
52 -20 V
52 -20 V
51 -19 V
52 -20 V
52 -19 V
51 -19 V
52 -19 V
52 -19 V
52 -19 V
51 -19 V
52 -19 V
52 -18 V
52 -18 V
51 -19 V
52 -18 V
52 -18 V
51 -17 V
52 -18 V
52 -17 V
52 -18 V
51 -17 V
52 -17 V
52 -17 V
52 -16 V
51 -17 V
52 -16 V
52 -16 V
51 -16 V
52 -16 V
52 -15 V
52 -16 V
51 -15 V
52 -15 V
52 -14 V
52 -15 V
51 -14 V
52 -14 V
52 -14 V
51 -14 V
52 -14 V
52 -13 V
52 -13 V
51 -13 V
52 -13 V
52 -12 V
52 -12 V
stroke
LT0
LC0 setrgbcolor
LC3 setrgbcolor
LCb setrgbcolor
LT0
LC0 setrgbcolor
LC3 setrgbcolor
5948 4162 M
591 0 V
1442 4277 M
51 -109 V
52 -109 V
52 -109 V
52 -108 V
51 -109 V
52 -108 V
52 -107 V
52 -107 V
51 -107 V
52 -106 V
52 -105 V
51 -105 V
52 -103 V
52 -103 V
52 -100 V
51 -100 V
52 -97 V
52 -95 V
51 -92 V
52 -90 V
52 -86 V
52 -83 V
51 -79 V
52 -75 V
52 -70 V
52 -65 V
51 -60 V
52 -55 V
52 -50 V
51 -45 V
52 -40 V
52 -35 V
52 -31 V
51 -28 V
52 -23 V
52 -20 V
52 -18 V
51 -15 V
52 -12 V
52 -11 V
51 -9 V
52 -8 V
52 -6 V
52 -5 V
51 -5 V
52 -4 V
52 -3 V
52 -2 V
51 -2 V
52 -2 V
52 -2 V
51 -1 V
52 -1 V
52 -1 V
52 -1 V
51 0 V
52 -1 V
52 0 V
51 0 V
52 -1 V
52 0 V
52 0 V
51 0 V
52 0 V
52 -1 V
52 0 V
51 0 V
52 0 V
52 0 V
51 0 V
52 0 V
52 0 V
52 0 V
51 0 V
52 0 V
52 0 V
52 0 V
51 0 V
52 0 V
52 0 V
51 0 V
52 0 V
52 0 V
52 0 V
51 0 V
52 0 V
52 0 V
52 0 V
51 0 V
52 0 V
52 0 V
51 0 V
52 0 V
52 0 V
52 0 V
51 0 V
52 0 V
52 0 V
52 0 V
stroke
LT0
LC0 setrgbcolor
LCa setrgbcolor
LCb setrgbcolor
LT0
LC0 setrgbcolor
LCa setrgbcolor
5948 3942 M
591 0 V
1442 4435 M
51 -88 V
52 -85 V
52 -82 V
52 -80 V
51 -76 V
52 -74 V
52 -70 V
52 -67 V
51 -63 V
52 -61 V
52 -57 V
51 -54 V
52 -51 V
52 -49 V
52 -45 V
51 -43 V
52 -41 V
52 -39 V
51 -37 V
52 -35 V
52 -33 V
52 -32 V
51 -30 V
52 -30 V
52 -28 V
52 -28 V
51 -27 V
52 -25 V
52 -26 V
51 -25 V
52 -24 V
52 -24 V
52 -23 V
51 -23 V
52 -23 V
52 -23 V
52 -22 V
51 -22 V
52 -22 V
52 -22 V
51 -21 V
52 -22 V
52 -21 V
52 -21 V
51 -21 V
52 -21 V
52 -20 V
52 -21 V
51 -20 V
52 -20 V
52 -21 V
51 -20 V
52 -20 V
52 -20 V
52 -19 V
51 -20 V
52 -19 V
52 -20 V
51 -19 V
52 -19 V
52 -19 V
52 -19 V
51 -19 V
52 -18 V
52 -19 V
52 -18 V
51 -19 V
52 -18 V
52 -18 V
51 -17 V
52 -18 V
52 -17 V
52 -18 V
51 -17 V
52 -17 V
52 -17 V
52 -16 V
51 -17 V
52 -16 V
52 -16 V
51 -16 V
52 -16 V
52 -15 V
52 -16 V
51 -15 V
52 -15 V
52 -14 V
52 -15 V
51 -14 V
52 -14 V
52 -14 V
51 -14 V
52 -14 V
52 -13 V
52 -13 V
51 -13 V
52 -13 V
52 -12 V
52 -12 V
1.000 UP
stroke
1.000 UL
LT4
LC4 setrgbcolor
LC1 setrgbcolor
LCb setrgbcolor
LT4
LC4 setrgbcolor
LC1 setrgbcolor
5948 3722 M
591 0 V
-591 31 R
0 -62 V
591 62 R
0 -62 V
1442 4360 M
0 52 V
-31 -52 R
62 0 V
-62 52 R
62 0 V
9 -70 R
0 53 V
-31 -53 R
62 0 V
-62 53 R
62 0 V
9 -133 R
0 57 V
-31 -57 R
62 0 V
-62 57 R
62 0 V
9 -54 R
0 56 V
-31 -56 R
62 0 V
-62 56 R
62 0 V
9 -138 R
0 60 V
-31 -60 R
62 0 V
-62 60 R
62 0 V
9 -105 R
0 62 V
-31 -62 R
62 0 V
-62 62 R
62 0 V
9 -252 R
0 73 V
-31 -73 R
62 0 V
-62 73 R
62 0 V
9 -39 R
0 71 V
-31 -71 R
62 0 V
-62 71 R
62 0 V
9 -156 R
0 76 V
-31 -76 R
62 0 V
-62 76 R
62 0 V
9 -143 R
0 81 V
-31 -81 R
62 0 V
-62 81 R
62 0 V
9 -159 R
0 86 V
-31 -86 R
62 0 V
-62 86 R
62 0 V
9 -16 R
0 81 V
-31 -81 R
62 0 V
-62 81 R
62 0 V
9 -272 R
0 94 V
-31 -94 R
62 0 V
-62 94 R
62 0 V
9 -79 R
0 94 V
-31 -94 R
62 0 V
-62 94 R
62 0 V
9 -176 R
0 100 V
-31 -100 R
62 0 V
-62 100 R
62 0 V
9 -61 R
0 96 V
-31 -96 R
62 0 V
-62 96 R
62 0 V
9 -343 R
0 118 V
-31 -118 R
62 0 V
stroke 2113 3356 M
-62 118 R
62 0 V
9 -76 R
0 114 V
-31 -114 R
62 0 V
-62 114 R
62 0 V
9 21 R
0 102 V
-31 -102 R
62 0 V
-62 102 R
62 0 V
9 -176 R
0 108 V
-31 -108 R
62 0 V
-62 108 R
62 0 V
9 -335 R
0 131 V
-31 -131 R
62 0 V
-62 131 R
62 0 V
9 -20 R
0 120 V
-31 -120 R
62 0 V
-62 120 R
62 0 V
9 -120 R
0 120 V
-31 -120 R
62 0 V
-62 120 R
62 0 V
9 -107 R
0 118 V
-31 -118 R
62 0 V
-62 118 R
62 0 V
9 -205 R
0 127 V
-31 -127 R
62 0 V
-62 127 R
62 0 V
9 -92 R
0 123 V
-31 -123 R
62 0 V
-62 123 R
62 0 V
9 -495 R
0 166 V
-31 -166 R
62 0 V
-62 166 R
62 0 V
9 134 R
0 131 V
-31 -131 R
62 0 V
-62 131 R
62 0 V
9 -154 R
0 133 V
-31 -133 R
62 0 V
-62 133 R
62 0 V
9 -385 R
0 163 V
-31 -163 R
62 0 V
-62 163 R
62 0 V
9 112 R
0 131 V
-31 -131 R
62 0 V
-62 131 R
62 0 V
9 -239 R
0 142 V
-31 -142 R
62 0 V
-62 142 R
62 0 V
9 -372 R
0 171 V
-31 -171 R
62 0 V
-62 171 R
62 0 V
9 77 R
0 140 V
-31 -140 R
62 0 V
-62 140 R
62 0 V
stroke 2793 3282 M
9 -362 R
0 167 V
-31 -167 R
62 0 V
-62 167 R
62 0 V
9 -310 R
0 188 V
-31 -188 R
62 0 V
-62 188 R
62 0 V
9 -205 R
0 191 V
-31 -191 R
62 0 V
-62 191 R
62 0 V
9 6 R
0 163 V
-31 -163 R
62 0 V
-62 163 R
62 0 V
9 -140 R
0 160 V
-31 -160 R
62 0 V
-62 160 R
62 0 V
9 -488 R
0 207 V
-31 -207 R
62 0 V
-62 207 R
62 0 V
9 35 R
0 171 V
-31 -171 R
62 0 V
-62 171 R
62 0 V
9 -394 R
0 204 V
-31 -204 R
62 0 V
-62 204 R
62 0 V
9 -83 R
0 186 V
-31 -186 R
62 0 V
-62 186 R
62 0 V
9 -140 R
0 179 V
-31 -179 R
62 0 V
-62 179 R
62 0 V
9 -209 R
0 183 V
-31 -183 R
62 0 V
-62 183 R
62 0 V
9 -97 R
0 171 V
-31 -171 R
62 0 V
-62 171 R
62 0 V
9 -213 R
0 177 V
-31 -177 R
62 0 V
-62 177 R
62 0 V
9 -439 R
0 217 V
-31 -217 R
62 0 V
-62 217 R
62 0 V
9 -155 R
0 207 V
-31 -207 R
62 0 V
-62 207 R
62 0 V
9 -133 R
0 196 V
-31 -196 R
62 0 V
-62 196 R
62 0 V
9 -84 R
0 179 V
-31 -179 R
62 0 V
-62 179 R
62 0 V
9 -274 R
0 193 V
stroke 3482 2936 M
-31 -193 R
62 0 V
-62 193 R
62 0 V
9 -159 R
0 188 V
-31 -188 R
62 0 V
-62 188 R
62 0 V
9 -612 R
0 262 V
-31 -262 R
62 0 V
-62 262 R
62 0 V
9 237 R
0 177 V
-31 -177 R
62 0 V
-62 177 R
62 0 V
9 -84 R
0 164 V
-31 -164 R
62 0 V
-62 164 R
62 0 V
9 -565 R
0 226 V
-31 -226 R
62 0 V
-62 226 R
62 0 V
9 -417 R
0 262 V
-31 -262 R
62 0 V
-62 262 R
62 0 V
9 -447 R
0 301 V
-31 -301 R
62 0 V
-62 301 R
62 0 V
9 -116 R
0 262 V
-31 -262 R
62 0 V
-62 262 R
62 0 V
9 -262 R
0 262 V
-31 -262 R
62 0 V
-62 262 R
62 0 V
9 37 R
0 207 V
-31 -207 R
62 0 V
-62 207 R
62 0 V
9 -116 R
0 193 V
-31 -193 R
62 0 V
-62 193 R
62 0 V
9 -284 R
0 207 V
-31 -207 R
62 0 V
-62 207 R
62 0 V
9 -649 R
0 292 V
-31 -292 R
62 0 V
-62 292 R
62 0 V
9 -60 R
0 244 V
-31 -244 R
62 0 V
-62 244 R
62 0 V
9 -96 R
0 217 V
-31 -217 R
62 0 V
-62 217 R
62 0 V
9 -338 R
0 239 V
-31 -239 R
62 0 V
-62 239 R
62 0 V
9 -188 R
0 230 V
-31 -230 R
62 0 V
stroke 4193 2520 M
-62 230 R
62 0 V
9 -782 R
0 350 V
-31 -350 R
62 0 V
-62 350 R
62 0 V
9 -646 R
0 436 V
-31 -436 R
62 0 V
-62 436 R
62 0 V
9 306 R
0 249 V
-31 -249 R
62 0 V
-62 249 R
62 0 V
9 -453 R
0 292 V
-31 -292 R
62 0 V
-62 292 R
62 0 V
9 -182 R
0 268 V
-31 -268 R
62 0 V
-62 268 R
62 0 V
9 23 R
0 214 V
-31 -214 R
62 0 V
-62 214 R
62 0 V
9 -801 R
0 336 V
-31 -336 R
62 0 V
-62 336 R
62 0 V
9 -284 R
0 323 V
-31 -323 R
62 0 V
-62 323 R
62 0 V
9 -275 R
0 311 V
-31 -311 R
62 0 V
-62 311 R
62 0 V
9 -467 R
0 350 V
-31 -350 R
62 0 V
-62 350 R
62 0 V
9 35 R
0 262 V
-31 -262 R
62 0 V
-62 262 R
62 0 V
9 -366 R
0 283 V
-31 -283 R
62 0 V
-62 283 R
62 0 V
9 -564 R
0 350 V
-31 -350 R
62 0 V
-62 350 R
62 0 V
9 -194 R
0 311 V
-31 -311 R
62 0 V
-62 311 R
62 0 V
9 -267 R
0 301 V
-31 -301 R
62 0 V
-62 301 R
62 0 V
9 -445 R
0 336 V
-31 -336 R
62 0 V
-62 336 R
62 0 V
9 -909 R
0 511 V
-31 -511 R
62 0 V
-62 511 R
62 0 V
stroke 4873 1962 M
9 324 R
0 275 V
-31 -275 R
62 0 V
-62 275 R
62 0 V
9 -801 R
0 408 V
-31 -408 R
62 0 V
-62 408 R
62 0 V
9 -331 R
0 386 V
-31 -386 R
62 0 V
-62 386 R
62 0 V
9 344 R
0 222 V
-31 -222 R
62 0 V
-62 222 R
62 0 V
9 -821 R
0 350 V
-31 -350 R
62 0 V
-62 350 R
62 0 V
9 -294 R
0 336 V
-31 -336 R
62 0 V
-62 336 R
62 0 V
9 -192 R
0 301 V
-31 -301 R
62 0 V
-62 301 R
62 0 V
9 -797 R
0 436 V
-31 -436 R
62 0 V
-62 436 R
62 0 V
9 212 R
0 268 V
-31 -268 R
62 0 V
-62 268 R
62 0 V
10 -339 R
0 283 V
-31 -283 R
62 0 V
-62 283 R
62 0 V
9 -456 R
0 323 V
-31 -323 R
62 0 V
-62 323 R
62 0 V
8 -323 R
0 323 V
-31 -323 R
62 0 V
-62 323 R
62 0 V
9 -323 R
0 323 V
-31 -323 R
62 0 V
-62 323 R
62 0 V
9 -828 R
0 469 V
-31 -469 R
62 0 V
-62 469 R
62 0 V
9 170 R
0 292 V
-31 -292 R
62 0 V
-62 292 R
62 0 V
9 -742 R
0 408 V
-31 -408 R
62 0 V
-62 408 R
62 0 V
9 -597 R
0 469 V
-31 -469 R
62 0 V
-62 469 R
62 0 V
9 -1196 R
0 776 V
stroke 5562 1620 M
5531 844 M
62 0 V
-62 776 R
62 0 V
9 348 R
0 350 V
-31 -350 R
62 0 V
-62 350 R
62 0 V
9 -294 R
0 336 V
-31 -336 R
62 0 V
-62 336 R
62 0 V
9 -789 R
0 469 V
-31 -469 R
62 0 V
-62 469 R
62 0 V
9 -280 R
0 408 V
-31 -408 R
62 0 V
-62 408 R
62 0 V
9 -496 R
0 436 V
-31 -436 R
62 0 V
-62 436 R
62 0 V
9 -202 R
0 366 V
-31 -366 R
62 0 V
-62 366 R
62 0 V
9 -512 R
0 408 V
-31 -408 R
62 0 V
-62 408 R
62 0 V
9 -331 R
0 386 V
-31 -386 R
62 0 V
-62 386 R
62 0 V
10 -463 R
0 408 V
-31 -408 R
62 0 V
-62 408 R
62 0 V
8 -597 R
0 469 V
-31 -469 R
62 0 V
-62 469 R
62 0 V
9 -1196 R
0 776 V
5971 844 M
62 0 V
-62 776 R
62 0 V
9 348 R
0 350 V
-31 -350 R
62 0 V
-62 350 R
62 0 V
9 -646 R
0 436 V
-31 -436 R
62 0 V
-62 436 R
62 0 V
9 -996 R
0 648 V
-31 -648 R
62 0 V
-62 648 R
62 0 V
9 -88 R
0 436 V
-31 -436 R
62 0 V
-62 436 R
62 0 V
9 -657 R
0 511 V
-31 -511 R
62 0 V
-62 511 R
62 0 V
9 -511 R
0 511 V
-31 -511 R
62 0 V
stroke 6273 1451 M
-62 511 R
62 0 V
9 -511 R
0 511 V
-31 -511 R
62 0 V
-62 511 R
62 0 V
9 206 R
0 301 V
-31 -301 R
62 0 V
-62 301 R
62 0 V
9 -1357 R
0 648 V
-31 -648 R
62 0 V
-62 648 R
62 0 V
9 -189 R
0 469 V
-31 -469 R
62 0 V
-62 469 R
62 0 V
9 -368 R
0 436 V
-31 -436 R
62 0 V
-62 436 R
62 0 V
9 -436 R
0 436 V
-31 -436 R
62 0 V
-62 436 R
62 0 V
10 -537 R
0 469 V
-31 -469 R
62 0 V
-62 469 R
62 0 V
9 -469 R
0 469 V
-31 -469 R
62 0 V
-62 469 R
62 0 V
1442 4386 Pls
1482 4369 Pls
1522 4291 Pls
1562 4294 Pls
1602 4214 Pls
1642 4170 Pls
1682 3986 Pls
1722 4018 Pls
1762 3936 Pls
1802 3872 Pls
1842 3796 Pls
1882 3864 Pls
1922 3680 Pls
1962 3695 Pls
2002 3616 Pls
2042 3653 Pls
2082 3418 Pls
2122 3458 Pls
2162 3586 Pls
2202 3516 Pls
2242 3301 Pls
2282 3406 Pls
2322 3406 Pls
2362 3418 Pls
2402 3336 Pls
2442 3369 Pls
2482 3021 Pls
2522 3301 Pls
2562 3279 Pls
2602 3044 Pls
2642 3301 Pls
2682 3199 Pls
2722 2985 Pls
2762 3216 Pls
2802 3010 Pls
2842 2878 Pls
2882 2863 Pls
2922 3044 Pls
2962 3066 Pls
3002 2765 Pls
3042 2985 Pls
3082 2782 Pls
3122 2893 Pls
3162 2934 Pls
3202 2907 Pls
3242 2985 Pls
3282 2947 Pls
3322 2708 Pls
3362 2765 Pls
3402 2832 Pls
3442 2934 Pls
3482 2848 Pls
3522 2878 Pls
3562 2498 Pls
3602 2947 Pls
3642 3033 Pls
3682 2668 Pls
3722 2498 Pls
3762 2338 Pls
3802 2498 Pls
3842 2498 Pls
3882 2765 Pls
3922 2848 Pls
3962 2765 Pls
4002 2374 Pls
4042 2577 Pls
4082 2708 Pls
4122 2601 Pls
4162 2646 Pls
4202 2168 Pls
4242 1929 Pls
4282 2552 Pls
4322 2374 Pls
4362 2469 Pls
4402 2728 Pls
4442 2216 Pls
4482 2259 Pls
4522 2300 Pls
4562 2168 Pls
4602 2498 Pls
4642 2407 Pls
4682 2168 Pls
4722 2300 Pls
4762 2338 Pls
4802 2216 Pls
4842 1760 Pls
4882 2439 Pls
4922 1999 Pls
4962 2061 Pls
5002 2688 Pls
5042 2168 Pls
5082 2216 Pls
5122 2338 Pls
5162 1929 Pls
5202 2469 Pls
5243 2407 Pls
5283 2259 Pls
5322 2259 Pls
5362 2259 Pls
5402 1851 Pls
5442 2374 Pls
5482 1999 Pls
5522 1851 Pls
5562 1351 Pls
5602 2168 Pls
5642 2216 Pls
5682 1851 Pls
5722 1999 Pls
5762 1929 Pls
5802 2117 Pls
5842 1999 Pls
5882 2061 Pls
5923 1999 Pls
5962 1851 Pls
6002 1351 Pls
6042 2168 Pls
6082 1929 Pls
6122 1521 Pls
6162 1929 Pls
6202 1760 Pls
6242 1760 Pls
6282 1760 Pls
6322 2338 Pls
6362 1521 Pls
6402 1851 Pls
6442 1929 Pls
6482 1929 Pls
6523 1851 Pls
6563 1851 Pls
6243 3722 Pls
1.000 UL
LTb
LCb setrgbcolor
1210 4775 N
0 -4071 V
5593 0 V
0 4071 V
-5593 0 V
Z stroke
1.000 UP
1.000 UL
LTb
stroke
grestore
end
showpage
%%Trailer
