#Halbwertszeiten
1 116.222959358378 3.90728317883422
2 24.0948260550019 0.711765724584275


#Anfangsaktivitäten bei Isotop 1
1 48.443991214342 4.57447436681177
2 100.64040387232 7.01457927991419
4 156.724404043099 9.79394973429013
8 205.650215707941 12.2585944284604


#Anfangsaktivitäten bei Isotop 2
1 847.782510749299 35.0866886575725
2 988.466511639161 37.6357671140907
4 983.311745610416 44.6790897811991
8 1000.45372490303 39.8881088861431


#asymptotische Anfangsaktivitäten
1 198.057101773837 11.5803590272257
2 1010.00942042818 10.0931022832382
