<svg height="496pt" version="1.1" viewBox="0 0 626 496" width="626pt" xmlns="http://www.w3.org/2000/svg" xmlns:xlink="http://www.w3.org/1999/xlink">
 <defs>
  <style type="text/css">
*{stroke-linecap:square;stroke-linejoin:round;}
  </style>
 </defs>
 <g id="figure_1">
  <g id="patch_1">
   <path d="
M0 496.3
L626.542 496.3
L626.542 0
L0 0
z
" style="fill:#ffffff;"></path>
  </g>
  <g id="axes_1">
   <g id="patch_2">
    <path d="
M51.6524 458.223
L609.652 458.223
L609.652 11.8227
L51.6524 11.8227
z
" style="fill:#ffffff;"></path>
   </g>
   <g id="line2d_1">
    <path clip-path="url(#p032b8def87)" d="
M51.6524 458.223
L62.265 458.131
L66.7335 457.879
L70.6434 457.406
L73.4362 456.883
L77.3461 455.816
L79.5803 454.996
L81.256 454.249
L84.0488 452.801
L87.9587 450.301
L90.1929 448.497
L92.4271 446.584
L97.4542 441.159
L99.1298 439.171
L100.247 437.769
L101.923 435.553
L104.715 431.454
L105.274 430.411
L105.833 429.735
L106.391 428.642
L107.508 426.844
L113.652 415.705
L116.445 409.913
L117.562 407.388
L118.679 405.292
L119.238 403.466
L120.914 399.859
L122.031 397.119
L122.589 396.064
L123.148 394.345
L124.265 391.74
L129.851 377.654
L130.409 375.534
L132.085 371.197
L132.643 369.568
L133.202 368.447
L134.319 364.584
L134.878 363.402
L137.67 355.591
L138.788 351.881
L139.346 350.347
L139.905 348.242
L140.463 347.513
L141.022 345.017
L141.58 343.633
L142.697 340.078
L144.932 333.789
L145.49 331.203
L148.842 320.696
L149.4 319.385
L151.076 313.14
L151.634 312.273
L154.427 301.96
L155.544 299.238
L156.103 297.61
L156.661 294.905
L157.779 291.814
L158.337 289.144
L160.013 284.561
L160.571 281.846
L161.13 281.106
L161.688 277.926
L162.247 277.017
L162.806 275.66
L163.923 270.956
L164.481 269.856
L165.04 267.603
L165.598 266.143
L166.157 263.39
L166.715 262.492
L167.274 260.127
L167.832 258.304
L168.392 257.124
L169.509 252.149
L170.626 249.63
L171.184 246.257
L171.743 245.409
L172.301 243.09
L172.86 242.403
L173.977 238.142
L174.535 236.861
L175.094 234.164
L176.769 229.335
L177.329 226.489
L177.887 224.997
L178.446 224.875
L179.004 221.003
L179.563 220.396
L180.121 218.236
L180.68 216.764
L181.238 214.943
L181.797 213.895
L182.355 211.25
L182.914 209.678
L183.472 208.502
L185.148 202.106
L185.706 201.337
L186.265 199.271
L186.823 197.92
L187.383 195.928
L187.941 193.479
L188.5 191.816
L189.058 192.337
L189.617 189.811
L190.734 186.114
L191.292 185.319
L192.409 181.68
L195.202 172.118
L195.76 171.979
L196.319 171.133
L196.877 168.141
L197.437 166.98
L197.995 166.863
L198.554 163.114
L199.112 162.331
L199.671 162.033
L200.229 158.999
L200.788 158.435
L201.905 154.945
L202.463 154.264
L204.697 147.371
L205.256 144.793
L205.814 145.156
L206.374 143.244
L207.491 141.246
L208.049 137.979
L208.608 137.69
L209.166 136.271
L210.283 134.859
L211.4 132.222
L211.959 129.746
L213.634 126.862
L214.193 124.188
L214.751 125.114
L215.31 122.11
L215.868 122.201
L216.428 121.369
L216.986 119.418
L217.545 118.286
L218.103 116.106
L218.662 116.182
L219.22 115.863
L219.779 112.547
L220.337 111.838
L220.896 111.498
L221.454 109.155
L222.013 107.856
L222.571 108.818
L223.13 107.41
L223.688 104.911
L224.247 105.313
L225.365 103.126
L225.923 102.53
L226.482 100.524
L227.04 100.827
L227.599 99.5583
L228.157 100.827
L228.716 97.2314
L229.833 95.8904
L231.508 92.761
L232.067 93.2633
L232.625 93.0278
L233.184 88.6116
L233.742 88.041
L234.301 88.7172
L234.859 88.2633
L235.419 85.8469
L235.977 85.9778
L236.536 84.2233
L237.094 84.6824
L237.653 84.5286
L238.211 84.2238
L239.328 80.3772
L239.887 80.5767
L240.445 80.616
L241.004 78.5942
L241.562 77.6702
L242.121 77.4792
L242.679 80.3792
L243.796 74.4177
L244.355 74.6879
L244.913 75.4925
L245.473 75.1723
L246.031 75.93
L246.59 73.7529
L247.148 74.5049
L247.707 72.7009
L248.265 71.4473
L248.824 70.9877
L249.382 72.1396
L250.499 68.9775
L251.058 69.7186
L251.616 68.1611
L252.175 70.2432
L252.733 66.8137
L253.85 68.8999
L254.41 65.99
L254.968 65.6542
L255.527 64.8155
L256.085 66.9402
L256.644 65.0737
L257.202 63.6488
L257.761 64.5727
L258.319 63.6202
L258.878 62.9998
L259.436 65.2659
L259.995 62.7214
L260.553 60.9601
L261.112 60.7323
L261.67 61.016
L262.229 61.6702
L262.787 61.914
L263.346 60.9254
L263.904 62.9286
L264.464 60.9905
L265.022 60.7944
L265.581 62.9696
L266.139 61.5262
L266.698 58.9465
L267.256 59.2119
L267.815 61.0967
L268.373 60.0342
L268.932 60.3026
L269.49 58.0821
L270.049 58.3789
L270.607 60.8924
L271.166 58.9851
L271.724 57.9741
L272.283 59.5934
L272.841 60.743
L273.4 60.8417
L273.958 58.8763
L274.518 57.7096
L275.076 58.9718
L275.635 58.514
L276.193 62.2099
L276.752 60.476
L277.31 59.5584
L277.869 60.9117
L278.427 57.8176
L278.986 60.3464
L279.544 59.3561
L280.103 59.9283
L280.661 58.4129
L281.22 61.5801
L281.778 61.0091
L282.337 56.3887
L282.895 59.3985
L283.455 59.8547
L284.013 60.0585
L284.572 63.1276
L285.13 61.6367
L285.689 62.0587
L286.247 60.0986
L286.806 62.3328
L287.364 62.3227
L287.923 60.3632
L288.481 62.4694
L289.04 63.7174
L289.598 64.3758
L290.157 61.2047
L290.715 63.8225
L291.274 63.8563
L291.832 64.7293
L292.391 64.9578
L292.949 63.3461
L293.509 65.7655
L294.067 66.0096
L294.626 65.5219
L295.184 63.8002
L295.743 63.3676
L296.301 66.5389
L296.86 65.8441
L297.418 67.5753
L297.977 68.2537
L298.535 65.9769
L299.094 67.3776
L299.652 65.9819
L300.211 70.4267
L300.769 66.5887
L301.328 70.8663
L301.886 69.3783
L302.446 71.948
L303.004 71.2277
L303.563 73.3282
L304.121 69.783
L304.68 75.6008
L305.238 74.6778
L305.797 72.8339
L306.355 74.0866
L306.914 74.8422
L307.472 75.8152
L308.031 73.2598
L308.589 74.0143
L309.148 77.5186
L309.706 76.9436
L310.265 78.4615
L310.823 78.8532
L311.382 80.5264
L311.94 78.7323
L312.5 81.4104
L313.058 80.8274
L313.617 82.5059
L314.175 83.5919
L314.734 82.6348
L315.292 84.6491
L315.851 80.9975
L316.409 81.605
L316.968 84.3368
L317.526 85.072
L318.085 86.0274
L319.202 84.7612
L319.76 84.6038
L320.319 89.5295
L320.877 92.5335
L321.436 91.6864
L321.994 92.7027
L322.554 89.3419
L323.112 92.5685
L323.671 92.2572
L324.229 96.0056
L324.788 94.7668
L325.346 94.5477
L325.905 95.7184
L326.463 93.669
L327.022 96.5514
L327.58 93.8911
L328.139 95.7391
L328.697 95.7267
L329.256 100.685
L329.814 101.465
L330.373 99.5373
L330.931 99.3089
L331.491 100.057
L332.049 104.466
L332.608 104.784
L333.166 103.854
L333.725 101.663
L334.283 104.405
L334.842 104.461
L335.959 107.802
L336.517 110.457
L337.076 111.351
L337.634 109.912
L338.193 111.204
L338.751 109.844
L339.31 113.196
L340.427 115.405
L340.985 115.069
L341.545 117.93
L342.103 114.833
L342.662 117.646
L343.22 118.698
L344.337 119.476
L344.896 120.596
L345.454 122.598
L346.013 123.486
L346.571 125.579
L347.13 124.215
L347.688 125.757
L348.247 122.411
L348.805 129.757
L349.364 129.694
L349.922 130.211
L350.481 130.134
L351.039 131.971
L351.599 128.426
L352.157 130.525
L353.274 132.384
L353.833 133.983
L354.391 136
L355.508 133.441
L356.625 137.374
L357.184 140.289
L357.742 138.354
L358.301 140.884
L358.859 142.135
L359.418 140.936
L359.976 141.638
L360.536 143.463
L361.094 145.853
L361.653 146.413
L362.211 143.907
L362.77 143.548
L363.328 148.831
L363.887 152.206
L364.445 149.203
L365.004 149.218
L365.562 153.578
L366.121 153.844
L366.679 152.448
L367.238 153.329
L367.796 154.774
L368.355 153.834
L368.913 155.932
L369.472 156.835
L370.03 156.756
L370.59 154.085
L371.707 162.282
L372.265 160.966
L372.824 158.115
L373.382 160.764
L373.941 166.231
L374.499 165.375
L375.058 166.042
L375.616 164.578
L376.175 166.267
L377.292 167.966
L377.85 169.844
L378.409 172.281
L378.967 171.196
L380.085 170.996
L381.202 176.479
L381.761 175.668
L382.319 176.361
L382.878 178.05
L383.436 177.647
L383.995 180.769
L384.553 181.629
L385.112 182.988
L385.67 182.782
L386.229 186.608
L386.787 185.767
L387.346 187.45
L387.904 184.315
L388.463 186.373
L389.021 190.177
L389.581 188.355
L390.698 191.463
L391.256 190.546
L391.815 192.413
L392.373 192.904
L392.932 194.625
L393.49 198.798
L394.049 196.17
L394.607 196.923
L395.166 198.765
L395.724 198.77
L396.283 202.014
L396.841 200.062
L397.4 201.845
L397.958 203.236
L398.517 201.69
L399.075 204.426
L399.635 207.837
L400.193 204.532
L400.752 209.335
L401.31 209.16
L401.869 209.294
L402.427 213.474
L402.986 212.929
L403.544 210.632
L404.103 214.339
L404.661 214.926
L405.22 215.176
L405.778 219.363
L406.337 216.448
L407.454 222.362
L408.012 222.32
L408.572 218.978
L409.13 224.343
L409.689 223.493
L410.247 224.819
L410.806 223.424
L411.364 227.04
L411.923 224.525
L412.481 229.725
L413.04 225.707
L413.598 230.852
L414.157 230.336
L414.715 230.062
L415.274 232.411
L415.832 233.885
L416.391 232.918
L416.949 236.21
L417.508 235.82
L418.066 236.607
L418.626 238.848
L419.743 241.926
L420.301 240.387
L420.86 242.282
L421.418 243.6
L421.977 243.476
L422.535 244.457
L423.094 248.204
L423.652 245.762
L424.211 249.253
L424.769 246.712
L425.328 247.3
L425.886 250.043
L426.445 250.017
L427.003 250.935
L427.563 251.118
L428.121 252.842
L428.68 252.243
L429.238 255.947
L429.797 256.158
L430.355 257.199
L430.914 252.972
L431.472 257.983
L432.031 258.587
L432.589 260.02
L433.148 256.26
L433.706 261.983
L434.265 262.665
L434.823 262.841
L435.382 263.141
L435.94 260.518
L436.499 262.535
L437.057 264.975
L437.617 266.898
L438.175 263.966
L438.734 268.598
L439.292 264.82
L439.851 269.474
L440.409 269.082
L440.968 271.608
L441.526 273.492
L442.085 272.187
L442.643 272.891
L443.202 274.839
L443.76 274.47
L444.319 273.676
L444.877 275.2
L445.436 274.498
L445.994 277.308
L446.553 276.6
L447.111 276.712
L447.671 280.761
L448.229 280.365
L449.346 282.934
L449.905 281.463
L450.463 284.997
L451.022 284.577
L451.58 282.919
L452.139 288.056
L452.697 286.858
L453.256 287.684
L453.814 288.908
L454.373 287.396
L454.931 290.867
L455.49 289.424
L456.048 288.453
L456.608 292.097
L457.166 292.955
L457.725 291.894
L458.283 293.256
L458.842 295.192
L459.4 298.196
L459.959 295.283
L460.517 296.426
L461.076 300.342
L461.634 298.749
L462.193 303.315
L462.751 299.978
L463.31 301.849
L463.868 301.609
L464.427 302.277
L464.985 303.208
L465.544 304.802
L466.102 306.006
L466.662 306.313
L467.22 305.789
L467.779 305.696
L468.337 310.496
L468.896 305.514
L469.454 312.511
L470.013 309.524
L470.571 307.547
L471.13 311.735
L471.688 312.184
L472.247 311.382
L472.805 315.457
L473.364 314.988
L473.922 315.753
L474.481 316.166
L475.039 315.327
L475.598 316.762
L476.156 315.398
L476.716 317.702
L477.274 318.979
L477.833 318.34
L478.391 320.858
L478.95 320.178
L479.508 320.916
L480.067 319.226
L480.625 321.824
L481.184 322.206
L481.742 323.595
L482.301 324.388
L482.859 322.507
L483.418 327.484
L483.976 324.373
L484.535 324.558
L485.093 327.047
L485.653 327.541
L486.211 327.771
L486.77 330.465
L487.328 330.026
L487.887 329.174
L488.445 329.05
L489.004 331.669
L489.562 330.85
L490.121 331.47
L490.679 332.898
L492.913 335.06
L493.472 335.431
L494.03 337.698
L494.589 337.949
L495.147 340.367
L495.707 336.273
L496.265 337.631
L496.824 340.152
L497.382 339.111
L497.941 340.223
L498.499 341.808
L499.058 341.35
L499.616 343.316
L500.175 342.459
L500.733 346.339
L501.292 344.847
L501.85 345.529
L502.409 343.182
L502.967 344.901
L503.526 347.785
L504.084 346.472
L505.202 344.633
L505.761 350.077
L506.319 349.621
L506.878 351.979
L507.995 347.638
L508.553 353.701
L509.112 350.969
L509.67 352.333
L510.229 349.638
L510.787 355.629
L511.346 354.11
L511.904 355.853
L512.463 355.586
L513.021 356.508
L513.58 357.186
L514.698 359.968
L515.815 357.392
L516.373 359.327
L516.932 358.638
L517.49 359.159
L518.049 360.734
L518.607 360.9
L519.724 360.891
L520.841 361.802
L521.4 364.165
L521.958 362.891
L522.517 364.715
L523.075 364.604
L523.634 365.162
L524.192 364.7
L524.752 366.213
L525.31 365.697
L525.869 366.266
L526.427 368.999
L526.986 366.378
L527.544 370.882
L528.103 366.892
L528.661 371.021
L529.22 368.193
L529.778 368.821
L530.337 369.739
L531.454 374.122
L532.012 370.734
L532.571 372.053
L533.129 370.674
L533.689 372.175
L534.247 372.888
L534.806 372.885
L535.364 373.799
L536.481 376.7
L537.04 376.65
L537.598 377.918
L538.157 378.207
L538.715 376.105
L539.274 378.057
L539.832 376.324
L540.949 380.279
L542.066 379.602
L542.625 380.849
L543.183 380.814
L543.743 378.801
L544.301 380.502
L544.86 384.32
L545.418 384.376
L545.977 380.502
L546.535 382.735
L547.094 382.974
L547.652 382.845
L548.211 383.847
L548.769 385.924
L549.328 385.328
L549.886 383.696
L550.445 384.358
L551.003 384.837
L551.562 386.401
L552.12 385.802
L552.679 387.67
L553.237 385.667
L553.797 387.565
L554.355 386.334
L554.914 388.665
L555.472 389.589
L556.031 388.992
L556.589 391.877
L557.148 389.579
L557.706 391.626
L558.265 390.024
L558.823 392.554
L559.382 391.786
L559.94 394.052
L560.499 393.328
L561.057 393.315
L561.616 394.235
L562.174 394.529
L562.734 394.346
L563.292 394.599
L563.851 396.297
L564.409 394.409
L564.968 395.301
L565.526 396.727
L566.085 394.366
L566.643 397.521
L567.202 396.414
L567.76 398.19
L568.319 400.507
L568.877 398.442
L569.436 399.073
L569.994 398.542
L570.553 398.503
L571.111 400.534
L571.67 399.891
L572.228 401.437
L572.788 401.383
L573.346 401.851
L573.905 401.548
L575.022 402.698
L576.139 401.704
L576.697 400.918
L577.256 404.457
L577.814 402.889
L578.373 405.107
L578.931 404.739
L579.49 404.742
L580.048 405.397
L580.607 403.699
L581.165 406.482
L581.725 404.85
L582.283 407.484
L582.842 405.895
L583.4 408.825
L583.959 408.013
L584.517 406.653
L585.076 405.691
L585.634 409.075
L586.193 408.067
L587.31 407.02
L587.868 410.148
L588.427 407.646
L588.985 410.237
L589.544 409.437
L590.102 411.656
L590.661 412.673
L591.219 411.899
L591.779 410.612
L592.337 413.583
L592.896 411.049
L593.454 410.952
L594.013 410.119
L594.571 412.993
L595.688 412.14
L596.247 413.504
L596.805 412.298
L597.364 414.09
L597.922 412.88
L598.481 413.311
L599.039 415.667
L599.598 415.98
L600.156 416.145
L600.715 413.797
L601.273 413.934
L601.833 417.577
L602.391 417.52
L602.95 415.234
L603.508 417.634
L604.625 417.393
L605.184 419.047
L605.742 418.149
L606.301 417.838
L606.859 418.81
L607.418 419.554
L607.976 418.212
L609.093 420.512
L609.652 419.658
L609.652 419.658" style="fill:none;stroke:#0000ff;"></path>
   </g>
   <g id="line2d_2">
    <path clip-path="url(#p032b8def87)" d="
M51.6524 458.223
L62.265 458.131
L66.7335 457.876
L70.0848 457.494
L73.4362 456.884
L76.229 456.16
L79.0218 455.205
L81.8145 453.988
L84.6073 452.483
L87.4001 450.664
L89.6344 448.968
L92.4271 446.53
L95.2199 443.727
L98.0127 440.544
L100.806 436.974
L103.598 433.011
L106.391 428.654
L109.184 423.903
L111.977 418.763
L115.328 412.092
L118.679 404.888
L122.031 397.173
L125.941 387.562
L129.851 377.34
L134.319 364.981
L138.788 351.984
L143.815 336.717
L149.959 317.33
L158.337 290.047
L177.887 225.999
L184.589 204.935
L190.175 188.051
L195.202 173.487
L200.229 159.61
L204.697 147.905
L209.166 136.84
L213.076 127.711
L216.986 119.121
L220.896 111.083
L224.805 103.615
L228.157 97.6723
L231.508 92.1584
L234.859 87.076
L238.211 82.4265
L241.562 78.2097
L244.355 75.0246
L247.148 72.1385
L249.941 69.547
L252.733 67.2495
L255.527 65.2409
L258.319 63.5192
L261.112 62.0787
L263.904 60.9162
L266.698 60.0258
L269.49 59.4028
L272.283 59.0412
L275.076 58.9354
L277.869 59.0792
L280.661 59.466
L283.455 60.0895
L286.247 60.9425
L289.04 62.0188
L291.832 63.3104
L295.184 65.1353
L298.535 67.2482
L301.886 69.6362
L305.238 72.2866
L309.148 75.694
L313.058 79.4198
L316.968 83.4459
L321.436 88.3874
L325.905 93.664
L330.931 99.964
L335.959 106.613
L341.545 114.359
L347.688 123.256
L354.95 134.195
L363.328 147.258
L373.382 163.365
L391.815 193.415
L407.454 218.729
L418.066 235.505
L427.563 250.112
L436.499 263.438
L444.877 275.513
L452.697 286.39
L459.959 296.131
L467.22 305.512
L474.481 314.526
L481.742 323.167
L488.445 330.811
L495.147 338.136
L501.85 345.142
L508.553 351.835
L515.256 358.217
L521.958 364.295
L528.661 370.076
L535.364 375.565
L542.066 380.773
L548.769 385.707
L555.472 390.375
L562.174 394.788
L569.436 399.292
L576.697 403.518
L583.959 407.481
L591.219 411.191
L598.481 414.662
L606.301 418.145
L609.652 419.561
L609.652 419.561" style="fill:none;stroke:#000000;stroke-width:1.1;"></path>
   </g>
   <g id="line2d_3">
    <path clip-path="url(#p032b8def87)" d="
M51.6524 458.223
L63.3821 458.119
L68.4092 457.832
L72.8776 457.282
L75.1118 456.882
L77.9046 456.232
L82.3731 454.775
L86.283 452.997
L89.0758 451.49
L92.9857 448.855
L96.3371 446.133
L98.5713 444.193
L99.6884 443.016
L100.806 441.849
L102.481 440.084
L104.157 438.214
L105.274 436.802
L107.508 434.134
L108.625 432.432
L109.184 431.825
L110.301 430.302
L110.86 429.578
L113.094 426.017
L113.652 425.4
L114.77 423.361
L115.328 422.688
L116.445 420.759
L117.562 418.899
L121.472 411.989
L122.031 410.779
L122.589 409.974
L125.941 403.415
L126.499 402.75
L127.058 401.04
L127.616 399.993
L128.175 398.608
L128.734 397.931
L129.851 395.063
L130.968 393.049
L132.643 388.789
L133.202 388.05
L133.761 387.026
L134.319 385.418
L136.553 380.906
L137.67 377.671
L138.229 376.924
L139.346 373.564
L140.463 370.881
L142.139 366.99
L142.697 366.045
L143.256 363.952
L143.815 363.174
L144.373 361.437
L144.932 360.229
L146.607 355.987
L147.166 354.808
L150.517 345.513
L151.076 344.401
L151.634 342.982
L152.193 341.887
L153.31 338.512
L153.869 337.405
L154.427 335.227
L154.986 334.208
L155.544 332.353
L156.103 330.995
L156.661 330.303
L158.896 323.372
L159.454 321.84
L160.013 321.089
L161.13 317.984
L162.247 313.68
L162.806 313.352
L163.923 309.737
L164.481 308.593
L165.04 306.362
L165.598 305.596
L166.157 303.554
L166.715 302.335
L167.274 300.367
L167.832 299.686
L168.392 297.853
L168.95 296.425
L169.509 294.101
L170.067 293.003
L170.626 292.218
L171.184 290.829
L171.743 288.606
L173.977 282.695
L174.535 280.542
L175.652 278.011
L176.211 277.659
L176.769 274.55
L177.329 273.544
L177.887 271.858
L178.446 269.565
L179.004 268.657
L180.121 265.663
L180.68 264.645
L181.238 262.26
L181.797 260.542
L182.355 260.07
L182.914 258.582
L183.472 256.33
L184.031 255.716
L185.148 252.314
L185.706 250.083
L186.265 250.246
L186.823 247.175
L187.383 246.082
L187.941 244.28
L188.5 243.069
L189.058 242.178
L191.851 234.615
L192.409 234.658
L192.968 232.31
L194.643 227.818
L195.202 225.835
L195.76 225.423
L196.319 223.899
L196.877 221.371
L197.437 221.302
L197.995 220.786
L198.554 218.026
L199.112 217.47
L199.671 214.831
L200.229 214.141
L200.788 212.378
L201.346 211.345
L201.905 209.369
L202.463 208.38
L203.022 207.916
L203.58 205.934
L204.139 205.126
L204.697 203.218
L205.256 201.833
L205.814 200.871
L206.932 197.635
L207.491 197.154
L208.049 195.744
L208.608 195.088
L210.283 189.762
L210.842 190.211
L211.959 186.583
L212.517 186.694
L213.076 184.399
L213.634 183.301
L214.751 180.642
L215.31 180.209
L215.868 178.044
L216.428 177.733
L217.545 174.75
L218.103 173.651
L218.662 172.011
L219.22 173.497
L219.779 170.286
L220.337 168.708
L220.896 168.611
L221.454 164.832
L222.013 165.984
L222.571 164.673
L223.13 164.491
L223.688 162.724
L224.247 161.442
L224.805 159.502
L225.365 159.984
L225.923 159.127
L226.482 157.661
L227.04 157.422
L227.599 155.818
L229.274 152.643
L229.833 150.759
L230.391 150.283
L230.95 151.375
L231.508 148.579
L232.067 146.604
L232.625 147.444
L233.184 149.224
L233.742 145.673
L234.301 143.479
L234.859 143.019
L235.419 142.394
L235.977 142.552
L236.536 139.535
L237.094 140.479
L237.653 140.495
L238.211 138.405
L238.77 136.844
L239.328 136.125
L240.445 134.059
L241.004 133.149
L241.562 134.251
L242.121 131.794
L242.679 133.479
L243.238 130.986
L243.796 129.987
L244.355 132.051
L244.913 130.275
L245.473 130.297
L246.031 127.252
L246.59 125.074
L247.148 125.58
L247.707 125.381
L248.265 124.743
L248.824 123.872
L249.382 124.803
L249.941 121.866
L250.499 121.39
L251.058 121.754
L251.616 120.828
L252.175 117.278
L252.733 118.549
L253.292 120.235
L253.85 118.884
L254.41 118.139
L255.527 116.062
L256.085 115.536
L256.644 115.7
L257.202 115.748
L257.761 113.469
L258.319 113.512
L258.878 112.455
L259.436 114.371
L259.995 112.284
L260.553 112.63
L261.112 110.205
L261.67 111.925
L262.229 109.714
L262.787 109.725
L263.346 110.06
L263.904 108.732
L264.464 110.019
L265.022 107.561
L265.581 109.487
L266.139 106.529
L266.698 108.152
L267.256 106.658
L267.815 106.537
L268.373 104.353
L270.049 104.922
L270.607 103.305
L271.166 105.755
L271.724 101.716
L272.283 103.617
L272.841 103.084
L273.4 101.832
L273.958 102.85
L274.518 102.661
L275.635 101.311
L276.193 100.679
L276.752 102.632
L277.31 99.8942
L278.427 101.442
L278.986 101.081
L279.544 102.413
L280.103 98.0248
L280.661 98.9241
L281.22 99.572
L281.778 97.0477
L282.337 98.7042
L282.895 97.5988
L283.455 98.7729
L284.572 97.6774
L285.13 99.091
L286.247 98.3672
L286.806 97.3195
L287.364 96.8981
L287.923 96.7994
L288.481 99.8968
L289.598 95.4189
L290.157 97.0124
L290.715 97.0091
L291.274 98.0489
L291.832 97.7998
L292.391 96.6587
L292.949 98.1196
L293.509 97.5029
L294.067 99.7332
L294.626 96.6606
L295.184 96.7934
L295.743 97.2447
L296.301 95.614
L296.86 97.0706
L297.418 97.2535
L297.977 96.4576
L298.535 99.1264
L299.094 96.3462
L299.652 96.9731
L300.211 97.0122
L300.769 99.043
L301.328 96.8314
L301.886 99.7138
L302.446 97.2713
L303.004 97.7443
L303.563 98.787
L304.121 100.331
L304.68 96.8841
L305.238 99.6269
L305.797 100.791
L306.355 97.4892
L306.914 98.5947
L307.472 96.6811
L308.031 99.2349
L308.589 98.1987
L309.148 100.109
L309.706 98.3394
L310.265 98.557
L310.823 100.261
L311.382 100.84
L311.94 100.865
L312.5 99.4315
L313.058 97.3432
L313.617 99.8339
L314.175 98.6135
L314.734 99.6891
L315.292 99.6144
L315.851 101.055
L316.409 101.555
L316.968 103.645
L317.526 103.711
L318.085 102.371
L319.202 103.178
L319.76 104.359
L320.877 103.405
L321.436 104.647
L321.994 102.972
L322.554 106.373
L323.671 103.774
L324.229 107.374
L324.788 105.428
L325.346 106.76
L325.905 106.607
L326.463 109.197
L327.022 106.06
L327.58 108.428
L328.139 109.153
L328.697 109.662
L329.256 108.154
L329.814 108.836
L330.373 110.879
L330.931 109.335
L331.491 111.013
L332.049 110.851
L332.608 112.781
L333.166 110.717
L333.725 112.701
L334.283 113.267
L334.842 114.034
L335.4 115.067
L335.959 111.657
L336.517 114.635
L337.076 114.735
L337.634 114.623
L338.193 114.006
L338.751 116.217
L339.31 116.965
L339.868 119.346
L340.427 115.042
L340.985 115.911
L341.545 117.434
L342.103 119.562
L342.662 117.262
L343.22 121.713
L343.779 121.442
L344.337 118.864
L344.896 121.935
L345.454 123.435
L346.013 119.805
L346.571 123.417
L347.13 122.423
L347.688 123.971
L348.247 124.92
L348.805 124.511
L349.364 123.248
L349.922 125.107
L350.481 124.739
L351.599 128.927
L352.157 128.605
L352.716 126.41
L353.274 126.825
L353.833 129.873
L354.391 127.537
L355.508 131.107
L356.067 130.43
L356.625 132.847
L357.184 129.89
L357.742 132.58
L358.301 133.185
L358.859 136.933
L359.418 135.864
L359.976 136.435
L360.536 135.219
L361.094 138.323
L361.653 135.642
L362.77 138.887
L363.328 136.158
L363.887 138.269
L364.445 138.02
L365.004 142.507
L365.562 141.084
L366.121 140.274
L366.679 140.546
L367.238 144.486
L367.796 140.94
L368.355 144.668
L368.913 141.828
L369.472 145.546
L370.03 145.514
L370.59 145.815
L371.148 146.486
L371.707 145.97
L372.265 149.6
L372.824 148.515
L373.382 146.744
L373.941 151.163
L374.499 150.099
L375.058 151.843
L375.616 150.573
L376.175 154.611
L376.733 149.59
L377.292 150.882
L377.85 153.286
L378.409 156.449
L378.967 155.48
L379.527 155.002
L380.085 157.305
L380.644 157.098
L381.202 156.71
L381.761 157.045
L382.319 160.715
L382.878 159.795
L383.436 161.938
L383.995 159.578
L384.553 161.018
L385.112 161.141
L385.67 162.406
L386.229 165.037
L386.787 164.714
L387.346 164.124
L387.904 163.308
L388.463 165.802
L389.021 163.396
L389.581 167.595
L390.139 169.608
L390.698 164.047
L391.256 171.473
L391.815 170.837
L392.373 173.374
L392.932 170.432
L393.49 173.55
L394.049 173.311
L394.607 172.212
L395.166 173.362
L395.724 173.682
L396.283 174.811
L396.841 173.454
L397.958 177.633
L398.517 177.619
L399.075 179.065
L399.635 179.553
L400.193 176.487
L400.752 181.415
L401.31 179.569
L401.869 181.312
L402.427 182.681
L402.986 181.766
L403.544 185.029
L404.103 182.522
L404.661 186.651
L405.22 187.808
L405.778 184.07
L406.337 189.225
L406.895 189.86
L407.454 188.613
L408.012 189.021
L408.572 191.187
L409.13 191.006
L409.689 191.62
L411.364 195.564
L411.923 193.137
L412.481 194.418
L413.04 194.701
L413.598 194.443
L414.157 196.469
L414.715 200.898
L415.274 200.162
L415.832 196.941
L416.391 198.938
L416.949 202.626
L417.508 200.405
L418.626 205.691
L419.184 203.326
L419.743 204.991
L420.301 205.663
L420.86 205.564
L421.418 204.859
L421.977 203.944
L422.535 210.097
L423.094 207.24
L423.652 211.164
L424.211 209.13
L425.886 212.316
L426.445 215.681
L427.003 213.699
L427.563 213.958
L428.121 215.714
L428.68 219.01
L429.238 214.468
L429.797 214.766
L430.355 217.923
L430.914 217.286
L431.472 218.302
L432.031 220.046
L432.589 221.188
L433.148 222.925
L433.706 222.731
L434.265 223.001
L434.823 224.082
L435.382 226.009
L435.94 224.503
L436.499 224.526
L437.057 223.131
L437.617 226.99
L438.175 226.073
L438.734 227.486
L439.851 228.531
L440.409 230.822
L440.968 231.664
L441.526 232.109
L442.085 231.812
L442.643 234.338
L443.202 232.857
L443.76 236.392
L444.319 237.537
L444.877 233.109
L445.436 238.057
L445.994 237.119
L446.553 237.48
L447.111 239.753
L447.671 241.463
L448.229 241.441
L448.788 239.966
L449.346 243.501
L449.905 242.68
L450.463 241.044
L451.022 245.929
L451.58 244.31
L452.139 244.879
L452.697 247.796
L453.256 244.501
L453.814 248.359
L454.373 247.67
L454.931 245.141
L455.49 250.909
L456.048 248.532
L456.608 249.264
L457.166 250.797
L457.725 250.308
L458.283 254.074
L458.842 253.584
L459.4 254.497
L459.959 253.349
L460.517 253.535
L461.076 256.914
L461.634 256.28
L462.193 258.887
L462.751 259.368
L463.31 257.447
L463.868 260.344
L464.427 261.808
L464.985 260.181
L465.544 259.916
L466.102 264.185
L466.662 264.927
L467.22 261.88
L467.779 264.584
L468.337 263.514
L468.896 265.651
L469.454 265.4
L470.013 267.621
L470.571 267.884
L471.13 268.631
L471.688 272.424
L472.247 267.811
L472.805 267.523
L473.364 273.31
L473.922 269.363
L474.481 268.746
L475.039 274.59
L475.598 272.394
L476.156 275.334
L476.716 273.719
L477.274 272.895
L477.833 275.733
L478.391 273.955
L478.95 277.933
L479.508 278.464
L480.067 279.833
L480.625 280.217
L481.184 277.785
L481.742 283.955
L482.859 282.097
L483.418 279.396
L483.976 284.187
L484.535 282.022
L485.093 286.022
L485.653 284.532
L486.211 285.678
L486.77 288.481
L487.328 288.648
L487.887 285.167
L488.445 291.737
L489.004 288.581
L489.562 289.779
L490.121 291.843
L491.238 291.412
L491.796 291.072
L492.355 291.864
L492.913 293.815
L493.472 293.496
L494.03 295.548
L494.589 298.516
L495.147 296.271
L495.707 295.919
L496.265 294.257
L496.824 300.929
L497.382 296.253
L497.941 297.354
L498.499 300.578
L499.058 300.429
L499.616 300.859
L500.175 297.9
L500.733 304.114
L501.292 300.787
L501.85 304.53
L502.409 302.288
L502.967 300.654
L503.526 305.355
L504.084 302.101
L504.644 306.921
L505.202 306.281
L505.761 305.817
L506.319 307.066
L506.878 307.396
L507.436 306.292
L507.995 306.099
L508.553 307.939
L509.112 312.352
L509.67 311.906
L510.229 313.67
L510.787 311.951
L511.346 312.401
L511.904 310.49
L512.463 315.319
L513.021 313.531
L513.58 314.303
L514.698 316.31
L515.256 313.319
L515.815 316.541
L516.373 316.184
L516.932 319.681
L517.49 318.378
L518.049 320.535
L518.607 320.787
L519.166 320.253
L519.724 321.392
L520.283 323.218
L520.841 323.61
L521.4 325.086
L521.958 324.913
L522.517 323.781
L523.075 322.309
L523.634 322.966
L524.192 325.816
L524.752 326.632
L525.31 327.13
L525.869 328.636
L526.427 325.309
L526.986 328.301
L527.544 326.396
L528.661 330.369
L529.22 329.904
L529.778 328.286
L530.337 327.652
L530.895 332.247
L531.454 331.223
L532.012 333.389
L532.571 331.364
L533.689 334.358
L534.247 333.937
L534.806 335.601
L535.364 334.862
L535.923 334.881
L536.481 336.579
L537.04 338.794
L538.157 334.849
L538.715 337.627
L539.274 337.23
L539.832 340.371
L540.391 339.119
L540.949 338.157
L541.508 341.117
L542.066 340.468
L542.625 341.85
L543.183 342.595
L543.743 345.02
L544.301 342.437
L544.86 342.472
L545.418 344.74
L545.977 344.941
L547.094 344.747
L547.652 343.87
L548.211 347.309
L548.769 344.904
L549.886 348.402
L550.445 348.586
L551.003 347.424
L551.562 350.058
L552.12 349.329
L552.679 350.189
L553.237 353.593
L553.797 352.251
L554.355 354.292
L554.914 351.049
L555.472 352.567
L556.589 351.124
L558.265 355.018
L558.823 355.217
L559.382 356.644
L559.94 354.688
L560.499 358.324
L561.057 357.618
L561.616 355.11
L562.174 358.792
L562.734 358.179
L563.292 356.62
L564.409 360.307
L564.968 360.569
L565.526 360.604
L566.085 360.467
L566.643 362.377
L567.202 361.939
L567.76 361.308
L568.319 363.407
L568.877 363.279
L569.436 365.083
L569.994 360.835
L570.553 365.69
L571.111 366.133
L571.67 365.837
L572.228 366.732
L573.346 366.378
L573.905 367.931
L574.463 366.674
L575.022 368.453
L575.58 368.182
L576.139 369.913
L577.256 368.262
L577.814 370.465
L578.373 370.279
L578.931 369.972
L579.49 369.966
L580.048 371.369
L580.607 371.548
L581.165 372.779
L581.725 373.368
L582.283 374.407
L582.842 376
L583.4 373.055
L583.959 373.183
L584.517 375.992
L585.076 377.05
L585.634 376.346
L586.193 376.071
L586.751 378.108
L587.31 377.671
L587.868 378.643
L588.427 379.266
L588.985 378.499
L589.544 378.458
L590.102 380.027
L590.661 379.739
L591.219 382.115
L591.779 380.065
L592.337 381.884
L592.896 380.459
L593.454 378.712
L594.013 382.512
L594.571 379.531
L595.13 382.413
L595.688 382.449
L596.247 381.652
L596.805 381.645
L597.364 384.514
L597.922 383.181
L598.481 383.846
L599.039 385.746
L599.598 384.472
L600.156 386.599
L600.715 385.888
L601.833 386.095
L602.391 385.73
L602.95 385.057
L603.508 385.501
L604.067 387.531
L604.625 387.631
L605.184 387.356
L605.742 389.027
L606.301 386.559
L606.859 390.303
L607.418 388.719
L608.535 391.591
L609.093 389.935
L609.652 391.615
L609.652 391.615" style="fill:none;stroke:#008000;"></path>
   </g>
   <g id="line2d_4">
    <path clip-path="url(#p032b8def87)" d="
M51.6524 458.223
L65.6164 458.115
L70.6434 457.881
L73.9947 457.614
L80.6974 456.658
L83.4902 456.075
L89.6344 454.304
L92.4271 453.261
L94.6614 452.326
L100.247 449.445
L107.508 444.674
L108.625 443.643
L110.86 441.858
L111.977 440.865
L113.094 440.033
L114.211 439.003
L115.328 437.934
L116.445 436.773
L117.004 436.311
L118.121 435.209
L119.797 433.587
L122.031 431.026
L122.589 430.555
L128.175 423.89
L129.292 422.427
L129.851 421.939
L131.526 419.478
L133.202 417.64
L133.761 416.418
L134.319 415.883
L134.878 414.822
L135.436 414.111
L135.995 413.649
L136.553 412.447
L137.112 411.821
L137.67 410.722
L138.229 410.437
L138.788 409.192
L139.905 408.088
L141.022 405.867
L141.58 405.085
L142.139 404.563
L143.815 401.659
L144.373 401.204
L145.49 399.232
L146.607 397.478
L147.166 396.425
L147.724 395.964
L148.283 394.745
L153.31 386.595
L153.869 385.904
L154.986 383.688
L155.544 383.136
L156.103 381.772
L156.661 381.053
L158.337 377.55
L159.454 375.496
L160.571 374.174
L161.688 371.833
L162.247 370.97
L162.806 369.899
L163.364 369.303
L163.923 367.638
L164.481 367.179
L165.04 366.231
L165.598 364.412
L166.157 363.863
L166.715 362.551
L167.274 362.213
L167.832 360.431
L169.509 357.848
L170.626 354.992
L171.184 354.049
L171.743 352.879
L172.301 352.507
L172.86 351.891
L173.418 349.89
L173.977 348.998
L174.535 347.885
L175.652 346.291
L176.211 344.915
L177.329 342.826
L177.887 342.026
L178.446 340.962
L179.004 339.054
L179.563 338.537
L180.68 335.526
L181.238 335.416
L181.797 334.69
L182.355 332.382
L182.914 332.383
L183.472 330.749
L184.031 330.215
L184.589 329.037
L185.148 327.265
L185.706 326.627
L186.823 324.351
L187.383 323.5
L187.941 322.3
L188.5 320.474
L189.058 320.308
L190.175 317.534
L190.734 317.386
L191.292 315.455
L191.851 315.226
L192.409 313.669
L192.968 311.423
L193.526 311.226
L194.085 310.657
L194.643 309.408
L195.202 308.651
L195.76 307.408
L196.877 304.165
L197.437 303.805
L197.995 303.868
L198.554 301.723
L199.671 299.547
L200.229 299.065
L200.788 296.533
L201.346 296.585
L201.905 294.695
L202.463 294.585
L203.022 293.392
L203.58 291.698
L204.139 291.626
L204.697 288.767
L205.256 288.128
L205.814 286.984
L206.374 286.538
L206.932 285.924
L207.491 284.154
L208.049 283.357
L208.608 281.635
L209.166 281.303
L209.725 279.921
L210.283 279.844
L210.842 279.183
L211.4 276.466
L211.959 277.083
L213.076 272.836
L213.634 272.959
L214.751 271.085
L215.31 269.587
L215.868 268.509
L216.428 267.921
L216.986 266.093
L217.545 264.695
L218.103 264.794
L218.662 262.87
L219.22 261.958
L219.779 260.697
L220.337 260.126
L220.896 259.962
L221.454 258.67
L222.013 258.079
L222.571 256.79
L223.13 254.487
L223.688 254.127
L224.247 252.984
L224.805 253.134
L225.365 251.05
L226.482 249.738
L227.04 248.067
L227.599 249.104
L228.716 244.951
L229.274 244.578
L229.833 244.429
L230.391 243.081
L230.95 242.263
L232.067 239.259
L232.625 239.139
L233.184 237.146
L233.742 237.685
L234.301 236.158
L234.859 235.208
L235.977 233.641
L236.536 231.906
L237.094 232.607
L237.653 230.746
L238.211 230.208
L238.77 229.264
L239.328 226.732
L239.887 228.009
L240.445 226.204
L241.004 225.135
L241.562 225.838
L242.121 223.243
L242.679 223.244
L243.238 221.418
L243.796 221.187
L244.913 219.131
L245.473 218.563
L246.031 217.419
L246.59 217.6
L247.148 214.264
L247.707 214.295
L248.265 214.639
L249.382 212.966
L249.941 211.567
L250.499 211.375
L251.058 209.688
L251.616 210.14
L252.175 207.682
L252.733 207.784
L253.292 206.469
L253.85 206.042
L254.41 205.174
L254.968 202.733
L255.527 203.253
L256.085 202.245
L256.644 203.048
L257.202 202.93
L257.761 201.558
L258.319 200.913
L259.436 197.528
L259.995 198.585
L260.553 197.845
L261.112 196.103
L261.67 195.473
L262.229 193.926
L262.787 194.981
L263.346 193.116
L263.904 192.581
L264.464 192.968
L265.022 190.54
L265.581 188.679
L266.139 189.641
L266.698 189.797
L267.815 187.746
L268.373 187.596
L268.932 187.817
L269.49 185.462
L270.049 185.659
L270.607 185.402
L271.166 184.358
L271.724 182.884
L272.283 183.151
L273.4 180.98
L273.958 181.882
L274.518 180.945
L275.076 180.619
L275.635 178.956
L276.193 179.883
L276.752 177.995
L277.31 179.216
L277.869 177.495
L278.427 177.007
L278.986 175.8
L280.103 174.405
L280.661 173.976
L281.22 174.045
L281.778 173.712
L282.337 173.9
L282.895 171.225
L284.013 170.365
L284.572 171.306
L285.13 171.444
L285.689 170.684
L286.247 169.202
L286.806 168.868
L287.364 167.804
L287.923 166.446
L288.481 167.642
L289.04 166.969
L289.598 165.703
L290.157 165.228
L290.715 165.562
L291.274 164.462
L291.832 163.68
L292.949 164.124
L293.509 163.641
L294.067 161.99
L294.626 162.321
L295.184 162.884
L296.301 159.975
L296.86 161.486
L297.418 160.144
L297.977 158.277
L298.535 159.812
L299.094 159.503
L299.652 157.615
L300.211 159.267
L300.769 157.617
L301.328 157.824
L301.886 156.178
L302.446 155.144
L303.004 155.701
L303.563 155.101
L304.121 156.03
L304.68 155.49
L305.238 154.457
L305.797 153.183
L306.355 153.825
L306.914 152.687
L307.472 152.695
L308.031 152.507
L308.589 151.084
L309.148 152.202
L309.706 149.367
L310.265 153.235
L310.823 151.626
L311.382 150.905
L311.94 150.604
L312.5 153.11
L313.058 150.024
L313.617 150.265
L314.175 150.93
L314.734 149.339
L315.292 150.823
L315.851 148.566
L316.409 149.346
L316.968 148.796
L317.526 147.76
L318.085 147.896
L318.643 146.888
L319.202 147.084
L319.76 145.978
L320.319 147.957
L320.877 145.17
L321.436 144.949
L321.994 146.956
L322.554 145.092
L323.112 144.616
L323.671 146.506
L324.788 143.748
L325.346 148.778
L325.905 146.202
L326.463 147.803
L327.022 145.255
L327.58 144.636
L328.139 142.484
L329.256 145.387
L329.814 144.832
L330.373 144.827
L330.931 144.195
L331.491 145.536
L332.049 144.116
L332.608 144.19
L333.166 143.844
L333.725 145.005
L334.283 141.773
L334.842 143.209
L335.4 143.061
L336.517 146.261
L337.076 143.87
L337.634 143.792
L338.193 142.777
L339.31 142.484
L339.868 143.393
L340.427 141.16
L340.985 139.778
L341.545 145.352
L342.103 143.004
L342.662 144.096
L343.22 140.743
L343.779 142.147
L344.337 141.563
L344.896 142.434
L345.454 140.678
L346.013 142.155
L346.571 139.946
L347.13 141.866
L347.688 142.558
L348.247 141.615
L348.805 144.322
L349.364 140.381
L349.922 141.904
L350.481 141.641
L351.039 143.002
L351.599 143.273
L352.157 140.126
L352.716 143.684
L353.274 139.102
L353.833 141.711
L354.391 139.863
L354.95 143.388
L355.508 142.902
L356.625 144.197
L357.184 142.549
L357.742 142.683
L358.301 143.492
L358.859 142.341
L359.418 139.02
L359.976 140.914
L360.536 141.012
L362.211 143.756
L362.77 141.662
L363.328 142.389
L363.887 143.3
L364.445 142.238
L365.004 143.442
L365.562 143.373
L366.121 141.991
L366.679 142.83
L367.238 142.73
L367.796 143.843
L368.355 141.933
L368.913 144.159
L369.472 143.04
L370.03 143.471
L370.59 145.452
L371.148 146.074
L371.707 144.111
L372.265 146.906
L372.824 145.232
L373.382 147.444
L373.941 146.34
L374.499 144.643
L375.058 147.08
L375.616 146.149
L376.175 147.547
L376.733 146.078
L377.292 149.442
L377.85 147.118
L378.409 148.876
L378.967 148.33
L379.527 147.258
L380.085 144.899
L380.644 149.584
L381.202 148.518
L381.761 145.812
L382.878 151.617
L383.436 146.753
L384.553 149.358
L385.112 148.886
L385.67 147.979
L386.229 149.227
L386.787 150.153
L387.346 149.241
L387.904 150.778
L388.463 151.06
L389.021 147.148
L389.581 150.101
L390.139 150.131
L390.698 151.317
L391.256 150.508
L391.815 150.109
L392.373 151.057
L392.932 151.401
L393.49 152.343
L394.049 152.395
L394.607 153.383
L395.166 150.396
L395.724 153.087
L396.283 152.751
L396.841 155.561
L397.4 155.3
L397.958 156.471
L398.517 155.258
L399.075 154.593
L399.635 154.226
L400.193 156.605
L400.752 154.728
L401.31 154.166
L401.869 156.277
L402.427 157.324
L402.986 156.242
L403.544 154.759
L404.661 158.606
L405.22 158.41
L405.778 160.953
L406.337 157.932
L406.895 160.036
L407.454 159.007
L408.012 158.777
L409.13 156.876
L409.689 163.174
L410.247 161.457
L410.806 161.782
L411.364 164.03
L411.923 158.904
L412.481 160.23
L413.04 162.906
L413.598 163.278
L414.157 163.072
L414.715 164.842
L415.274 166.002
L415.832 162.59
L416.391 163.519
L416.949 166.411
L417.508 163.669
L418.066 164.543
L418.626 166.59
L419.184 164.992
L419.743 167.537
L420.301 166.617
L420.86 166.994
L421.418 169.342
L421.977 166.905
L422.535 167.127
L423.094 168.902
L423.652 165.886
L424.211 167.859
L424.769 164.769
L425.328 169.657
L425.886 167.544
L427.003 169.288
L427.563 169.177
L428.121 172.427
L428.68 173.929
L429.238 171.306
L429.797 172.328
L430.355 171.233
L430.914 171.661
L431.472 173.015
L432.031 171.366
L432.589 171.796
L433.148 173.291
L433.706 174.065
L434.265 172.558
L435.382 175.027
L435.94 174.915
L436.499 174.26
L437.057 177.408
L437.617 176.992
L438.175 173.968
L438.734 176.7
L439.292 177.815
L439.851 179.871
L440.409 176.055
L440.968 179.869
L441.526 180.803
L442.085 179.714
L442.643 181.422
L443.202 180.05
L443.76 177.909
L444.319 180.049
L444.877 180.986
L445.436 182.203
L445.994 179.843
L446.553 183.856
L447.111 185.368
L447.671 184.596
L448.229 185.005
L448.788 184.683
L449.346 185.344
L449.905 185.514
L450.463 187.373
L451.022 185.11
L452.139 187.842
L452.697 186.251
L453.256 186.279
L453.814 185.806
L454.373 187.501
L454.931 187.507
L455.49 188.338
L456.048 190.083
L456.608 187.57
L457.166 191.05
L457.725 191.776
L458.283 193.073
L458.842 191.716
L459.4 192.999
L459.959 191.951
L460.517 194.191
L461.076 193.606
L461.634 193.354
L462.193 194.266
L462.751 193.548
L463.31 196.551
L463.868 194.407
L464.427 196.706
L465.544 198.79
L466.102 196.038
L466.662 197.737
L467.22 193.449
L467.779 197.813
L468.337 196.391
L468.896 198.587
L469.454 195.597
L470.013 201.674
L470.571 199.066
L471.688 200.814
L472.247 199.944
L472.805 203.486
L473.364 202.985
L473.922 203.315
L474.481 202.003
L475.039 198.802
L475.598 203.976
L476.156 202.832
L476.716 203.327
L477.274 205.844
L477.833 205.578
L478.391 205.615
L478.95 206.593
L479.508 210.339
L480.067 208.313
L480.625 208.609
L481.184 207.493
L481.742 208.159
L482.301 209.236
L482.859 209.864
L483.418 211.793
L483.976 210.449
L484.535 212.56
L485.093 211.833
L485.653 212.56
L486.211 210.82
L486.77 211.615
L487.328 213.998
L487.887 211.15
L488.445 211.563
L490.121 217.651
L490.679 218.337
L491.238 217.186
L491.796 215.714
L492.355 216.066
L493.472 218.58
L494.03 217.846
L494.589 216.786
L495.147 220.898
L495.707 220.904
L496.265 219.408
L496.824 222.108
L497.382 220.928
L497.941 218.75
L498.499 219.3
L499.058 224.602
L499.616 220.666
L500.175 222.982
L500.733 223.822
L501.292 223.415
L501.85 224.731
L502.409 224.318
L502.967 225.658
L503.526 227.946
L504.084 226.748
L504.644 228.863
L505.202 225.401
L505.761 223.957
L506.319 226.665
L506.878 230.513
L507.436 229.829
L507.995 228.207
L508.553 227.907
L509.112 227.905
L509.67 231.147
L510.229 233.301
L511.904 229.426
L512.463 234.513
L513.021 232.501
L513.58 232.07
L514.138 235.38
L514.698 232.808
L515.815 233.454
L516.373 237.103
L516.932 236.072
L517.49 236.633
L518.049 237.436
L518.607 240.957
L519.166 238.46
L519.724 237.671
L520.283 237.686
L520.841 239.5
L521.4 239.559
L521.958 237.355
L522.517 241.118
L523.075 243.27
L523.634 243.357
L524.192 241.821
L524.752 244.62
L525.31 244.596
L525.869 243.721
L526.427 243.636
L526.986 244.913
L527.544 240.739
L528.103 246.21
L528.661 247.521
L529.22 247.589
L529.778 247.999
L530.337 245.561
L530.895 248.072
L531.454 248.112
L532.012 250.353
L532.571 250.389
L533.129 248.268
L533.689 247.245
L534.247 251.108
L534.806 249.886
L535.364 251.738
L535.923 251.697
L536.481 252.174
L537.598 251.262
L538.157 255.83
L538.715 256.315
L539.274 255.2
L539.832 253.115
L540.391 252.711
L540.949 256.754
L541.508 256.464
L542.066 256.861
L542.625 255.331
L543.183 258.511
L543.743 255.8
L544.301 261.485
L544.86 257.479
L545.418 260.244
L545.977 258.644
L546.535 261.441
L547.094 259.342
L547.652 260.134
L548.211 261.335
L549.328 267.437
L549.886 265.758
L550.445 262.845
L551.003 267.039
L551.562 264.488
L552.12 264.289
L552.679 265.698
L553.237 266.634
L553.797 267.215
L554.355 265.558
L554.914 265.906
L555.472 269.944
L556.031 268.118
L556.589 268.885
L557.148 269.207
L557.706 269.113
L558.265 267.893
L558.823 271.124
L559.382 270.499
L559.94 271.927
L560.499 271.786
L561.057 275.856
L561.616 273.617
L562.174 273.97
L562.734 272.077
L563.292 274.339
L564.409 275.134
L564.968 277.319
L565.526 273.655
L566.085 275.965
L566.643 277.328
L567.202 277.051
L567.76 277.17
L568.319 277.816
L568.877 276.678
L569.436 277.696
L569.994 279.353
L570.553 278.834
L571.111 279.867
L571.67 282.491
L572.228 280.926
L572.788 280.56
L573.346 279.627
L573.905 282.442
L574.463 281.078
L575.022 283.491
L575.58 284.787
L576.139 282.94
L576.697 282.899
L577.256 282.026
L578.373 286.536
L578.931 284.252
L579.49 286.677
L580.048 287.064
L580.607 286.901
L581.725 289.548
L582.283 289.887
L582.842 291.449
L583.4 291.16
L583.959 288.635
L584.517 289.244
L585.076 291.01
L585.634 291.394
L586.193 289.604
L586.751 292.562
L587.31 292.923
L587.868 292.469
L588.427 293.859
L588.985 291.746
L589.544 295.759
L590.102 295.088
L590.661 296.834
L591.219 296.899
L591.779 297.14
L592.337 294.868
L592.896 296.794
L593.454 297.586
L594.013 298.576
L594.571 297.408
L595.13 298.08
L595.688 297.232
L596.247 298.607
L596.805 298.703
L597.364 298.18
L597.922 299.259
L598.481 300.801
L599.039 299.872
L599.598 303.579
L600.156 302.753
L600.715 302.915
L601.273 301.755
L601.833 304.04
L602.391 302.199
L602.95 301.399
L603.508 302.616
L604.067 304.625
L604.625 303.142
L605.184 304.574
L605.742 308.284
L606.301 306.566
L606.859 307.646
L607.418 305.971
L607.976 308.955
L608.535 309.896
L609.093 309.309
L609.652 306.69
L609.652 306.69" style="fill:none;stroke:#ff0000;"></path>
   </g>
   <g id="matplotlib.axis_1">
    <g id="xtick_1">
     <g id="line2d_5">
      <defs>
       <path d="
M0 0
L0 -4" id="m0012dd4eef" style="stroke:#000000;stroke-linecap:butt;stroke-width:0.5;"></path>
      </defs>
      <g>
       <use style="stroke:#000000;stroke-linecap:butt;stroke-width:0.5;" x="51.6524111243" xlink:href="#m0012dd4eef" y="458.222656797"></use>
      </g>
     </g>
     <g id="line2d_6">
      <defs>
       <path d="
M0 0
L0 4" id="m476344969c" style="stroke:#000000;stroke-linecap:butt;stroke-width:0.5;"></path>
      </defs>
      <g>
       <use style="stroke:#000000;stroke-linecap:butt;stroke-width:0.5;" x="51.6524111243" xlink:href="#m476344969c" y="11.8226567973"></use>
      </g>
     </g>
     <g id="text_1">
      <!-- $0$ -->
      <defs>
       <path d="
M42 31.6406
C42 37.75 41.9062 48.125 37.7031 56.1094
C34 63.1094 28.0938 65.5938 22.9062 65.5938
C18.0938 65.5938 12 63.4062 8.20312 56.2031
C4.20312 48.7188 3.79688 39.4375 3.79688 31.6406
C3.79688 25.9531 3.90625 17.2812 7 9.67188
C11.2969 -0.609375 19 -2 22.9062 -2
C27.5 -2 34.5 -0.109375 38.5938 9.375
C41.5938 16.2812 42 24.3594 42 31.6406
M22.9062 -0.40625
C16.5 -0.40625 12.7031 5.07812 11.2969 12.6875
C10.2031 18.5625 10.2031 27.1562 10.2031 32.75
C10.2031 40.4375 10.2031 46.8281 11.5 52.9219
C13.4062 61.3906 19 64 22.9062 64
C27 64 32.2969 61.2969 34.2031 53.125
C35.5 47.4375 35.5938 40.7344 35.5938 32.75
C35.5938 26.25 35.5938 18.2656 34.4062 12.375
C32.2969 1.48438 26.4062 -0.40625 22.9062 -0.40625" id="CMR17-48"></path>
      </defs>
      <g transform="translate(48.1406245744 471.467970392)scale(0.144 -0.144)">
       <use transform="scale(0.996264009963)" xlink:href="#CMR17-48"></use>
      </g>
     </g>
    </g>
    <g id="xtick_2">
     <g id="line2d_7">
      <g>
       <use style="stroke:#000000;stroke-linecap:butt;stroke-width:0.5;" x="163.252411124" xlink:href="#m0012dd4eef" y="458.222656797"></use>
      </g>
     </g>
     <g id="line2d_8">
      <g>
       <use style="stroke:#000000;stroke-linecap:butt;stroke-width:0.5;" x="163.252411124" xlink:href="#m476344969c" y="11.8226567973"></use>
      </g>
     </g>
     <g id="text_2">
      <!-- $a_0$ -->
      <defs>
       <path d="
M30.0938 11.875
C29.5938 10.1719 29.5938 9.98438 28.2031 8.07812
C26 5.28125 21.5938 1 16.9062 1
C12.7969 1 10.5 4.6875 10.5 10.5781
C10.5 16.0625 13.5938 27.2344 15.5 31.4375
C18.9062 38.4219 23.5938 42.0156 27.5 42.0156
C34.0938 42.0156 35.4062 33.8281 35.4062 33.0312
C35.4062 32.9375 35.0938 31.625 35 31.4375
z

M36.5 37.4219
C35.4062 40.0156 32.7031 44 27.5 44
C16.2031 44 4 29.4375 4 14.6719
C4 4.79688 9.79688 -1 16.5938 -1
C22.0938 -1 26.7969 3.29688 29.5938 6.59375
C30.5938 0.703125 35.2969 -1 38.2969 -1
C41.2969 -1 43.7031 0.796875 45.5 4.39062
C47.0938 7.78125 48.5 13.875 48.5 14.2656
C48.5 14.7656 48.0938 15.1719 47.5 15.1719
C46.5938 15.1719 46.5 14.6719 46.0938 13.1719
C44.5938 7.28125 42.7031 1 38.5938 1
C35.7031 1 35.5 3.59375 35.5 5.59375
C35.5 7.89062 35.7969 8.98438 36.7031 12.875
C37.4062 15.375 37.9062 17.5625 38.7031 20.4531
C42.4062 35.4219 43.2969 39.0156 43.2969 39.6094
C43.2969 41.0156 42.2031 42.1094 40.7031 42.1094
C37.5 42.1094 36.7031 38.625 36.5 37.4219" id="CMMI12-97"></path>
      </defs>
      <g transform="translate(157.074779209 470.551409327)scale(0.144 -0.144)">
       <use transform="translate(0.0 14.9439145441)scale(0.996264009963)" xlink:href="#CMMI12-97"></use>
       <use transform="translate(51.2078576189 0.0)scale(0.697381766617)" xlink:href="#CMR17-48"></use>
      </g>
     </g>
    </g>
    <g id="xtick_3">
     <g id="line2d_9">
      <g>
       <use style="stroke:#000000;stroke-linecap:butt;stroke-width:0.5;" x="274.852411124" xlink:href="#m0012dd4eef" y="458.222656797"></use>
      </g>
     </g>
     <g id="line2d_10">
      <g>
       <use style="stroke:#000000;stroke-linecap:butt;stroke-width:0.5;" x="274.852411124" xlink:href="#m476344969c" y="11.8226567973"></use>
      </g>
     </g>
     <g id="text_3">
      <!-- $2a_0$ -->
      <defs>
       <path d="
M41.7031 15.4531
L39.9062 15.4531
C38.9062 8.375 38.0938 7.17188 37.7031 6.5625
C37.2031 5.76562 30 5.76562 28.5938 5.76562
L9.40625 5.76562
C13 9.67188 20 16.75 28.5 24.9531
C34.5938 30.7344 41.7031 37.5312 41.7031 47.4219
C41.7031 59.2188 32.2969 66 21.7969 66
C10.7969 66 4.09375 56.3125 4.09375 47.3438
C4.09375 43.4375 7 42.9375 8.20312 42.9375
C9.20312 42.9375 12.2031 43.5469 12.2031 47.0312
C12.2031 50.1094 9.59375 51 8.20312 51
C7.59375 51 7 50.9062 6.59375 50.7031
C8.5 59.2188 14.2969 63.4062 20.4062 63.4062
C29.0938 63.4062 34.7969 56.5156 34.7969 47.4219
C34.7969 38.7344 29.7031 31.25 24 24.75
L4.09375 2.28125
L4.09375 0
L39.2969 0
z
" id="CMR17-50"></path>
      </defs>
      <g transform="translate(265.162992659 473.6198891)scale(0.144 -0.144)">
       <use transform="translate(0.0 14.9439145441)scale(0.996264009963)" xlink:href="#CMR17-50"></use>
       <use transform="translate(45.6904771171 14.9439145441)scale(0.996264009963)" xlink:href="#CMMI12-97"></use>
       <use transform="translate(96.898334736 0.0)scale(0.697381766617)" xlink:href="#CMR17-48"></use>
      </g>
     </g>
    </g>
    <g id="xtick_4">
     <g id="line2d_11">
      <g>
       <use style="stroke:#000000;stroke-linecap:butt;stroke-width:0.5;" x="386.452411124" xlink:href="#m0012dd4eef" y="458.222656797"></use>
      </g>
     </g>
     <g id="line2d_12">
      <g>
       <use style="stroke:#000000;stroke-linecap:butt;stroke-width:0.5;" x="386.452411124" xlink:href="#m476344969c" y="11.8226567973"></use>
      </g>
     </g>
     <g id="text_4">
      <!-- $3a_0$ -->
      <defs>
       <path d="
M22.0938 33.7031
C31 33.7031 34.9062 25.9688 34.9062 17.0312
C34.9062 5 28.5 0.390625 22.7031 0.390625
C17.4062 0.390625 8.79688 3.03125 6.09375 10.8281
C6.59375 10.625 7.09375 10.625 7.59375 10.625
C10 10.625 11.7969 12.2188 11.7969 14.8125
C11.7969 17.7031 9.59375 19 7.59375 19
C5.90625 19 3.29688 18.2031 3.29688 14.4688
C3.29688 5.23438 12.2969 -2 22.9062 -2
C34 -2 42.5 6.71875 42.5 16.9531
C42.5 26.6719 34.5 33.6875 25 34.7969
C32.5938 36.375 39.9062 43.0625 39.9062 52.0156
C39.9062 59.6875 32 65.2969 23 65.2969
C13.9062 65.2969 5.90625 59.8281 5.90625 52.0156
C5.90625 48.5938 8.5 48 9.79688 48
C11.9062 48 13.7031 49.2969 13.7031 51.8906
C13.7031 54.4688 11.9062 55.7656 9.79688 55.7656
C9.40625 55.7656 8.90625 55.7656 8.5 55.5625
C11.4062 61.8594 19.2969 63 22.7969 63
C26.2969 63 32.9062 61.3281 32.9062 51.875
C32.9062 49.1094 32.5 44.1875 29.0938 39.8438
C26.0938 36 22.7031 36 19.4062 35.5938
C18.9062 35.5938 16.5938 35.5938 16.2031 35.5938
C15.5 35.4844 15.0938 35.3906 15.0938 34.5938
C15.0938 33.8125 15.2031 33.7031 17.2031 33.7031
z
" id="CMR17-51"></path>
      </defs>
      <g transform="translate(376.762992659 473.6198891)scale(0.144 -0.144)">
       <use transform="translate(0.0 14.9439145441)scale(0.996264009963)" xlink:href="#CMR17-51"></use>
       <use transform="translate(45.6904771171 14.9439145441)scale(0.996264009963)" xlink:href="#CMMI12-97"></use>
       <use transform="translate(96.898334736 0.0)scale(0.697381766617)" xlink:href="#CMR17-48"></use>
      </g>
     </g>
    </g>
    <g id="xtick_5">
     <g id="line2d_13">
      <g>
       <use style="stroke:#000000;stroke-linecap:butt;stroke-width:0.5;" x="498.052411124" xlink:href="#m0012dd4eef" y="458.222656797"></use>
      </g>
     </g>
     <g id="line2d_14">
      <g>
       <use style="stroke:#000000;stroke-linecap:butt;stroke-width:0.5;" x="498.052411124" xlink:href="#m476344969c" y="11.8226567973"></use>
      </g>
     </g>
     <g id="text_5">
      <!-- $4a_0$ -->
      <defs>
       <path d="
M33.5938 64.3281
C33.5938 66.4062 33.5 66.5 31.7031 66.5
L2 19.5938
L2 17
L27.7969 17
L27.7969 7.14062
C27.7969 3.5 27.5938 2.5 20.5938 2.5
L18.7031 2.5
L18.7031 0
C21.9062 0 27.2969 0 30.7031 0
C34.0938 0 39.5 0 42.7031 0
L42.7031 2.5
L40.7969 2.5
C33.7969 2.5 33.5938 3.5 33.5938 7.14062
L33.5938 17
L43.7969 17
L43.7969 19.5938
L33.5938 19.5938
z

M28.0938 57.7656
L28.0938 19.5938
L4 19.5938
z
" id="CMR17-52"></path>
      </defs>
      <g transform="translate(488.362992659 473.6198891)scale(0.144 -0.144)">
       <use transform="translate(0.0 14.9439145441)scale(0.996264009963)" xlink:href="#CMR17-52"></use>
       <use transform="translate(45.6904771171 14.9439145441)scale(0.996264009963)" xlink:href="#CMMI12-97"></use>
       <use transform="translate(96.898334736 0.0)scale(0.697381766617)" xlink:href="#CMR17-48"></use>
      </g>
     </g>
    </g>
    <g id="xtick_6">
     <g id="line2d_15">
      <g>
       <use style="stroke:#000000;stroke-linecap:butt;stroke-width:0.5;" x="609.652411124" xlink:href="#m0012dd4eef" y="458.222656797"></use>
      </g>
     </g>
     <g id="line2d_16">
      <g>
       <use style="stroke:#000000;stroke-linecap:butt;stroke-width:0.5;" x="609.652411124" xlink:href="#m476344969c" y="11.8226567973"></use>
      </g>
     </g>
     <g id="text_6">
      <!-- $5a_0$ -->
      <defs>
       <path d="
M11.4062 57.6875
C12.4062 57.2812 16.5 56 20.7031 56
C30 56 35.0938 61.0156 38 63.9219
C38 64.7344 38 65.25 37.4062 65.25
C37.2969 65.25 37.0938 65.25 36.2969 64.8281
C32.7969 63.3125 28.7031 62.0781 23.7031 62.0781
C20.7031 62.0781 16.2031 62.5 11.2969 64.7344
C10.2031 65.25 10 65.25 9.90625 65.25
C9.40625 65.25 9.29688 65.1406 9.29688 63.1562
L9.29688 34.2812
C9.29688 32.5 9.29688 32 10.2969 32
C10.7969 32 11 32.2031 11.5 32.9062
C14.7031 37.4844 19.0938 39.4062 24.0938 39.4062
C27.5938 39.4062 35.0938 37.2188 35.0938 20.1406
C35.0938 16.9531 35.0938 11.1719 32.0938 6.57812
C29.5938 2.48438 25.7031 0.390625 21.4062 0.390625
C14.7969 0.390625 8.09375 5 6.29688 12.7188
C6.70312 12.6094 7.5 12.4219 7.90625 12.4219
C9.20312 12.4219 11.7031 13.125 11.7031 16.2188
C11.7031 18.9062 9.79688 20 7.90625 20
C5.59375 20 4.09375 18.5938 4.09375 15.7969
C4.09375 7.09375 11 -2 21.5938 -2
C31.9062 -2 41.7031 6.875 41.7031 19.75
C41.7031 31.7188 33.9062 41 24.2031 41
C19.0938 41 14.7969 39.0938 11.4062 35.4531
z
" id="CMR17-53"></path>
      </defs>
      <g transform="translate(599.962992659 473.6198891)scale(0.144 -0.144)">
       <use transform="translate(0.0 14.9439145441)scale(0.996264009963)" xlink:href="#CMR17-53"></use>
       <use transform="translate(45.6904771171 14.9439145441)scale(0.996264009963)" xlink:href="#CMMI12-97"></use>
       <use transform="translate(96.898334736 0.0)scale(0.697381766617)" xlink:href="#CMR17-48"></use>
      </g>
     </g>
    </g>
    <g id="text_7">
     <!-- Radialer Abstand -->
     <defs>
      <path d="
M53.5 5.20312
C52.5938 5 52.2031 5 51.7031 5
C48.7969 5 47.2031 6.48438 47.2031 9.07812
L47.2031 39.7656
C47.2031 49.0156 40.4062 54 27.5 54
C19.9062 54 13.5938 51.8125 10.0938 47.9062
C7.70312 45.2031 6.70312 42.2188 6.5 37.0312
L14.9062 37.0312
C15.5938 43.3906 19.4062 46.2812 27.2031 46.2812
C34.7031 46.2812 38.9062 43.4844 38.9062 38.5156
L38.9062 36.3281
C38.9062 32.8281 36.7969 31.3438 30.2031 30.5469
C18.4062 29.0625 16.5938 28.6562 13.4062 27.3594
C7.29688 24.875 4.20312 20.1875 4.20312 13.4219
C4.20312 3.96875 10.7969 -2 21.4062 -2
C28 -2 33.2969 0.296875 39.2031 5.70312
C39.7969 0.390625 42.4062 -2 47.7969 -2
C49.5 -2 50.7969 -1.8125 53.5 -1.09375
z

M38.9062 16.75
C38.9062 13.9531 38.0938 12.2656 35.5938 9.98438
C32.2031 6.89062 28.0938 5.3125 23.2031 5.3125
C16.7031 5.3125 12.9062 8.39062 12.9062 13.6562
C12.9062 19.1406 16.5938 21.9219 25.5 23.2188
C34.2969 24.4062 36.0938 24.8125 38.9062 26.0938
z
" id="Nimbus_Sans_L_Regular-97"></path>
      <path d="
M5.40625 73
L5.40625 -0.03125
L12.9062 -0.03125
L12.9062 7
C16.9062 0.890625 22.2031 -2 29.5 -2
C43.2969 -2 52.2969 9.25 52.2969 26.5938
C52.2969 43.5312 43.7031 54 29.9062 54
C22.7031 54 17.5938 51.2812 13.7031 45.3906
L13.7031 73
z

M28.2969 46.1875
C37.5938 46.1875 43.5938 38.125 43.5938 25.7031
C43.5938 13.8594 37.4062 5.8125 28.2969 5.8125
C19.5 5.8125 13.7031 13.7656 13.7031 26
C13.7031 38.2344 19.5 46.1875 28.2969 46.1875" id="Nimbus_Sans_L_Regular-98"></path>
      <path d="
M25.4062 52.8125
L16.7969 52.8125
L16.7969 67
L8.5 67
L8.5 52.8125
L1.40625 52.8125
L1.40625 46
L8.5 46
L8.5 6.3125
C8.5 1 12.0938 -2 18.5938 -2
C20.5938 -2 22.5938 -1.8125 25.4062 -1.29688
L25.4062 5.71875
C24.2969 5.40625 23 5.3125 21.4062 5.3125
C17.7969 5.3125 16.7969 6.3125 16.7969 10.0156
L16.7969 46
L25.4062 46
z
" id="Nimbus_Sans_L_Regular-116"></path>
      <path d="
M18.5938 31.7812
L42.5938 31.7812
C50.9062 31.7812 54.5938 27.7188 54.5938 18.5469
L54.5 11.9062
C54.5 7.3125 55.2969 2.82812 56.5938 -0.21875
L67.9062 -0.21875
L67.9062 2.125
C64.4062 4.5625 63.7031 7.21875 63.5 17.0781
C63.4062 29.2656 61.5 32.9375 53.5938 36.3906
C61.7969 40.3594 65.0938 45.4062 65.0938 53.6562
C65.0938 66.1406 57.2031 73 42.9062 73
L9.29688 73
L9.29688 -0.21875
L18.5938 -0.21875
z

M18.5938 40
L18.5938 64.7812
L41.0938 64.7812
C46.2969 64.7812 49.2969 64 51.5938 62.0156
C54.0938 59.9375 55.4062 56.6875 55.4062 52.3438
C55.4062 43.8438 51 40 41.0938 40
z
" id="Nimbus_Sans_L_Regular-82"></path>
      <path d="
M47.4062 22
L54.9062 0
L65.2969 0
L39.7031 73
L27.7031 73
L1.70312 0
L11.5938 0
L19.2969 22
z

M44.7969 29.8125
L21.5938 29.8125
L33.5938 63
z
" id="Nimbus_Sans_L_Regular-65"></path>
      <path d="
M15.2031 73
L6.79688 73
L6.79688 -0.03125
L15.2031 -0.03125
z
" id="Nimbus_Sans_L_Regular-108"></path>
      <path d="
M15 52.4844
L6.70312 52.4844
L6.70312 0
L15 0
z

M15 73
L6.59375 73
L6.59375 62.4844
L15 62.4844
z
" id="Nimbus_Sans_L_Regular-105"></path>
      <path d="
M7 52.4844
L7 0
L15.4062 0
L15.4062 28.9531
C15.4062 39.6719 21 46.6875 29.5938 46.6875
C36.2031 46.6875 40.4062 42.6719 40.4062 36.3594
L40.4062 0
L48.7031 0
L48.7031 39.6719
C48.7031 48.3906 42.2031 54 32.0938 54
C24.2969 54 19.2969 50.9844 14.7031 43.6875
L14.7031 52.4844
z
" id="Nimbus_Sans_L_Regular-110"></path>
      <path d="
M51.2969 24
C51.2969 31.875 50.7031 36.5938 49.2031 40.4219
C45.7969 48.875 37.7969 54 28 54
C13.4062 54 4 42.8438 4 25.7031
C4 8.54688 13.0938 -2 27.7969 -2
C39.7969 -2 48.0938 4.875 50.2031 16.375
L41.7969 16.375
C39.5 9.35938 34.7969 5.70312 28.0938 5.70312
C22.7969 5.70312 18.2969 8.14062 15.5 12.6094
C13.5 15.6562 12.7969 18.7188 12.7031 24
z

M12.9062 30.8125
C13.5938 40.1875 19.5 46.2812 27.9062 46.2812
C36.0938 46.2812 42.4062 39.7031 42.4062 31.4062
C42.4062 31.2031 42.4062 31.0156 42.2969 30.8125
z
" id="Nimbus_Sans_L_Regular-101"></path>
      <path d="
M49.5 73
L41.2031 73
L41.2031 45.8906
C37.7031 51.1875 32.0938 54 25.0938 54
C11.5 54 2.59375 43.1406 2.59375 26.4844
C2.59375 8.84375 11.2969 -2 25.4062 -2
C32.5938 -2 37.5938 0.703125 42.0938 7.20312
L42.0938 -0.03125
L49.5 -0.03125
z

M26.5 46.1875
C35.5 46.1875 41.2031 38.2344 41.2031 25.7969
C41.2031 13.7656 35.4062 5.8125 26.5938 5.8125
C17.4062 5.8125 11.2969 13.8594 11.2969 26
C11.2969 38.125 17.4062 46.1875 26.5 46.1875" id="Nimbus_Sans_L_Regular-100"></path>
      <path d="
M6.90625 52.4844
L6.90625 0
L15.2969 0
L15.2969 27.25
C15.2969 34.7656 17.2031 39.6719 21.2031 42.5781
C23.7969 44.4844 26.2969 45.0781 32.0938 45.0781
L32.0938 53.7031
C30.7031 53.8906 30 54 28.9062 54
C23.5 54 19.4062 50.7812 14.5938 42.9688
L14.5938 52.4844
z
" id="Nimbus_Sans_L_Regular-114"></path>
      <path d="
M43.7969 37.9219
C43.7031 48.2031 36.9062 54 24.7969 54
C12.5938 54 4.70312 47.7188 4.70312 38.0625
C4.70312 29.8906 8.90625 26.0156 21.2969 23.0312
L29.0938 21.1406
C34.9062 19.7344 37.2031 17.6562 37.2031 13.875
C37.2031 9 32.2969 5.70312 25 5.70312
C20.5 5.70312 16.7031 7 14.5938 9.1875
C13.2969 10.6875 12.7031 12.1719 12.2031 15.8438
L3.40625 15.8438
C3.79688 3.76562 10.5938 -2 24.2969 -2
C37.5 -2 45.9062 4.45312 45.9062 14.5156
C45.9062 22.2812 41.5 26.5781 31.0938 29.0625
L23.0938 30.9531
C16.2969 32.5312 13.4062 34.7344 13.4062 38.4062
C13.4062 43.1875 17.7031 46.2812 24.5 46.2812
C31.2031 46.2812 34.7969 43.3906 35 37.9219
z
" id="Nimbus_Sans_L_Regular-115"></path>
     </defs>
     <g transform="translate(275.635442895 489.099602625)scale(0.144 -0.144)">
      <use transform="translate(0.0 1.79267018699)scale(0.996264009963)" xlink:href="#Nimbus_Sans_L_Regular-82"></use>
      <use transform="translate(71.9299848469 1.79267018699)scale(0.996264009963)" xlink:href="#Nimbus_Sans_L_Regular-97"></use>
      <use transform="translate(127.32166181 1.79267018699)scale(0.996264009963)" xlink:href="#Nimbus_Sans_L_Regular-100"></use>
      <use transform="translate(182.713338774 1.79267018699)scale(0.996264009963)" xlink:href="#Nimbus_Sans_L_Regular-105"></use>
      <use transform="translate(204.830123122 1.79267018699)scale(0.996264009963)" xlink:href="#Nimbus_Sans_L_Regular-97"></use>
      <use transform="translate(260.221800086 1.79267018699)scale(0.996264009963)" xlink:href="#Nimbus_Sans_L_Regular-108"></use>
      <use transform="translate(282.338584434 1.79267018699)scale(0.996264009963)" xlink:href="#Nimbus_Sans_L_Regular-101"></use>
      <use transform="translate(337.730261398 1.79267018699)scale(0.996264009963)" xlink:href="#Nimbus_Sans_L_Regular-114"></use>
      <use transform="translate(398.60066073 1.79267018699)scale(0.996264009963)" xlink:href="#Nimbus_Sans_L_Regular-65"></use>
      <use transform="translate(465.050691864 1.79267018699)scale(0.996264009963)" xlink:href="#Nimbus_Sans_L_Regular-98"></use>
      <use transform="translate(520.442368827 1.79267018699)scale(0.996264009963)" xlink:href="#Nimbus_Sans_L_Regular-115"></use>
      <use transform="translate(570.255569325 1.79267018699)scale(0.996264009963)" xlink:href="#Nimbus_Sans_L_Regular-116"></use>
      <use transform="translate(597.950738928 1.79267018699)scale(0.996264009963)" xlink:href="#Nimbus_Sans_L_Regular-97"></use>
      <use transform="translate(653.342415892 1.79267018699)scale(0.996264009963)" xlink:href="#Nimbus_Sans_L_Regular-110"></use>
      <use transform="translate(708.734092855 1.79267018699)scale(0.996264009963)" xlink:href="#Nimbus_Sans_L_Regular-100"></use>
     </g>
    </g>
   </g>
   <g id="matplotlib.axis_2">
    <g id="ytick_1">
     <g id="line2d_17">
      <defs>
       <path d="
M0 0
L4 0" id="me8a85f7bf6" style="stroke:#000000;stroke-linecap:butt;stroke-width:0.5;"></path>
      </defs>
      <g>
       <use style="stroke:#000000;stroke-linecap:butt;stroke-width:0.5;" x="51.6524111243" xlink:href="#me8a85f7bf6" y="458.222656797"></use>
      </g>
     </g>
     <g id="line2d_18">
      <defs>
       <path d="
M0 0
L-4 0" id="m1a32005dea" style="stroke:#000000;stroke-linecap:butt;stroke-width:0.5;"></path>
      </defs>
      <g>
       <use style="stroke:#000000;stroke-linecap:butt;stroke-width:0.5;" x="609.652411124" xlink:href="#m1a32005dea" y="458.222656797"></use>
      </g>
     </g>
     <g id="text_8">
      <!-- $0.00$ -->
      <defs>
       <path d="
M18.4062 4.79688
C18.4062 7.6875 16 9.67188 13.5938 9.67188
C10.7031 9.67188 8.70312 7.28125 8.70312 4.89062
C8.70312 2 11.0938 0 13.5 0
C16.4062 0 18.4062 2.39062 18.4062 4.79688" id="CMMI12-58"></path>
      </defs>
      <g transform="translate(22.6797135255 462.845313595)scale(0.144 -0.144)">
       <use transform="scale(0.996264009963)" xlink:href="#CMR17-48"></use>
       <use transform="translate(45.6904771171 0.0)scale(0.996264009963)" xlink:href="#CMMI12-58"></use>
       <use transform="translate(72.7876542069 0.0)scale(0.996264009963)" xlink:href="#CMR17-48"></use>
       <use transform="translate(118.478131324 0.0)scale(0.996264009963)" xlink:href="#CMR17-48"></use>
      </g>
     </g>
    </g>
    <g id="ytick_2">
     <g id="line2d_19">
      <g>
       <use style="stroke:#000000;stroke-linecap:butt;stroke-width:0.5;" x="51.6524111243" xlink:href="#me8a85f7bf6" y="408.622656797"></use>
      </g>
     </g>
     <g id="line2d_20">
      <g>
       <use style="stroke:#000000;stroke-linecap:butt;stroke-width:0.5;" x="609.652411124" xlink:href="#m1a32005dea" y="408.622656797"></use>
      </g>
     </g>
     <g id="text_9">
      <!-- $0.05$ -->
      <g transform="translate(22.6797135255 413.245313595)scale(0.144 -0.144)">
       <use transform="scale(0.996264009963)" xlink:href="#CMR17-48"></use>
       <use transform="translate(45.6904771171 0.0)scale(0.996264009963)" xlink:href="#CMMI12-58"></use>
       <use transform="translate(72.7876542069 0.0)scale(0.996264009963)" xlink:href="#CMR17-48"></use>
       <use transform="translate(118.478131324 0.0)scale(0.996264009963)" xlink:href="#CMR17-53"></use>
      </g>
     </g>
    </g>
    <g id="ytick_3">
     <g id="line2d_21">
      <g>
       <use style="stroke:#000000;stroke-linecap:butt;stroke-width:0.5;" x="51.6524111243" xlink:href="#me8a85f7bf6" y="359.022656797"></use>
      </g>
     </g>
     <g id="line2d_22">
      <g>
       <use style="stroke:#000000;stroke-linecap:butt;stroke-width:0.5;" x="609.652411124" xlink:href="#m1a32005dea" y="359.022656797"></use>
      </g>
     </g>
     <g id="text_10">
      <!-- $0.10$ -->
      <defs>
       <path d="
M26.5938 63.3125
C26.5938 65.4062 26.5 65.5 25.0938 65.5
C21.2031 61.1875 15.2969 59.7969 9.70312 59.7969
C9.40625 59.7969 8.90625 59.7969 8.79688 59.5
C8.70312 59.2969 8.70312 59.0938 8.70312 57
C11.7969 57 17 57.5938 21 59.9844
L21 7.20312
C21 3.6875 20.7969 2.5 12.2031 2.5
L9.20312 2.5
L9.20312 0
C14 0 19 0 23.7969 0
C28.5938 0 33.5938 0 38.4062 0
L38.4062 2.5
L35.4062 2.5
C26.7969 2.5 26.5938 3.59375 26.5938 7.15625
z
" id="CMR17-49"></path>
      </defs>
      <g transform="translate(22.6797135255 363.645313595)scale(0.144 -0.144)">
       <use transform="scale(0.996264009963)" xlink:href="#CMR17-48"></use>
       <use transform="translate(45.6904771171 0.0)scale(0.996264009963)" xlink:href="#CMMI12-58"></use>
       <use transform="translate(72.7876542069 0.0)scale(0.996264009963)" xlink:href="#CMR17-49"></use>
       <use transform="translate(118.478131324 0.0)scale(0.996264009963)" xlink:href="#CMR17-48"></use>
      </g>
     </g>
    </g>
    <g id="ytick_4">
     <g id="line2d_23">
      <g>
       <use style="stroke:#000000;stroke-linecap:butt;stroke-width:0.5;" x="51.6524111243" xlink:href="#me8a85f7bf6" y="309.422656797"></use>
      </g>
     </g>
     <g id="line2d_24">
      <g>
       <use style="stroke:#000000;stroke-linecap:butt;stroke-width:0.5;" x="609.652411124" xlink:href="#m1a32005dea" y="309.422656797"></use>
      </g>
     </g>
     <g id="text_11">
      <!-- $0.15$ -->
      <g transform="translate(22.6797135255 314.045313595)scale(0.144 -0.144)">
       <use transform="scale(0.996264009963)" xlink:href="#CMR17-48"></use>
       <use transform="translate(45.6904771171 0.0)scale(0.996264009963)" xlink:href="#CMMI12-58"></use>
       <use transform="translate(72.7876542069 0.0)scale(0.996264009963)" xlink:href="#CMR17-49"></use>
       <use transform="translate(118.478131324 0.0)scale(0.996264009963)" xlink:href="#CMR17-53"></use>
      </g>
     </g>
    </g>
    <g id="ytick_5">
     <g id="line2d_25">
      <g>
       <use style="stroke:#000000;stroke-linecap:butt;stroke-width:0.5;" x="51.6524111243" xlink:href="#me8a85f7bf6" y="259.822656797"></use>
      </g>
     </g>
     <g id="line2d_26">
      <g>
       <use style="stroke:#000000;stroke-linecap:butt;stroke-width:0.5;" x="609.652411124" xlink:href="#m1a32005dea" y="259.822656797"></use>
      </g>
     </g>
     <g id="text_12">
      <!-- $0.20$ -->
      <g transform="translate(22.6797135255 264.445313595)scale(0.144 -0.144)">
       <use transform="scale(0.996264009963)" xlink:href="#CMR17-48"></use>
       <use transform="translate(45.6904771171 0.0)scale(0.996264009963)" xlink:href="#CMMI12-58"></use>
       <use transform="translate(72.7876542069 0.0)scale(0.996264009963)" xlink:href="#CMR17-50"></use>
       <use transform="translate(118.478131324 0.0)scale(0.996264009963)" xlink:href="#CMR17-48"></use>
      </g>
     </g>
    </g>
    <g id="ytick_6">
     <g id="line2d_27">
      <g>
       <use style="stroke:#000000;stroke-linecap:butt;stroke-width:0.5;" x="51.6524111243" xlink:href="#me8a85f7bf6" y="210.222656797"></use>
      </g>
     </g>
     <g id="line2d_28">
      <g>
       <use style="stroke:#000000;stroke-linecap:butt;stroke-width:0.5;" x="609.652411124" xlink:href="#m1a32005dea" y="210.222656797"></use>
      </g>
     </g>
     <g id="text_13">
      <!-- $0.25$ -->
      <g transform="translate(22.6797135255 214.845313595)scale(0.144 -0.144)">
       <use transform="scale(0.996264009963)" xlink:href="#CMR17-48"></use>
       <use transform="translate(45.6904771171 0.0)scale(0.996264009963)" xlink:href="#CMMI12-58"></use>
       <use transform="translate(72.7876542069 0.0)scale(0.996264009963)" xlink:href="#CMR17-50"></use>
       <use transform="translate(118.478131324 0.0)scale(0.996264009963)" xlink:href="#CMR17-53"></use>
      </g>
     </g>
    </g>
    <g id="ytick_7">
     <g id="line2d_29">
      <g>
       <use style="stroke:#000000;stroke-linecap:butt;stroke-width:0.5;" x="51.6524111243" xlink:href="#me8a85f7bf6" y="160.622656797"></use>
      </g>
     </g>
     <g id="line2d_30">
      <g>
       <use style="stroke:#000000;stroke-linecap:butt;stroke-width:0.5;" x="609.652411124" xlink:href="#m1a32005dea" y="160.622656797"></use>
      </g>
     </g>
     <g id="text_14">
      <!-- $0.30$ -->
      <g transform="translate(22.6797135255 165.245313595)scale(0.144 -0.144)">
       <use transform="scale(0.996264009963)" xlink:href="#CMR17-48"></use>
       <use transform="translate(45.6904771171 0.0)scale(0.996264009963)" xlink:href="#CMMI12-58"></use>
       <use transform="translate(72.7876542069 0.0)scale(0.996264009963)" xlink:href="#CMR17-51"></use>
       <use transform="translate(118.478131324 0.0)scale(0.996264009963)" xlink:href="#CMR17-48"></use>
      </g>
     </g>
    </g>
    <g id="ytick_8">
     <g id="line2d_31">
      <g>
       <use style="stroke:#000000;stroke-linecap:butt;stroke-width:0.5;" x="51.6524111243" xlink:href="#me8a85f7bf6" y="111.022656797"></use>
      </g>
     </g>
     <g id="line2d_32">
      <g>
       <use style="stroke:#000000;stroke-linecap:butt;stroke-width:0.5;" x="609.652411124" xlink:href="#m1a32005dea" y="111.022656797"></use>
      </g>
     </g>
     <g id="text_15">
      <!-- $0.35$ -->
      <g transform="translate(22.6797135255 115.645313595)scale(0.144 -0.144)">
       <use transform="scale(0.996264009963)" xlink:href="#CMR17-48"></use>
       <use transform="translate(45.6904771171 0.0)scale(0.996264009963)" xlink:href="#CMMI12-58"></use>
       <use transform="translate(72.7876542069 0.0)scale(0.996264009963)" xlink:href="#CMR17-51"></use>
       <use transform="translate(118.478131324 0.0)scale(0.996264009963)" xlink:href="#CMR17-53"></use>
      </g>
     </g>
    </g>
    <g id="ytick_9">
     <g id="line2d_33">
      <g>
       <use style="stroke:#000000;stroke-linecap:butt;stroke-width:0.5;" x="51.6524111243" xlink:href="#me8a85f7bf6" y="61.4226567973"></use>
      </g>
     </g>
     <g id="line2d_34">
      <g>
       <use style="stroke:#000000;stroke-linecap:butt;stroke-width:0.5;" x="609.652411124" xlink:href="#m1a32005dea" y="61.4226567973"></use>
      </g>
     </g>
     <g id="text_16">
      <!-- $0.40$ -->
      <g transform="translate(22.6797135255 66.0453135945)scale(0.144 -0.144)">
       <use transform="scale(0.996264009963)" xlink:href="#CMR17-48"></use>
       <use transform="translate(45.6904771171 0.0)scale(0.996264009963)" xlink:href="#CMMI12-58"></use>
       <use transform="translate(72.7876542069 0.0)scale(0.996264009963)" xlink:href="#CMR17-52"></use>
       <use transform="translate(118.478131324 0.0)scale(0.996264009963)" xlink:href="#CMR17-48"></use>
      </g>
     </g>
    </g>
    <g id="ytick_10">
     <g id="line2d_35">
      <g>
       <use style="stroke:#000000;stroke-linecap:butt;stroke-width:0.5;" x="51.6524111243" xlink:href="#me8a85f7bf6" y="11.8226567973"></use>
      </g>
     </g>
     <g id="line2d_36">
      <g>
       <use style="stroke:#000000;stroke-linecap:butt;stroke-width:0.5;" x="609.652411124" xlink:href="#m1a32005dea" y="11.8226567973"></use>
      </g>
     </g>
     <g id="text_17">
      <!-- $0.45$ -->
      <g transform="translate(22.6797135255 16.4453135945)scale(0.144 -0.144)">
       <use transform="scale(0.996264009963)" xlink:href="#CMR17-48"></use>
       <use transform="translate(45.6904771171 0.0)scale(0.996264009963)" xlink:href="#CMMI12-58"></use>
       <use transform="translate(72.7876542069 0.0)scale(0.996264009963)" xlink:href="#CMR17-52"></use>
       <use transform="translate(118.478131324 0.0)scale(0.996264009963)" xlink:href="#CMR17-53"></use>
      </g>
     </g>
    </g>
    <g id="text_18">
     <!-- normierte Wahrscheinlichkeitsdichte -->
     <defs>
      <path d="
M47.0938 34.9375
C46.7031 40.0312 45.5938 43.3281 43.5938 46.2188
C40 51.1094 33.7031 54 26.4062 54
C12.2969 54 3.09375 42.8438 3.09375 25.5
C3.09375 8.65625 12.0938 -2 26.2969 -2
C38.7969 -2 46.7031 5.46875 47.7031 18.2344
L39.2969 18.2344
C37.9062 9.875 33.5938 5.70312 26.5 5.70312
C17.2969 5.70312 11.7969 13.1719 11.7969 25.5
C11.7969 38.5312 17.2031 46.2812 26.2969 46.2812
C33.2969 46.2812 37.7031 42.2031 38.7031 34.9375
z
" id="Nimbus_Sans_L_Regular-99"></path>
      <path d="
M7 52.4844
L7 0
L15.4062 0
L15.4062 32.9531
C15.4062 40.5781 20.9062 46.6875 27.7031 46.6875
C33.9062 46.6875 37.4062 42.875 37.4062 36.1562
L37.4062 0
L45.7969 0
L45.7969 32.9531
C45.7969 40.5781 51.2969 46.6875 58.0938 46.6875
C64.2031 46.6875 67.7969 42.7812 67.7969 36.1562
L67.7969 0
L76.2031 0
L76.2031 39.375
C76.2031 48.7812 70.7969 54 61 54
C54 54 49.7969 51.8906 44.9062 45.9844
C41.7969 51.5938 37.5938 54 30.7969 54
C23.7969 54 19.2031 51.3906 14.7031 45.0781
L14.7031 52.4844
z
" id="Nimbus_Sans_L_Regular-109"></path>
      <path d="
M74.4062 0
L92.9062 73
L82.5 73
L69.0938 13.7188
L52.5 73
L42.5 73
L26.2969 13.7188
L12.5938 73
L2.20312 73
L20.9062 0
L31.0938 0
L47.4062 59.9844
L64.2031 0
z
" id="Nimbus_Sans_L_Regular-87"></path>
      <path d="
M7 73
L7 -0.03125
L15.2969 -0.03125
L15.2969 28.9375
C15.2969 39.6719 20.9062 46.6875 29.5 46.6875
C32.2031 46.6875 34.9062 45.7812 36.9062 44.2812
C39.2969 42.5781 40.2969 40.0625 40.2969 36.3594
L40.2969 -0.03125
L48.5938 -0.03125
L48.5938 39.6562
C48.5938 48.4844 42.2969 54 32.0938 54
C24.7031 54 20.2031 51.6875 15.2969 45.2812
L15.2969 73
z
" id="Nimbus_Sans_L_Regular-104"></path>
      <path d="
M14.0938 73
L5.79688 73
L5.79688 -0.03125
L14.0938 -0.03125
L14.0938 20.4062
L22.2031 28.4219
L39.9062 -0.03125
L50.2031 -0.03125
L28.7969 34.3281
L47 52.4531
L36.2969 52.4531
L14.0938 30.2188
z
" id="Nimbus_Sans_L_Regular-107"></path>
      <path d="
M27.2031 54
C12.5 54 3.59375 43.5312 3.59375 26
C3.59375 8.45312 12.4062 -2 27.2969 -2
C42 -2 51 8.45312 51 25.5938
C51 43.6406 42.2969 54 27.2031 54
M27.2969 46.2812
C36.7031 46.2812 42.2969 38.625 42.2969 25.7031
C42.2969 13.4531 36.5 5.70312 27.2969 5.70312
C18 5.70312 12.2969 13.3594 12.2969 26
C12.2969 38.5312 18 46.2812 27.2969 46.2812" id="Nimbus_Sans_L_Regular-111"></path>
     </defs>
     <g transform="translate(17.6797135255 349.855522321)rotate(-90.0)scale(0.144 -0.144)">
      <use transform="translate(0.0 1.79267018699)scale(0.996264009963)" xlink:href="#Nimbus_Sans_L_Regular-110"></use>
      <use transform="translate(55.3916769633 1.79267018699)scale(0.996264009963)" xlink:href="#Nimbus_Sans_L_Regular-111"></use>
      <use transform="translate(110.783353927 1.79267018699)scale(0.996264009963)" xlink:href="#Nimbus_Sans_L_Regular-114"></use>
      <use transform="translate(146.449198076 1.79267018699)scale(0.996264009963)" xlink:href="#Nimbus_Sans_L_Regular-109"></use>
      <use transform="translate(229.437628303 1.79267018699)scale(0.996264009963)" xlink:href="#Nimbus_Sans_L_Regular-105"></use>
      <use transform="translate(251.554412652 1.79267018699)scale(0.996264009963)" xlink:href="#Nimbus_Sans_L_Regular-101"></use>
      <use transform="translate(306.946089615 1.79267018699)scale(0.996264009963)" xlink:href="#Nimbus_Sans_L_Regular-114"></use>
      <use transform="translate(344.105417672 1.79267018699)scale(0.996264009963)" xlink:href="#Nimbus_Sans_L_Regular-116"></use>
      <use transform="translate(371.800587275 1.79267018699)scale(0.996264009963)" xlink:href="#Nimbus_Sans_L_Regular-101"></use>
      <use transform="translate(454.887433842 1.79267018699)scale(0.996264009963)" xlink:href="#Nimbus_Sans_L_Regular-87"></use>
      <use transform="translate(544.950089508 1.79267018699)scale(0.996264009963)" xlink:href="#Nimbus_Sans_L_Regular-97"></use>
      <use transform="translate(600.341766471 1.79267018699)scale(0.996264009963)" xlink:href="#Nimbus_Sans_L_Regular-104"></use>
      <use transform="translate(655.733443435 1.79267018699)scale(0.996264009963)" xlink:href="#Nimbus_Sans_L_Regular-114"></use>
      <use transform="translate(688.908673164 1.79267018699)scale(0.996264009963)" xlink:href="#Nimbus_Sans_L_Regular-115"></use>
      <use transform="translate(738.721873662 1.79267018699)scale(0.996264009963)" xlink:href="#Nimbus_Sans_L_Regular-99"></use>
      <use transform="translate(788.53507416 1.79267018699)scale(0.996264009963)" xlink:href="#Nimbus_Sans_L_Regular-104"></use>
      <use transform="translate(843.926751124 1.79267018699)scale(0.996264009963)" xlink:href="#Nimbus_Sans_L_Regular-101"></use>
      <use transform="translate(899.318428087 1.79267018699)scale(0.996264009963)" xlink:href="#Nimbus_Sans_L_Regular-105"></use>
      <use transform="translate(921.435212436 1.79267018699)scale(0.996264009963)" xlink:href="#Nimbus_Sans_L_Regular-110"></use>
      <use transform="translate(976.826889399 1.79267018699)scale(0.996264009963)" xlink:href="#Nimbus_Sans_L_Regular-108"></use>
      <use transform="translate(998.943673748 1.79267018699)scale(0.996264009963)" xlink:href="#Nimbus_Sans_L_Regular-105"></use>
      <use transform="translate(1021.0604581 1.79267018699)scale(0.996264009963)" xlink:href="#Nimbus_Sans_L_Regular-99"></use>
      <use transform="translate(1070.87365859 1.79267018699)scale(0.996264009963)" xlink:href="#Nimbus_Sans_L_Regular-104"></use>
      <use transform="translate(1126.26533556 1.79267018699)scale(0.996264009963)" xlink:href="#Nimbus_Sans_L_Regular-107"></use>
      <use transform="translate(1174.0865249 1.79267018699)scale(0.996264009963)" xlink:href="#Nimbus_Sans_L_Regular-101"></use>
      <use transform="translate(1229.47820186 1.79267018699)scale(0.996264009963)" xlink:href="#Nimbus_Sans_L_Regular-105"></use>
      <use transform="translate(1251.59498621 1.79267018699)scale(0.996264009963)" xlink:href="#Nimbus_Sans_L_Regular-116"></use>
      <use transform="translate(1279.29015581 1.79267018699)scale(0.996264009963)" xlink:href="#Nimbus_Sans_L_Regular-115"></use>
      <use transform="translate(1329.10335631 1.79267018699)scale(0.996264009963)" xlink:href="#Nimbus_Sans_L_Regular-100"></use>
      <use transform="translate(1384.49503327 1.79267018699)scale(0.996264009963)" xlink:href="#Nimbus_Sans_L_Regular-105"></use>
      <use transform="translate(1406.61181762 1.79267018699)scale(0.996264009963)" xlink:href="#Nimbus_Sans_L_Regular-99"></use>
      <use transform="translate(1456.42501812 1.79267018699)scale(0.996264009963)" xlink:href="#Nimbus_Sans_L_Regular-104"></use>
      <use transform="translate(1511.81669508 1.79267018699)scale(0.996264009963)" xlink:href="#Nimbus_Sans_L_Regular-116"></use>
      <use transform="translate(1539.51186469 1.79267018699)scale(0.996264009963)" xlink:href="#Nimbus_Sans_L_Regular-101"></use>
     </g>
    </g>
   </g>
   <g id="patch_3">
    <path d="
M51.6524 11.8227
L609.652 11.8227" style="fill:none;stroke:#000000;"></path>
   </g>
   <g id="patch_4">
    <path d="
M609.652 458.223
L609.652 11.8227" style="fill:none;stroke:#000000;"></path>
   </g>
   <g id="patch_5">
    <path d="
M51.6524 458.223
L609.652 458.223" style="fill:none;stroke:#000000;"></path>
   </g>
   <g id="patch_6">
    <path d="
M51.6524 458.223
L51.6524 11.8227" style="fill:none;stroke:#000000;"></path>
   </g>
   <g id="legend_1">
    <g id="patch_7">
     <path d="
M481.37 87.3548
L603.652 87.3548
L603.652 17.8227
L481.37 17.8227
L481.37 87.3548
z
" style="fill:#ffffff;stroke:#000000;"></path>
    </g>
    <g id="line2d_37">
     <path d="
M489.77 26.9406
L506.57 26.9406" style="fill:none;stroke:#0000ff;"></path>
    </g>
    <g id="line2d_38"></g>
    <g id="text_19">
     <!-- $\lambda = 0.0$ -->
     <defs>
      <path d="
M64.2969 31.5156
C65.7969 31.5156 67.2969 31.5156 67.2969 33.2031
C67.2969 35 65.5938 35 63.9062 35
L8 35
C6.29688 35 4.59375 35 4.59375 33.2031
C4.59375 31.5156 6.09375 31.5156 7.59375 31.5156
z

M63.9062 14
C65.5938 14 67.2969 14 67.2969 15.7969
C67.2969 17.4844 65.7969 17.4844 64.2969 17.4844
L7.59375 17.4844
C6.09375 17.4844 4.59375 17.4844 4.59375 15.7969
C4.59375 14 6.29688 14 8 14
z
" id="CMR17-61"></path>
      <path d="
M30.9062 61.9531
C28.4062 69 20.5 69 19.2031 69
C18.5938 69 17.5 69 17.5 68
C17.5 67.2188 18.0938 67.125 18.5938 67.0156
C20.0938 66.8281 21.2969 66.625 22.9062 63.75
C23.9062 61.8438 34.2031 32.1719 34.2031 31.9688
C34.2031 31.875 34.0938 31.7656 33.2969 30.9688
L7.29688 4.85938
C6.09375 3.67188 5.29688 2.875 5.29688 1.57812
C5.29688 0.1875 6.5 -1 8.09375 -1
C8.5 -1 9.59375 -0.796875 10.2031 -0.203125
C11.7969 1.28125 26.0938 18.6562 35.2031 29.3906
C37.7969 21.625 41 12.4531 44.0938 4.07812
C44.5938 2.59375 45.0938 1.20312 46.5 -0.09375
C47.5 -1 47.7031 -1 50.5 -1
L52.4062 -1
C52.7969 -1 53.5 -1 53.5 -0.203125
C53.5 0.203125 53.4062 0.296875 53 0.703125
C52.0938 1.78125 51.4062 3.57812 51 4.78125
z
" id="CMMI12-21"></path>
     </defs>
     <g transform="translate(519.769866054 31.1406411139)scale(0.12 -0.12)">
      <use transform="scale(0.996264009963)" xlink:href="#CMMI12-21"></use>
      <use transform="translate(84.5780806108 0.0)scale(0.996264009963)" xlink:href="#CMR17-61"></use>
      <use transform="translate(183.966877748 0.0)scale(0.996264009963)" xlink:href="#CMR17-48"></use>
      <use transform="translate(229.657354866 0.0)scale(0.996264009963)" xlink:href="#CMMI12-58"></use>
      <use transform="translate(256.754531955 0.0)scale(0.996264009963)" xlink:href="#CMR17-48"></use>
     </g>
    </g>
    <g id="line2d_39">
     <path d="
M489.77 44.2261
L506.57 44.2261" style="fill:none;stroke:#000000;stroke-width:1.1;"></path>
    </g>
    <g id="line2d_40"></g>
    <g id="text_20">
     <!-- Exakte Lösung -->
     <defs>
      <path d="
M29.2031 27.1406
L46.7969 52.4844
L37.4062 52.4844
L24.7969 33.4531
L12.2031 52.4844
L2.70312 52.4844
L20.2031 26.75
L1.70312 0
L11.2031 0
L24.5 20.125
L37.5938 0
L47.2969 0
z
" id="Nimbus_Sans_L_Regular-120"></path>
      <path d="
M13.4062 71.3125
L3 71.3125
L3 61
L13.4062 61
z

M29.5938 71.3125
L19.2031 71.3125
L19.2031 61
L29.5938 61
z
" id="Nimbus_Sans_L_Regular-168"></path>
      <path d="
M17.2969 73
L8 73
L8 0
L53.2969 0
L53.2969 8.21875
L17.2969 8.21875
z
" id="Nimbus_Sans_L_Regular-76"></path>
      <path d="
M18.2969 33
L58 33
L58 41.2188
L18.2969 41.2188
L18.2969 64.7812
L59.5 64.7812
L59.5 73
L9 73
L9 0
L61.2969 0
L61.2969 8.21875
L18.2969 8.21875
z
" id="Nimbus_Sans_L_Regular-69"></path>
      <path d="
M48.2031 0.515625
L48.2031 53
L39.9062 53
L39.9062 23.1094
C39.9062 12.3438 34.2969 5.3125 25.5938 5.3125
C19 5.3125 14.7969 9.32812 14.7969 15.6719
L14.7969 53
L6.5 53
L6.5 12.375
C6.5 3.625 13 -2 23.2031 -2
C30.9062 -2 35.7969 0.703125 40.7031 7.625
L40.7031 0.515625
z
" id="Nimbus_Sans_L_Regular-117"></path>
      <path d="
M41.2031 52.2031
L41.2031 44.5938
C37 50.8125 31.9062 53.7188 25.2031 53.7188
C11.9062 53.7188 2.90625 42.0625 2.90625 25
C2.90625 16.375 5.20312 9.34375 9.5 4.3125
C13.4062 -0.109375 19 -2.70312 24.5 -2.70312
C31.0938 -2.70312 35.7031 0.09375 40.4062 6.70312
L40.4062 4.03125
C40.4062 -3 39.5 -7.26562 37.4062 -10.1406
C35.2031 -13.1875 30.9062 -14.9844 25.7969 -14.9844
C22 -14.9844 18.5938 -14 16.2969 -12.2344
C14.4062 -10.75 13.5938 -9.375 13.0938 -6.34375
L4.59375 -6.34375
C5.5 -16.1406 13.2031 -22 25.5 -22
C33.2969 -22 40 -19.4844 43.4062 -15.2969
C47.4062 -10.4844 48.9062 -3.89062 48.9062 8.40625
L48.9062 52.2031
z

M26.0938 46
C35.0938 46 40.4062 38.375 40.4062 25.2031
C40.4062 12.625 35 5 26.2031 5
C17.0938 5 11.5938 12.75 11.5938 25.5
C11.5938 38.1562 17.2031 46 26.0938 46" id="Nimbus_Sans_L_Regular-103"></path>
     </defs>
     <g transform="translate(519.769866054 50.9724692681)scale(0.12 -0.12)">
      <use transform="translate(0.0 21.2198791884)scale(0.996264009963)" xlink:href="#Nimbus_Sans_L_Regular-69"></use>
      <use transform="translate(66.4500311333 21.2198791884)scale(0.996264009963)" xlink:href="#Nimbus_Sans_L_Regular-120"></use>
      <use transform="translate(116.263231631 21.2198791884)scale(0.996264009963)" xlink:href="#Nimbus_Sans_L_Regular-97"></use>
      <use transform="translate(171.654908595 21.2198791884)scale(0.996264009963)" xlink:href="#Nimbus_Sans_L_Regular-107"></use>
      <use transform="translate(221.468109093 21.2198791884)scale(0.996264009963)" xlink:href="#Nimbus_Sans_L_Regular-116"></use>
      <use transform="translate(249.163278696 21.2198791884)scale(0.996264009963)" xlink:href="#Nimbus_Sans_L_Regular-101"></use>
      <use transform="translate(332.250125263 21.2198791884)scale(0.996264009963)" xlink:href="#Nimbus_Sans_L_Regular-76"></use>
      <use transform="translate(398.750033444 23.0623352127)scale(0.996264009963)" xlink:href="#Nimbus_Sans_L_Regular-168"></use>
      <use transform="translate(387.641802226 21.2198791884)scale(0.996264009963)" xlink:href="#Nimbus_Sans_L_Regular-111"></use>
      <use transform="translate(443.033479189 21.2198791884)scale(0.996264009963)" xlink:href="#Nimbus_Sans_L_Regular-115"></use>
      <use transform="translate(492.846679688 21.2198791884)scale(0.996264009963)" xlink:href="#Nimbus_Sans_L_Regular-117"></use>
      <use transform="translate(548.238356651 21.2198791884)scale(0.996264009963)" xlink:href="#Nimbus_Sans_L_Regular-110"></use>
      <use transform="translate(603.630033614 21.2198791884)scale(0.996264009963)" xlink:href="#Nimbus_Sans_L_Regular-103"></use>
     </g>
    </g>
    <g id="line2d_41">
     <path d="
M489.77 61.2905
L506.57 61.2905" style="fill:none;stroke:#008000;"></path>
    </g>
    <g id="line2d_42"></g>
    <g id="text_21">
     <!-- $\lambda = 0.5$ -->
     <g transform="translate(519.769866054 65.4904535847)scale(0.12 -0.12)">
      <use transform="scale(0.996264009963)" xlink:href="#CMMI12-21"></use>
      <use transform="translate(84.5780806108 0.0)scale(0.996264009963)" xlink:href="#CMR17-61"></use>
      <use transform="translate(183.966877748 0.0)scale(0.996264009963)" xlink:href="#CMR17-48"></use>
      <use transform="translate(229.657354866 0.0)scale(0.996264009963)" xlink:href="#CMMI12-58"></use>
      <use transform="translate(256.754531955 0.0)scale(0.996264009963)" xlink:href="#CMR17-53"></use>
     </g>
    </g>
    <g id="line2d_43">
     <path d="
M489.77 78.3548
L506.57 78.3548" style="fill:none;stroke:#ff0000;"></path>
    </g>
    <g id="line2d_44"></g>
    <g id="text_22">
     <!-- $\lambda = 1.0$ -->
     <g transform="translate(519.769866054 82.5548124587)scale(0.12 -0.12)">
      <use transform="scale(0.996264009963)" xlink:href="#CMMI12-21"></use>
      <use transform="translate(84.5780806108 0.0)scale(0.996264009963)" xlink:href="#CMR17-61"></use>
      <use transform="translate(183.966877748 0.0)scale(0.996264009963)" xlink:href="#CMR17-49"></use>
      <use transform="translate(229.657354866 0.0)scale(0.996264009963)" xlink:href="#CMMI12-58"></use>
      <use transform="translate(256.754531955 0.0)scale(0.996264009963)" xlink:href="#CMR17-48"></use>
     </g>
    </g>
   </g>
  </g>
 </g>
 <defs>
  <clipPath id="p032b8def87">
   <rect height="446.4" width="558.0" x="51.6524111243" y="11.8226567973"></rect>
  </clipPath>
 </defs>
</svg>
