<?xml version="1.0" encoding="UTF-8" standalone="no"?>
<svg
   xmlns:dc="http://purl.org/dc/elements/1.1/"
   xmlns:cc="http://creativecommons.org/ns#"
   xmlns:rdf="http://www.w3.org/1999/02/22-rdf-syntax-ns#"
   xmlns:svg="http://www.w3.org/2000/svg"
   xmlns="http://www.w3.org/2000/svg"
   xmlns:sodipodi="http://sodipodi.sourceforge.net/DTD/sodipodi-0.dtd"
   xmlns:inkscape="http://www.inkscape.org/namespaces/inkscape"
   version="1.0"
   x="0px"
   y="0px"
   width="311.44067"
   height="380"
   viewBox="0 0 311.44067 380"
   enable-background="new 0 0 400 380"
   xml:space="preserve"
   id="svg3465"
   inkscape:version="0.48.3.1 r9886"
   sodipodi:docname="Aufbau-Reihe.pdf"><metadata
   id="metadata3889"><rdf:RDF><cc:Work
       rdf:about=""><dc:format>image/svg+xml</dc:format><dc:type
         rdf:resource="http://purl.org/dc/dcmitype/StillImage" /><dc:title></dc:title></cc:Work></rdf:RDF></metadata><defs
   id="defs3887">
	
	

	
	
	
	
	
	
	
	
	
	
	

	
	
	
</defs><sodipodi:namedview
   pagecolor="#ffffff"
   bordercolor="#666666"
   borderopacity="1"
   objecttolerance="10"
   gridtolerance="10"
   guidetolerance="10"
   inkscape:pageopacity="0"
   inkscape:pageshadow="2"
   inkscape:window-width="1301"
   inkscape:window-height="744"
   id="namedview3885"
   showgrid="false"
   fit-margin-top="0"
   fit-margin-left="0"
   fit-margin-right="0"
   fit-margin-bottom="0"
   inkscape:zoom="1.2421053"
   inkscape:cx="252.07823"
   inkscape:cy="223.83685"
   inkscape:window-x="65"
   inkscape:window-y="24"
   inkscape:window-maximized="1"
   inkscape:current-layer="svg3465" />
<rect
   style="fill:#ffffff"
   y="0"
   x="0"
   height="380"
   width="311.44067"
   id="Hintergrund" /><path
   style="fill:none;stroke:#a6a8ab;stroke-dasharray:2"
   inkscape:connector-curvature="0"
   d="m 244.2,189.146 c 0,0 -6.763,8.125 -6.763,18.312 0,10.188 6.763,16.875 6.763,16.875 v 13.5 H 171.375 V 85.333 H 244.2 v 103.813 z"
   id="Kasten" /><rect
   style="fill:none;stroke:#a6a8ab;stroke-dasharray:2"
   height="374"
   width="106.148"
   y="2.1670001"
   x="1.987"
   id="Kasten_1_" />
<g
   id="Aufbau">
		<g
   id="Schaltelemente">
			<g
   id="Kondensator">
				<line
   style="fill:none;stroke:#1a171b"
   id="line3504"
   y2="49.333"
   x2="207.2"
   y1="80.833"
   x1="207.2" />
				<line
   style="fill:none;stroke:#1a171b"
   id="line3506"
   y2="49.333"
   x2="216.2"
   y1="49.333"
   x1="198.2" />
				<line
   style="fill:none;stroke:#1a171b"
   id="line3508"
   y2="40.333"
   x2="216.2"
   y1="40.333"
   x1="198.2" />
				<line
   style="fill:none;stroke:#1a171b"
   id="line3510"
   y2="40.333"
   x2="207.2"
   y1="8.8330002"
   x1="207.2" />
			</g>
			<g
   id="Widerstand_1_">
				<line
   style="fill:none;stroke:#1a171b"
   id="line3513"
   y2="368.832"
   x2="207.2"
   y1="296.832"
   x1="207.2" />
				<rect
   style="fill:#ffffff;stroke:#1a171b"
   id="rect3515"
   height="36"
   width="12.6"
   y="314.832"
   x="200.89999" />
			</g>
			<g
   id="Widerstand_2_">
				<line
   style="fill:none;stroke:#1a171b"
   id="line3518"
   y2="242.832"
   x2="207.2"
   y1="170.83299"
   x1="207.2" />
				<rect
   style="fill:#ffffff;stroke:#1a171b"
   id="rect3520"
   height="35.999001"
   width="12.6"
   y="188.83299"
   x="200.89999" />
			</g>
			<g
   id="EinfachSchalter">
				<polyline
   style="fill:none;stroke:#1a171b"
   id="polyline3523"
   points="171.375,71.667 171.375,62.833 153.375,26.833     " />
				<line
   style="fill:none;stroke:#1a171b"
   id="line3525"
   y2="8.8330002"
   x2="171.375"
   y1="26.833"
   x1="171.375" />
			</g>
			<path
   style="fill:none;stroke:#1a171b"
   inkscape:connector-curvature="0"
   d="m 207.2,80.833 v 9 c 0,0 9,0 9,9 0,9 -9,9 -9,9 0,0 9,0 9,9 0,9 -9,9 -9,9 0,0 9,0 9,9 0,9 -9,9 -9,9 0,0 9,0 9,9 0,9 -9,9 -9,9 v 9"
   id="Spule" />
			<g
   id="Multimeter_1_">
				<line
   style="fill:none;stroke:#1a171b"
   id="line3529"
   y2="242.832"
   x2="207.2"
   y1="296.832"
   x1="207.2" />
				<circle
   style="fill:#ffffff;stroke:#1a171b"
   sodipodi:ry="18"
   sodipodi:rx="18"
   sodipodi:cy="269.832"
   sodipodi:cx="207.2"
   id="circle3531"
   r="18"
   cy="269.832"
   cx="207.2"
   d="m 225.2,269.832 c 0,9.94113 -8.05888,18 -18,18 -9.94113,0 -18,-8.05887 -18,-18 0,-9.94112 8.05887,-18 18,-18 9.94112,0 18,8.05888 18,18 z" />
				<g
   id="g3533">
					<path
   style="fill:#1a171b"
   inkscape:connector-curvature="0"
   id="path3535"
   d="m 194.427,275.034 -3.328,-8.59 h 1.23 l 2.232,6.24 c 0.18,0.5 0.33,0.969 0.451,1.406 0.133,-0.469 0.287,-0.938 0.463,-1.406 l 2.32,-6.24 h 1.16 l -3.363,8.59 h -1.165 z" />
					<path
   style="fill:#1a171b"
   inkscape:connector-curvature="0"
   id="path3537"
   d="m 198.769,272.456 v -1.061 h 3.24 v 1.061 h -3.24 z" />
					<path
   style="fill:#1a171b"
   inkscape:connector-curvature="0"
   id="path3539"
   d="m 202.366,275.034 3.299,-8.59 h 1.225 l 3.516,8.59 h -1.295 l -1.002,-2.602 h -3.592 l -0.943,2.602 h -1.208 z m 2.479,-3.527 h 2.912 l -0.896,-2.379 c -0.273,-0.723 -0.477,-1.316 -0.609,-1.781 -0.109,0.551 -0.264,1.098 -0.463,1.641 l -0.944,2.519 z" />
					<path
   style="fill:#1a171b"
   inkscape:connector-curvature="0"
   id="path3541"
   d="m 210.769,272.456 v -1.061 h 3.24 v 1.061 h -3.24 z" />
					<path
   style="fill:#1a171b"
   inkscape:connector-curvature="0"
   id="path3543"
   d="m 214.952,274.021 h 1.875 c -1.188,-0.992 -1.781,-2.203 -1.781,-3.633 0,-0.777 0.156,-1.475 0.469,-2.092 0.313,-0.617 0.754,-1.104 1.324,-1.462 0.57,-0.358 1.256,-0.536 2.057,-0.536 0.793,0 1.454,0.164 1.983,0.492 0.529,0.328 0.965,0.799 1.307,1.412 0.342,0.613 0.513,1.342 0.513,2.186 0,1.43 -0.594,2.641 -1.781,3.633 h 1.875 v 1.014 h -3.34 v -0.949 c 1.391,-0.648 2.086,-1.822 2.086,-3.521 0,-0.957 -0.245,-1.745 -0.735,-2.364 -0.49,-0.619 -1.128,-0.929 -1.913,-0.929 -0.809,0 -1.455,0.312 -1.939,0.935 -0.484,0.623 -0.727,1.39 -0.727,2.3 0,1.723 0.691,2.916 2.074,3.58 v 0.949 h -3.346 v -1.015 z" />
				</g>
			</g>
			<g
   id="Multimeter_2_">
				<line
   style="fill:none;stroke:#1a171b"
   id="line3546"
   y2="179.83299"
   x2="262.20001"
   y1="233.832"
   x1="262.20001" />
				<circle
   style="fill:#ffffff;stroke:#1a171b"
   sodipodi:ry="18"
   sodipodi:rx="18"
   sodipodi:cy="206.832"
   sodipodi:cx="262.20001"
   id="circle3548"
   r="18"
   cy="206.832"
   cx="262.20001"
   d="m 280.20001,206.832 c 0,9.94113 -8.05887,18 -18,18 -9.94112,0 -18,-8.05887 -18,-18 0,-9.94112 8.05888,-18 18,-18 9.94113,0 18,8.05888 18,18 z" />
				<g
   id="g3550">
					<path
   style="fill:#1a171b"
   inkscape:connector-curvature="0"
   id="path3552"
   d="m 249.427,212.034 -3.328,-8.59 h 1.23 l 2.232,6.24 c 0.18,0.5 0.33,0.969 0.451,1.406 0.133,-0.469 0.287,-0.938 0.463,-1.406 l 2.32,-6.24 h 1.16 l -3.363,8.59 h -1.165 z" />
					<path
   style="fill:#1a171b"
   inkscape:connector-curvature="0"
   id="path3554"
   d="m 253.769,209.456 v -1.061 h 3.24 v 1.061 h -3.24 z" />
					<path
   style="fill:#1a171b"
   inkscape:connector-curvature="0"
   id="path3556"
   d="m 257.366,212.034 3.299,-8.59 h 1.225 l 3.516,8.59 h -1.295 l -1.002,-2.602 h -3.592 l -0.943,2.602 h -1.208 z m 2.479,-3.527 h 2.912 l -0.896,-2.379 c -0.273,-0.723 -0.477,-1.316 -0.609,-1.781 -0.109,0.551 -0.264,1.098 -0.463,1.641 l -0.944,2.519 z" />
					<path
   style="fill:#1a171b"
   inkscape:connector-curvature="0"
   id="path3558"
   d="m 265.769,209.456 v -1.061 h 3.24 v 1.061 h -3.24 z" />
					<path
   style="fill:#1a171b"
   inkscape:connector-curvature="0"
   id="path3560"
   d="m 269.952,211.021 h 1.875 c -1.188,-0.992 -1.781,-2.203 -1.781,-3.633 0,-0.777 0.156,-1.475 0.469,-2.092 0.313,-0.617 0.754,-1.104 1.324,-1.462 0.57,-0.358 1.256,-0.536 2.057,-0.536 0.793,0 1.454,0.164 1.983,0.492 0.529,0.328 0.965,0.799 1.307,1.412 0.342,0.613 0.513,1.342 0.513,2.186 0,1.43 -0.594,2.641 -1.781,3.633 h 1.875 v 1.014 h -3.34 v -0.949 c 1.391,-0.648 2.086,-1.822 2.086,-3.521 0,-0.957 -0.245,-1.745 -0.735,-2.364 -0.49,-0.619 -1.128,-0.929 -1.913,-0.929 -0.809,0 -1.455,0.312 -1.939,0.935 -0.484,0.623 -0.727,1.39 -0.727,2.3 0,1.723 0.691,2.916 2.074,3.58 v 0.949 h -3.346 v -1.015 z" />
				</g>
			</g>
			<g
   id="Multimeter_4_">
				<line
   style="fill:none;stroke:#1a171b"
   id="line3563"
   y2="179.83299"
   x2="132.688"
   y1="233.832"
   x1="132.688" />
				<circle
   style="fill:#ffffff;stroke:#1a171b"
   sodipodi:ry="18"
   sodipodi:rx="18"
   sodipodi:cy="206.832"
   sodipodi:cx="132.688"
   id="circle3565"
   r="18"
   cy="206.832"
   cx="132.688"
   d="m 150.688,206.832 c 0,9.94113 -8.05887,18 -18,18 -9.94112,0 -18,-8.05887 -18,-18 0,-9.94112 8.05888,-18 18,-18 9.94113,0 18,8.05888 18,18 z" />
				<g
   id="g3567">
					<path
   style="fill:#1a171b"
   inkscape:connector-curvature="0"
   id="path3569"
   d="m 119.914,212.034 -3.328,-8.59 h 1.23 l 2.232,6.24 c 0.18,0.5 0.33,0.969 0.451,1.406 0.133,-0.469 0.287,-0.938 0.463,-1.406 l 2.32,-6.24 h 1.16 l -3.363,8.59 h -1.165 z" />
					<path
   style="fill:#1a171b"
   inkscape:connector-curvature="0"
   id="path3571"
   d="m 124.256,209.456 v -1.061 h 3.24 v 1.061 h -3.24 z" />
					<path
   style="fill:#1a171b"
   inkscape:connector-curvature="0"
   id="path3573"
   d="m 127.854,212.034 3.299,-8.59 h 1.225 l 3.516,8.59 h -1.295 l -1.002,-2.602 h -3.592 l -0.943,2.602 h -1.208 z m 2.478,-3.527 h 2.912 l -0.896,-2.379 c -0.273,-0.723 -0.477,-1.316 -0.609,-1.781 -0.109,0.551 -0.264,1.098 -0.463,1.641 l -0.944,2.519 z" />
					<path
   style="fill:#1a171b"
   inkscape:connector-curvature="0"
   id="path3575"
   d="m 136.256,209.456 v -1.061 h 3.24 v 1.061 h -3.24 z" />
					<path
   style="fill:#1a171b"
   inkscape:connector-curvature="0"
   id="path3577"
   d="m 140.439,211.021 h 1.875 c -1.188,-0.992 -1.781,-2.203 -1.781,-3.633 0,-0.777 0.156,-1.475 0.469,-2.092 0.313,-0.617 0.754,-1.104 1.324,-1.462 0.57,-0.358 1.256,-0.536 2.057,-0.536 0.793,0 1.454,0.164 1.983,0.492 0.529,0.328 0.965,0.799 1.307,1.412 0.342,0.613 0.513,1.342 0.513,2.186 0,1.43 -0.594,2.641 -1.781,3.633 h 1.875 v 1.014 h -3.34 v -0.949 c 1.391,-0.648 2.086,-1.822 2.086,-3.521 0,-0.957 -0.245,-1.745 -0.735,-2.364 -0.49,-0.619 -1.128,-0.929 -1.913,-0.929 -0.809,0 -1.455,0.312 -1.939,0.935 -0.484,0.623 -0.727,1.39 -0.727,2.3 0,1.723 0.691,2.916 2.074,3.58 v 0.949 h -3.346 v -1.015 z" />
				</g>
			</g>
			<g
   id="Multimeter_3_">
				<line
   style="fill:none;stroke:#1a171b"
   id="line3580"
   y2="17.833"
   x2="262.20001"
   y1="71.833"
   x1="262.20001" />
				<circle
   style="fill:#ffffff;stroke:#1a171b"
   sodipodi:ry="18"
   sodipodi:rx="18"
   sodipodi:cy="44.833"
   sodipodi:cx="262.20001"
   id="circle3582"
   r="18"
   cy="44.833"
   cx="262.20001"
   d="m 280.20001,44.833 c 0,9.941126 -8.05887,18 -18,18 -9.94112,0 -18,-8.058874 -18,-18 0,-9.941125 8.05888,-18 18,-18 9.94113,0 18,8.058875 18,18 z" />
				<g
   id="g3584">
					<path
   style="fill:#1a171b"
   inkscape:connector-curvature="0"
   id="path3586"
   d="m 249.427,50.034 -3.328,-8.59 h 1.23 l 2.232,6.24 c 0.18,0.5 0.33,0.969 0.451,1.406 0.133,-0.469 0.287,-0.938 0.463,-1.406 l 2.32,-6.24 h 1.16 l -3.363,8.59 h -1.165 z" />
					<path
   style="fill:#1a171b"
   inkscape:connector-curvature="0"
   id="path3588"
   d="m 253.769,47.456 v -1.061 h 3.24 v 1.061 h -3.24 z" />
					<path
   style="fill:#1a171b"
   inkscape:connector-curvature="0"
   id="path3590"
   d="m 257.366,50.034 3.299,-8.59 h 1.225 l 3.516,8.59 h -1.295 l -1.002,-2.602 h -3.592 l -0.943,2.602 h -1.208 z m 2.479,-3.527 h 2.912 l -0.896,-2.379 c -0.273,-0.723 -0.477,-1.316 -0.609,-1.781 -0.109,0.551 -0.264,1.098 -0.463,1.641 l -0.944,2.519 z" />
					<path
   style="fill:#1a171b"
   inkscape:connector-curvature="0"
   id="path3592"
   d="m 265.769,47.456 v -1.061 h 3.24 v 1.061 h -3.24 z" />
					<path
   style="fill:#1a171b"
   inkscape:connector-curvature="0"
   id="path3594"
   d="m 269.952,49.021 h 1.875 c -1.188,-0.992 -1.781,-2.203 -1.781,-3.633 0,-0.777 0.156,-1.475 0.469,-2.092 0.313,-0.617 0.754,-1.104 1.324,-1.462 0.57,-0.358 1.256,-0.536 2.057,-0.536 0.793,0 1.454,0.164 1.983,0.492 0.529,0.328 0.965,0.799 1.307,1.412 0.342,0.613 0.513,1.342 0.513,2.186 0,1.43 -0.594,2.641 -1.781,3.633 h 1.875 v 1.014 h -3.34 v -0.949 c 1.391,-0.648 2.086,-1.822 2.086,-3.521 0,-0.957 -0.245,-1.745 -0.735,-2.364 -0.49,-0.619 -1.128,-0.929 -1.913,-0.929 -0.809,0 -1.455,0.312 -1.939,0.935 -0.484,0.623 -0.727,1.39 -0.727,2.3 0,1.723 0.691,2.916 2.074,3.58 v 0.949 h -3.346 v -1.015 z" />
				</g>
			</g>
			<g
   id="MessgeraetAllg_1_">
				<line
   style="fill:none;stroke:#1a171b"
   id="line3597"
   y2="179.83299"
   x2="78.344002"
   y1="233.832"
   x1="78.344002" />
				<circle
   style="fill:#ffffff;stroke:#1a171b"
   sodipodi:ry="18"
   sodipodi:rx="18"
   sodipodi:cy="206.832"
   sodipodi:cx="78.344002"
   id="circle3599"
   r="18"
   cy="206.832"
   cx="78.344002"
   d="m 96.344002,206.832 c 0,9.94113 -8.058875,18 -18,18 -9.941126,0 -18,-8.05887 -18,-18 0,-9.94112 8.058874,-18 18,-18 9.941125,0 18,8.05888 18,18 z" />
				<g
   id="g3601">
					<polygon
   style="fill:#1a171b"
   id="polygon3603"
   points="78.137,201.469 69.002,197.403 72.891,206.715 " />
					<line
   style="fill:none;stroke:#1a171b"
   id="line3605"
   y2="216.26199"
   x2="87.685997"
   y1="204.092"
   x1="75.514" />
				</g>
			</g>
			<g
   id="Frequenzgenerator">
				<line
   style="fill:none;stroke:#1a171b"
   id="line3608"
   y2="233.715"
   x2="24"
   y1="179.715"
   x1="24" />
				<rect
   style="fill:#ffffff;stroke:#1a171b"
   id="rect3610"
   height="36"
   width="36"
   y="188.715"
   x="6" />
				<path
   style="fill:none;stroke:#1a171b"
   inkscape:connector-curvature="0"
   id="path3612"
   d="m 38.4,206.715 c -2.4,14.063 -4.8,14.063 -7.2,0 -2.4,-14.063 -4.8,-14.063 -7.2,0 -2.4,14.063 -4.8,14.063 -7.2,0 -2.4,-14.063 -4.8,-14.063 -7.2,0" />
			</g>
		</g>
		<g
   id="Schaltung_1_">
			<polyline
   style="fill:none;stroke:#231f20"
   id="polyline3615"
   points="24,179.715 24,8.833 262.2,8.833 262.2,17.833    " />
			<line
   style="fill:none;stroke:#231f20"
   id="line3617"
   y2="179.83299"
   x2="262.20001"
   y1="71.833"
   x1="262.20001" />
			<polyline
   style="fill:none;stroke:#231f20"
   id="polyline3619"
   points="262.2,233.832 264.2,368.832 24,368.832 24,233.715    " />
			<polyline
   style="fill:none;stroke:#231f20"
   id="polyline3621"
   points="262.2,80.833 171.375,80.833 171.375,71.667    " />
			<line
   style="fill:none;stroke:#231f20"
   id="line3623"
   y2="8.8330002"
   x2="78.344002"
   y1="179.83299"
   x1="78.344002" />
			<line
   style="fill:none;stroke:#231f20"
   id="line3625"
   y2="8.8330002"
   x2="132.688"
   y1="179.83299"
   x1="132.688" />
			<line
   style="fill:none;stroke:#231f20"
   id="line3627"
   y2="368.832"
   x2="78.344002"
   y1="233.832"
   x1="78.344002" />
			<line
   style="fill:none;stroke:#231f20"
   id="line3629"
   y2="368.832"
   x2="132.688"
   y1="233.832"
   x1="132.688" />
			<circle
   style="fill:#231f20"
   sodipodi:ry="2.1010001"
   sodipodi:rx="2.1010001"
   sodipodi:cy="8.8330002"
   sodipodi:cx="78.344002"
   r="2.1010001"
   cy="8.8330002"
   cx="78.344002"
   id="Weiche_22_"
   d="m 80.445002,8.8330002 c 0,1.1603503 -0.94065,2.1009998 -2.101,2.1009998 -1.160351,0 -2.101,-0.9406495 -2.101,-2.1009998 0,-1.1603503 0.940649,-2.1010001 2.101,-2.1010001 1.16035,0 2.101,0.9406498 2.101,2.1010001 z" />
			<circle
   style="fill:#231f20"
   sodipodi:ry="2.1010001"
   sodipodi:rx="2.1010001"
   sodipodi:cy="8.8330002"
   sodipodi:cx="132.688"
   r="2.1010001"
   cy="8.8330002"
   cx="132.688"
   id="Weiche_21_"
   d="m 134.789,8.8330002 c 0,1.1603503 -0.94065,2.1009998 -2.101,2.1009998 -1.16035,0 -2.101,-0.9406495 -2.101,-2.1009998 0,-1.1603503 0.94065,-2.1010001 2.101,-2.1010001 1.16035,0 2.101,0.9406498 2.101,2.1010001 z" />
			<circle
   style="fill:#231f20"
   sodipodi:ry="2.1010001"
   sodipodi:rx="2.1010001"
   sodipodi:cy="8.8330002"
   sodipodi:cx="171.375"
   r="2.1010001"
   cy="8.8330002"
   cx="171.375"
   id="Weiche_20_"
   d="m 173.476,8.8330002 c 0,1.1603503 -0.94065,2.1009998 -2.101,2.1009998 -1.16035,0 -2.101,-0.9406495 -2.101,-2.1009998 0,-1.1603503 0.94065,-2.1010001 2.101,-2.1010001 1.16035,0 2.101,0.9406498 2.101,2.1010001 z" />
			<circle
   style="fill:#231f20;stroke:#929497"
   sodipodi:ry="2.1010001"
   sodipodi:rx="2.1010001"
   sodipodi:cy="8.8330002"
   sodipodi:cx="207.2"
   r="2.1010001"
   cy="8.8330002"
   cx="207.2"
   id="Weiche_19_"
   d="m 209.301,8.8330002 c 0,1.1603503 -0.94065,2.1009998 -2.101,2.1009998 -1.16035,0 -2.101,-0.9406495 -2.101,-2.1009998 0,-1.1603503 0.94065,-2.1010001 2.101,-2.1010001 1.16035,0 2.101,0.9406498 2.101,2.1010001 z" />
			<circle
   style="fill:#231f20;stroke:#929497"
   sodipodi:ry="2.1010001"
   sodipodi:rx="2.1010001"
   sodipodi:cy="80.833"
   sodipodi:cx="207.2"
   r="2.1010001"
   cy="80.833"
   cx="207.2"
   id="Weiche_18_"
   d="m 209.301,80.833 c 0,1.16035 -0.94065,2.101 -2.101,2.101 -1.16035,0 -2.101,-0.94065 -2.101,-2.101 0,-1.16035 0.94065,-2.101 2.101,-2.101 1.16035,0 2.101,0.94065 2.101,2.101 z" />
			<circle
   style="fill:#231f20"
   sodipodi:ry="2.1010001"
   sodipodi:rx="2.1010001"
   sodipodi:cy="80.833"
   sodipodi:cx="262.20001"
   r="2.1010001"
   cy="80.833"
   cx="262.20001"
   id="Weiche_9_"
   d="m 264.30101,80.833 c 0,1.16035 -0.94065,2.101 -2.101,2.101 -1.16035,0 -2.101,-0.94065 -2.101,-2.101 0,-1.16035 0.94065,-2.101 2.101,-2.101 1.16035,0 2.101,0.94065 2.101,2.101 z" />
			<circle
   style="fill:#231f20;stroke:#929497"
   sodipodi:ry="2.1010001"
   sodipodi:rx="2.1010001"
   sodipodi:cy="368.832"
   sodipodi:cx="207.2"
   r="2.1010001"
   cy="368.832"
   cx="207.2"
   id="Weiche_7_"
   d="m 209.301,368.832 c 0,1.16035 -0.94065,2.101 -2.101,2.101 -1.16035,0 -2.101,-0.94065 -2.101,-2.101 0,-1.16035 0.94065,-2.101 2.101,-2.101 1.16035,0 2.101,0.94065 2.101,2.101 z" />
			<circle
   style="fill:#231f20"
   sodipodi:ry="2.1010001"
   sodipodi:rx="2.1010001"
   sodipodi:cy="368.832"
   sodipodi:cx="132.688"
   r="2.1010001"
   cy="368.832"
   cx="132.688"
   id="Weiche_4_"
   d="m 134.789,368.832 c 0,1.16035 -0.94065,2.101 -2.101,2.101 -1.16035,0 -2.101,-0.94065 -2.101,-2.101 0,-1.16035 0.94065,-2.101 2.101,-2.101 1.16035,0 2.101,0.94065 2.101,2.101 z" />
			<circle
   style="fill:#231f20"
   sodipodi:ry="2.1010001"
   sodipodi:rx="2.1010001"
   sodipodi:cy="368.832"
   sodipodi:cx="78.344002"
   r="2.1010001"
   cy="368.832"
   cx="78.344002"
   id="Weiche_3_"
   d="m 80.445002,368.832 c 0,1.16035 -0.94065,2.101 -2.101,2.101 -1.160351,0 -2.101,-0.94065 -2.101,-2.101 0,-1.16035 0.940649,-2.101 2.101,-2.101 1.16035,0 2.101,0.94065 2.101,2.101 z" />
		</g>
	</g>
<g
   id="g3641">
		<path
   inkscape:connector-curvature="0"
   id="path3643"
   d="M 219.925,348.833 V 337.38 h 5.078 c 1.021,0 1.797,0.103 2.328,0.309 0.531,0.206 0.956,0.569 1.273,1.09 0.317,0.521 0.477,1.097 0.477,1.727 0,0.813 -0.263,1.497 -0.789,2.055 -0.526,0.558 -1.339,0.911 -2.438,1.063 0.401,0.192 0.706,0.383 0.914,0.57 0.442,0.406 0.862,0.914 1.258,1.523 l 1.992,3.117 h -1.906 l -1.516,-2.383 c -0.442,-0.688 -0.808,-1.214 -1.094,-1.578 -0.286,-0.364 -0.543,-0.62 -0.77,-0.766 -0.227,-0.146 -0.457,-0.247 -0.691,-0.305 -0.172,-0.036 -0.453,-0.055 -0.844,-0.055 h -1.758 v 5.086 h -1.514 z m 1.515,-6.398 h 3.258 c 0.692,0 1.234,-0.071 1.625,-0.215 0.391,-0.144 0.688,-0.372 0.891,-0.688 0.203,-0.316 0.305,-0.657 0.305,-1.027 0,-0.542 -0.196,-0.987 -0.59,-1.336 -0.394,-0.349 -1.015,-0.523 -1.863,-0.523 h -3.625 v 3.789 z" />
	</g><g
   id="g3645">
		<path
   inkscape:connector-curvature="0"
   id="path3647"
   d="M 219.839,159.583 V 148.13 h 1.516 v 10.102 h 5.641 v 1.352 h -7.157 z" />
	</g><g
   id="g3649">
		<path
   inkscape:connector-curvature="0"
   id="path3651"
   d="m 228.073,61.067 1.516,0.383 c -0.317,1.245 -0.89,2.194 -1.715,2.848 -0.825,0.654 -1.835,0.98 -3.027,0.98 -1.234,0 -2.238,-0.251 -3.012,-0.754 -0.774,-0.503 -1.362,-1.23 -1.766,-2.184 -0.404,-0.954 -0.605,-1.977 -0.605,-3.07 0,-1.192 0.228,-2.233 0.684,-3.121 0.456,-0.888 1.104,-1.563 1.945,-2.023 0.841,-0.46 1.767,-0.691 2.777,-0.691 1.146,0 2.109,0.292 2.891,0.875 0.782,0.583 1.325,1.403 1.633,2.461 l -1.492,0.352 c -0.266,-0.833 -0.651,-1.44 -1.156,-1.82 -0.505,-0.38 -1.141,-0.57 -1.906,-0.57 -0.88,0 -1.616,0.211 -2.207,0.633 -0.591,0.422 -1.007,0.988 -1.246,1.699 -0.239,0.711 -0.359,1.444 -0.359,2.199 0,0.974 0.142,1.824 0.426,2.551 0.284,0.727 0.726,1.27 1.324,1.629 0.598,0.359 1.247,0.539 1.945,0.539 0.849,0 1.567,-0.245 2.156,-0.734 0.589,-0.489 0.986,-1.218 1.194,-2.182 z" />
	</g><g
   id="R_x5F_L">
		<g
   id="g3654">
			<path
   inkscape:connector-curvature="0"
   id="path3656"
   d="M 219.925,218.833 V 207.38 h 5.078 c 1.021,0 1.797,0.103 2.328,0.309 0.531,0.206 0.956,0.569 1.273,1.09 0.317,0.521 0.477,1.097 0.477,1.727 0,0.813 -0.263,1.497 -0.789,2.055 -0.526,0.558 -1.339,0.911 -2.438,1.063 0.401,0.192 0.706,0.383 0.914,0.57 0.442,0.406 0.862,0.914 1.258,1.523 l 1.992,3.117 h -1.906 l -1.516,-2.383 c -0.442,-0.688 -0.808,-1.214 -1.094,-1.578 -0.286,-0.364 -0.543,-0.62 -0.77,-0.766 -0.227,-0.146 -0.457,-0.247 -0.691,-0.305 -0.172,-0.036 -0.453,-0.055 -0.844,-0.055 h -1.758 v 5.086 h -1.514 z m 1.515,-6.398 h 3.258 c 0.692,0 1.234,-0.071 1.625,-0.215 0.391,-0.144 0.688,-0.372 0.891,-0.688 0.203,-0.316 0.305,-0.657 0.305,-1.027 0,-0.542 -0.196,-0.987 -0.59,-1.336 -0.394,-0.349 -1.015,-0.523 -1.863,-0.523 h -3.625 v 3.789 z" />
		</g>
		<g
   id="g3658">
			<path
   inkscape:connector-curvature="0"
   id="path3660"
   d="m 231.546,222.833 v -8.59 h 1.137 v 7.576 h 4.23 v 1.014 h -5.367 z" />
		</g>
	</g><g
   id="U_x5F_0">
		<g
   id="g3663">
			<path
   inkscape:connector-curvature="0"
   id="path3665"
   d="m 150.25,225.88 h 1.516 v 6.617 c 0,1.151 -0.13,2.065 -0.391,2.742 -0.261,0.677 -0.73,1.228 -1.41,1.652 -0.68,0.424 -1.572,0.637 -2.676,0.637 -1.073,0 -1.951,-0.185 -2.633,-0.555 -0.683,-0.37 -1.169,-0.905 -1.461,-1.605 -0.292,-0.7 -0.438,-1.657 -0.438,-2.871 v -6.617 h 1.516 v 6.609 c 0,0.995 0.092,1.728 0.277,2.199 0.185,0.472 0.502,0.835 0.953,1.09 0.45,0.255 1.001,0.383 1.652,0.383 1.114,0 1.909,-0.253 2.383,-0.758 0.474,-0.505 0.711,-1.477 0.711,-2.914 v -6.609 z" />
		</g>
		<g
   id="g3667">
			<path
   inkscape:connector-curvature="0"
   id="path3669"
   d="m 152.998,237.097 c 0,-1.016 0.104,-1.833 0.313,-2.452 0.209,-0.619 0.52,-1.097 0.932,-1.433 0.412,-0.336 0.931,-0.504 1.556,-0.504 0.461,0 0.865,0.093 1.213,0.278 0.348,0.185 0.635,0.453 0.861,0.803 0.226,0.35 0.404,0.775 0.533,1.277 0.129,0.502 0.193,1.179 0.193,2.03 0,1.008 -0.104,1.821 -0.311,2.44 -0.207,0.619 -0.517,1.098 -0.929,1.436 -0.412,0.338 -0.933,0.507 -1.562,0.507 -0.828,0 -1.479,-0.297 -1.951,-0.891 -0.565,-0.714 -0.848,-1.878 -0.848,-3.491 z m 1.084,0 c 0,1.41 0.165,2.349 0.495,2.815 0.33,0.466 0.737,0.7 1.222,0.7 0.485,0 0.892,-0.234 1.222,-0.703 0.33,-0.469 0.495,-1.406 0.495,-2.813 0,-1.414 -0.165,-2.354 -0.495,-2.818 -0.33,-0.464 -0.741,-0.697 -1.233,-0.697 -0.484,0 -0.871,0.205 -1.16,0.615 -0.364,0.524 -0.546,1.491 -0.546,2.901 z" />
		</g>
	</g><g
   id="U_x5F_0_2_">
		<g
   id="g3672">
			<path
   inkscape:connector-curvature="0"
   id="path3674"
   d="m 281.604,225.88 h 1.516 v 6.617 c 0,1.151 -0.13,2.065 -0.391,2.742 -0.261,0.677 -0.73,1.228 -1.41,1.652 -0.68,0.424 -1.571,0.637 -2.676,0.637 -1.073,0 -1.95,-0.185 -2.633,-0.555 -0.683,-0.37 -1.169,-0.905 -1.461,-1.605 -0.292,-0.7 -0.438,-1.657 -0.438,-2.871 v -6.617 h 1.516 v 6.609 c 0,0.995 0.093,1.728 0.277,2.199 0.184,0.471 0.503,0.835 0.953,1.09 0.45,0.255 1.001,0.383 1.652,0.383 1.114,0 1.909,-0.253 2.383,-0.758 0.474,-0.505 0.711,-1.477 0.711,-2.914 v -6.609 z" />
		</g>
		<g
   id="g3676">
			<path
   inkscape:connector-curvature="0"
   id="path3678"
   d="m 284.798,241.333 v -8.59 h 3.809 c 0.766,0 1.348,0.077 1.746,0.231 0.398,0.154 0.717,0.427 0.955,0.817 0.238,0.39 0.357,0.822 0.357,1.295 0,0.609 -0.197,1.123 -0.592,1.541 -0.395,0.418 -1.004,0.684 -1.828,0.797 0.301,0.145 0.529,0.287 0.686,0.428 0.332,0.305 0.646,0.686 0.943,1.143 l 1.494,2.338 h -1.43 l -1.137,-1.787 c -0.332,-0.516 -0.605,-0.91 -0.82,-1.184 -0.215,-0.274 -0.407,-0.465 -0.577,-0.574 -0.17,-0.109 -0.343,-0.186 -0.519,-0.229 -0.129,-0.027 -0.34,-0.041 -0.633,-0.041 h -1.318 v 3.814 h -1.136 z m 1.137,-4.799 h 2.443 c 0.52,0 0.926,-0.054 1.219,-0.161 0.293,-0.107 0.516,-0.279 0.668,-0.516 0.152,-0.237 0.229,-0.493 0.229,-0.771 0,-0.406 -0.147,-0.74 -0.442,-1.002 -0.295,-0.262 -0.761,-0.393 -1.397,-0.393 h -2.719 v 2.843 z" />
			<path
   inkscape:connector-curvature="0"
   id="path3680"
   d="m 295.526,239.944 v -2.355 h -2.338 v -0.984 h 2.338 v -2.338 h 0.996 v 2.338 h 2.338 v 0.984 h -2.338 v 2.355 h -0.996 z" />
			<path
   inkscape:connector-curvature="0"
   id="path3682"
   d="m 300.407,241.333 v -8.59 h 1.137 v 7.576 h 4.23 v 1.014 h -5.367 z" />
		</g>
	</g><g
   id="U_x5F_0_3_">
		<g
   id="g3685">
			<path
   inkscape:connector-curvature="0"
   id="path3687"
   d="m 281.604,13.283 h 1.516 V 19.9 c 0,1.151 -0.13,2.065 -0.391,2.742 -0.261,0.677 -0.73,1.228 -1.41,1.652 -0.68,0.424 -1.571,0.637 -2.676,0.637 -1.073,0 -1.95,-0.185 -2.633,-0.555 -0.683,-0.37 -1.169,-0.905 -1.461,-1.605 -0.292,-0.7 -0.438,-1.657 -0.438,-2.871 v -6.617 h 1.516 v 6.609 c 0,0.995 0.093,1.728 0.277,2.199 0.184,0.471 0.503,0.835 0.953,1.09 0.45,0.255 1.001,0.383 1.652,0.383 1.114,0 1.909,-0.253 2.383,-0.758 0.474,-0.505 0.711,-1.477 0.711,-2.914 v -6.609 z" />
		</g>
		<g
   id="g3689">
			<path
   inkscape:connector-curvature="0"
   id="path3691"
   d="m 290.909,25.725 1.137,0.287 c -0.238,0.934 -0.667,1.646 -1.286,2.136 -0.619,0.49 -1.376,0.735 -2.271,0.735 -0.926,0 -1.679,-0.188 -2.259,-0.565 -0.58,-0.377 -1.021,-0.923 -1.324,-1.638 -0.303,-0.715 -0.454,-1.482 -0.454,-2.303 0,-0.895 0.171,-1.675 0.513,-2.341 0.342,-0.666 0.828,-1.172 1.459,-1.518 0.631,-0.346 1.325,-0.518 2.083,-0.518 0.859,0 1.582,0.219 2.168,0.656 0.586,0.437 0.994,1.053 1.225,1.846 l -1.119,0.264 c -0.199,-0.625 -0.488,-1.08 -0.867,-1.365 -0.379,-0.285 -0.855,-0.428 -1.43,-0.428 -0.66,0 -1.212,0.158 -1.655,0.475 -0.443,0.317 -0.755,0.741 -0.935,1.274 -0.18,0.533 -0.27,1.083 -0.27,1.649 0,0.73 0.106,1.368 0.319,1.913 0.213,0.545 0.544,0.952 0.993,1.222 0.449,0.27 0.936,0.404 1.459,0.404 0.637,0 1.176,-0.184 1.617,-0.551 0.441,-0.367 0.741,-0.912 0.897,-1.634 z" />
		</g>
	</g><g
   id="U_x5F_0_1_">
		<g
   id="g3694">
			<path
   inkscape:connector-curvature="0"
   id="path3696"
   d="M 223.692,300.073 V 288.62 h 1.516 v 11.453 h -1.516 z" />
		</g>
		<g
   id="g3698">
			<path
   inkscape:connector-curvature="0"
   id="path3700"
   d="m 228.698,299.837 c 0,-1.016 0.104,-1.833 0.313,-2.452 0.209,-0.619 0.52,-1.097 0.932,-1.433 0.412,-0.336 0.931,-0.504 1.556,-0.504 0.461,0 0.865,0.093 1.213,0.278 0.348,0.185 0.635,0.453 0.861,0.803 0.226,0.35 0.404,0.775 0.533,1.277 0.129,0.502 0.193,1.179 0.193,2.03 0,1.008 -0.104,1.821 -0.311,2.44 -0.207,0.619 -0.517,1.098 -0.929,1.436 -0.412,0.338 -0.933,0.507 -1.562,0.507 -0.828,0 -1.479,-0.297 -1.951,-0.891 -0.565,-0.714 -0.848,-1.878 -0.848,-3.491 z m 1.084,0 c 0,1.41 0.165,2.349 0.495,2.815 0.33,0.466 0.737,0.7 1.222,0.7 0.485,0 0.892,-0.234 1.222,-0.703 0.33,-0.469 0.495,-1.406 0.495,-2.813 0,-1.414 -0.165,-2.354 -0.495,-2.818 -0.33,-0.464 -0.741,-0.697 -1.233,-0.697 -0.484,0 -0.871,0.205 -1.16,0.615 -0.364,0.524 -0.546,1.491 -0.546,2.901 z" />
		</g>
	</g><path
   style="fill:none;stroke:#1a171b"
   inkscape:connector-curvature="0"
   id="path3702"
   d="m 100.104,231.035 c -1.2,7.031 -2.4,7.031 -3.6,0 -1.2,-7.031 -2.4,-7.031 -3.6,0 -1.2,7.031 -2.4,7.031 -3.6,0 -1.2,-7.031 -2.4,-7.031 -3.6,0" /><g
   id="Frequenzgenerator_1_">
		<path
   style="fill:#a6a8ab;stroke:#ffffff;stroke-width:2"
   inkscape:connector-curvature="0"
   id="path3811"
   d="M 8.266,31.633 10.657,20.18 h 7.445 l -0.273,1.305 h -5.914 l -0.758,3.648 h 6.023 l -0.273,1.305 H 10.884 L 9.798,31.633 H 8.266 z" />
		<path
   style="fill:#a6a8ab;stroke:#ffffff;stroke-width:2"
   inkscape:connector-curvature="0"
   id="path3813"
   d="m 17.844,31.633 1.734,-8.297 h 1.25 l -0.352,1.695 c 0.427,-0.641 0.845,-1.114 1.254,-1.422 0.409,-0.308 0.827,-0.461 1.254,-0.461 0.281,0 0.627,0.102 1.039,0.305 l -0.578,1.313 C 23.2,24.589 22.932,24.5 22.64,24.5 c -0.495,0 -1.002,0.276 -1.523,0.828 -0.521,0.552 -0.93,1.544 -1.227,2.977 l -0.703,3.328 h -1.343 z" />
		<path
   style="fill:#a6a8ab;stroke:#ffffff;stroke-width:2"
   inkscape:connector-curvature="0"
   id="path3815"
   d="m 29.266,28.813 1.375,0.141 c -0.198,0.683 -0.652,1.331 -1.363,1.945 -0.711,0.614 -1.559,0.922 -2.543,0.922 -0.615,0 -1.178,-0.142 -1.691,-0.426 -0.513,-0.284 -0.904,-0.696 -1.172,-1.238 -0.268,-0.542 -0.402,-1.159 -0.402,-1.852 0,-0.906 0.209,-1.785 0.629,-2.637 0.42,-0.852 0.962,-1.484 1.629,-1.898 0.667,-0.414 1.388,-0.621 2.164,-0.621 0.99,0 1.78,0.308 2.371,0.922 0.591,0.614 0.887,1.453 0.887,2.516 0,0.406 -0.037,0.823 -0.109,1.25 H 24.93 c -0.021,0.161 -0.031,0.308 -0.031,0.438 0,0.776 0.178,1.368 0.535,1.777 0.357,0.409 0.793,0.613 1.309,0.613 0.484,0 0.961,-0.159 1.43,-0.477 0.469,-0.318 0.832,-0.777 1.093,-1.375 z m -4.11,-2.055 h 4.656 c 0.005,-0.146 0.008,-0.25 0.008,-0.313 0,-0.708 -0.177,-1.251 -0.531,-1.629 -0.354,-0.378 -0.81,-0.566 -1.367,-0.566 -0.604,0 -1.155,0.208 -1.652,0.625 -0.497,0.417 -0.869,1.044 -1.114,1.883 z" />
		<path
   style="fill:#a6a8ab;stroke:#ffffff;stroke-width:2"
   inkscape:connector-curvature="0"
   id="path3817"
   d="m 37.43,30.695 c -0.807,0.75 -1.581,1.125 -2.32,1.125 -0.771,0 -1.422,-0.293 -1.953,-0.879 -0.531,-0.586 -0.797,-1.418 -0.797,-2.496 0,-1.031 0.202,-1.964 0.605,-2.797 0.403,-0.833 0.919,-1.458 1.547,-1.875 0.628,-0.417 1.275,-0.625 1.941,-0.625 0.505,0 0.965,0.142 1.379,0.426 0.414,0.284 0.749,0.712 1.004,1.285 l 0.32,-1.523 h 1.219 L 37.984,34.813 H 36.57 l 0.86,-4.118 z m -3.672,-2.437 c 0,0.817 0.169,1.423 0.508,1.816 0.339,0.393 0.76,0.59 1.266,0.59 0.427,0 0.858,-0.177 1.293,-0.531 0.435,-0.354 0.792,-0.886 1.07,-1.594 0.278,-0.708 0.418,-1.394 0.418,-2.055 0,-0.677 -0.174,-1.208 -0.523,-1.594 -0.349,-0.386 -0.776,-0.578 -1.281,-0.578 -0.495,0 -0.927,0.161 -1.297,0.484 -0.484,0.417 -0.865,1.019 -1.141,1.805 -0.209,0.605 -0.313,1.157 -0.313,1.657 z" />
		<path
   style="fill:#a6a8ab;stroke:#ffffff;stroke-width:2"
   inkscape:connector-curvature="0"
   id="path3819"
   d="m 46.633,30.133 c -0.995,1.125 -2.013,1.688 -3.055,1.688 -0.641,0 -1.158,-0.184 -1.551,-0.551 -0.393,-0.367 -0.59,-0.816 -0.59,-1.348 0,-0.349 0.088,-0.948 0.266,-1.797 l 1,-4.789 h 1.414 l -1.109,5.305 c -0.094,0.442 -0.141,0.786 -0.141,1.031 0,0.313 0.095,0.556 0.285,0.73 0.19,0.174 0.47,0.262 0.84,0.262 0.396,0 0.783,-0.097 1.16,-0.289 0.377,-0.192 0.703,-0.453 0.977,-0.781 0.274,-0.328 0.496,-0.716 0.668,-1.164 0.115,-0.286 0.248,-0.789 0.398,-1.508 l 0.75,-3.586 h 1.414 l -1.734,8.297 H 46.32 l 0.313,-1.5 z" />
		<path
   style="fill:#a6a8ab;stroke:#ffffff;stroke-width:2"
   inkscape:connector-curvature="0"
   id="path3821"
   d="m 55.961,28.813 1.375,0.141 c -0.198,0.683 -0.652,1.331 -1.363,1.945 -0.711,0.614 -1.559,0.922 -2.543,0.922 -0.615,0 -1.178,-0.142 -1.691,-0.426 -0.513,-0.284 -0.904,-0.696 -1.172,-1.238 -0.268,-0.542 -0.402,-1.159 -0.402,-1.852 0,-0.906 0.209,-1.785 0.629,-2.637 0.42,-0.852 0.962,-1.484 1.629,-1.898 0.667,-0.414 1.388,-0.621 2.164,-0.621 0.99,0 1.78,0.308 2.371,0.922 0.591,0.614 0.887,1.453 0.887,2.516 0,0.406 -0.037,0.823 -0.109,1.25 h -6.109 c -0.021,0.161 -0.031,0.308 -0.031,0.438 0,0.776 0.178,1.368 0.535,1.777 0.357,0.409 0.793,0.613 1.309,0.613 0.484,0 0.961,-0.159 1.43,-0.477 0.469,-0.318 0.831,-0.777 1.091,-1.375 z m -4.109,-2.055 h 4.656 c 0.005,-0.146 0.008,-0.25 0.008,-0.313 0,-0.708 -0.177,-1.251 -0.531,-1.629 -0.354,-0.378 -0.81,-0.566 -1.367,-0.566 -0.604,0 -1.155,0.208 -1.652,0.625 -0.497,0.417 -0.87,1.044 -1.114,1.883 z" />
		<path
   style="fill:#a6a8ab;stroke:#ffffff;stroke-width:2"
   inkscape:connector-curvature="0"
   id="path3823"
   d="M 58.766,31.633 60.5,23.336 h 1.281 l -0.305,1.445 c 0.557,-0.567 1.078,-0.981 1.563,-1.242 0.485,-0.261 0.979,-0.391 1.484,-0.391 0.672,0 1.199,0.183 1.582,0.547 0.383,0.364 0.574,0.852 0.574,1.461 0,0.308 -0.068,0.792 -0.203,1.453 l -1.055,5.023 h -1.414 l 1.102,-5.258 c 0.109,-0.511 0.164,-0.888 0.164,-1.133 0,-0.276 -0.095,-0.5 -0.285,-0.672 -0.19,-0.172 -0.465,-0.258 -0.824,-0.258 -0.724,0 -1.369,0.261 -1.934,0.781 -0.565,0.52 -0.98,1.414 -1.246,2.68 l -0.805,3.859 h -1.413 z" />
		<path
   style="fill:#a6a8ab;stroke:#ffffff;stroke-width:2"
   inkscape:connector-curvature="0"
   id="path3825"
   d="m 67.445,31.633 0.227,-1.094 4.461,-5.023 c 0.318,-0.354 0.672,-0.722 1.063,-1.102 -0.672,0.067 -1.154,0.102 -1.445,0.102 h -3.086 l 0.25,-1.18 h 6.414 l -0.188,0.891 -4.5,5.055 c -0.255,0.286 -0.635,0.68 -1.141,1.18 0.787,-0.047 1.326,-0.07 1.617,-0.07 h 3.266 l -0.258,1.242 h -6.68 z" />
		<path
   style="fill:#a6a8ab;stroke:#ffffff;stroke-width:2"
   inkscape:connector-curvature="0"
   id="path3827"
   d="m 75.875,28.195 0.297,-1.414 h 4.313 l -0.289,1.414 h -4.321 z" />
		<path
   style="fill:#a6a8ab;stroke:#ffffff;stroke-width:2"
   inkscape:connector-curvature="0"
   id="path3829"
   d="m 10.207,51.583 1.43,0.133 c -0.01,0.323 0.029,0.565 0.117,0.727 0.088,0.162 0.229,0.286 0.422,0.375 0.255,0.114 0.586,0.172 0.992,0.172 0.854,0 1.469,-0.222 1.844,-0.664 0.245,-0.297 0.471,-0.942 0.68,-1.938 l 0.141,-0.672 c -0.734,0.745 -1.516,1.117 -2.344,1.117 -0.838,0 -1.541,-0.309 -2.105,-0.926 -0.564,-0.617 -0.848,-1.491 -0.848,-2.621 0,-0.933 0.223,-1.789 0.668,-2.57 0.445,-0.781 0.975,-1.371 1.59,-1.77 0.615,-0.399 1.248,-0.598 1.898,-0.598 1.088,0 1.927,0.516 2.516,1.547 l 0.281,-1.359 h 1.297 l -1.672,8.008 c -0.182,0.88 -0.422,1.566 -0.719,2.059 -0.297,0.493 -0.709,0.874 -1.238,1.145 -0.529,0.271 -1.139,0.406 -1.832,0.406 -0.667,0 -1.241,-0.086 -1.723,-0.258 -0.482,-0.172 -0.841,-0.423 -1.078,-0.754 -0.237,-0.331 -0.355,-0.71 -0.355,-1.137 -0.001,-0.13 0.012,-0.271 0.038,-0.422 z m 1.766,-4.422 c 0,0.567 0.055,0.995 0.164,1.281 0.156,0.401 0.379,0.707 0.668,0.918 0.289,0.211 0.611,0.316 0.965,0.316 0.463,0 0.924,-0.163 1.383,-0.488 0.459,-0.325 0.83,-0.829 1.113,-1.512 0.283,-0.683 0.426,-1.333 0.426,-1.953 0,-0.683 -0.189,-1.226 -0.566,-1.629 -0.377,-0.403 -0.845,-0.605 -1.402,-0.605 -0.344,0 -0.677,0.093 -1,0.277 -0.323,0.184 -0.624,0.466 -0.902,0.844 -0.278,0.378 -0.49,0.829 -0.633,1.355 -0.143,0.526 -0.216,0.926 -0.216,1.196 z" />
		<path
   style="fill:#a6a8ab;stroke:#ffffff;stroke-width:2"
   inkscape:connector-curvature="0"
   id="path3831"
   d="m 25.277,48.013 1.375,0.141 c -0.198,0.683 -0.652,1.331 -1.363,1.945 -0.711,0.614 -1.559,0.922 -2.543,0.922 -0.615,0 -1.178,-0.142 -1.691,-0.426 -0.513,-0.284 -0.904,-0.696 -1.172,-1.238 -0.268,-0.542 -0.402,-1.159 -0.402,-1.852 0,-0.906 0.209,-1.785 0.629,-2.637 0.42,-0.852 0.962,-1.484 1.629,-1.898 0.667,-0.414 1.388,-0.621 2.164,-0.621 0.99,0 1.78,0.308 2.371,0.922 0.591,0.614 0.887,1.453 0.887,2.516 0,0.406 -0.037,0.823 -0.109,1.25 h -6.109 c -0.021,0.161 -0.031,0.308 -0.031,0.438 0,0.776 0.178,1.368 0.535,1.777 0.357,0.409 0.793,0.613 1.309,0.613 0.484,0 0.961,-0.159 1.43,-0.477 0.469,-0.318 0.831,-0.777 1.091,-1.375 z m -4.109,-2.055 h 4.656 c 0.005,-0.146 0.008,-0.25 0.008,-0.313 0,-0.708 -0.177,-1.251 -0.531,-1.629 -0.354,-0.378 -0.81,-0.566 -1.367,-0.566 -0.604,0 -1.155,0.208 -1.652,0.625 -0.497,0.417 -0.869,1.044 -1.114,1.883 z" />
		<path
   style="fill:#a6a8ab;stroke:#ffffff;stroke-width:2"
   inkscape:connector-curvature="0"
   id="path3833"
   d="m 28.082,50.833 1.734,-8.297 h 1.281 l -0.305,1.445 c 0.557,-0.567 1.078,-0.981 1.563,-1.242 0.485,-0.261 0.979,-0.391 1.484,-0.391 0.672,0 1.199,0.183 1.582,0.547 0.383,0.364 0.574,0.852 0.574,1.461 0,0.308 -0.068,0.792 -0.203,1.453 l -1.055,5.023 h -1.414 l 1.102,-5.258 c 0.109,-0.511 0.164,-0.888 0.164,-1.133 0,-0.276 -0.095,-0.5 -0.285,-0.672 -0.19,-0.172 -0.465,-0.258 -0.824,-0.258 -0.724,0 -1.369,0.261 -1.934,0.781 -0.565,0.52 -0.98,1.414 -1.246,2.68 l -0.805,3.859 h -1.413 z" />
		<path
   style="fill:#a6a8ab;stroke:#ffffff;stroke-width:2"
   inkscape:connector-curvature="0"
   id="path3835"
   d="m 43.074,48.013 1.375,0.141 c -0.198,0.683 -0.652,1.331 -1.363,1.945 -0.711,0.614 -1.559,0.922 -2.543,0.922 -0.615,0 -1.178,-0.142 -1.691,-0.426 -0.513,-0.284 -0.904,-0.696 -1.172,-1.238 -0.268,-0.542 -0.402,-1.159 -0.402,-1.852 0,-0.906 0.209,-1.785 0.629,-2.637 0.42,-0.852 0.962,-1.484 1.629,-1.898 0.667,-0.414 1.388,-0.621 2.164,-0.621 0.99,0 1.78,0.308 2.371,0.922 0.591,0.614 0.887,1.453 0.887,2.516 0,0.406 -0.037,0.823 -0.109,1.25 H 38.74 c -0.021,0.161 -0.031,0.308 -0.031,0.438 0,0.776 0.178,1.368 0.535,1.777 0.357,0.409 0.793,0.613 1.309,0.613 0.484,0 0.961,-0.159 1.43,-0.477 0.469,-0.318 0.831,-0.777 1.091,-1.375 z m -4.109,-2.055 h 4.656 c 0.005,-0.146 0.008,-0.25 0.008,-0.313 0,-0.708 -0.177,-1.251 -0.531,-1.629 -0.354,-0.378 -0.81,-0.566 -1.367,-0.566 -0.604,0 -1.155,0.208 -1.652,0.625 -0.497,0.417 -0.87,1.044 -1.114,1.883 z" />
		<path
   style="fill:#a6a8ab;stroke:#ffffff;stroke-width:2"
   inkscape:connector-curvature="0"
   id="path3837"
   d="m 45.879,50.833 1.734,-8.297 h 1.25 l -0.352,1.695 c 0.427,-0.641 0.845,-1.114 1.254,-1.422 0.409,-0.308 0.827,-0.461 1.254,-0.461 0.281,0 0.627,0.102 1.039,0.305 L 51.48,43.966 C 51.235,43.789 50.967,43.7 50.675,43.7 c -0.495,0 -1.002,0.276 -1.523,0.828 -0.521,0.552 -0.93,1.544 -1.227,2.977 l -0.703,3.328 h -1.343 z" />
		<path
   style="fill:#a6a8ab;stroke:#ffffff;stroke-width:2"
   inkscape:connector-curvature="0"
   id="path3839"
   d="m 56.801,49.802 c -0.49,0.422 -0.961,0.73 -1.414,0.926 -0.453,0.196 -0.938,0.293 -1.453,0.293 -0.766,0 -1.383,-0.226 -1.852,-0.676 -0.469,-0.45 -0.703,-1.027 -0.703,-1.73 0,-0.464 0.105,-0.874 0.316,-1.23 0.211,-0.356 0.491,-0.644 0.84,-0.859 0.349,-0.215 0.776,-0.371 1.281,-0.465 0.318,-0.063 0.92,-0.112 1.809,-0.148 0.889,-0.036 1.525,-0.13 1.91,-0.281 0.109,-0.386 0.164,-0.706 0.164,-0.961 0,-0.328 -0.12,-0.586 -0.359,-0.773 -0.328,-0.261 -0.807,-0.391 -1.438,-0.391 -0.594,0 -1.08,0.132 -1.457,0.395 -0.377,0.263 -0.652,0.637 -0.824,1.121 l -1.43,-0.125 c 0.292,-0.823 0.754,-1.453 1.387,-1.891 0.633,-0.438 1.431,-0.656 2.395,-0.656 1.026,0 1.838,0.245 2.438,0.734 0.458,0.364 0.688,0.839 0.688,1.422 0,0.442 -0.065,0.956 -0.195,1.539 l -0.461,2.063 c -0.146,0.656 -0.219,1.19 -0.219,1.602 0,0.261 0.057,0.636 0.172,1.125 h -1.43 c -0.079,-0.273 -0.134,-0.617 -0.165,-1.034 z m 0.523,-3.172 c -0.198,0.078 -0.41,0.138 -0.637,0.18 -0.227,0.042 -0.605,0.086 -1.137,0.133 -0.823,0.073 -1.404,0.165 -1.742,0.277 -0.338,0.112 -0.594,0.29 -0.766,0.535 -0.172,0.245 -0.258,0.516 -0.258,0.813 0,0.396 0.137,0.722 0.41,0.977 0.273,0.255 0.663,0.383 1.168,0.383 0.469,0 0.919,-0.124 1.352,-0.371 0.433,-0.247 0.773,-0.593 1.023,-1.035 0.25,-0.442 0.447,-1.075 0.587,-1.892 z" />
		<path
   style="fill:#a6a8ab;stroke:#ffffff;stroke-width:2"
   inkscape:connector-curvature="0"
   id="path3841"
   d="m 63.41,49.685 -0.234,1.156 c -0.338,0.089 -0.667,0.133 -0.984,0.133 -0.563,0 -1.01,-0.138 -1.344,-0.414 -0.25,-0.208 -0.375,-0.492 -0.375,-0.852 0,-0.183 0.068,-0.602 0.203,-1.258 l 1.008,-4.82 h -1.117 l 0.227,-1.094 h 1.117 l 0.43,-2.039 1.617,-0.977 -0.633,3.016 h 1.391 L 64.48,43.63 h -1.383 l -0.961,4.586 c -0.12,0.583 -0.18,0.933 -0.18,1.047 0,0.167 0.048,0.294 0.145,0.383 0.097,0.089 0.254,0.133 0.473,0.133 0.313,-0.001 0.592,-0.032 0.836,-0.094 z" />
		<path
   style="fill:#a6a8ab;stroke:#ffffff;stroke-width:2"
   inkscape:connector-curvature="0"
   id="path3843"
   d="m 64.801,47.685 c 0,-1.62 0.477,-2.961 1.43,-4.023 0.787,-0.875 1.818,-1.313 3.094,-1.313 1,0 1.806,0.313 2.418,0.938 0.612,0.625 0.918,1.469 0.918,2.531 0,0.953 -0.193,1.84 -0.578,2.66 -0.385,0.82 -0.934,1.449 -1.645,1.887 -0.711,0.438 -1.459,0.656 -2.246,0.656 -0.646,0 -1.233,-0.138 -1.762,-0.414 -0.529,-0.276 -0.932,-0.667 -1.211,-1.172 -0.279,-0.505 -0.418,-1.089 -0.418,-1.75 z m 1.414,-0.141 c 0,0.781 0.188,1.374 0.563,1.777 0.375,0.403 0.852,0.605 1.43,0.605 0.302,0 0.602,-0.062 0.898,-0.184 0.296,-0.122 0.573,-0.309 0.828,-0.559 0.255,-0.25 0.473,-0.535 0.652,-0.855 0.179,-0.32 0.324,-0.665 0.434,-1.035 0.162,-0.516 0.242,-1.011 0.242,-1.484 0,-0.75 -0.189,-1.332 -0.566,-1.746 -0.377,-0.414 -0.853,-0.621 -1.426,-0.621 -0.443,0 -0.846,0.105 -1.211,0.316 -0.365,0.211 -0.694,0.52 -0.988,0.926 -0.294,0.406 -0.51,0.879 -0.648,1.418 -0.138,0.539 -0.208,1.02 -0.208,1.442 z" />
		<path
   style="fill:#a6a8ab;stroke:#ffffff;stroke-width:2"
   inkscape:connector-curvature="0"
   id="path3845"
   d="m 73.449,50.833 1.734,-8.297 h 1.25 l -0.352,1.695 c 0.427,-0.641 0.845,-1.114 1.254,-1.422 0.409,-0.308 0.827,-0.461 1.254,-0.461 0.281,0 0.627,0.102 1.039,0.305 L 79.05,43.966 C 78.805,43.789 78.537,43.7 78.245,43.7 c -0.495,0 -1.002,0.276 -1.523,0.828 -0.521,0.552 -0.93,1.544 -1.227,2.977 l -0.703,3.328 h -1.343 z" />
		<g
   id="g3847">
			<path
   style="fill:#a6a8ab"
   inkscape:connector-curvature="0"
   id="path3849"
   d="M 8.266,31.633 10.657,20.18 h 7.445 l -0.273,1.305 h -5.914 l -0.758,3.648 h 6.023 l -0.273,1.305 H 10.884 L 9.798,31.633 H 8.266 z" />
			<path
   style="fill:#a6a8ab"
   inkscape:connector-curvature="0"
   id="path3851"
   d="m 17.844,31.633 1.734,-8.297 h 1.25 l -0.352,1.695 c 0.427,-0.641 0.845,-1.114 1.254,-1.422 0.409,-0.308 0.827,-0.461 1.254,-0.461 0.281,0 0.627,0.102 1.039,0.305 l -0.578,1.313 C 23.2,24.589 22.932,24.5 22.64,24.5 c -0.495,0 -1.002,0.276 -1.523,0.828 -0.521,0.552 -0.93,1.544 -1.227,2.977 l -0.703,3.328 h -1.343 z" />
			<path
   style="fill:#a6a8ab"
   inkscape:connector-curvature="0"
   id="path3853"
   d="m 29.266,28.813 1.375,0.141 c -0.198,0.683 -0.652,1.331 -1.363,1.945 -0.711,0.614 -1.559,0.922 -2.543,0.922 -0.615,0 -1.178,-0.142 -1.691,-0.426 -0.513,-0.284 -0.904,-0.696 -1.172,-1.238 -0.268,-0.542 -0.402,-1.159 -0.402,-1.852 0,-0.906 0.209,-1.785 0.629,-2.637 0.42,-0.852 0.962,-1.484 1.629,-1.898 0.667,-0.414 1.388,-0.621 2.164,-0.621 0.99,0 1.78,0.308 2.371,0.922 0.591,0.614 0.887,1.453 0.887,2.516 0,0.406 -0.037,0.823 -0.109,1.25 H 24.93 c -0.021,0.161 -0.031,0.308 -0.031,0.438 0,0.776 0.178,1.368 0.535,1.777 0.357,0.409 0.793,0.613 1.309,0.613 0.484,0 0.961,-0.159 1.43,-0.477 0.469,-0.318 0.832,-0.777 1.093,-1.375 z m -4.11,-2.055 h 4.656 c 0.005,-0.146 0.008,-0.25 0.008,-0.313 0,-0.708 -0.177,-1.251 -0.531,-1.629 -0.354,-0.378 -0.81,-0.566 -1.367,-0.566 -0.604,0 -1.155,0.208 -1.652,0.625 -0.497,0.417 -0.869,1.044 -1.114,1.883 z" />
			<path
   style="fill:#a6a8ab"
   inkscape:connector-curvature="0"
   id="path3855"
   d="m 37.43,30.695 c -0.807,0.75 -1.581,1.125 -2.32,1.125 -0.771,0 -1.422,-0.293 -1.953,-0.879 -0.531,-0.586 -0.797,-1.418 -0.797,-2.496 0,-1.031 0.202,-1.964 0.605,-2.797 0.403,-0.833 0.919,-1.458 1.547,-1.875 0.628,-0.417 1.275,-0.625 1.941,-0.625 0.505,0 0.965,0.142 1.379,0.426 0.414,0.284 0.749,0.712 1.004,1.285 l 0.32,-1.523 h 1.219 L 37.984,34.813 H 36.57 l 0.86,-4.118 z m -3.672,-2.437 c 0,0.817 0.169,1.423 0.508,1.816 0.339,0.393 0.76,0.59 1.266,0.59 0.427,0 0.858,-0.177 1.293,-0.531 0.435,-0.354 0.792,-0.886 1.07,-1.594 0.278,-0.708 0.418,-1.394 0.418,-2.055 0,-0.677 -0.174,-1.208 -0.523,-1.594 -0.349,-0.386 -0.776,-0.578 -1.281,-0.578 -0.495,0 -0.927,0.161 -1.297,0.484 -0.484,0.417 -0.865,1.019 -1.141,1.805 -0.209,0.605 -0.313,1.157 -0.313,1.657 z" />
			<path
   style="fill:#a6a8ab"
   inkscape:connector-curvature="0"
   id="path3857"
   d="m 46.633,30.133 c -0.995,1.125 -2.013,1.688 -3.055,1.688 -0.641,0 -1.158,-0.184 -1.551,-0.551 -0.393,-0.367 -0.59,-0.816 -0.59,-1.348 0,-0.349 0.088,-0.948 0.266,-1.797 l 1,-4.789 h 1.414 l -1.109,5.305 c -0.094,0.442 -0.141,0.786 -0.141,1.031 0,0.313 0.095,0.556 0.285,0.73 0.19,0.174 0.47,0.262 0.84,0.262 0.396,0 0.783,-0.097 1.16,-0.289 0.377,-0.192 0.703,-0.453 0.977,-0.781 0.274,-0.328 0.496,-0.716 0.668,-1.164 0.115,-0.286 0.248,-0.789 0.398,-1.508 l 0.75,-3.586 h 1.414 l -1.734,8.297 H 46.32 l 0.313,-1.5 z" />
			<path
   style="fill:#a6a8ab"
   inkscape:connector-curvature="0"
   id="path3859"
   d="m 55.961,28.813 1.375,0.141 c -0.198,0.683 -0.652,1.331 -1.363,1.945 -0.711,0.614 -1.559,0.922 -2.543,0.922 -0.615,0 -1.178,-0.142 -1.691,-0.426 -0.513,-0.284 -0.904,-0.696 -1.172,-1.238 -0.268,-0.542 -0.402,-1.159 -0.402,-1.852 0,-0.906 0.209,-1.785 0.629,-2.637 0.42,-0.852 0.962,-1.484 1.629,-1.898 0.667,-0.414 1.388,-0.621 2.164,-0.621 0.99,0 1.78,0.308 2.371,0.922 0.591,0.614 0.887,1.453 0.887,2.516 0,0.406 -0.037,0.823 -0.109,1.25 h -6.109 c -0.021,0.161 -0.031,0.308 -0.031,0.438 0,0.776 0.178,1.368 0.535,1.777 0.357,0.409 0.793,0.613 1.309,0.613 0.484,0 0.961,-0.159 1.43,-0.477 0.469,-0.318 0.831,-0.777 1.091,-1.375 z m -4.109,-2.055 h 4.656 c 0.005,-0.146 0.008,-0.25 0.008,-0.313 0,-0.708 -0.177,-1.251 -0.531,-1.629 -0.354,-0.378 -0.81,-0.566 -1.367,-0.566 -0.604,0 -1.155,0.208 -1.652,0.625 -0.497,0.417 -0.87,1.044 -1.114,1.883 z" />
			<path
   style="fill:#a6a8ab"
   inkscape:connector-curvature="0"
   id="path3861"
   d="M 58.766,31.633 60.5,23.336 h 1.281 l -0.305,1.445 c 0.557,-0.567 1.078,-0.981 1.563,-1.242 0.485,-0.261 0.979,-0.391 1.484,-0.391 0.672,0 1.199,0.183 1.582,0.547 0.383,0.364 0.574,0.852 0.574,1.461 0,0.308 -0.068,0.792 -0.203,1.453 l -1.055,5.023 h -1.414 l 1.102,-5.258 c 0.109,-0.511 0.164,-0.888 0.164,-1.133 0,-0.276 -0.095,-0.5 -0.285,-0.672 -0.19,-0.172 -0.465,-0.258 -0.824,-0.258 -0.724,0 -1.369,0.261 -1.934,0.781 -0.565,0.52 -0.98,1.414 -1.246,2.68 l -0.805,3.859 h -1.413 z" />
			<path
   style="fill:#a6a8ab"
   inkscape:connector-curvature="0"
   id="path3863"
   d="m 67.445,31.633 0.227,-1.094 4.461,-5.023 c 0.318,-0.354 0.672,-0.722 1.063,-1.102 -0.672,0.067 -1.154,0.102 -1.445,0.102 h -3.086 l 0.25,-1.18 h 6.414 l -0.188,0.891 -4.5,5.055 c -0.255,0.286 -0.635,0.68 -1.141,1.18 0.787,-0.047 1.326,-0.07 1.617,-0.07 h 3.266 l -0.258,1.242 h -6.68 z" />
			<path
   style="fill:#a6a8ab"
   inkscape:connector-curvature="0"
   id="path3865"
   d="m 75.875,28.195 0.297,-1.414 h 4.313 l -0.289,1.414 h -4.321 z" />
			<path
   style="fill:#a6a8ab"
   inkscape:connector-curvature="0"
   id="path3867"
   d="m 10.207,51.583 1.43,0.133 c -0.01,0.323 0.029,0.565 0.117,0.727 0.088,0.162 0.229,0.286 0.422,0.375 0.255,0.114 0.586,0.172 0.992,0.172 0.854,0 1.469,-0.222 1.844,-0.664 0.245,-0.297 0.471,-0.942 0.68,-1.938 l 0.141,-0.672 c -0.734,0.745 -1.516,1.117 -2.344,1.117 -0.838,0 -1.541,-0.309 -2.105,-0.926 -0.564,-0.617 -0.848,-1.491 -0.848,-2.621 0,-0.933 0.223,-1.789 0.668,-2.57 0.445,-0.781 0.975,-1.371 1.59,-1.77 0.615,-0.399 1.248,-0.598 1.898,-0.598 1.088,0 1.927,0.516 2.516,1.547 l 0.281,-1.359 h 1.297 l -1.672,8.008 c -0.182,0.88 -0.422,1.566 -0.719,2.059 -0.297,0.493 -0.709,0.874 -1.238,1.145 -0.529,0.271 -1.139,0.406 -1.832,0.406 -0.667,0 -1.241,-0.086 -1.723,-0.258 -0.482,-0.172 -0.841,-0.423 -1.078,-0.754 -0.237,-0.331 -0.355,-0.71 -0.355,-1.137 -0.001,-0.13 0.012,-0.271 0.038,-0.422 z m 1.766,-4.422 c 0,0.567 0.055,0.995 0.164,1.281 0.156,0.401 0.379,0.707 0.668,0.918 0.289,0.211 0.611,0.316 0.965,0.316 0.463,0 0.924,-0.163 1.383,-0.488 0.459,-0.325 0.83,-0.829 1.113,-1.512 0.283,-0.683 0.426,-1.333 0.426,-1.953 0,-0.683 -0.189,-1.226 -0.566,-1.629 -0.377,-0.403 -0.845,-0.605 -1.402,-0.605 -0.344,0 -0.677,0.093 -1,0.277 -0.323,0.184 -0.624,0.466 -0.902,0.844 -0.278,0.378 -0.49,0.829 -0.633,1.355 -0.143,0.526 -0.216,0.926 -0.216,1.196 z" />
			<path
   style="fill:#a6a8ab"
   inkscape:connector-curvature="0"
   id="path3869"
   d="m 25.277,48.013 1.375,0.141 c -0.198,0.683 -0.652,1.331 -1.363,1.945 -0.711,0.614 -1.559,0.922 -2.543,0.922 -0.615,0 -1.178,-0.142 -1.691,-0.426 -0.513,-0.284 -0.904,-0.696 -1.172,-1.238 -0.268,-0.542 -0.402,-1.159 -0.402,-1.852 0,-0.906 0.209,-1.785 0.629,-2.637 0.42,-0.852 0.962,-1.484 1.629,-1.898 0.667,-0.414 1.388,-0.621 2.164,-0.621 0.99,0 1.78,0.308 2.371,0.922 0.591,0.614 0.887,1.453 0.887,2.516 0,0.406 -0.037,0.823 -0.109,1.25 h -6.109 c -0.021,0.161 -0.031,0.308 -0.031,0.438 0,0.776 0.178,1.368 0.535,1.777 0.357,0.409 0.793,0.613 1.309,0.613 0.484,0 0.961,-0.159 1.43,-0.477 0.469,-0.318 0.831,-0.777 1.091,-1.375 z m -4.109,-2.055 h 4.656 c 0.005,-0.146 0.008,-0.25 0.008,-0.313 0,-0.708 -0.177,-1.251 -0.531,-1.629 -0.354,-0.378 -0.81,-0.566 -1.367,-0.566 -0.604,0 -1.155,0.208 -1.652,0.625 -0.497,0.417 -0.869,1.044 -1.114,1.883 z" />
			<path
   style="fill:#a6a8ab"
   inkscape:connector-curvature="0"
   id="path3871"
   d="m 28.082,50.833 1.734,-8.297 h 1.281 l -0.305,1.445 c 0.557,-0.567 1.078,-0.981 1.563,-1.242 0.485,-0.261 0.979,-0.391 1.484,-0.391 0.672,0 1.199,0.183 1.582,0.547 0.383,0.364 0.574,0.852 0.574,1.461 0,0.308 -0.068,0.792 -0.203,1.453 l -1.055,5.023 h -1.414 l 1.102,-5.258 c 0.109,-0.511 0.164,-0.888 0.164,-1.133 0,-0.276 -0.095,-0.5 -0.285,-0.672 -0.19,-0.172 -0.465,-0.258 -0.824,-0.258 -0.724,0 -1.369,0.261 -1.934,0.781 -0.565,0.52 -0.98,1.414 -1.246,2.68 l -0.805,3.859 h -1.413 z" />
			<path
   style="fill:#a6a8ab"
   inkscape:connector-curvature="0"
   id="path3873"
   d="m 43.074,48.013 1.375,0.141 c -0.198,0.683 -0.652,1.331 -1.363,1.945 -0.711,0.614 -1.559,0.922 -2.543,0.922 -0.615,0 -1.178,-0.142 -1.691,-0.426 -0.513,-0.284 -0.904,-0.696 -1.172,-1.238 -0.268,-0.542 -0.402,-1.159 -0.402,-1.852 0,-0.906 0.209,-1.785 0.629,-2.637 0.42,-0.852 0.962,-1.484 1.629,-1.898 0.667,-0.414 1.388,-0.621 2.164,-0.621 0.99,0 1.78,0.308 2.371,0.922 0.591,0.614 0.887,1.453 0.887,2.516 0,0.406 -0.037,0.823 -0.109,1.25 H 38.74 c -0.021,0.161 -0.031,0.308 -0.031,0.438 0,0.776 0.178,1.368 0.535,1.777 0.357,0.409 0.793,0.613 1.309,0.613 0.484,0 0.961,-0.159 1.43,-0.477 0.469,-0.318 0.831,-0.777 1.091,-1.375 z m -4.109,-2.055 h 4.656 c 0.005,-0.146 0.008,-0.25 0.008,-0.313 0,-0.708 -0.177,-1.251 -0.531,-1.629 -0.354,-0.378 -0.81,-0.566 -1.367,-0.566 -0.604,0 -1.155,0.208 -1.652,0.625 -0.497,0.417 -0.87,1.044 -1.114,1.883 z" />
			<path
   style="fill:#a6a8ab"
   inkscape:connector-curvature="0"
   id="path3875"
   d="m 45.879,50.833 1.734,-8.297 h 1.25 l -0.352,1.695 c 0.427,-0.641 0.845,-1.114 1.254,-1.422 0.409,-0.308 0.827,-0.461 1.254,-0.461 0.281,0 0.627,0.102 1.039,0.305 L 51.48,43.966 C 51.235,43.789 50.967,43.7 50.675,43.7 c -0.495,0 -1.002,0.276 -1.523,0.828 -0.521,0.552 -0.93,1.544 -1.227,2.977 l -0.703,3.328 h -1.343 z" />
			<path
   style="fill:#a6a8ab"
   inkscape:connector-curvature="0"
   id="path3877"
   d="m 56.801,49.802 c -0.49,0.422 -0.961,0.73 -1.414,0.926 -0.453,0.196 -0.938,0.293 -1.453,0.293 -0.766,0 -1.383,-0.226 -1.852,-0.676 -0.469,-0.45 -0.703,-1.027 -0.703,-1.73 0,-0.464 0.105,-0.874 0.316,-1.23 0.211,-0.356 0.491,-0.644 0.84,-0.859 0.349,-0.215 0.776,-0.371 1.281,-0.465 0.318,-0.063 0.92,-0.112 1.809,-0.148 0.889,-0.036 1.525,-0.13 1.91,-0.281 0.109,-0.386 0.164,-0.706 0.164,-0.961 0,-0.328 -0.12,-0.586 -0.359,-0.773 -0.328,-0.261 -0.807,-0.391 -1.438,-0.391 -0.594,0 -1.08,0.132 -1.457,0.395 -0.377,0.263 -0.652,0.637 -0.824,1.121 l -1.43,-0.125 c 0.292,-0.823 0.754,-1.453 1.387,-1.891 0.633,-0.438 1.431,-0.656 2.395,-0.656 1.026,0 1.838,0.245 2.438,0.734 0.458,0.364 0.688,0.839 0.688,1.422 0,0.442 -0.065,0.956 -0.195,1.539 l -0.461,2.063 c -0.146,0.656 -0.219,1.19 -0.219,1.602 0,0.261 0.057,0.636 0.172,1.125 h -1.43 c -0.079,-0.273 -0.134,-0.617 -0.165,-1.034 z m 0.523,-3.172 c -0.198,0.078 -0.41,0.138 -0.637,0.18 -0.227,0.042 -0.605,0.086 -1.137,0.133 -0.823,0.073 -1.404,0.165 -1.742,0.277 -0.338,0.112 -0.594,0.29 -0.766,0.535 -0.172,0.245 -0.258,0.516 -0.258,0.813 0,0.396 0.137,0.722 0.41,0.977 0.273,0.255 0.663,0.383 1.168,0.383 0.469,0 0.919,-0.124 1.352,-0.371 0.433,-0.247 0.773,-0.593 1.023,-1.035 0.25,-0.442 0.447,-1.075 0.587,-1.892 z" />
			<path
   style="fill:#a6a8ab"
   inkscape:connector-curvature="0"
   id="path3879"
   d="m 63.41,49.685 -0.234,1.156 c -0.338,0.089 -0.667,0.133 -0.984,0.133 -0.563,0 -1.01,-0.138 -1.344,-0.414 -0.25,-0.208 -0.375,-0.492 -0.375,-0.852 0,-0.183 0.068,-0.602 0.203,-1.258 l 1.008,-4.82 h -1.117 l 0.227,-1.094 h 1.117 l 0.43,-2.039 1.617,-0.977 -0.633,3.016 h 1.391 L 64.48,43.63 h -1.383 l -0.961,4.586 c -0.12,0.583 -0.18,0.933 -0.18,1.047 0,0.167 0.048,0.294 0.145,0.383 0.097,0.089 0.254,0.133 0.473,0.133 0.313,-0.001 0.592,-0.032 0.836,-0.094 z" />
			<path
   style="fill:#a6a8ab"
   inkscape:connector-curvature="0"
   id="path3881"
   d="m 64.801,47.685 c 0,-1.62 0.477,-2.961 1.43,-4.023 0.787,-0.875 1.818,-1.313 3.094,-1.313 1,0 1.806,0.313 2.418,0.938 0.612,0.625 0.918,1.469 0.918,2.531 0,0.953 -0.193,1.84 -0.578,2.66 -0.385,0.82 -0.934,1.449 -1.645,1.887 -0.711,0.438 -1.459,0.656 -2.246,0.656 -0.646,0 -1.233,-0.138 -1.762,-0.414 -0.529,-0.276 -0.932,-0.667 -1.211,-1.172 -0.279,-0.505 -0.418,-1.089 -0.418,-1.75 z m 1.414,-0.141 c 0,0.781 0.188,1.374 0.563,1.777 0.375,0.403 0.852,0.605 1.43,0.605 0.302,0 0.602,-0.062 0.898,-0.184 0.296,-0.122 0.573,-0.309 0.828,-0.559 0.255,-0.25 0.473,-0.535 0.652,-0.855 0.179,-0.32 0.324,-0.665 0.434,-1.035 0.162,-0.516 0.242,-1.011 0.242,-1.484 0,-0.75 -0.189,-1.332 -0.566,-1.746 -0.377,-0.414 -0.853,-0.621 -1.426,-0.621 -0.443,0 -0.846,0.105 -1.211,0.316 -0.365,0.211 -0.694,0.52 -0.988,0.926 -0.294,0.406 -0.51,0.879 -0.648,1.418 -0.138,0.539 -0.208,1.02 -0.208,1.442 z" />
			<path
   style="fill:#a6a8ab"
   inkscape:connector-curvature="0"
   id="path3883"
   d="m 73.449,50.833 1.734,-8.297 h 1.25 l -0.352,1.695 c 0.427,-0.641 0.845,-1.114 1.254,-1.422 0.409,-0.308 0.827,-0.461 1.254,-0.461 0.281,0 0.627,0.102 1.039,0.305 L 79.05,43.966 C 78.805,43.789 78.537,43.7 78.245,43.7 c -0.495,0 -1.002,0.276 -1.523,0.828 -0.521,0.552 -0.93,1.544 -1.227,2.977 l -0.703,3.328 h -1.343 z" />
		</g>
	</g>
</svg>