<?xml version="1.0" encoding="UTF-8" standalone="no"?>
<svg
   xmlns:dc="http://purl.org/dc/elements/1.1/"
   xmlns:cc="http://creativecommons.org/ns#"
   xmlns:rdf="http://www.w3.org/1999/02/22-rdf-syntax-ns#"
   xmlns:svg="http://www.w3.org/2000/svg"
   xmlns="http://www.w3.org/2000/svg"
   xmlns:sodipodi="http://sodipodi.sourceforge.net/DTD/sodipodi-0.dtd"
   xmlns:inkscape="http://www.inkscape.org/namespaces/inkscape"
   version="1.0"
   x="0px"
   y="0px"
   width="400"
   height="141.33957"
   viewBox="0 0 400 141.33957"
   enable-background="new 0 0 400 170"
   xml:space="preserve"
   id="svg3172"
   inkscape:version="0.48.3.1 r9886"
   sodipodi:docname="Aufbau-Parallel.pdf"><metadata
   id="metadata3319"><rdf:RDF><cc:Work
       rdf:about=""><dc:format>image/svg+xml</dc:format><dc:type
         rdf:resource="http://purl.org/dc/dcmitype/StillImage" /><dc:title></dc:title></cc:Work></rdf:RDF></metadata><defs
   id="defs3317">
	
	
	
	
	
	

	
	

		
		
		
		
		
		
	
	
	
</defs><sodipodi:namedview
   pagecolor="#ffffff"
   bordercolor="#666666"
   borderopacity="1"
   objecttolerance="10"
   gridtolerance="10"
   guidetolerance="10"
   inkscape:pageopacity="0"
   inkscape:pageshadow="2"
   inkscape:window-width="1301"
   inkscape:window-height="744"
   id="namedview3315"
   showgrid="false"
   fit-margin-top="0"
   fit-margin-left="0"
   fit-margin-right="0"
   fit-margin-bottom="0"
   inkscape:zoom="1.605"
   inkscape:cx="198.03661"
   inkscape:cy="22.736662"
   inkscape:window-x="65"
   inkscape:window-y="24"
   inkscape:window-maximized="1"
   inkscape:current-layer="svg3172" />
<rect
   style="fill:#ffffff"
   y="0"
   x="0"
   height="141.33957"
   width="400"
   id="Hintergrund" /><rect
   style="fill:none;stroke:#a6a8ab;stroke-dasharray:2"
   height="120.834"
   width="95.5"
   y="6.9689999"
   x="8.1700001"
   id="Kasten_1_" />
<g
   id="Schaltung">
		<polyline
   style="fill:none;stroke:#1a171b"
   id="polyline3179"
   points="31,41.085 31,14.085 362.333,14.085 362.333,122.085 31,122.085 31,95.085   " />
		<line
   style="fill:none;stroke:#1a171b"
   id="line3181"
   y2="14.085"
   x2="75.551003"
   y1="41.084999"
   x1="75.551003" />
		<line
   style="fill:none;stroke:#1a171b"
   id="line3183"
   y2="122.085"
   x2="75.551003"
   y1="95.084"
   x1="75.551003" />
		<line
   style="fill:none;stroke:#1a171b"
   id="line3185"
   y2="14.085"
   x2="296.91599"
   y1="45.584999"
   x1="296.91599" />
		<line
   style="fill:none;stroke:#1a171b"
   id="line3187"
   y2="122.085"
   x2="296.91599"
   y1="90.584999"
   x1="296.91599" />
	</g><g
   id="Frequenzgenerator">
			<line
   x1="31"
   y1="41.084999"
   x2="31"
   y2="95.084999"
   id="line3191"
   style="fill:none;stroke:#1a171b" />
			<rect
   x="13"
   y="50.084999"
   width="36"
   height="36"
   id="rect3193"
   style="fill:#ffffff;stroke:#1a171b" />
			<path
   d="m 45.4,68.085 c -2.4,14.063 -4.801,14.063 -7.2,0 -2.4,-14.063 -4.8,-14.063 -7.2,0 -2.4,14.063 -4.8,14.063 -7.2,0 -2.4,-14.063 -4.8,-14.063 -7.2,0"
   id="path3195"
   inkscape:connector-curvature="0"
   style="fill:none;stroke:#1a171b" />
		</g><g
   id="Kondensator">
			<line
   x1="296.91599"
   y1="90.584999"
   x2="296.91599"
   y2="72.584999"
   id="line3198"
   style="fill:none;stroke:#1a171b" />
			<line
   x1="287.91599"
   y1="72.584999"
   x2="305.91599"
   y2="72.584999"
   id="line3200"
   style="fill:none;stroke:#1a171b" />
			<line
   x1="287.91599"
   y1="63.584999"
   x2="305.91599"
   y2="63.584999"
   id="line3202"
   style="fill:none;stroke:#1a171b" />
			<line
   x1="296.91599"
   y1="45.584999"
   x2="296.91599"
   y2="63.584999"
   id="line3204"
   style="fill:none;stroke:#1a171b" />
		</g><path
   id="Spule"
   d="m 227,14.085 v 18 c 0,0 9,0 9,9 0,9 -9,9 -9,9 0,0 9,0 9,9 0,9 -9,9 -9,9 0,0 9,0 9,9 0,9 -9,9 -9,9 0,0 9,0 9,9 0,9 -9,9 -9,9 v 18"
   inkscape:connector-curvature="0"
   style="fill:none;stroke:#1a171b" /><g
   id="Multimeter_1_">
			<circle
   cx="362.33301"
   cy="68.084999"
   r="18"
   id="circle3208"
   sodipodi:cx="362.33301"
   sodipodi:cy="68.084999"
   sodipodi:rx="18"
   sodipodi:ry="18"
   style="fill:#ffffff;stroke:#1a171b" />
			<g
   id="g3210">
				<path
   d="m 349.56,73.287 -3.328,-8.59 h 1.23 l 2.232,6.24 c 0.18,0.5 0.33,0.969 0.451,1.406 0.133,-0.469 0.287,-0.938 0.463,-1.406 l 2.32,-6.24 h 1.16 l -3.363,8.59 h -1.165 z"
   id="path3212"
   inkscape:connector-curvature="0"
   style="fill:#1a171b" />
				<path
   d="m 353.901,70.709 v -1.061 h 3.24 v 1.061 h -3.24 z"
   id="path3214"
   inkscape:connector-curvature="0"
   style="fill:#1a171b" />
				<path
   d="m 357.499,73.287 3.299,-8.59 h 1.225 l 3.516,8.59 h -1.295 l -1.002,-2.602 h -3.592 l -0.943,2.602 h -1.208 z m 2.479,-3.527 h 2.912 l -0.896,-2.379 c -0.273,-0.723 -0.477,-1.316 -0.609,-1.781 -0.109,0.551 -0.264,1.098 -0.463,1.641 l -0.944,2.519 z"
   id="path3216"
   inkscape:connector-curvature="0"
   style="fill:#1a171b" />
				<path
   d="m 365.901,70.709 v -1.061 h 3.24 v 1.061 h -3.24 z"
   id="path3218"
   inkscape:connector-curvature="0"
   style="fill:#1a171b" />
				<path
   d="m 370.085,72.273 h 1.875 c -1.188,-0.992 -1.781,-2.203 -1.781,-3.633 0,-0.777 0.156,-1.475 0.469,-2.092 0.313,-0.617 0.754,-1.105 1.324,-1.463 0.57,-0.358 1.256,-0.535 2.057,-0.535 0.793,0 1.454,0.164 1.983,0.492 0.529,0.328 0.965,0.799 1.307,1.412 0.342,0.613 0.513,1.342 0.513,2.186 0,1.43 -0.594,2.641 -1.781,3.633 h 1.875 v 1.014 h -3.34 v -0.949 c 1.391,-0.648 2.086,-1.822 2.086,-3.521 0,-0.957 -0.245,-1.746 -0.735,-2.365 -0.49,-0.619 -1.128,-0.928 -1.913,-0.928 -0.809,0 -1.455,0.311 -1.939,0.934 -0.484,0.623 -0.727,1.391 -0.727,2.301 0,1.723 0.691,2.916 2.074,3.58 v 0.949 h -3.346 v -1.015 z"
   id="path3220"
   inkscape:connector-curvature="0"
   style="fill:#1a171b" />
			</g>
		</g><g
   id="Multimeter">
			<circle
   cx="154.466"
   cy="122.085"
   r="18"
   id="circle3223"
   sodipodi:cx="154.466"
   sodipodi:cy="122.085"
   sodipodi:rx="18"
   sodipodi:ry="18"
   style="fill:#ffffff;stroke:#1a171b" />
			<g
   id="g3225">
				<path
   d="m 141.692,127.286 -3.328,-8.59 h 1.23 l 2.232,6.24 c 0.18,0.5 0.33,0.969 0.451,1.406 0.133,-0.469 0.287,-0.938 0.463,-1.406 l 2.32,-6.24 h 1.16 l -3.363,8.59 h -1.165 z"
   id="path3227"
   inkscape:connector-curvature="0"
   style="fill:#1a171b" />
				<path
   d="m 146.034,124.708 v -1.061 h 3.24 v 1.061 h -3.24 z"
   id="path3229"
   inkscape:connector-curvature="0"
   style="fill:#1a171b" />
				<path
   d="m 149.632,127.286 3.299,-8.59 h 1.225 l 3.516,8.59 h -1.295 l -1.002,-2.602 h -3.592 l -0.943,2.602 h -1.208 z m 2.478,-3.527 h 2.912 l -0.896,-2.379 c -0.273,-0.723 -0.477,-1.316 -0.609,-1.781 -0.109,0.551 -0.264,1.098 -0.463,1.641 l -0.944,2.519 z"
   id="path3231"
   inkscape:connector-curvature="0"
   style="fill:#1a171b" />
				<path
   d="m 158.034,124.708 v -1.061 h 3.24 v 1.061 h -3.24 z"
   id="path3233"
   inkscape:connector-curvature="0"
   style="fill:#1a171b" />
				<path
   d="m 162.218,126.272 h 1.875 c -1.188,-0.992 -1.781,-2.203 -1.781,-3.633 0,-0.777 0.156,-1.475 0.469,-2.092 0.313,-0.617 0.754,-1.104 1.324,-1.462 0.57,-0.358 1.256,-0.536 2.057,-0.536 0.793,0 1.454,0.164 1.983,0.492 0.529,0.328 0.965,0.799 1.307,1.412 0.342,0.613 0.513,1.342 0.513,2.186 0,1.43 -0.594,2.641 -1.781,3.633 h 1.875 v 1.014 h -3.34 v -0.949 c 1.391,-0.648 2.086,-1.822 2.086,-3.521 0,-0.957 -0.245,-1.745 -0.735,-2.364 -0.49,-0.619 -1.128,-0.929 -1.913,-0.929 -0.809,0 -1.455,0.312 -1.939,0.935 -0.484,0.623 -0.727,1.39 -0.727,2.3 0,1.723 0.691,2.916 2.074,3.58 v 0.949 h -3.346 v -1.015 z"
   id="path3235"
   inkscape:connector-curvature="0"
   style="fill:#1a171b" />
			</g>
		</g><g
   id="MessgeraetAllg_1_">
			<line
   x1="75.551003"
   y1="95.084"
   x2="75.551003"
   y2="41.084999"
   id="line3238"
   style="fill:none;stroke:#1a171b" />
			<circle
   cx="75.551003"
   cy="68.084"
   r="18"
   id="circle3240"
   sodipodi:cx="75.551003"
   sodipodi:cy="68.084"
   sodipodi:rx="18"
   sodipodi:ry="18"
   style="fill:#ffffff;stroke:#1a171b" />
			<g
   id="g3242">
				<polygon
   points="70.098,67.967 75.344,62.721 66.209,58.656 "
   id="polygon3244"
   style="fill:#1a171b" />
				<line
   x1="72.721001"
   y1="65.344002"
   x2="84.892998"
   y2="77.514"
   id="line3246"
   style="fill:none;stroke:#1a171b" />
			</g>
		</g>
<g
   id="U_x5F_0_4_">
		<g
   id="g3250">
			<path
   inkscape:connector-curvature="0"
   id="path3252"
   d="m 381.584,85.15 h 1.516 v 6.617 c 0,1.151 -0.131,2.065 -0.391,2.742 -0.262,0.677 -0.73,1.228 -1.41,1.652 -0.68,0.424 -1.572,0.637 -2.676,0.637 -1.074,0 -1.951,-0.185 -2.633,-0.555 -0.684,-0.37 -1.17,-0.905 -1.461,-1.605 -0.293,-0.7 -0.438,-1.657 -0.438,-2.871 V 85.15 h 1.516 v 6.609 c 0,0.995 0.092,1.728 0.277,2.199 0.184,0.472 0.502,0.835 0.953,1.09 0.449,0.255 1,0.383 1.652,0.383 1.113,0 1.908,-0.253 2.383,-0.758 0.473,-0.505 0.711,-1.477 0.711,-2.914 V 85.15 z" />
		</g>
		<g
   id="g3254">
			<path
   inkscape:connector-curvature="0"
   id="path3256"
   d="m 384.332,96.367 c 0,-1.016 0.104,-1.833 0.313,-2.452 0.209,-0.619 0.52,-1.097 0.932,-1.433 0.412,-0.336 0.932,-0.504 1.557,-0.504 0.461,0 0.865,0.093 1.213,0.278 0.348,0.185 0.635,0.453 0.861,0.803 0.226,0.35 0.404,0.775 0.533,1.277 0.129,0.502 0.193,1.179 0.193,2.03 0,1.008 -0.104,1.821 -0.311,2.44 -0.207,0.619 -0.518,1.098 -0.93,1.436 -0.412,0.338 -0.932,0.507 -1.561,0.507 -0.828,0 -1.479,-0.297 -1.951,-0.891 -0.566,-0.713 -0.849,-1.878 -0.849,-3.491 z m 1.084,0 c 0,1.41 0.164,2.349 0.494,2.815 0.33,0.466 0.738,0.7 1.223,0.7 0.485,0 0.891,-0.234 1.221,-0.703 0.33,-0.469 0.496,-1.406 0.496,-2.813 0,-1.414 -0.166,-2.354 -0.496,-2.818 -0.33,-0.464 -0.74,-0.697 -1.232,-0.697 -0.484,0 -0.871,0.205 -1.16,0.615 -0.364,0.524 -0.546,1.491 -0.546,2.901 z" />
		</g>
	</g><g
   id="U_x5F_0_3_"
   transform="translate(8.7227414,-41.121495)">
		<g
   id="g3259">
			<path
   inkscape:connector-curvature="0"
   id="path3261"
   d="m 167.742,151.342 v -11.453 h 1.516 v 11.453 h -1.516 z" />
		</g>
		<g
   id="g3263">
			<path
   inkscape:connector-curvature="0"
   id="path3265"
   d="m 172.748,151.105 c 0,-1.016 0.104,-1.833 0.313,-2.452 0.209,-0.619 0.52,-1.097 0.932,-1.433 0.412,-0.336 0.931,-0.504 1.556,-0.504 0.461,0 0.865,0.093 1.213,0.278 0.348,0.185 0.635,0.453 0.861,0.803 0.226,0.35 0.404,0.775 0.533,1.277 0.129,0.502 0.193,1.179 0.193,2.03 0,1.008 -0.104,1.821 -0.311,2.44 -0.207,0.619 -0.517,1.098 -0.929,1.436 -0.412,0.338 -0.933,0.507 -1.562,0.507 -0.828,0 -1.479,-0.297 -1.951,-0.891 -0.565,-0.713 -0.848,-1.877 -0.848,-3.491 z m 1.084,0 c 0,1.41 0.165,2.349 0.495,2.815 0.33,0.466 0.737,0.7 1.222,0.7 0.485,0 0.892,-0.234 1.222,-0.703 0.33,-0.469 0.495,-1.406 0.495,-2.813 0,-1.414 -0.165,-2.354 -0.495,-2.818 -0.33,-0.464 -0.741,-0.697 -1.233,-0.697 -0.484,0 -0.871,0.205 -1.16,0.615 -0.364,0.525 -0.546,1.491 -0.546,2.901 z" />
		</g>
	</g><g
   id="g3267">
		<path
   inkscape:connector-curvature="0"
   id="path3269"
   d="M 243.172,97.954 V 86.501 h 1.516 v 10.102 h 5.641 v 1.352 h -7.157 z" />
	</g><g
   id="g3271">
		<path
   inkscape:connector-curvature="0"
   id="path3273"
   d="m 309.406,83.403 1.516,0.383 c -0.317,1.245 -0.89,2.194 -1.715,2.848 -0.825,0.654 -1.835,0.98 -3.027,0.98 -1.234,0 -2.238,-0.251 -3.012,-0.754 -0.774,-0.503 -1.362,-1.23 -1.766,-2.184 -0.404,-0.954 -0.605,-1.977 -0.605,-3.07 0,-1.192 0.228,-2.233 0.684,-3.121 0.456,-0.888 1.104,-1.563 1.945,-2.023 0.841,-0.46 1.767,-0.691 2.777,-0.691 1.146,0 2.109,0.292 2.891,0.875 0.782,0.583 1.325,1.403 1.633,2.461 l -1.492,0.352 c -0.266,-0.833 -0.651,-1.44 -1.156,-1.82 -0.505,-0.38 -1.141,-0.57 -1.906,-0.57 -0.88,0 -1.616,0.211 -2.207,0.633 -0.591,0.422 -1.007,0.988 -1.246,1.699 -0.239,0.711 -0.359,1.444 -0.359,2.199 0,0.974 0.142,1.824 0.426,2.551 0.284,0.727 0.726,1.27 1.324,1.629 0.598,0.359 1.247,0.539 1.945,0.539 0.849,0 1.567,-0.245 2.156,-0.734 0.589,-0.489 0.986,-1.218 1.194,-2.182 z" />
	</g><path
   style="fill:none;stroke:#1a171b"
   inkscape:connector-curvature="0"
   id="path3275"
   d="m 97.311,93.687 c -1.2,7.031 -2.4,7.031 -3.6,0 -1.201,-7.031 -2.4,-7.031 -3.601,0 -1.201,7.031 -2.399,7.031 -3.601,0 -1.199,-7.031 -2.399,-7.031 -3.6,0" /><g
   id="g3277"
   transform="translate(87.227414,-112.77259)">
		<path
   style="fill:#a6a8ab"
   inkscape:connector-curvature="0"
   id="path3279"
   d="m 20.179,145.136 2.391,-11.453 h 7.445 l -0.273,1.305 h -5.914 l -0.758,3.648 h 6.023 l -0.273,1.305 h -6.023 l -1.086,5.195 h -1.532 z" />
		<path
   style="fill:#a6a8ab"
   inkscape:connector-curvature="0"
   id="path3281"
   d="m 29.757,145.136 1.734,-8.297 h 1.25 l -0.352,1.695 c 0.427,-0.641 0.845,-1.114 1.254,-1.422 0.409,-0.308 0.827,-0.461 1.254,-0.461 0.281,0 0.627,0.102 1.039,0.305 l -0.578,1.313 c -0.245,-0.177 -0.513,-0.266 -0.805,-0.266 -0.495,0 -1.003,0.276 -1.523,0.828 -0.521,0.552 -0.93,1.544 -1.227,2.977 l -0.703,3.328 h -1.343 z" />
		<path
   style="fill:#a6a8ab"
   inkscape:connector-curvature="0"
   id="path3283"
   d="m 41.179,142.315 1.375,0.141 c -0.198,0.683 -0.652,1.331 -1.363,1.945 -0.711,0.614 -1.559,0.922 -2.543,0.922 -0.615,0 -1.179,-0.142 -1.691,-0.426 -0.513,-0.284 -0.904,-0.696 -1.172,-1.238 -0.269,-0.542 -0.402,-1.159 -0.402,-1.852 0,-0.906 0.209,-1.785 0.629,-2.637 0.419,-0.852 0.962,-1.484 1.629,-1.898 0.667,-0.414 1.388,-0.621 2.164,-0.621 0.989,0 1.78,0.308 2.371,0.922 0.591,0.614 0.887,1.453 0.887,2.516 0,0.406 -0.037,0.823 -0.109,1.25 h -6.109 c -0.021,0.161 -0.031,0.308 -0.031,0.438 0,0.776 0.178,1.368 0.535,1.777 0.356,0.409 0.793,0.613 1.309,0.613 0.484,0 0.961,-0.159 1.43,-0.477 0.469,-0.318 0.83,-0.776 1.091,-1.375 z m -4.11,-2.054 h 4.656 c 0.005,-0.146 0.008,-0.25 0.008,-0.313 0,-0.708 -0.177,-1.251 -0.531,-1.629 -0.354,-0.378 -0.81,-0.566 -1.367,-0.566 -0.604,0 -1.155,0.208 -1.652,0.625 -0.498,0.417 -0.869,1.044 -1.114,1.883 z" />
		<path
   style="fill:#a6a8ab"
   inkscape:connector-curvature="0"
   id="path3285"
   d="m 49.343,144.198 c -0.808,0.75 -1.581,1.125 -2.32,1.125 -0.771,0 -1.422,-0.293 -1.953,-0.879 -0.531,-0.586 -0.797,-1.418 -0.797,-2.496 0,-1.031 0.202,-1.964 0.605,-2.797 0.403,-0.833 0.919,-1.458 1.547,-1.875 0.627,-0.417 1.274,-0.625 1.941,-0.625 0.505,0 0.965,0.142 1.379,0.426 0.414,0.284 0.749,0.712 1.004,1.285 l 0.32,-1.523 h 1.219 l -2.391,11.477 h -1.414 l 0.86,-4.118 z m -3.672,-2.437 c 0,0.817 0.169,1.423 0.508,1.816 0.338,0.394 0.76,0.59 1.266,0.59 0.427,0 0.858,-0.177 1.293,-0.531 0.435,-0.354 0.792,-0.886 1.07,-1.594 0.278,-0.708 0.418,-1.394 0.418,-2.055 0,-0.677 -0.175,-1.208 -0.523,-1.594 -0.349,-0.386 -0.776,-0.578 -1.281,-0.578 -0.495,0 -0.927,0.161 -1.297,0.484 -0.484,0.417 -0.865,1.019 -1.141,1.805 -0.209,0.605 -0.313,1.157 -0.313,1.657 z" />
		<path
   style="fill:#a6a8ab"
   inkscape:connector-curvature="0"
   id="path3287"
   d="m 58.546,143.636 c -0.995,1.125 -2.013,1.688 -3.055,1.688 -0.641,0 -1.158,-0.184 -1.551,-0.551 -0.394,-0.367 -0.59,-0.816 -0.59,-1.348 0,-0.349 0.088,-0.948 0.266,-1.797 l 1,-4.789 h 1.414 l -1.109,5.305 c -0.094,0.442 -0.141,0.786 -0.141,1.031 0,0.313 0.095,0.556 0.285,0.73 0.19,0.175 0.47,0.262 0.84,0.262 0.396,0 0.782,-0.097 1.16,-0.289 0.377,-0.192 0.703,-0.453 0.977,-0.781 0.274,-0.328 0.496,-0.716 0.668,-1.164 0.114,-0.286 0.247,-0.789 0.398,-1.508 l 0.75,-3.586 h 1.414 l -1.734,8.297 h -1.305 l 0.313,-1.5 z" />
		<path
   style="fill:#a6a8ab"
   inkscape:connector-curvature="0"
   id="path3289"
   d="m 67.874,142.315 1.375,0.141 c -0.198,0.683 -0.652,1.331 -1.363,1.945 -0.711,0.614 -1.559,0.922 -2.543,0.922 -0.615,0 -1.179,-0.142 -1.691,-0.426 -0.513,-0.284 -0.904,-0.696 -1.172,-1.238 -0.269,-0.542 -0.402,-1.159 -0.402,-1.852 0,-0.906 0.209,-1.785 0.629,-2.637 0.419,-0.852 0.962,-1.484 1.629,-1.898 0.667,-0.414 1.388,-0.621 2.164,-0.621 0.989,0 1.78,0.308 2.371,0.922 0.591,0.614 0.887,1.453 0.887,2.516 0,0.406 -0.037,0.823 -0.109,1.25 H 63.54 c -0.021,0.161 -0.031,0.308 -0.031,0.438 0,0.776 0.178,1.368 0.535,1.777 0.356,0.409 0.793,0.613 1.309,0.613 0.484,0 0.961,-0.159 1.43,-0.477 0.469,-0.318 0.83,-0.776 1.091,-1.375 z m -4.109,-2.054 h 4.656 c 0.005,-0.146 0.008,-0.25 0.008,-0.313 0,-0.708 -0.177,-1.251 -0.531,-1.629 -0.354,-0.378 -0.81,-0.566 -1.367,-0.566 -0.604,0 -1.155,0.208 -1.652,0.625 -0.499,0.417 -0.87,1.044 -1.114,1.883 z" />
		<path
   style="fill:#a6a8ab"
   inkscape:connector-curvature="0"
   id="path3291"
   d="m 70.679,145.136 1.734,-8.297 h 1.281 l -0.305,1.445 c 0.557,-0.567 1.078,-0.981 1.563,-1.242 0.485,-0.261 0.979,-0.391 1.484,-0.391 0.672,0 1.199,0.183 1.582,0.547 0.383,0.364 0.574,0.852 0.574,1.461 0,0.308 -0.068,0.792 -0.203,1.453 l -1.055,5.023 H 75.92 l 1.102,-5.258 c 0.109,-0.511 0.164,-0.888 0.164,-1.133 0,-0.276 -0.095,-0.5 -0.285,-0.672 -0.19,-0.172 -0.465,-0.258 -0.824,-0.258 -0.724,0 -1.369,0.261 -1.934,0.781 -0.565,0.521 -0.98,1.414 -1.246,2.68 l -0.805,3.859 h -1.413 z" />
		<path
   style="fill:#a6a8ab"
   inkscape:connector-curvature="0"
   id="path3293"
   d="m 79.358,145.136 0.227,-1.094 4.461,-5.023 c 0.317,-0.354 0.672,-0.722 1.063,-1.102 -0.672,0.067 -1.154,0.102 -1.445,0.102 h -3.086 l 0.25,-1.18 h 6.414 l -0.188,0.891 -4.5,5.055 c -0.255,0.286 -0.636,0.68 -1.141,1.18 0.786,-0.047 1.325,-0.07 1.617,-0.07 h 3.266 l -0.258,1.242 h -6.68 z" />
		<path
   style="fill:#a6a8ab"
   inkscape:connector-curvature="0"
   id="path3295"
   d="m 87.788,141.698 0.297,-1.414 h 4.313 l -0.289,1.414 h -4.321 z" />
		<path
   style="fill:#a6a8ab"
   inkscape:connector-curvature="0"
   id="path3297"
   d="m 22.12,165.086 1.43,0.133 c -0.011,0.323 0.028,0.565 0.117,0.727 0.088,0.161 0.229,0.286 0.422,0.375 0.255,0.114 0.586,0.172 0.992,0.172 0.854,0 1.469,-0.222 1.844,-0.664 0.245,-0.297 0.471,-0.942 0.68,-1.938 l 0.141,-0.672 c -0.734,0.745 -1.516,1.117 -2.344,1.117 -0.839,0 -1.541,-0.309 -2.105,-0.926 -0.565,-0.617 -0.848,-1.491 -0.848,-2.621 0,-0.933 0.223,-1.789 0.668,-2.57 0.445,-0.781 0.975,-1.371 1.59,-1.77 0.614,-0.398 1.247,-0.598 1.898,-0.598 1.088,0 1.927,0.516 2.516,1.547 l 0.281,-1.359 h 1.297 l -1.672,8.008 c -0.183,0.88 -0.422,1.566 -0.719,2.059 -0.297,0.493 -0.71,0.874 -1.238,1.145 -0.529,0.271 -1.14,0.406 -1.832,0.406 -0.667,0 -1.241,-0.086 -1.723,-0.258 -0.482,-0.172 -0.841,-0.423 -1.078,-0.754 -0.237,-0.331 -0.355,-0.71 -0.355,-1.137 -0.001,-0.13 0.012,-0.271 0.038,-0.422 z m 1.766,-4.422 c 0,0.567 0.055,0.995 0.164,1.281 0.156,0.401 0.379,0.707 0.668,0.918 0.289,0.211 0.61,0.316 0.965,0.316 0.463,0 0.924,-0.163 1.383,-0.488 0.458,-0.325 0.829,-0.829 1.113,-1.512 0.284,-0.683 0.426,-1.333 0.426,-1.953 0,-0.683 -0.189,-1.226 -0.566,-1.629 -0.378,-0.403 -0.845,-0.605 -1.402,-0.605 -0.344,0 -0.677,0.093 -1,0.277 -0.323,0.185 -0.624,0.466 -0.902,0.844 -0.279,0.378 -0.49,0.829 -0.633,1.355 -0.145,0.527 -0.216,0.926 -0.216,1.196 z" />
		<path
   style="fill:#a6a8ab"
   inkscape:connector-curvature="0"
   id="path3299"
   d="m 37.19,161.516 1.375,0.141 c -0.198,0.683 -0.652,1.331 -1.363,1.945 -0.711,0.614 -1.559,0.922 -2.543,0.922 -0.615,0 -1.179,-0.142 -1.691,-0.426 -0.513,-0.284 -0.904,-0.696 -1.172,-1.238 -0.269,-0.542 -0.402,-1.159 -0.402,-1.852 0,-0.906 0.209,-1.785 0.629,-2.637 0.419,-0.852 0.962,-1.484 1.629,-1.898 0.667,-0.414 1.388,-0.621 2.164,-0.621 0.989,0 1.78,0.308 2.371,0.922 0.591,0.614 0.887,1.453 0.887,2.516 0,0.406 -0.037,0.823 -0.109,1.25 h -6.109 c -0.021,0.161 -0.031,0.308 -0.031,0.438 0,0.776 0.178,1.368 0.535,1.777 0.356,0.409 0.793,0.613 1.309,0.613 0.484,0 0.961,-0.159 1.43,-0.477 0.469,-0.318 0.831,-0.777 1.091,-1.375 z m -4.109,-2.055 h 4.656 c 0.005,-0.146 0.008,-0.25 0.008,-0.313 0,-0.708 -0.177,-1.251 -0.531,-1.629 -0.354,-0.378 -0.81,-0.566 -1.367,-0.566 -0.604,0 -1.155,0.208 -1.652,0.625 -0.498,0.417 -0.869,1.044 -1.114,1.883 z" />
		<path
   style="fill:#a6a8ab"
   inkscape:connector-curvature="0"
   id="path3301"
   d="m 39.995,164.336 1.734,-8.297 h 1.281 l -0.305,1.445 c 0.557,-0.567 1.078,-0.981 1.563,-1.242 0.485,-0.261 0.979,-0.391 1.484,-0.391 0.672,0 1.199,0.183 1.582,0.547 0.383,0.364 0.574,0.852 0.574,1.461 0,0.308 -0.068,0.792 -0.203,1.453 l -1.055,5.023 h -1.414 l 1.102,-5.258 c 0.109,-0.511 0.164,-0.888 0.164,-1.133 0,-0.276 -0.095,-0.5 -0.285,-0.672 -0.19,-0.172 -0.465,-0.258 -0.824,-0.258 -0.724,0 -1.369,0.261 -1.934,0.781 -0.565,0.521 -0.98,1.414 -1.246,2.68 l -0.805,3.859 h -1.413 z" />
		<path
   style="fill:#a6a8ab"
   inkscape:connector-curvature="0"
   id="path3303"
   d="m 54.987,161.516 1.375,0.141 c -0.198,0.683 -0.652,1.331 -1.363,1.945 -0.711,0.614 -1.559,0.922 -2.543,0.922 -0.615,0 -1.179,-0.142 -1.691,-0.426 -0.513,-0.284 -0.904,-0.696 -1.172,-1.238 -0.269,-0.542 -0.402,-1.159 -0.402,-1.852 0,-0.906 0.209,-1.785 0.629,-2.637 0.419,-0.852 0.962,-1.484 1.629,-1.898 0.667,-0.414 1.388,-0.621 2.164,-0.621 0.989,0 1.78,0.308 2.371,0.922 0.591,0.614 0.887,1.453 0.887,2.516 0,0.406 -0.037,0.823 -0.109,1.25 h -6.109 c -0.021,0.161 -0.031,0.308 -0.031,0.438 0,0.776 0.178,1.368 0.535,1.777 0.356,0.409 0.793,0.613 1.309,0.613 0.484,0 0.961,-0.159 1.43,-0.477 0.469,-0.318 0.831,-0.777 1.091,-1.375 z m -4.109,-2.055 h 4.656 c 0.005,-0.146 0.008,-0.25 0.008,-0.313 0,-0.708 -0.177,-1.251 -0.531,-1.629 -0.354,-0.378 -0.81,-0.566 -1.367,-0.566 -0.604,0 -1.155,0.208 -1.652,0.625 -0.498,0.417 -0.869,1.044 -1.114,1.883 z" />
		<path
   style="fill:#a6a8ab"
   inkscape:connector-curvature="0"
   id="path3305"
   d="m 57.792,164.336 1.734,-8.297 h 1.25 l -0.352,1.695 c 0.427,-0.641 0.845,-1.114 1.254,-1.422 0.409,-0.308 0.827,-0.461 1.254,-0.461 0.281,0 0.627,0.102 1.039,0.305 l -0.578,1.313 c -0.245,-0.177 -0.513,-0.266 -0.805,-0.266 -0.495,0 -1.003,0.276 -1.523,0.828 -0.521,0.552 -0.93,1.544 -1.227,2.977 l -0.703,3.328 h -1.343 z" />
		<path
   style="fill:#a6a8ab"
   inkscape:connector-curvature="0"
   id="path3307"
   d="m 68.714,163.305 c -0.49,0.422 -0.961,0.73 -1.414,0.926 -0.453,0.196 -0.938,0.293 -1.453,0.293 -0.766,0 -1.383,-0.226 -1.852,-0.676 -0.469,-0.45 -0.703,-1.027 -0.703,-1.73 0,-0.464 0.105,-0.874 0.316,-1.23 0.211,-0.356 0.491,-0.644 0.84,-0.859 0.349,-0.216 0.776,-0.371 1.281,-0.465 0.317,-0.063 0.92,-0.112 1.809,-0.148 0.888,-0.036 1.524,-0.13 1.91,-0.281 0.109,-0.386 0.164,-0.706 0.164,-0.961 0,-0.328 -0.12,-0.586 -0.359,-0.773 -0.328,-0.261 -0.808,-0.391 -1.438,-0.391 -0.594,0 -1.08,0.132 -1.457,0.395 -0.378,0.263 -0.652,0.637 -0.824,1.121 l -1.43,-0.125 c 0.292,-0.823 0.754,-1.453 1.387,-1.891 0.633,-0.438 1.431,-0.656 2.395,-0.656 1.026,0 1.838,0.245 2.438,0.734 0.458,0.364 0.688,0.839 0.688,1.422 0,0.442 -0.065,0.956 -0.195,1.539 l -0.461,2.063 c -0.146,0.656 -0.219,1.19 -0.219,1.602 0,0.261 0.057,0.636 0.172,1.125 h -1.43 c -0.079,-0.274 -0.134,-0.617 -0.165,-1.034 z m 0.523,-3.172 c -0.198,0.078 -0.41,0.138 -0.637,0.18 -0.227,0.042 -0.605,0.086 -1.137,0.133 -0.823,0.073 -1.404,0.165 -1.742,0.277 -0.339,0.112 -0.594,0.29 -0.766,0.535 -0.172,0.245 -0.258,0.516 -0.258,0.813 0,0.396 0.137,0.722 0.41,0.977 0.273,0.255 0.663,0.383 1.168,0.383 0.469,0 0.919,-0.124 1.352,-0.371 0.432,-0.247 0.773,-0.593 1.023,-1.035 0.25,-0.442 0.447,-1.075 0.587,-1.892 z" />
		<path
   style="fill:#a6a8ab"
   inkscape:connector-curvature="0"
   id="path3309"
   d="m 75.323,163.188 -0.234,1.156 c -0.339,0.089 -0.667,0.133 -0.984,0.133 -0.563,0 -1.011,-0.138 -1.344,-0.414 -0.25,-0.208 -0.375,-0.492 -0.375,-0.852 0,-0.183 0.067,-0.602 0.203,-1.258 l 1.008,-4.82 H 72.48 l 0.227,-1.094 h 1.117 l 0.43,-2.039 1.617,-0.977 -0.633,3.016 h 1.391 l -0.234,1.094 h -1.383 l -0.961,4.586 c -0.12,0.583 -0.18,0.933 -0.18,1.047 0,0.167 0.048,0.294 0.145,0.383 0.096,0.089 0.254,0.133 0.473,0.133 0.311,-0.001 0.589,-0.032 0.834,-0.094 z" />
		<path
   style="fill:#a6a8ab"
   inkscape:connector-curvature="0"
   id="path3311"
   d="m 76.714,161.188 c 0,-1.62 0.477,-2.961 1.43,-4.023 0.786,-0.875 1.817,-1.313 3.094,-1.313 1,0 1.806,0.313 2.418,0.938 0.612,0.625 0.918,1.469 0.918,2.531 0,0.953 -0.193,1.84 -0.578,2.66 -0.386,0.82 -0.934,1.449 -1.645,1.887 -0.711,0.438 -1.46,0.656 -2.246,0.656 -0.646,0 -1.233,-0.138 -1.762,-0.414 -0.529,-0.276 -0.933,-0.667 -1.211,-1.172 -0.279,-0.505 -0.418,-1.089 -0.418,-1.75 z m 1.414,-0.141 c 0,0.781 0.188,1.374 0.563,1.777 0.375,0.403 0.852,0.605 1.43,0.605 0.302,0 0.602,-0.062 0.898,-0.184 0.296,-0.122 0.573,-0.309 0.828,-0.559 0.255,-0.25 0.473,-0.535 0.652,-0.855 0.179,-0.32 0.324,-0.665 0.434,-1.035 0.161,-0.516 0.242,-1.011 0.242,-1.484 0,-0.75 -0.189,-1.332 -0.566,-1.746 -0.378,-0.414 -0.853,-0.621 -1.426,-0.621 -0.443,0 -0.847,0.105 -1.211,0.316 -0.365,0.211 -0.694,0.52 -0.988,0.926 -0.294,0.406 -0.511,0.879 -0.648,1.418 -0.139,0.54 -0.208,1.02 -0.208,1.442 z" />
		<path
   style="fill:#a6a8ab"
   inkscape:connector-curvature="0"
   id="path3313"
   d="m 85.362,164.336 1.734,-8.297 h 1.25 l -0.352,1.695 c 0.427,-0.641 0.845,-1.114 1.254,-1.422 0.409,-0.308 0.827,-0.461 1.254,-0.461 0.281,0 0.627,0.102 1.039,0.305 l -0.578,1.313 c -0.245,-0.177 -0.513,-0.266 -0.805,-0.266 -0.495,0 -1.003,0.276 -1.523,0.828 -0.521,0.552 -0.93,1.544 -1.227,2.977 l -0.703,3.328 h -1.343 z" />
	</g>
</svg>