# 1. Ordnung
1 3.24118 0.0125878
2 3.2354  0.0125878
3 3.05985 0.0150911
4 2.2537  0.0295585


# 4. Ordnung
1 13.3349 0.0491557
2 13.2887 0.0491588
3 12.5719 0.0339565
4 10.0529 0.0220214


# 8. Ordnung
1 27.6418 0.0136631
2 27.528  0.0136633
3 25.9867 0.0270023
4 23.2246 0.082336
