<?xml version="1.0" encoding="UTF-8" standalone="no"?>
<!-- Created with Inkscape (http://www.inkscape.org/) -->

<svg
   xmlns:dc="http://purl.org/dc/elements/1.1/"
   xmlns:cc="http://creativecommons.org/ns#"
   xmlns:rdf="http://www.w3.org/1999/02/22-rdf-syntax-ns#"
   xmlns:svg="http://www.w3.org/2000/svg"
   xmlns="http://www.w3.org/2000/svg"
   xmlns:sodipodi="http://sodipodi.sourceforge.net/DTD/sodipodi-0.dtd"
   xmlns:inkscape="http://www.inkscape.org/namespaces/inkscape"
   width="389.75"
   height="362.03125"
   id="svg2"
   version="1.1"
   inkscape:version="0.48.2 r9819"
   sodipodi:docname="Neues Dokument 1">
  <defs
     id="defs4" />
  <sodipodi:namedview
     id="base"
     pagecolor="#ffffff"
     bordercolor="#666666"
     borderopacity="1.0"
     inkscape:pageopacity="0.0"
     inkscape:pageshadow="2"
     inkscape:zoom="1.4"
     inkscape:cx="209.66741"
     inkscape:cy="178.36608"
     inkscape:document-units="px"
     inkscape:current-layer="layer1"
     showgrid="true"
     showguides="true"
     inkscape:guide-bbox="true"
     fit-margin-top="0"
     fit-margin-left="0"
     fit-margin-right="0"
     fit-margin-bottom="0"
     inkscape:window-width="1183"
     inkscape:window-height="769"
     inkscape:window-x="0"
     inkscape:window-y="0"
     inkscape:window-maximized="0">
    <inkscape:grid
       type="xygrid"
       id="grid3819"
       empspacing="5"
       visible="true"
       enabled="true"
       snapvisiblegridlinesonly="true" />
  </sodipodi:namedview>
  <metadata
     id="metadata7">
    <rdf:RDF>
      <cc:Work
         rdf:about="">
        <dc:format>image/svg+xml</dc:format>
        <dc:type
           rdf:resource="http://purl.org/dc/dcmitype/StillImage" />
        <dc:title></dc:title>
      </cc:Work>
    </rdf:RDF>
  </metadata>
  <g
     inkscape:label="Ebene 1"
     inkscape:groupmode="layer"
     id="layer1"
     transform="translate(-71.28125,-411.34375)">
    <rect
       style="fill:none;stroke:#000000;stroke-width:2.03957367;stroke-miterlimit:4;stroke-opacity:1;stroke-dasharray:none"
       id="rect3781"
       width="129.61218"
       height="119.74091"
       x="72.302345"
       y="412.36218"
       ry="0" />
    <path
       sodipodi:type="arc"
       style="fill:#000000;fill-opacity:1;stroke:#000000;stroke-width:2;stroke-miterlimit:4;stroke-opacity:1;stroke-dasharray:none"
       id="path3783"
       sodipodi:cx="102.14286"
       sodipodi:cy="507.36218"
       sodipodi:rx="6.4285712"
       sodipodi:ry="7.1428571"
       d="m 108.57143,507.36218 c 0,3.94489 -2.87817,7.14286 -6.42857,7.14286 -3.550401,0 -6.428571,-3.19797 -6.428571,-7.14286 0,-3.94489 2.87817,-7.14285 6.428571,-7.14285 3.5504,0 6.42857,3.19796 6.42857,7.14285 z"
       transform="matrix(1.5555555,0,0,1.3999999,-68.888892,-197.94481)" />
    <rect
       ry="0"
       y="412.36218"
       x="201.34506"
       height="119.74091"
       width="129.61218"
       id="rect3785"
       style="fill:none;stroke:#000000;stroke-width:2.03957367;stroke-miterlimit:4;stroke-opacity:1;stroke-dasharray:none" />
    <rect
       style="fill:none;stroke:#000000;stroke-width:2.03957367;stroke-miterlimit:4;stroke-opacity:1;stroke-dasharray:none"
       id="rect3789"
       width="129.61218"
       height="119.74091"
       x="330.38779"
       y="412.36218"
       ry="0" />
    <rect
       ry="0"
       y="532.4917"
       x="72.302345"
       height="119.74091"
       width="129.61218"
       id="rect3793"
       style="fill:none;stroke:#000000;stroke-width:2.03957367;stroke-miterlimit:4;stroke-opacity:1;stroke-dasharray:none" />
    <rect
       style="fill:none;stroke:#000000;stroke-width:2.03957367;stroke-miterlimit:4;stroke-opacity:1;stroke-dasharray:none"
       id="rect3797"
       width="129.61218"
       height="119.74091"
       x="201.34506"
       y="532.4917"
       ry="0" />
    <rect
       ry="0"
       y="532.4917"
       x="330.38779"
       height="119.74091"
       width="129.61218"
       id="rect3801"
       style="fill:none;stroke:#000000;stroke-width:2.03957367;stroke-miterlimit:4;stroke-opacity:1;stroke-dasharray:none" />
    <rect
       style="fill:none;stroke:#000000;stroke-width:2.03957367;stroke-miterlimit:4;stroke-opacity:1;stroke-dasharray:none"
       id="rect3805"
       width="129.61218"
       height="119.74091"
       x="72.302345"
       y="652.62128"
       ry="0" />
    <rect
       ry="0"
       y="652.62128"
       x="201.34506"
       height="119.74091"
       width="129.61218"
       id="rect3809"
       style="fill:none;stroke:#000000;stroke-width:2.03957367;stroke-miterlimit:4;stroke-opacity:1;stroke-dasharray:none" />
    <rect
       style="fill:none;stroke:#000000;stroke-width:2.03957367;stroke-miterlimit:4;stroke-opacity:1;stroke-dasharray:none"
       id="rect3813"
       width="129.61218"
       height="119.74091"
       x="330.38779"
       y="652.62128"
       ry="0" />
    <path
       sodipodi:type="arc"
       style="fill:#969696;fill-opacity:1;stroke:#000000;stroke-width:2;stroke-miterlimit:4;stroke-opacity:1;stroke-dasharray:none"
       id="path3817"
       sodipodi:cx="286.42856"
       sodipodi:cy="558.79077"
       sodipodi:rx="6.4285712"
       sodipodi:ry="6.4285712"
       d="m 292.85713,558.79077 c 0,3.5504 -2.87817,6.42857 -6.42857,6.42857 -3.5504,0 -6.42857,-2.87817 -6.42857,-6.42857 0,-3.5504 2.87817,-6.42857 6.42857,-6.42857 3.5504,0 6.42857,2.87817 6.42857,6.42857 z"
       transform="matrix(1.5555556,0,0,1.5555579,-145.55555,-296.86919)" />
    <path
       transform="matrix(1.5555555,0,0,1.3999999,-68.888892,-197.94481)"
       d="m 108.57143,507.36218 c 0,3.94489 -2.87817,7.14286 -6.42857,7.14286 -3.550401,0 -6.428571,-3.19797 -6.428571,-7.14286 0,-3.94489 2.87817,-7.14285 6.428571,-7.14285 3.5504,0 6.42857,3.19796 6.42857,7.14285 z"
       sodipodi:ry="7.1428571"
       sodipodi:rx="6.4285712"
       sodipodi:cy="507.36218"
       sodipodi:cx="102.14286"
       id="path3825"
       style="fill:#000000;fill-opacity:1;stroke:#000000;stroke-width:2;stroke-miterlimit:4;stroke-opacity:1;stroke-dasharray:none"
       sodipodi:type="arc" />
    <path
       sodipodi:type="arc"
       style="fill:#000000;fill-opacity:1;stroke:#000000;stroke-width:2;stroke-miterlimit:4;stroke-opacity:1;stroke-dasharray:none"
       id="path3831"
       sodipodi:cx="102.14286"
       sodipodi:cy="507.36218"
       sodipodi:rx="6.4285712"
       sodipodi:ry="7.1428571"
       d="m 108.57143,507.36218 c 0,3.94489 -2.87817,7.14286 -6.42857,7.14286 -3.550401,0 -6.428571,-3.19797 -6.428571,-7.14286 0,-3.94489 2.87817,-7.14285 6.428571,-7.14285 3.5504,0 6.42857,3.19796 6.42857,7.14285 z"
       transform="matrix(1.5555555,0,0,1.3999999,61.111112,-197.94482)" />
    <path
       transform="matrix(1.5555555,0,0,1.3999999,191.11111,-197.94482)"
       d="m 108.57143,507.36218 c 0,3.94489 -2.87817,7.14286 -6.42857,7.14286 -3.550401,0 -6.428571,-3.19797 -6.428571,-7.14286 0,-3.94489 2.87817,-7.14285 6.428571,-7.14285 3.5504,0 6.42857,3.19796 6.42857,7.14285 z"
       sodipodi:ry="7.1428571"
       sodipodi:rx="6.4285712"
       sodipodi:cy="507.36218"
       sodipodi:cx="102.14286"
       id="path3833"
       style="fill:#000000;fill-opacity:1;stroke:#000000;stroke-width:2;stroke-miterlimit:4;stroke-opacity:1;stroke-dasharray:none"
       sodipodi:type="arc" />
    <path
       transform="matrix(1.5555555,0,0,1.3999999,-68.888888,-77.944822)"
       d="m 108.57143,507.36218 c 0,3.94489 -2.87817,7.14286 -6.42857,7.14286 -3.550401,0 -6.428571,-3.19797 -6.428571,-7.14286 0,-3.94489 2.87817,-7.14285 6.428571,-7.14285 3.5504,0 6.42857,3.19796 6.42857,7.14285 z"
       sodipodi:ry="7.1428571"
       sodipodi:rx="6.4285712"
       sodipodi:cy="507.36218"
       sodipodi:cx="102.14286"
       id="path3835"
       style="fill:#000000;fill-opacity:1;stroke:#000000;stroke-width:2;stroke-miterlimit:4;stroke-opacity:1;stroke-dasharray:none"
       sodipodi:type="arc" />
    <path
       sodipodi:type="arc"
       style="fill:#000000;fill-opacity:1;stroke:#000000;stroke-width:2;stroke-miterlimit:4;stroke-opacity:1;stroke-dasharray:none"
       id="path3837"
       sodipodi:cx="102.14286"
       sodipodi:cy="507.36218"
       sodipodi:rx="6.4285712"
       sodipodi:ry="7.1428571"
       d="m 108.57143,507.36218 c 0,3.94489 -2.87817,7.14286 -6.42857,7.14286 -3.550401,0 -6.428571,-3.19797 -6.428571,-7.14286 0,-3.94489 2.87817,-7.14285 6.428571,-7.14285 3.5504,0 6.42857,3.19796 6.42857,7.14285 z"
       transform="matrix(1.5555555,0,0,1.3999999,-68.888888,-77.944822)" />
    <path
       transform="matrix(1.5555555,0,0,1.3999999,61.111116,-77.944832)"
       d="m 108.57143,507.36218 c 0,3.94489 -2.87817,7.14286 -6.42857,7.14286 -3.550401,0 -6.428571,-3.19797 -6.428571,-7.14286 0,-3.94489 2.87817,-7.14285 6.428571,-7.14285 3.5504,0 6.42857,3.19796 6.42857,7.14285 z"
       sodipodi:ry="7.1428571"
       sodipodi:rx="6.4285712"
       sodipodi:cy="507.36218"
       sodipodi:cx="102.14286"
       id="path3839"
       style="fill:#000000;fill-opacity:1;stroke:#000000;stroke-width:2;stroke-miterlimit:4;stroke-opacity:1;stroke-dasharray:none"
       sodipodi:type="arc" />
    <path
       sodipodi:type="arc"
       style="fill:#000000;fill-opacity:1;stroke:#000000;stroke-width:2;stroke-miterlimit:4;stroke-opacity:1;stroke-dasharray:none"
       id="path3841"
       sodipodi:cx="102.14286"
       sodipodi:cy="507.36218"
       sodipodi:rx="6.4285712"
       sodipodi:ry="7.1428571"
       d="m 108.57143,507.36218 c 0,3.94489 -2.87817,7.14286 -6.42857,7.14286 -3.550401,0 -6.428571,-3.19797 -6.428571,-7.14286 0,-3.94489 2.87817,-7.14285 6.428571,-7.14285 3.5504,0 6.42857,3.19796 6.42857,7.14285 z"
       transform="matrix(1.5555555,0,0,1.3999999,191.11111,-77.944832)" />
    <path
       sodipodi:type="arc"
       style="fill:#000000;fill-opacity:1;stroke:#000000;stroke-width:2;stroke-miterlimit:4;stroke-opacity:1;stroke-dasharray:none"
       id="path3843"
       sodipodi:cx="102.14286"
       sodipodi:cy="507.36218"
       sodipodi:rx="6.4285712"
       sodipodi:ry="7.1428571"
       d="m 108.57143,507.36218 c 0,3.94489 -2.87817,7.14286 -6.42857,7.14286 -3.550401,0 -6.428571,-3.19797 -6.428571,-7.14286 0,-3.94489 2.87817,-7.14285 6.428571,-7.14285 3.5504,0 6.42857,3.19796 6.42857,7.14285 z"
       transform="matrix(1.5555555,0,0,1.3999999,-68.888888,42.055178)" />
    <path
       transform="matrix(1.5555555,0,0,1.3999999,-68.888888,42.055178)"
       d="m 108.57143,507.36218 c 0,3.94489 -2.87817,7.14286 -6.42857,7.14286 -3.550401,0 -6.428571,-3.19797 -6.428571,-7.14286 0,-3.94489 2.87817,-7.14285 6.428571,-7.14285 3.5504,0 6.42857,3.19796 6.42857,7.14285 z"
       sodipodi:ry="7.1428571"
       sodipodi:rx="6.4285712"
       sodipodi:cy="507.36218"
       sodipodi:cx="102.14286"
       id="path3845"
       style="fill:#000000;fill-opacity:1;stroke:#000000;stroke-width:2;stroke-miterlimit:4;stroke-opacity:1;stroke-dasharray:none"
       sodipodi:type="arc" />
    <path
       sodipodi:type="arc"
       style="fill:#000000;fill-opacity:1;stroke:#000000;stroke-width:2;stroke-miterlimit:4;stroke-opacity:1;stroke-dasharray:none"
       id="path3847"
       sodipodi:cx="102.14286"
       sodipodi:cy="507.36218"
       sodipodi:rx="6.4285712"
       sodipodi:ry="7.1428571"
       d="m 108.57143,507.36218 c 0,3.94489 -2.87817,7.14286 -6.42857,7.14286 -3.550401,0 -6.428571,-3.19797 -6.428571,-7.14286 0,-3.94489 2.87817,-7.14285 6.428571,-7.14285 3.5504,0 6.42857,3.19796 6.42857,7.14285 z"
       transform="matrix(1.5555555,0,0,1.3999999,61.111116,42.055168)" />
    <path
       transform="matrix(1.5555555,0,0,1.3999999,191.11111,42.055168)"
       d="m 108.57143,507.36218 c 0,3.94489 -2.87817,7.14286 -6.42857,7.14286 -3.550401,0 -6.428571,-3.19797 -6.428571,-7.14286 0,-3.94489 2.87817,-7.14285 6.428571,-7.14285 3.5504,0 6.42857,3.19796 6.42857,7.14285 z"
       sodipodi:ry="7.1428571"
       sodipodi:rx="6.4285712"
       sodipodi:cy="507.36218"
       sodipodi:cx="102.14286"
       id="path3849"
       style="fill:#000000;fill-opacity:1;stroke:#000000;stroke-width:2;stroke-miterlimit:4;stroke-opacity:1;stroke-dasharray:none"
       sodipodi:type="arc" />
    <path
       style="fill:none;stroke:#000000;stroke-width:1px;stroke-linecap:butt;stroke-linejoin:miter;stroke-opacity:1"
       d="M 300,572.36218 z"
       id="path3851"
       inkscape:connector-curvature="0" />
    <path
       style="fill:none;stroke:#000000;stroke-width:2;stroke-linecap:butt;stroke-linejoin:miter;stroke-miterlimit:4;stroke-opacity:1;stroke-dasharray:4, 4;stroke-dashoffset:0"
       d="m 90,512.36218 210,60 -210,60"
       id="path3855"
       inkscape:connector-curvature="0" />
    <path
       style="fill:none;stroke:#000000;stroke-width:2;stroke-linecap:butt;stroke-linejoin:miter;stroke-miterlimit:4;stroke-opacity:1;stroke-dasharray:4, 4;stroke-dashoffset:0"
       d="m 300,572.36218 50,60"
       id="path3857"
       inkscape:connector-curvature="0" />
    <path
       style="fill:none;stroke:#000000;stroke-width:2;stroke-linecap:butt;stroke-linejoin:miter;stroke-miterlimit:4;stroke-opacity:1;stroke-dasharray:4, 4;stroke-dashoffset:0"
       d="m 220,632.36218 80,-60 -210,180"
       id="path3859"
       inkscape:connector-curvature="0" />
    <path
       style="fill:none;stroke:#000000;stroke-width:2;stroke-linecap:butt;stroke-linejoin:miter;stroke-miterlimit:4;stroke-opacity:1;stroke-dasharray:4, 4;stroke-dashoffset:0"
       d="m 220,752.36218 80,-180 50,180"
       id="path3861"
       inkscape:connector-curvature="0" />
    <path
       style="fill:none;stroke:#000000;stroke-width:2;stroke-linecap:butt;stroke-linejoin:miter;stroke-miterlimit:4;stroke-opacity:1;stroke-dasharray:4, 2;stroke-dashoffset:0"
       d="m 220,512.36218 80,60"
       id="path3863"
       inkscape:connector-curvature="0" />
    <path
       style="fill:none;stroke:#000000;stroke-width:2;stroke-linecap:butt;stroke-linejoin:miter;stroke-miterlimit:4;stroke-opacity:1;stroke-dasharray:none"
       d="m 350,512.36218 -50,60"
       id="path3865"
       inkscape:connector-curvature="0" />
    <text
       xml:space="preserve"
       style="font-size:40px;font-style:normal;font-weight:normal;line-height:125%;letter-spacing:0px;word-spacing:0px;fill:#000000;fill-opacity:1;stroke:none;font-family:Sans"
       x="340"
       y="562.36218"
       id="text3867"
       sodipodi:linespacing="125%"><tspan
         sodipodi:role="line"
         id="tspan3869"
         x="340"
         y="562.36218"
         style="font-size:12px">realer Abstand</tspan></text>
  </g>
</svg>
