%!PS-Adobe-2.0 EPSF-2.0
%%Title: Doppelloch2.tex
%%Creator: gnuplot 4.4 patchlevel 3
%%CreationDate: Sun Mar  3 17:28:30 2013
%%DocumentFonts: 
%%BoundingBox: 50 50 475 268
%%EndComments
%%BeginProlog
/gnudict 256 dict def
gnudict begin
%
% The following true/false flags may be edited by hand if desired.
% The unit line width and grayscale image gamma correction may also be changed.
%
/Color true def
/Blacktext false def
/Solid false def
/Dashlength 1 def
/Landscape false def
/Level1 false def
/Rounded false def
/ClipToBoundingBox false def
/TransparentPatterns false def
/gnulinewidth 5.000 def
/userlinewidth gnulinewidth def
/Gamma 1.0 def
%
/vshift -73 def
/dl1 {
  10.0 Dashlength mul mul
  Rounded { currentlinewidth 0.75 mul sub dup 0 le { pop 0.01 } if } if
} def
/dl2 {
  10.0 Dashlength mul mul
  Rounded { currentlinewidth 0.75 mul add } if
} def
/hpt_ 31.5 def
/vpt_ 31.5 def
/hpt hpt_ def
/vpt vpt_ def
Level1 {} {
/SDict 10 dict def
systemdict /pdfmark known not {
  userdict /pdfmark systemdict /cleartomark get put
} if
SDict begin [
  /Title (Doppelloch2.tex)
  /Subject (gnuplot plot)
  /Creator (gnuplot 4.4 patchlevel 3)
  /Author (julius)
%  /Producer (gnuplot)
%  /Keywords ()
  /CreationDate (Sun Mar  3 17:28:30 2013)
  /DOCINFO pdfmark
end
} ifelse
/doclip {
  ClipToBoundingBox {
    newpath 50 50 moveto 475 50 lineto 475 268 lineto 50 268 lineto closepath
    clip
  } if
} def
%
% Gnuplot Prolog Version 4.4 (August 2010)
%
%/SuppressPDFMark true def
%
/M {moveto} bind def
/L {lineto} bind def
/R {rmoveto} bind def
/V {rlineto} bind def
/N {newpath moveto} bind def
/Z {closepath} bind def
/C {setrgbcolor} bind def
/f {rlineto fill} bind def
/g {setgray} bind def
/Gshow {show} def   % May be redefined later in the file to support UTF-8
/vpt2 vpt 2 mul def
/hpt2 hpt 2 mul def
/Lshow {currentpoint stroke M 0 vshift R 
	Blacktext {gsave 0 setgray show grestore} {show} ifelse} def
/Rshow {currentpoint stroke M dup stringwidth pop neg vshift R
	Blacktext {gsave 0 setgray show grestore} {show} ifelse} def
/Cshow {currentpoint stroke M dup stringwidth pop -2 div vshift R 
	Blacktext {gsave 0 setgray show grestore} {show} ifelse} def
/UP {dup vpt_ mul /vpt exch def hpt_ mul /hpt exch def
  /hpt2 hpt 2 mul def /vpt2 vpt 2 mul def} def
/DL {Color {setrgbcolor Solid {pop []} if 0 setdash}
 {pop pop pop 0 setgray Solid {pop []} if 0 setdash} ifelse} def
/BL {stroke userlinewidth 2 mul setlinewidth
	Rounded {1 setlinejoin 1 setlinecap} if} def
/AL {stroke userlinewidth 2 div setlinewidth
	Rounded {1 setlinejoin 1 setlinecap} if} def
/UL {dup gnulinewidth mul /userlinewidth exch def
	dup 1 lt {pop 1} if 10 mul /udl exch def} def
/PL {stroke userlinewidth setlinewidth
	Rounded {1 setlinejoin 1 setlinecap} if} def
3.8 setmiterlimit
% Default Line colors
/LCw {1 1 1} def
/LCb {0 0 0} def
/LCa {0 0 0} def
/LC0 {1 0 0} def
/LC1 {0 1 0} def
/LC2 {0 0 1} def
/LC3 {1 0 1} def
/LC4 {0 1 1} def
/LC5 {1 1 0} def
/LC6 {0 0 0} def
/LC7 {1 0.3 0} def
/LC8 {0.5 0.5 0.5} def
% Default Line Types
/LTw {PL [] 1 setgray} def
/LTb {BL [] LCb DL} def
/LTa {AL [1 udl mul 2 udl mul] 0 setdash LCa setrgbcolor} def
/LT0 {PL [] LC0 DL} def
/LT1 {PL [4 dl1 2 dl2] LC1 DL} def
/LT2 {PL [2 dl1 3 dl2] LC2 DL} def
/LT3 {PL [1 dl1 1.5 dl2] LC3 DL} def
/LT4 {PL [6 dl1 2 dl2 1 dl1 2 dl2] LC4 DL} def
/LT5 {PL [3 dl1 3 dl2 1 dl1 3 dl2] LC5 DL} def
/LT6 {PL [2 dl1 2 dl2 2 dl1 6 dl2] LC6 DL} def
/LT7 {PL [1 dl1 2 dl2 6 dl1 2 dl2 1 dl1 2 dl2] LC7 DL} def
/LT8 {PL [2 dl1 2 dl2 2 dl1 2 dl2 2 dl1 2 dl2 2 dl1 4 dl2] LC8 DL} def
/Pnt {stroke [] 0 setdash gsave 1 setlinecap M 0 0 V stroke grestore} def
/Dia {stroke [] 0 setdash 2 copy vpt add M
  hpt neg vpt neg V hpt vpt neg V
  hpt vpt V hpt neg vpt V closepath stroke
  Pnt} def
/Pls {stroke [] 0 setdash vpt sub M 0 vpt2 V
  currentpoint stroke M
  hpt neg vpt neg R hpt2 0 V stroke
 } def
/Box {stroke [] 0 setdash 2 copy exch hpt sub exch vpt add M
  0 vpt2 neg V hpt2 0 V 0 vpt2 V
  hpt2 neg 0 V closepath stroke
  Pnt} def
/Crs {stroke [] 0 setdash exch hpt sub exch vpt add M
  hpt2 vpt2 neg V currentpoint stroke M
  hpt2 neg 0 R hpt2 vpt2 V stroke} def
/TriU {stroke [] 0 setdash 2 copy vpt 1.12 mul add M
  hpt neg vpt -1.62 mul V
  hpt 2 mul 0 V
  hpt neg vpt 1.62 mul V closepath stroke
  Pnt} def
/Star {2 copy Pls Crs} def
/BoxF {stroke [] 0 setdash exch hpt sub exch vpt add M
  0 vpt2 neg V hpt2 0 V 0 vpt2 V
  hpt2 neg 0 V closepath fill} def
/TriUF {stroke [] 0 setdash vpt 1.12 mul add M
  hpt neg vpt -1.62 mul V
  hpt 2 mul 0 V
  hpt neg vpt 1.62 mul V closepath fill} def
/TriD {stroke [] 0 setdash 2 copy vpt 1.12 mul sub M
  hpt neg vpt 1.62 mul V
  hpt 2 mul 0 V
  hpt neg vpt -1.62 mul V closepath stroke
  Pnt} def
/TriDF {stroke [] 0 setdash vpt 1.12 mul sub M
  hpt neg vpt 1.62 mul V
  hpt 2 mul 0 V
  hpt neg vpt -1.62 mul V closepath fill} def
/DiaF {stroke [] 0 setdash vpt add M
  hpt neg vpt neg V hpt vpt neg V
  hpt vpt V hpt neg vpt V closepath fill} def
/Pent {stroke [] 0 setdash 2 copy gsave
  translate 0 hpt M 4 {72 rotate 0 hpt L} repeat
  closepath stroke grestore Pnt} def
/PentF {stroke [] 0 setdash gsave
  translate 0 hpt M 4 {72 rotate 0 hpt L} repeat
  closepath fill grestore} def
/Circle {stroke [] 0 setdash 2 copy
  hpt 0 360 arc stroke Pnt} def
/CircleF {stroke [] 0 setdash hpt 0 360 arc fill} def
/C0 {BL [] 0 setdash 2 copy moveto vpt 90 450 arc} bind def
/C1 {BL [] 0 setdash 2 copy moveto
	2 copy vpt 0 90 arc closepath fill
	vpt 0 360 arc closepath} bind def
/C2 {BL [] 0 setdash 2 copy moveto
	2 copy vpt 90 180 arc closepath fill
	vpt 0 360 arc closepath} bind def
/C3 {BL [] 0 setdash 2 copy moveto
	2 copy vpt 0 180 arc closepath fill
	vpt 0 360 arc closepath} bind def
/C4 {BL [] 0 setdash 2 copy moveto
	2 copy vpt 180 270 arc closepath fill
	vpt 0 360 arc closepath} bind def
/C5 {BL [] 0 setdash 2 copy moveto
	2 copy vpt 0 90 arc
	2 copy moveto
	2 copy vpt 180 270 arc closepath fill
	vpt 0 360 arc} bind def
/C6 {BL [] 0 setdash 2 copy moveto
	2 copy vpt 90 270 arc closepath fill
	vpt 0 360 arc closepath} bind def
/C7 {BL [] 0 setdash 2 copy moveto
	2 copy vpt 0 270 arc closepath fill
	vpt 0 360 arc closepath} bind def
/C8 {BL [] 0 setdash 2 copy moveto
	2 copy vpt 270 360 arc closepath fill
	vpt 0 360 arc closepath} bind def
/C9 {BL [] 0 setdash 2 copy moveto
	2 copy vpt 270 450 arc closepath fill
	vpt 0 360 arc closepath} bind def
/C10 {BL [] 0 setdash 2 copy 2 copy moveto vpt 270 360 arc closepath fill
	2 copy moveto
	2 copy vpt 90 180 arc closepath fill
	vpt 0 360 arc closepath} bind def
/C11 {BL [] 0 setdash 2 copy moveto
	2 copy vpt 0 180 arc closepath fill
	2 copy moveto
	2 copy vpt 270 360 arc closepath fill
	vpt 0 360 arc closepath} bind def
/C12 {BL [] 0 setdash 2 copy moveto
	2 copy vpt 180 360 arc closepath fill
	vpt 0 360 arc closepath} bind def
/C13 {BL [] 0 setdash 2 copy moveto
	2 copy vpt 0 90 arc closepath fill
	2 copy moveto
	2 copy vpt 180 360 arc closepath fill
	vpt 0 360 arc closepath} bind def
/C14 {BL [] 0 setdash 2 copy moveto
	2 copy vpt 90 360 arc closepath fill
	vpt 0 360 arc} bind def
/C15 {BL [] 0 setdash 2 copy vpt 0 360 arc closepath fill
	vpt 0 360 arc closepath} bind def
/Rec {newpath 4 2 roll moveto 1 index 0 rlineto 0 exch rlineto
	neg 0 rlineto closepath} bind def
/Square {dup Rec} bind def
/Bsquare {vpt sub exch vpt sub exch vpt2 Square} bind def
/S0 {BL [] 0 setdash 2 copy moveto 0 vpt rlineto BL Bsquare} bind def
/S1 {BL [] 0 setdash 2 copy vpt Square fill Bsquare} bind def
/S2 {BL [] 0 setdash 2 copy exch vpt sub exch vpt Square fill Bsquare} bind def
/S3 {BL [] 0 setdash 2 copy exch vpt sub exch vpt2 vpt Rec fill Bsquare} bind def
/S4 {BL [] 0 setdash 2 copy exch vpt sub exch vpt sub vpt Square fill Bsquare} bind def
/S5 {BL [] 0 setdash 2 copy 2 copy vpt Square fill
	exch vpt sub exch vpt sub vpt Square fill Bsquare} bind def
/S6 {BL [] 0 setdash 2 copy exch vpt sub exch vpt sub vpt vpt2 Rec fill Bsquare} bind def
/S7 {BL [] 0 setdash 2 copy exch vpt sub exch vpt sub vpt vpt2 Rec fill
	2 copy vpt Square fill Bsquare} bind def
/S8 {BL [] 0 setdash 2 copy vpt sub vpt Square fill Bsquare} bind def
/S9 {BL [] 0 setdash 2 copy vpt sub vpt vpt2 Rec fill Bsquare} bind def
/S10 {BL [] 0 setdash 2 copy vpt sub vpt Square fill 2 copy exch vpt sub exch vpt Square fill
	Bsquare} bind def
/S11 {BL [] 0 setdash 2 copy vpt sub vpt Square fill 2 copy exch vpt sub exch vpt2 vpt Rec fill
	Bsquare} bind def
/S12 {BL [] 0 setdash 2 copy exch vpt sub exch vpt sub vpt2 vpt Rec fill Bsquare} bind def
/S13 {BL [] 0 setdash 2 copy exch vpt sub exch vpt sub vpt2 vpt Rec fill
	2 copy vpt Square fill Bsquare} bind def
/S14 {BL [] 0 setdash 2 copy exch vpt sub exch vpt sub vpt2 vpt Rec fill
	2 copy exch vpt sub exch vpt Square fill Bsquare} bind def
/S15 {BL [] 0 setdash 2 copy Bsquare fill Bsquare} bind def
/D0 {gsave translate 45 rotate 0 0 S0 stroke grestore} bind def
/D1 {gsave translate 45 rotate 0 0 S1 stroke grestore} bind def
/D2 {gsave translate 45 rotate 0 0 S2 stroke grestore} bind def
/D3 {gsave translate 45 rotate 0 0 S3 stroke grestore} bind def
/D4 {gsave translate 45 rotate 0 0 S4 stroke grestore} bind def
/D5 {gsave translate 45 rotate 0 0 S5 stroke grestore} bind def
/D6 {gsave translate 45 rotate 0 0 S6 stroke grestore} bind def
/D7 {gsave translate 45 rotate 0 0 S7 stroke grestore} bind def
/D8 {gsave translate 45 rotate 0 0 S8 stroke grestore} bind def
/D9 {gsave translate 45 rotate 0 0 S9 stroke grestore} bind def
/D10 {gsave translate 45 rotate 0 0 S10 stroke grestore} bind def
/D11 {gsave translate 45 rotate 0 0 S11 stroke grestore} bind def
/D12 {gsave translate 45 rotate 0 0 S12 stroke grestore} bind def
/D13 {gsave translate 45 rotate 0 0 S13 stroke grestore} bind def
/D14 {gsave translate 45 rotate 0 0 S14 stroke grestore} bind def
/D15 {gsave translate 45 rotate 0 0 S15 stroke grestore} bind def
/DiaE {stroke [] 0 setdash vpt add M
  hpt neg vpt neg V hpt vpt neg V
  hpt vpt V hpt neg vpt V closepath stroke} def
/BoxE {stroke [] 0 setdash exch hpt sub exch vpt add M
  0 vpt2 neg V hpt2 0 V 0 vpt2 V
  hpt2 neg 0 V closepath stroke} def
/TriUE {stroke [] 0 setdash vpt 1.12 mul add M
  hpt neg vpt -1.62 mul V
  hpt 2 mul 0 V
  hpt neg vpt 1.62 mul V closepath stroke} def
/TriDE {stroke [] 0 setdash vpt 1.12 mul sub M
  hpt neg vpt 1.62 mul V
  hpt 2 mul 0 V
  hpt neg vpt -1.62 mul V closepath stroke} def
/PentE {stroke [] 0 setdash gsave
  translate 0 hpt M 4 {72 rotate 0 hpt L} repeat
  closepath stroke grestore} def
/CircE {stroke [] 0 setdash 
  hpt 0 360 arc stroke} def
/Opaque {gsave closepath 1 setgray fill grestore 0 setgray closepath} def
/DiaW {stroke [] 0 setdash vpt add M
  hpt neg vpt neg V hpt vpt neg V
  hpt vpt V hpt neg vpt V Opaque stroke} def
/BoxW {stroke [] 0 setdash exch hpt sub exch vpt add M
  0 vpt2 neg V hpt2 0 V 0 vpt2 V
  hpt2 neg 0 V Opaque stroke} def
/TriUW {stroke [] 0 setdash vpt 1.12 mul add M
  hpt neg vpt -1.62 mul V
  hpt 2 mul 0 V
  hpt neg vpt 1.62 mul V Opaque stroke} def
/TriDW {stroke [] 0 setdash vpt 1.12 mul sub M
  hpt neg vpt 1.62 mul V
  hpt 2 mul 0 V
  hpt neg vpt -1.62 mul V Opaque stroke} def
/PentW {stroke [] 0 setdash gsave
  translate 0 hpt M 4 {72 rotate 0 hpt L} repeat
  Opaque stroke grestore} def
/CircW {stroke [] 0 setdash 
  hpt 0 360 arc Opaque stroke} def
/BoxFill {gsave Rec 1 setgray fill grestore} def
/Density {
  /Fillden exch def
  currentrgbcolor
  /ColB exch def /ColG exch def /ColR exch def
  /ColR ColR Fillden mul Fillden sub 1 add def
  /ColG ColG Fillden mul Fillden sub 1 add def
  /ColB ColB Fillden mul Fillden sub 1 add def
  ColR ColG ColB setrgbcolor} def
/BoxColFill {gsave Rec PolyFill} def
/PolyFill {gsave Density fill grestore grestore} def
/h {rlineto rlineto rlineto gsave closepath fill grestore} bind def
%
% PostScript Level 1 Pattern Fill routine for rectangles
% Usage: x y w h s a XX PatternFill
%	x,y = lower left corner of box to be filled
%	w,h = width and height of box
%	  a = angle in degrees between lines and x-axis
%	 XX = 0/1 for no/yes cross-hatch
%
/PatternFill {gsave /PFa [ 9 2 roll ] def
  PFa 0 get PFa 2 get 2 div add PFa 1 get PFa 3 get 2 div add translate
  PFa 2 get -2 div PFa 3 get -2 div PFa 2 get PFa 3 get Rec
  gsave 1 setgray fill grestore clip
  currentlinewidth 0.5 mul setlinewidth
  /PFs PFa 2 get dup mul PFa 3 get dup mul add sqrt def
  0 0 M PFa 5 get rotate PFs -2 div dup translate
  0 1 PFs PFa 4 get div 1 add floor cvi
	{PFa 4 get mul 0 M 0 PFs V} for
  0 PFa 6 get ne {
	0 1 PFs PFa 4 get div 1 add floor cvi
	{PFa 4 get mul 0 2 1 roll M PFs 0 V} for
 } if
  stroke grestore} def
%
/languagelevel where
 {pop languagelevel} {1} ifelse
 2 lt
	{/InterpretLevel1 true def}
	{/InterpretLevel1 Level1 def}
 ifelse
%
% PostScript level 2 pattern fill definitions
%
/Level2PatternFill {
/Tile8x8 {/PaintType 2 /PatternType 1 /TilingType 1 /BBox [0 0 8 8] /XStep 8 /YStep 8}
	bind def
/KeepColor {currentrgbcolor [/Pattern /DeviceRGB] setcolorspace} bind def
<< Tile8x8
 /PaintProc {0.5 setlinewidth pop 0 0 M 8 8 L 0 8 M 8 0 L stroke} 
>> matrix makepattern
/Pat1 exch def
<< Tile8x8
 /PaintProc {0.5 setlinewidth pop 0 0 M 8 8 L 0 8 M 8 0 L stroke
	0 4 M 4 8 L 8 4 L 4 0 L 0 4 L stroke}
>> matrix makepattern
/Pat2 exch def
<< Tile8x8
 /PaintProc {0.5 setlinewidth pop 0 0 M 0 8 L
	8 8 L 8 0 L 0 0 L fill}
>> matrix makepattern
/Pat3 exch def
<< Tile8x8
 /PaintProc {0.5 setlinewidth pop -4 8 M 8 -4 L
	0 12 M 12 0 L stroke}
>> matrix makepattern
/Pat4 exch def
<< Tile8x8
 /PaintProc {0.5 setlinewidth pop -4 0 M 8 12 L
	0 -4 M 12 8 L stroke}
>> matrix makepattern
/Pat5 exch def
<< Tile8x8
 /PaintProc {0.5 setlinewidth pop -2 8 M 4 -4 L
	0 12 M 8 -4 L 4 12 M 10 0 L stroke}
>> matrix makepattern
/Pat6 exch def
<< Tile8x8
 /PaintProc {0.5 setlinewidth pop -2 0 M 4 12 L
	0 -4 M 8 12 L 4 -4 M 10 8 L stroke}
>> matrix makepattern
/Pat7 exch def
<< Tile8x8
 /PaintProc {0.5 setlinewidth pop 8 -2 M -4 4 L
	12 0 M -4 8 L 12 4 M 0 10 L stroke}
>> matrix makepattern
/Pat8 exch def
<< Tile8x8
 /PaintProc {0.5 setlinewidth pop 0 -2 M 12 4 L
	-4 0 M 12 8 L -4 4 M 8 10 L stroke}
>> matrix makepattern
/Pat9 exch def
/Pattern1 {PatternBgnd KeepColor Pat1 setpattern} bind def
/Pattern2 {PatternBgnd KeepColor Pat2 setpattern} bind def
/Pattern3 {PatternBgnd KeepColor Pat3 setpattern} bind def
/Pattern4 {PatternBgnd KeepColor Landscape {Pat5} {Pat4} ifelse setpattern} bind def
/Pattern5 {PatternBgnd KeepColor Landscape {Pat4} {Pat5} ifelse setpattern} bind def
/Pattern6 {PatternBgnd KeepColor Landscape {Pat9} {Pat6} ifelse setpattern} bind def
/Pattern7 {PatternBgnd KeepColor Landscape {Pat8} {Pat7} ifelse setpattern} bind def
} def
%
%
%End of PostScript Level 2 code
%
/PatternBgnd {
  TransparentPatterns {} {gsave 1 setgray fill grestore} ifelse
} def
%
% Substitute for Level 2 pattern fill codes with
% grayscale if Level 2 support is not selected.
%
/Level1PatternFill {
/Pattern1 {0.250 Density} bind def
/Pattern2 {0.500 Density} bind def
/Pattern3 {0.750 Density} bind def
/Pattern4 {0.125 Density} bind def
/Pattern5 {0.375 Density} bind def
/Pattern6 {0.625 Density} bind def
/Pattern7 {0.875 Density} bind def
} def
%
% Now test for support of Level 2 code
%
Level1 {Level1PatternFill} {Level2PatternFill} ifelse
%
/Symbol-Oblique /Symbol findfont [1 0 .167 1 0 0] makefont
dup length dict begin {1 index /FID eq {pop pop} {def} ifelse} forall
currentdict end definefont pop
end
%%EndProlog
gnudict begin
gsave
doclip
50 50 translate
0.050 0.050 scale
0 setgray
newpath
1.000 UL
LTb
LCb setrgbcolor
1.000 UL
LTa
LCa setrgbcolor
1078 704 M
7027 0 V
stroke
LTb
LCb setrgbcolor
1078 704 M
63 0 V
6964 0 R
-63 0 V
stroke
LTb
1.000 UL
LTa
LCa setrgbcolor
1078 1189 M
7027 0 V
stroke
LTb
LCb setrgbcolor
1078 1189 M
63 0 V
6964 0 R
-63 0 V
stroke
LTb
1.000 UL
LTa
LCa setrgbcolor
1078 1674 M
7027 0 V
stroke
LTb
LCb setrgbcolor
1078 1674 M
63 0 V
6964 0 R
-63 0 V
stroke
LTb
1.000 UL
LTa
LCa setrgbcolor
1078 2159 M
7027 0 V
stroke
LTb
LCb setrgbcolor
1078 2159 M
63 0 V
6964 0 R
-63 0 V
stroke
LTb
1.000 UL
LTa
LCa setrgbcolor
1078 2644 M
7027 0 V
stroke
LTb
LCb setrgbcolor
1078 2644 M
63 0 V
6964 0 R
-63 0 V
stroke
LTb
1.000 UL
LTa
LCa setrgbcolor
1078 3129 M
7027 0 V
stroke
LTb
LCb setrgbcolor
1078 3129 M
63 0 V
6964 0 R
-63 0 V
stroke
LTb
1.000 UL
LTa
LCa setrgbcolor
1078 3614 M
7027 0 V
stroke
LTb
LCb setrgbcolor
1078 3614 M
63 0 V
6964 0 R
-63 0 V
stroke
LTb
1.000 UL
LTa
LCa setrgbcolor
1078 4099 M
7027 0 V
stroke
LTb
LCb setrgbcolor
1078 4099 M
63 0 V
6964 0 R
-63 0 V
stroke
LTb
1.000 UL
LTa
LCa setrgbcolor
1078 704 M
0 3395 V
stroke
LTb
LCb setrgbcolor
1078 704 M
0 63 V
0 3332 R
0 -63 V
stroke
LTb
1.000 UL
LTa
LCa setrgbcolor
2082 704 M
0 3395 V
stroke
LTb
LCb setrgbcolor
2082 704 M
0 63 V
0 3332 R
0 -63 V
stroke
LTb
1.000 UL
LTa
LCa setrgbcolor
3086 704 M
0 3395 V
stroke
LTb
LCb setrgbcolor
3086 704 M
0 63 V
0 3332 R
0 -63 V
stroke
LTb
1.000 UL
LTa
LCa setrgbcolor
4090 704 M
0 3395 V
stroke
LTb
LCb setrgbcolor
4090 704 M
0 63 V
0 3332 R
0 -63 V
stroke
LTb
1.000 UL
LTa
LCa setrgbcolor
5093 704 M
0 3395 V
stroke
LTb
LCb setrgbcolor
5093 704 M
0 63 V
0 3332 R
0 -63 V
stroke
LTb
1.000 UL
LTa
LCa setrgbcolor
6097 704 M
0 3112 V
0 220 R
0 63 V
stroke
LTb
LCb setrgbcolor
6097 704 M
0 63 V
0 3332 R
0 -63 V
stroke
LTb
1.000 UL
LTa
LCa setrgbcolor
7101 704 M
0 3112 V
0 220 R
0 63 V
stroke
LTb
LCb setrgbcolor
7101 704 M
0 63 V
0 3332 R
0 -63 V
stroke
LTb
1.000 UL
LTa
LCa setrgbcolor
8105 704 M
0 3395 V
stroke
LTb
LCb setrgbcolor
8105 704 M
0 63 V
0 3332 R
0 -63 V
stroke
LTb
1.000 UL
LTb
1078 4099 N
0 -3395 V
7027 0 V
0 3395 V
-7027 0 V
Z stroke
1.000 UP
1.000 UL
LTb
1.000 UP
1.000 UL
LT0
LC0 setrgbcolor
LCb setrgbcolor
LT0
LC0 setrgbcolor
1354 1155 Pls
1379 1179 Pls
1404 1204 Pls
1429 1204 Pls
1454 1192 Pls
1480 1167 Pls
1505 1192 Pls
1530 1204 Pls
1555 1229 Pls
1580 1192 Pls
1605 1192 Pls
1630 1179 Pls
1655 1179 Pls
1680 1192 Pls
1705 1204 Pls
1731 1217 Pls
1756 1204 Pls
1781 1204 Pls
1806 1155 Pls
1831 1155 Pls
1856 1155 Pls
1881 1192 Pls
1906 1179 Pls
1931 1155 Pls
1956 1167 Pls
1981 1155 Pls
2007 1130 Pls
2032 1142 Pls
2057 1155 Pls
2082 1179 Pls
2107 1179 Pls
2132 1142 Pls
2157 1130 Pls
2182 1142 Pls
2207 1155 Pls
2232 1179 Pls
2258 1167 Pls
2283 1179 Pls
2308 1179 Pls
2333 1155 Pls
2358 1155 Pls
2383 1179 Pls
2408 1192 Pls
2433 1229 Pls
2458 1241 Pls
2483 1192 Pls
2508 1217 Pls
2534 1229 Pls
2559 1229 Pls
2584 1266 Pls
2609 1278 Pls
2634 1303 Pls
2659 1291 Pls
2684 1291 Pls
2709 1303 Pls
2734 1328 Pls
2759 1328 Pls
2785 1352 Pls
2810 1352 Pls
2835 1352 Pls
2860 1377 Pls
2885 1402 Pls
2910 1451 Pls
2935 1501 Pls
2960 1526 Pls
2985 1550 Pls
3010 1563 Pls
3036 1600 Pls
3061 1649 Pls
3086 1699 Pls
3111 1723 Pls
3136 1760 Pls
3161 1760 Pls
3186 1760 Pls
3211 1785 Pls
3236 1797 Pls
3261 1822 Pls
3286 1797 Pls
3312 1810 Pls
3337 1797 Pls
3362 1760 Pls
3387 1736 Pls
3412 1760 Pls
3437 1785 Pls
3462 1822 Pls
3487 1847 Pls
3512 1896 Pls
3537 1958 Pls
3563 2020 Pls
3588 2106 Pls
3613 2181 Pls
3638 2316 Pls
3663 2452 Pls
3688 2588 Pls
3713 2712 Pls
3738 2836 Pls
3763 2947 Pls
3788 3058 Pls
3814 3120 Pls
3839 3132 Pls
3864 3194 Pls
3889 3169 Pls
3914 3120 Pls
3939 3033 Pls
3964 2934 Pls
3989 2848 Pls
4014 2724 Pls
4039 2638 Pls
4064 2527 Pls
4090 2415 Pls
4115 2316 Pls
4140 2230 Pls
4165 2181 Pls
4190 2156 Pls
4215 2205 Pls
4240 2230 Pls
4265 2316 Pls
4290 2452 Pls
4315 2650 Pls
4341 2836 Pls
4366 3058 Pls
4391 3280 Pls
4416 3441 Pls
4441 3676 Pls
4466 3799 Pls
4491 3898 Pls
4516 3985 Pls
4541 4034 Pls
4566 4059 Pls
4592 4071 Pls
4617 3985 Pls
4642 3898 Pls
4667 3738 Pls
4692 3528 Pls
4717 3305 Pls
4742 3083 Pls
4767 2873 Pls
4792 2576 Pls
4817 2440 Pls
4842 2230 Pls
4868 2069 Pls
4893 1946 Pls
4918 1909 Pls
4943 1909 Pls
4968 1933 Pls
4993 2020 Pls
5018 2057 Pls
5043 2168 Pls
5068 2255 Pls
5093 2378 Pls
5119 2514 Pls
5144 2662 Pls
5169 2811 Pls
5194 2922 Pls
5219 3009 Pls
5244 3058 Pls
5269 3046 Pls
5294 3009 Pls
5319 2984 Pls
5344 2885 Pls
5369 2786 Pls
5395 2638 Pls
5420 2465 Pls
5445 2279 Pls
5470 2156 Pls
5495 2020 Pls
5520 1896 Pls
5545 1797 Pls
5570 1674 Pls
5595 1538 Pls
5620 1476 Pls
5646 1414 Pls
5671 1390 Pls
5696 1365 Pls
5721 1390 Pls
5746 1390 Pls
5771 1390 Pls
5796 1439 Pls
5821 1464 Pls
5846 1513 Pls
5871 1575 Pls
5897 1587 Pls
5922 1612 Pls
5947 1600 Pls
5972 1587 Pls
5997 1575 Pls
6022 1587 Pls
6047 1575 Pls
6072 1550 Pls
6097 1501 Pls
6122 1464 Pls
6147 1414 Pls
6173 1390 Pls
6198 1377 Pls
6223 1328 Pls
6248 1266 Pls
6273 1217 Pls
6298 1204 Pls
6323 1192 Pls
6348 1204 Pls
6373 1179 Pls
6398 1179 Pls
6424 1167 Pls
6449 1155 Pls
6474 1155 Pls
6499 1179 Pls
6524 1179 Pls
6549 1179 Pls
6574 1130 Pls
6599 1142 Pls
6624 1155 Pls
6649 1179 Pls
6675 1192 Pls
6700 1155 Pls
6725 1155 Pls
6750 1155 Pls
6775 1130 Pls
6800 1130 Pls
6825 1155 Pls
6850 1142 Pls
6875 1179 Pls
6900 1179 Pls
6925 1204 Pls
6951 1155 Pls
6976 1142 Pls
7001 1155 Pls
7026 1179 Pls
7051 1179 Pls
7076 1167 Pls
7101 1155 Pls
7126 1142 Pls
7151 1167 Pls
7176 1167 Pls
7202 1155 Pls
7227 1179 Pls
7252 1179 Pls
7277 1167 Pls
7302 1155 Pls
7327 1167 Pls
7352 1179 Pls
7377 1204 Pls
7402 1192 Pls
7427 1179 Pls
7452 1192 Pls
7478 1179 Pls
7503 1192 Pls
7528 1204 Pls
7553 1217 Pls
7578 1217 Pls
7603 1217 Pls
7628 1192 Pls
7653 1167 Pls
7545 3926 Pls
1.000 UL
LTb
LCb setrgbcolor
1078 4099 N
0 -3395 V
7027 0 V
0 3395 V
-7027 0 V
Z stroke
1.000 UP
1.000 UL
LTb
stroke
grestore
end
showpage
%%Trailer
