#Spalt
34.375 0.013367
37.875 0.025598
40.875 0.049551
44.25 0.153514
48.8 0.433299
53.5 0.130581
56.75 0.035281
59.875 0.017444
63.0 0.006742

#Steg
28.4375 0.017444
31.875 0.023560
36.125 0.030185
39.75 0.056176
43.625 0.148418
48.8 4.650884
54.25 0.149947
58.5 0.051589
62.125 0.034262
65.9375 0.023050
69.75 0.013367

#Lochblende
41.5 0.005213
48.375 0.171861
54.375 0.005723

#Gitter
39.125 0.030185
41.625 0.029675
44.0 0.053118
46.5 0.674861
48.875 2.301692
51.25 0.633582
53.875 0.052608
56.125 0.028656
58.6875 0.024579

#Doppelloch
46.35 0.026108
47.55 0.079921
49.0 0.118350
50.3 0.07707
51.65 0.017444

# JULIUS
