\relax 
\catcode`"\active
\select@language{ngerman}
\@writefile{toc}{\select@language{ngerman}}
\@writefile{lof}{\select@language{ngerman}}
\@writefile{lot}{\select@language{ngerman}}
\@writefile{lof}{\contentsline {figure}{\numberline {1}{\ignorespaces Intensit\begingroup \let \relax \relax \endgroup [Pleaseinsert\PrerenderUnicode{ä}intopreamble]tsverteilung bei Beugung am Spalt\relax }}{1}}
\providecommand*\caption@xref[2]{\@setref\relax\@undefined{#1}}
\newlabel{fig:<+label+>}{{1}{1}}
\@writefile{lof}{\contentsline {figure}{\numberline {2}{\ignorespaces Intensit\IeC {\"a}tsverteilung bei Beugung am Spalt\relax }}{1}}
\newlabel{fig:<+label+>}{{2}{1}}
\@writefile{lof}{\contentsline {figure}{\numberline {3}{\ignorespaces Intensit\IeC {\"a}tsverteilung bei Beugung am Steg\relax }}{2}}
\newlabel{fig:<+label+>}{{3}{2}}
\@writefile{lof}{\contentsline {figure}{\numberline {4}{\ignorespaces Intensit\IeC {\"a}tsverteilung bei Beugung am Steg (mit Verst\IeC {\"a}rker)\relax }}{2}}
\newlabel{fig:<+label+>}{{4}{2}}
\@writefile{lof}{\contentsline {figure}{\numberline {5}{\ignorespaces Intensit\IeC {\"a}tsverteilung bei Beugung\relax }}{3}}
\newlabel{fig:<+label+>}{{5}{3}}
\@writefile{lof}{\contentsline {figure}{\numberline {6}{\ignorespaces Intensit\IeC {\"a}tsverteilung bei Beugung\relax }}{4}}
\newlabel{fig:<+label+>}{{6}{4}}
\@writefile{lof}{\contentsline {figure}{\numberline {7}{\ignorespaces Intensit\IeC {\"a}tsverteilung bei Beugung\relax }}{4}}
\newlabel{fig:<+label+>}{{7}{4}}
\@writefile{lof}{\contentsline {figure}{\numberline {8}{\ignorespaces Intensit\IeC {\"a}tsverteilung bei Beugung\relax }}{5}}
\newlabel{fig:<+label+>}{{8}{5}}
\@writefile{lof}{\contentsline {figure}{\numberline {9}{\ignorespaces Intensit\IeC {\"a}tsverteilung bei Beugung\relax }}{5}}
\newlabel{fig:<+label+>}{{9}{5}}
