%!PS-Adobe-2.0 EPSF-2.0
%%Title: Spalt.tex
%%Creator: gnuplot 4.4 patchlevel 3
%%CreationDate: Sun Mar  3 17:28:30 2013
%%DocumentFonts: 
%%BoundingBox: 50 50 475 268
%%EndComments
%%BeginProlog
/gnudict 256 dict def
gnudict begin
%
% The following true/false flags may be edited by hand if desired.
% The unit line width and grayscale image gamma correction may also be changed.
%
/Color true def
/Blacktext false def
/Solid false def
/Dashlength 1 def
/Landscape false def
/Level1 false def
/Rounded false def
/ClipToBoundingBox false def
/TransparentPatterns false def
/gnulinewidth 5.000 def
/userlinewidth gnulinewidth def
/Gamma 1.0 def
%
/vshift -73 def
/dl1 {
  10.0 Dashlength mul mul
  Rounded { currentlinewidth 0.75 mul sub dup 0 le { pop 0.01 } if } if
} def
/dl2 {
  10.0 Dashlength mul mul
  Rounded { currentlinewidth 0.75 mul add } if
} def
/hpt_ 31.5 def
/vpt_ 31.5 def
/hpt hpt_ def
/vpt vpt_ def
Level1 {} {
/SDict 10 dict def
systemdict /pdfmark known not {
  userdict /pdfmark systemdict /cleartomark get put
} if
SDict begin [
  /Title (Spalt.tex)
  /Subject (gnuplot plot)
  /Creator (gnuplot 4.4 patchlevel 3)
  /Author (julius)
%  /Producer (gnuplot)
%  /Keywords ()
  /CreationDate (Sun Mar  3 17:28:30 2013)
  /DOCINFO pdfmark
end
} ifelse
/doclip {
  ClipToBoundingBox {
    newpath 50 50 moveto 475 50 lineto 475 268 lineto 50 268 lineto closepath
    clip
  } if
} def
%
% Gnuplot Prolog Version 4.4 (August 2010)
%
%/SuppressPDFMark true def
%
/M {moveto} bind def
/L {lineto} bind def
/R {rmoveto} bind def
/V {rlineto} bind def
/N {newpath moveto} bind def
/Z {closepath} bind def
/C {setrgbcolor} bind def
/f {rlineto fill} bind def
/g {setgray} bind def
/Gshow {show} def   % May be redefined later in the file to support UTF-8
/vpt2 vpt 2 mul def
/hpt2 hpt 2 mul def
/Lshow {currentpoint stroke M 0 vshift R 
	Blacktext {gsave 0 setgray show grestore} {show} ifelse} def
/Rshow {currentpoint stroke M dup stringwidth pop neg vshift R
	Blacktext {gsave 0 setgray show grestore} {show} ifelse} def
/Cshow {currentpoint stroke M dup stringwidth pop -2 div vshift R 
	Blacktext {gsave 0 setgray show grestore} {show} ifelse} def
/UP {dup vpt_ mul /vpt exch def hpt_ mul /hpt exch def
  /hpt2 hpt 2 mul def /vpt2 vpt 2 mul def} def
/DL {Color {setrgbcolor Solid {pop []} if 0 setdash}
 {pop pop pop 0 setgray Solid {pop []} if 0 setdash} ifelse} def
/BL {stroke userlinewidth 2 mul setlinewidth
	Rounded {1 setlinejoin 1 setlinecap} if} def
/AL {stroke userlinewidth 2 div setlinewidth
	Rounded {1 setlinejoin 1 setlinecap} if} def
/UL {dup gnulinewidth mul /userlinewidth exch def
	dup 1 lt {pop 1} if 10 mul /udl exch def} def
/PL {stroke userlinewidth setlinewidth
	Rounded {1 setlinejoin 1 setlinecap} if} def
3.8 setmiterlimit
% Default Line colors
/LCw {1 1 1} def
/LCb {0 0 0} def
/LCa {0 0 0} def
/LC0 {1 0 0} def
/LC1 {0 1 0} def
/LC2 {0 0 1} def
/LC3 {1 0 1} def
/LC4 {0 1 1} def
/LC5 {1 1 0} def
/LC6 {0 0 0} def
/LC7 {1 0.3 0} def
/LC8 {0.5 0.5 0.5} def
% Default Line Types
/LTw {PL [] 1 setgray} def
/LTb {BL [] LCb DL} def
/LTa {AL [1 udl mul 2 udl mul] 0 setdash LCa setrgbcolor} def
/LT0 {PL [] LC0 DL} def
/LT1 {PL [4 dl1 2 dl2] LC1 DL} def
/LT2 {PL [2 dl1 3 dl2] LC2 DL} def
/LT3 {PL [1 dl1 1.5 dl2] LC3 DL} def
/LT4 {PL [6 dl1 2 dl2 1 dl1 2 dl2] LC4 DL} def
/LT5 {PL [3 dl1 3 dl2 1 dl1 3 dl2] LC5 DL} def
/LT6 {PL [2 dl1 2 dl2 2 dl1 6 dl2] LC6 DL} def
/LT7 {PL [1 dl1 2 dl2 6 dl1 2 dl2 1 dl1 2 dl2] LC7 DL} def
/LT8 {PL [2 dl1 2 dl2 2 dl1 2 dl2 2 dl1 2 dl2 2 dl1 4 dl2] LC8 DL} def
/Pnt {stroke [] 0 setdash gsave 1 setlinecap M 0 0 V stroke grestore} def
/Dia {stroke [] 0 setdash 2 copy vpt add M
  hpt neg vpt neg V hpt vpt neg V
  hpt vpt V hpt neg vpt V closepath stroke
  Pnt} def
/Pls {stroke [] 0 setdash vpt sub M 0 vpt2 V
  currentpoint stroke M
  hpt neg vpt neg R hpt2 0 V stroke
 } def
/Box {stroke [] 0 setdash 2 copy exch hpt sub exch vpt add M
  0 vpt2 neg V hpt2 0 V 0 vpt2 V
  hpt2 neg 0 V closepath stroke
  Pnt} def
/Crs {stroke [] 0 setdash exch hpt sub exch vpt add M
  hpt2 vpt2 neg V currentpoint stroke M
  hpt2 neg 0 R hpt2 vpt2 V stroke} def
/TriU {stroke [] 0 setdash 2 copy vpt 1.12 mul add M
  hpt neg vpt -1.62 mul V
  hpt 2 mul 0 V
  hpt neg vpt 1.62 mul V closepath stroke
  Pnt} def
/Star {2 copy Pls Crs} def
/BoxF {stroke [] 0 setdash exch hpt sub exch vpt add M
  0 vpt2 neg V hpt2 0 V 0 vpt2 V
  hpt2 neg 0 V closepath fill} def
/TriUF {stroke [] 0 setdash vpt 1.12 mul add M
  hpt neg vpt -1.62 mul V
  hpt 2 mul 0 V
  hpt neg vpt 1.62 mul V closepath fill} def
/TriD {stroke [] 0 setdash 2 copy vpt 1.12 mul sub M
  hpt neg vpt 1.62 mul V
  hpt 2 mul 0 V
  hpt neg vpt -1.62 mul V closepath stroke
  Pnt} def
/TriDF {stroke [] 0 setdash vpt 1.12 mul sub M
  hpt neg vpt 1.62 mul V
  hpt 2 mul 0 V
  hpt neg vpt -1.62 mul V closepath fill} def
/DiaF {stroke [] 0 setdash vpt add M
  hpt neg vpt neg V hpt vpt neg V
  hpt vpt V hpt neg vpt V closepath fill} def
/Pent {stroke [] 0 setdash 2 copy gsave
  translate 0 hpt M 4 {72 rotate 0 hpt L} repeat
  closepath stroke grestore Pnt} def
/PentF {stroke [] 0 setdash gsave
  translate 0 hpt M 4 {72 rotate 0 hpt L} repeat
  closepath fill grestore} def
/Circle {stroke [] 0 setdash 2 copy
  hpt 0 360 arc stroke Pnt} def
/CircleF {stroke [] 0 setdash hpt 0 360 arc fill} def
/C0 {BL [] 0 setdash 2 copy moveto vpt 90 450 arc} bind def
/C1 {BL [] 0 setdash 2 copy moveto
	2 copy vpt 0 90 arc closepath fill
	vpt 0 360 arc closepath} bind def
/C2 {BL [] 0 setdash 2 copy moveto
	2 copy vpt 90 180 arc closepath fill
	vpt 0 360 arc closepath} bind def
/C3 {BL [] 0 setdash 2 copy moveto
	2 copy vpt 0 180 arc closepath fill
	vpt 0 360 arc closepath} bind def
/C4 {BL [] 0 setdash 2 copy moveto
	2 copy vpt 180 270 arc closepath fill
	vpt 0 360 arc closepath} bind def
/C5 {BL [] 0 setdash 2 copy moveto
	2 copy vpt 0 90 arc
	2 copy moveto
	2 copy vpt 180 270 arc closepath fill
	vpt 0 360 arc} bind def
/C6 {BL [] 0 setdash 2 copy moveto
	2 copy vpt 90 270 arc closepath fill
	vpt 0 360 arc closepath} bind def
/C7 {BL [] 0 setdash 2 copy moveto
	2 copy vpt 0 270 arc closepath fill
	vpt 0 360 arc closepath} bind def
/C8 {BL [] 0 setdash 2 copy moveto
	2 copy vpt 270 360 arc closepath fill
	vpt 0 360 arc closepath} bind def
/C9 {BL [] 0 setdash 2 copy moveto
	2 copy vpt 270 450 arc closepath fill
	vpt 0 360 arc closepath} bind def
/C10 {BL [] 0 setdash 2 copy 2 copy moveto vpt 270 360 arc closepath fill
	2 copy moveto
	2 copy vpt 90 180 arc closepath fill
	vpt 0 360 arc closepath} bind def
/C11 {BL [] 0 setdash 2 copy moveto
	2 copy vpt 0 180 arc closepath fill
	2 copy moveto
	2 copy vpt 270 360 arc closepath fill
	vpt 0 360 arc closepath} bind def
/C12 {BL [] 0 setdash 2 copy moveto
	2 copy vpt 180 360 arc closepath fill
	vpt 0 360 arc closepath} bind def
/C13 {BL [] 0 setdash 2 copy moveto
	2 copy vpt 0 90 arc closepath fill
	2 copy moveto
	2 copy vpt 180 360 arc closepath fill
	vpt 0 360 arc closepath} bind def
/C14 {BL [] 0 setdash 2 copy moveto
	2 copy vpt 90 360 arc closepath fill
	vpt 0 360 arc} bind def
/C15 {BL [] 0 setdash 2 copy vpt 0 360 arc closepath fill
	vpt 0 360 arc closepath} bind def
/Rec {newpath 4 2 roll moveto 1 index 0 rlineto 0 exch rlineto
	neg 0 rlineto closepath} bind def
/Square {dup Rec} bind def
/Bsquare {vpt sub exch vpt sub exch vpt2 Square} bind def
/S0 {BL [] 0 setdash 2 copy moveto 0 vpt rlineto BL Bsquare} bind def
/S1 {BL [] 0 setdash 2 copy vpt Square fill Bsquare} bind def
/S2 {BL [] 0 setdash 2 copy exch vpt sub exch vpt Square fill Bsquare} bind def
/S3 {BL [] 0 setdash 2 copy exch vpt sub exch vpt2 vpt Rec fill Bsquare} bind def
/S4 {BL [] 0 setdash 2 copy exch vpt sub exch vpt sub vpt Square fill Bsquare} bind def
/S5 {BL [] 0 setdash 2 copy 2 copy vpt Square fill
	exch vpt sub exch vpt sub vpt Square fill Bsquare} bind def
/S6 {BL [] 0 setdash 2 copy exch vpt sub exch vpt sub vpt vpt2 Rec fill Bsquare} bind def
/S7 {BL [] 0 setdash 2 copy exch vpt sub exch vpt sub vpt vpt2 Rec fill
	2 copy vpt Square fill Bsquare} bind def
/S8 {BL [] 0 setdash 2 copy vpt sub vpt Square fill Bsquare} bind def
/S9 {BL [] 0 setdash 2 copy vpt sub vpt vpt2 Rec fill Bsquare} bind def
/S10 {BL [] 0 setdash 2 copy vpt sub vpt Square fill 2 copy exch vpt sub exch vpt Square fill
	Bsquare} bind def
/S11 {BL [] 0 setdash 2 copy vpt sub vpt Square fill 2 copy exch vpt sub exch vpt2 vpt Rec fill
	Bsquare} bind def
/S12 {BL [] 0 setdash 2 copy exch vpt sub exch vpt sub vpt2 vpt Rec fill Bsquare} bind def
/S13 {BL [] 0 setdash 2 copy exch vpt sub exch vpt sub vpt2 vpt Rec fill
	2 copy vpt Square fill Bsquare} bind def
/S14 {BL [] 0 setdash 2 copy exch vpt sub exch vpt sub vpt2 vpt Rec fill
	2 copy exch vpt sub exch vpt Square fill Bsquare} bind def
/S15 {BL [] 0 setdash 2 copy Bsquare fill Bsquare} bind def
/D0 {gsave translate 45 rotate 0 0 S0 stroke grestore} bind def
/D1 {gsave translate 45 rotate 0 0 S1 stroke grestore} bind def
/D2 {gsave translate 45 rotate 0 0 S2 stroke grestore} bind def
/D3 {gsave translate 45 rotate 0 0 S3 stroke grestore} bind def
/D4 {gsave translate 45 rotate 0 0 S4 stroke grestore} bind def
/D5 {gsave translate 45 rotate 0 0 S5 stroke grestore} bind def
/D6 {gsave translate 45 rotate 0 0 S6 stroke grestore} bind def
/D7 {gsave translate 45 rotate 0 0 S7 stroke grestore} bind def
/D8 {gsave translate 45 rotate 0 0 S8 stroke grestore} bind def
/D9 {gsave translate 45 rotate 0 0 S9 stroke grestore} bind def
/D10 {gsave translate 45 rotate 0 0 S10 stroke grestore} bind def
/D11 {gsave translate 45 rotate 0 0 S11 stroke grestore} bind def
/D12 {gsave translate 45 rotate 0 0 S12 stroke grestore} bind def
/D13 {gsave translate 45 rotate 0 0 S13 stroke grestore} bind def
/D14 {gsave translate 45 rotate 0 0 S14 stroke grestore} bind def
/D15 {gsave translate 45 rotate 0 0 S15 stroke grestore} bind def
/DiaE {stroke [] 0 setdash vpt add M
  hpt neg vpt neg V hpt vpt neg V
  hpt vpt V hpt neg vpt V closepath stroke} def
/BoxE {stroke [] 0 setdash exch hpt sub exch vpt add M
  0 vpt2 neg V hpt2 0 V 0 vpt2 V
  hpt2 neg 0 V closepath stroke} def
/TriUE {stroke [] 0 setdash vpt 1.12 mul add M
  hpt neg vpt -1.62 mul V
  hpt 2 mul 0 V
  hpt neg vpt 1.62 mul V closepath stroke} def
/TriDE {stroke [] 0 setdash vpt 1.12 mul sub M
  hpt neg vpt 1.62 mul V
  hpt 2 mul 0 V
  hpt neg vpt -1.62 mul V closepath stroke} def
/PentE {stroke [] 0 setdash gsave
  translate 0 hpt M 4 {72 rotate 0 hpt L} repeat
  closepath stroke grestore} def
/CircE {stroke [] 0 setdash 
  hpt 0 360 arc stroke} def
/Opaque {gsave closepath 1 setgray fill grestore 0 setgray closepath} def
/DiaW {stroke [] 0 setdash vpt add M
  hpt neg vpt neg V hpt vpt neg V
  hpt vpt V hpt neg vpt V Opaque stroke} def
/BoxW {stroke [] 0 setdash exch hpt sub exch vpt add M
  0 vpt2 neg V hpt2 0 V 0 vpt2 V
  hpt2 neg 0 V Opaque stroke} def
/TriUW {stroke [] 0 setdash vpt 1.12 mul add M
  hpt neg vpt -1.62 mul V
  hpt 2 mul 0 V
  hpt neg vpt 1.62 mul V Opaque stroke} def
/TriDW {stroke [] 0 setdash vpt 1.12 mul sub M
  hpt neg vpt 1.62 mul V
  hpt 2 mul 0 V
  hpt neg vpt -1.62 mul V Opaque stroke} def
/PentW {stroke [] 0 setdash gsave
  translate 0 hpt M 4 {72 rotate 0 hpt L} repeat
  Opaque stroke grestore} def
/CircW {stroke [] 0 setdash 
  hpt 0 360 arc Opaque stroke} def
/BoxFill {gsave Rec 1 setgray fill grestore} def
/Density {
  /Fillden exch def
  currentrgbcolor
  /ColB exch def /ColG exch def /ColR exch def
  /ColR ColR Fillden mul Fillden sub 1 add def
  /ColG ColG Fillden mul Fillden sub 1 add def
  /ColB ColB Fillden mul Fillden sub 1 add def
  ColR ColG ColB setrgbcolor} def
/BoxColFill {gsave Rec PolyFill} def
/PolyFill {gsave Density fill grestore grestore} def
/h {rlineto rlineto rlineto gsave closepath fill grestore} bind def
%
% PostScript Level 1 Pattern Fill routine for rectangles
% Usage: x y w h s a XX PatternFill
%	x,y = lower left corner of box to be filled
%	w,h = width and height of box
%	  a = angle in degrees between lines and x-axis
%	 XX = 0/1 for no/yes cross-hatch
%
/PatternFill {gsave /PFa [ 9 2 roll ] def
  PFa 0 get PFa 2 get 2 div add PFa 1 get PFa 3 get 2 div add translate
  PFa 2 get -2 div PFa 3 get -2 div PFa 2 get PFa 3 get Rec
  gsave 1 setgray fill grestore clip
  currentlinewidth 0.5 mul setlinewidth
  /PFs PFa 2 get dup mul PFa 3 get dup mul add sqrt def
  0 0 M PFa 5 get rotate PFs -2 div dup translate
  0 1 PFs PFa 4 get div 1 add floor cvi
	{PFa 4 get mul 0 M 0 PFs V} for
  0 PFa 6 get ne {
	0 1 PFs PFa 4 get div 1 add floor cvi
	{PFa 4 get mul 0 2 1 roll M PFs 0 V} for
 } if
  stroke grestore} def
%
/languagelevel where
 {pop languagelevel} {1} ifelse
 2 lt
	{/InterpretLevel1 true def}
	{/InterpretLevel1 Level1 def}
 ifelse
%
% PostScript level 2 pattern fill definitions
%
/Level2PatternFill {
/Tile8x8 {/PaintType 2 /PatternType 1 /TilingType 1 /BBox [0 0 8 8] /XStep 8 /YStep 8}
	bind def
/KeepColor {currentrgbcolor [/Pattern /DeviceRGB] setcolorspace} bind def
<< Tile8x8
 /PaintProc {0.5 setlinewidth pop 0 0 M 8 8 L 0 8 M 8 0 L stroke} 
>> matrix makepattern
/Pat1 exch def
<< Tile8x8
 /PaintProc {0.5 setlinewidth pop 0 0 M 8 8 L 0 8 M 8 0 L stroke
	0 4 M 4 8 L 8 4 L 4 0 L 0 4 L stroke}
>> matrix makepattern
/Pat2 exch def
<< Tile8x8
 /PaintProc {0.5 setlinewidth pop 0 0 M 0 8 L
	8 8 L 8 0 L 0 0 L fill}
>> matrix makepattern
/Pat3 exch def
<< Tile8x8
 /PaintProc {0.5 setlinewidth pop -4 8 M 8 -4 L
	0 12 M 12 0 L stroke}
>> matrix makepattern
/Pat4 exch def
<< Tile8x8
 /PaintProc {0.5 setlinewidth pop -4 0 M 8 12 L
	0 -4 M 12 8 L stroke}
>> matrix makepattern
/Pat5 exch def
<< Tile8x8
 /PaintProc {0.5 setlinewidth pop -2 8 M 4 -4 L
	0 12 M 8 -4 L 4 12 M 10 0 L stroke}
>> matrix makepattern
/Pat6 exch def
<< Tile8x8
 /PaintProc {0.5 setlinewidth pop -2 0 M 4 12 L
	0 -4 M 8 12 L 4 -4 M 10 8 L stroke}
>> matrix makepattern
/Pat7 exch def
<< Tile8x8
 /PaintProc {0.5 setlinewidth pop 8 -2 M -4 4 L
	12 0 M -4 8 L 12 4 M 0 10 L stroke}
>> matrix makepattern
/Pat8 exch def
<< Tile8x8
 /PaintProc {0.5 setlinewidth pop 0 -2 M 12 4 L
	-4 0 M 12 8 L -4 4 M 8 10 L stroke}
>> matrix makepattern
/Pat9 exch def
/Pattern1 {PatternBgnd KeepColor Pat1 setpattern} bind def
/Pattern2 {PatternBgnd KeepColor Pat2 setpattern} bind def
/Pattern3 {PatternBgnd KeepColor Pat3 setpattern} bind def
/Pattern4 {PatternBgnd KeepColor Landscape {Pat5} {Pat4} ifelse setpattern} bind def
/Pattern5 {PatternBgnd KeepColor Landscape {Pat4} {Pat5} ifelse setpattern} bind def
/Pattern6 {PatternBgnd KeepColor Landscape {Pat9} {Pat6} ifelse setpattern} bind def
/Pattern7 {PatternBgnd KeepColor Landscape {Pat8} {Pat7} ifelse setpattern} bind def
} def
%
%
%End of PostScript Level 2 code
%
/PatternBgnd {
  TransparentPatterns {} {gsave 1 setgray fill grestore} ifelse
} def
%
% Substitute for Level 2 pattern fill codes with
% grayscale if Level 2 support is not selected.
%
/Level1PatternFill {
/Pattern1 {0.250 Density} bind def
/Pattern2 {0.500 Density} bind def
/Pattern3 {0.750 Density} bind def
/Pattern4 {0.125 Density} bind def
/Pattern5 {0.375 Density} bind def
/Pattern6 {0.625 Density} bind def
/Pattern7 {0.875 Density} bind def
} def
%
% Now test for support of Level 2 code
%
Level1 {Level1PatternFill} {Level2PatternFill} ifelse
%
/Symbol-Oblique /Symbol findfont [1 0 .167 1 0 0] makefont
dup length dict begin {1 index /FID eq {pop pop} {def} ifelse} forall
currentdict end definefont pop
end
%%EndProlog
gnudict begin
gsave
doclip
50 50 translate
0.050 0.050 scale
0 setgray
newpath
1.000 UL
LTb
LCb setrgbcolor
1.000 UL
LTa
LCa setrgbcolor
1210 704 M
6895 0 V
stroke
LTb
LCb setrgbcolor
1210 704 M
63 0 V
6832 0 R
-63 0 V
stroke
LTb
1.000 UL
LTa
LCa setrgbcolor
1210 1044 M
6895 0 V
stroke
LTb
LCb setrgbcolor
1210 1044 M
63 0 V
6832 0 R
-63 0 V
stroke
LTb
1.000 UL
LTa
LCa setrgbcolor
1210 1383 M
6895 0 V
stroke
LTb
LCb setrgbcolor
1210 1383 M
63 0 V
6832 0 R
-63 0 V
stroke
LTb
1.000 UL
LTa
LCa setrgbcolor
1210 1723 M
6895 0 V
stroke
LTb
LCb setrgbcolor
1210 1723 M
63 0 V
6832 0 R
-63 0 V
stroke
LTb
1.000 UL
LTa
LCa setrgbcolor
1210 2062 M
6895 0 V
stroke
LTb
LCb setrgbcolor
1210 2062 M
63 0 V
6832 0 R
-63 0 V
stroke
LTb
1.000 UL
LTa
LCa setrgbcolor
1210 2402 M
6895 0 V
stroke
LTb
LCb setrgbcolor
1210 2402 M
63 0 V
6832 0 R
-63 0 V
stroke
LTb
1.000 UL
LTa
LCa setrgbcolor
1210 2741 M
6895 0 V
stroke
LTb
LCb setrgbcolor
1210 2741 M
63 0 V
6832 0 R
-63 0 V
stroke
LTb
1.000 UL
LTa
LCa setrgbcolor
1210 3081 M
6895 0 V
stroke
LTb
LCb setrgbcolor
1210 3081 M
63 0 V
6832 0 R
-63 0 V
stroke
LTb
1.000 UL
LTa
LCa setrgbcolor
1210 3420 M
6895 0 V
stroke
LTb
LCb setrgbcolor
1210 3420 M
63 0 V
6832 0 R
-63 0 V
stroke
LTb
1.000 UL
LTa
LCa setrgbcolor
1210 3759 M
6895 0 V
stroke
LTb
LCb setrgbcolor
1210 3759 M
63 0 V
6832 0 R
-63 0 V
stroke
LTb
1.000 UL
LTa
LCa setrgbcolor
1210 4099 M
6895 0 V
stroke
LTb
LCb setrgbcolor
1210 4099 M
63 0 V
6832 0 R
-63 0 V
stroke
LTb
1.000 UL
LTa
LCa setrgbcolor
1210 704 M
0 3395 V
stroke
LTb
LCb setrgbcolor
1210 704 M
0 63 V
0 3332 R
0 -63 V
stroke
LTb
1.000 UL
LTa
LCa setrgbcolor
2195 704 M
0 3395 V
stroke
LTb
LCb setrgbcolor
2195 704 M
0 63 V
0 3332 R
0 -63 V
stroke
LTb
1.000 UL
LTa
LCa setrgbcolor
3180 704 M
0 3395 V
stroke
LTb
LCb setrgbcolor
3180 704 M
0 63 V
0 3332 R
0 -63 V
stroke
LTb
1.000 UL
LTa
LCa setrgbcolor
4165 704 M
0 3395 V
stroke
LTb
LCb setrgbcolor
4165 704 M
0 63 V
0 3332 R
0 -63 V
stroke
LTb
1.000 UL
LTa
LCa setrgbcolor
5150 704 M
0 3395 V
stroke
LTb
LCb setrgbcolor
5150 704 M
0 63 V
0 3332 R
0 -63 V
stroke
LTb
1.000 UL
LTa
LCa setrgbcolor
6135 704 M
0 3112 V
0 220 R
0 63 V
stroke
LTb
LCb setrgbcolor
6135 704 M
0 63 V
0 3332 R
0 -63 V
stroke
LTb
1.000 UL
LTa
LCa setrgbcolor
7120 704 M
0 3112 V
0 220 R
0 63 V
stroke
LTb
LCb setrgbcolor
7120 704 M
0 63 V
0 3332 R
0 -63 V
stroke
LTb
1.000 UL
LTa
LCa setrgbcolor
8105 704 M
0 3395 V
stroke
LTb
LCb setrgbcolor
8105 704 M
0 63 V
0 3332 R
0 -63 V
stroke
LTb
1.000 UL
LTb
1210 4099 N
0 -3395 V
6895 0 V
0 3395 V
-6895 0 V
Z stroke
1.000 UP
1.000 UL
LTb
1.000 UP
1.000 UL
LT0
LC0 setrgbcolor
LCb setrgbcolor
LT0
LC0 setrgbcolor
1481 1044 Pls
1506 1048 Pls
1530 1058 Pls
1555 1062 Pls
1579 1069 Pls
1604 1058 Pls
1629 1058 Pls
1653 1065 Pls
1678 1065 Pls
1703 1079 Pls
1727 1079 Pls
1752 1089 Pls
1776 1093 Pls
1801 1093 Pls
1826 1096 Pls
1850 1100 Pls
1875 1100 Pls
1899 1107 Pls
1924 1117 Pls
1949 1124 Pls
1973 1134 Pls
1998 1127 Pls
2023 1127 Pls
2047 1134 Pls
2072 1138 Pls
2096 1152 Pls
2121 1152 Pls
2146 1148 Pls
2170 1152 Pls
2195 1152 Pls
2220 1152 Pls
2244 1148 Pls
2269 1162 Pls
2294 1162 Pls
2318 1155 Pls
2343 1155 Pls
2367 1152 Pls
2392 1138 Pls
2417 1138 Pls
2441 1148 Pls
2466 1141 Pls
2491 1134 Pls
2515 1124 Pls
2540 1124 Pls
2564 1124 Pls
2589 1117 Pls
2614 1117 Pls
2638 1110 Pls
2663 1107 Pls
2688 1107 Pls
2712 1096 Pls
2737 1089 Pls
2761 1082 Pls
2786 1075 Pls
2811 1079 Pls
2835 1086 Pls
2860 1082 Pls
2884 1079 Pls
2909 1075 Pls
2934 1072 Pls
2958 1082 Pls
2983 1089 Pls
3008 1100 Pls
3032 1113 Pls
3057 1120 Pls
3081 1138 Pls
3106 1145 Pls
3131 1148 Pls
3155 1165 Pls
3180 1183 Pls
3205 1210 Pls
3229 1238 Pls
3254 1262 Pls
3279 1287 Pls
3303 1318 Pls
3328 1359 Pls
3352 1401 Pls
3377 1442 Pls
3402 1487 Pls
3426 1539 Pls
3451 1591 Pls
3476 1636 Pls
3500 1695 Pls
3525 1757 Pls
3549 1809 Pls
3574 1868 Pls
3599 1913 Pls
3623 1968 Pls
3648 2030 Pls
3673 2100 Pls
3697 2159 Pls
3722 2207 Pls
3746 2280 Pls
3771 2349 Pls
3796 2446 Pls
3820 2529 Pls
3845 2608 Pls
3869 2685 Pls
3894 2774 Pls
3919 2861 Pls
3943 2947 Pls
3968 3017 Pls
3993 3096 Pls
4017 3155 Pls
4042 3228 Pls
4066 3283 Pls
4091 3335 Pls
4116 3404 Pls
4140 3456 Pls
4165 3532 Pls
4190 3584 Pls
4214 3601 Pls
4239 3650 Pls
4264 3702 Pls
4288 3754 Pls
4313 3795 Pls
4337 3840 Pls
4362 3861 Pls
4387 3882 Pls
4411 3916 Pls
4436 3927 Pls
4461 3941 Pls
4485 3958 Pls
4510 3944 Pls
4534 3948 Pls
4559 3986 Pls
4584 3972 Pls
4608 3979 Pls
4633 3916 Pls
4658 3913 Pls
4682 3892 Pls
4707 3864 Pls
4731 3854 Pls
4756 3823 Pls
4781 3788 Pls
4805 3719 Pls
4830 3678 Pls
4854 3626 Pls
4879 3563 Pls
4904 3525 Pls
4928 3453 Pls
4953 3387 Pls
4978 3307 Pls
5002 3242 Pls
5027 3176 Pls
5051 3114 Pls
5076 3086 Pls
5101 3003 Pls
5125 2920 Pls
5150 2871 Pls
5175 2802 Pls
5199 2736 Pls
5224 2660 Pls
5249 2584 Pls
5273 2511 Pls
5298 2435 Pls
5322 2366 Pls
5347 2283 Pls
5372 2197 Pls
5396 2127 Pls
5421 2051 Pls
5446 1989 Pls
5470 1927 Pls
5495 1861 Pls
5519 1795 Pls
5544 1729 Pls
5569 1688 Pls
5593 1650 Pls
5618 1601 Pls
5643 1553 Pls
5667 1525 Pls
5692 1477 Pls
5716 1428 Pls
5741 1390 Pls
5766 1345 Pls
5790 1318 Pls
5815 1283 Pls
5839 1245 Pls
5864 1214 Pls
5889 1183 Pls
5913 1165 Pls
5938 1152 Pls
5963 1138 Pls
5987 1120 Pls
6012 1103 Pls
6036 1089 Pls
6061 1086 Pls
6086 1082 Pls
6110 1075 Pls
6135 1072 Pls
6160 1065 Pls
6184 1055 Pls
6209 1058 Pls
6234 1055 Pls
6258 1062 Pls
6283 1069 Pls
6307 1065 Pls
6332 1065 Pls
6357 1065 Pls
6381 1069 Pls
6406 1072 Pls
6431 1089 Pls
6455 1089 Pls
6480 1100 Pls
6504 1096 Pls
6529 1096 Pls
6554 1100 Pls
6578 1110 Pls
6603 1113 Pls
6628 1120 Pls
6652 1124 Pls
6677 1127 Pls
6701 1127 Pls
6726 1120 Pls
6751 1124 Pls
6775 1141 Pls
6800 1145 Pls
6824 1138 Pls
6849 1138 Pls
6874 1120 Pls
6898 1127 Pls
6923 1138 Pls
6948 1138 Pls
6972 1134 Pls
6997 1127 Pls
7021 1120 Pls
7046 1117 Pls
7071 1124 Pls
7095 1120 Pls
7120 1117 Pls
7145 1117 Pls
7169 1103 Pls
7194 1100 Pls
7219 1096 Pls
7243 1100 Pls
7268 1093 Pls
7292 1089 Pls
7317 1082 Pls
7342 1075 Pls
7366 1065 Pls
7391 1072 Pls
7416 1065 Pls
7440 1065 Pls
7465 1069 Pls
7489 1055 Pls
7514 1055 Pls
7539 1044 Pls
7563 1044 Pls
7588 1048 Pls
7613 1051 Pls
7637 1048 Pls
7662 1048 Pls
7686 1037 Pls
7711 1037 Pls
7545 3926 Pls
1.000 UL
LTb
LCb setrgbcolor
1210 4099 N
0 -3395 V
6895 0 V
0 3395 V
-6895 0 V
Z stroke
1.000 UP
1.000 UL
LTb
stroke
grestore
end
showpage
%%Trailer
