%!PS-Adobe-2.0 EPSF-2.0
%%Title: Spalt2.tex
%%Creator: gnuplot 4.4 patchlevel 3
%%CreationDate: Sun Mar  3 17:28:30 2013
%%DocumentFonts: 
%%BoundingBox: 50 50 475 268
%%EndComments
%%BeginProlog
/gnudict 256 dict def
gnudict begin
%
% The following true/false flags may be edited by hand if desired.
% The unit line width and grayscale image gamma correction may also be changed.
%
/Color true def
/Blacktext false def
/Solid false def
/Dashlength 1 def
/Landscape false def
/Level1 false def
/Rounded false def
/ClipToBoundingBox false def
/TransparentPatterns false def
/gnulinewidth 5.000 def
/userlinewidth gnulinewidth def
/Gamma 1.0 def
%
/vshift -73 def
/dl1 {
  10.0 Dashlength mul mul
  Rounded { currentlinewidth 0.75 mul sub dup 0 le { pop 0.01 } if } if
} def
/dl2 {
  10.0 Dashlength mul mul
  Rounded { currentlinewidth 0.75 mul add } if
} def
/hpt_ 31.5 def
/vpt_ 31.5 def
/hpt hpt_ def
/vpt vpt_ def
Level1 {} {
/SDict 10 dict def
systemdict /pdfmark known not {
  userdict /pdfmark systemdict /cleartomark get put
} if
SDict begin [
  /Title (Spalt2.tex)
  /Subject (gnuplot plot)
  /Creator (gnuplot 4.4 patchlevel 3)
  /Author (julius)
%  /Producer (gnuplot)
%  /Keywords ()
  /CreationDate (Sun Mar  3 17:28:30 2013)
  /DOCINFO pdfmark
end
} ifelse
/doclip {
  ClipToBoundingBox {
    newpath 50 50 moveto 475 50 lineto 475 268 lineto 50 268 lineto closepath
    clip
  } if
} def
%
% Gnuplot Prolog Version 4.4 (August 2010)
%
%/SuppressPDFMark true def
%
/M {moveto} bind def
/L {lineto} bind def
/R {rmoveto} bind def
/V {rlineto} bind def
/N {newpath moveto} bind def
/Z {closepath} bind def
/C {setrgbcolor} bind def
/f {rlineto fill} bind def
/g {setgray} bind def
/Gshow {show} def   % May be redefined later in the file to support UTF-8
/vpt2 vpt 2 mul def
/hpt2 hpt 2 mul def
/Lshow {currentpoint stroke M 0 vshift R 
	Blacktext {gsave 0 setgray show grestore} {show} ifelse} def
/Rshow {currentpoint stroke M dup stringwidth pop neg vshift R
	Blacktext {gsave 0 setgray show grestore} {show} ifelse} def
/Cshow {currentpoint stroke M dup stringwidth pop -2 div vshift R 
	Blacktext {gsave 0 setgray show grestore} {show} ifelse} def
/UP {dup vpt_ mul /vpt exch def hpt_ mul /hpt exch def
  /hpt2 hpt 2 mul def /vpt2 vpt 2 mul def} def
/DL {Color {setrgbcolor Solid {pop []} if 0 setdash}
 {pop pop pop 0 setgray Solid {pop []} if 0 setdash} ifelse} def
/BL {stroke userlinewidth 2 mul setlinewidth
	Rounded {1 setlinejoin 1 setlinecap} if} def
/AL {stroke userlinewidth 2 div setlinewidth
	Rounded {1 setlinejoin 1 setlinecap} if} def
/UL {dup gnulinewidth mul /userlinewidth exch def
	dup 1 lt {pop 1} if 10 mul /udl exch def} def
/PL {stroke userlinewidth setlinewidth
	Rounded {1 setlinejoin 1 setlinecap} if} def
3.8 setmiterlimit
% Default Line colors
/LCw {1 1 1} def
/LCb {0 0 0} def
/LCa {0 0 0} def
/LC0 {1 0 0} def
/LC1 {0 1 0} def
/LC2 {0 0 1} def
/LC3 {1 0 1} def
/LC4 {0 1 1} def
/LC5 {1 1 0} def
/LC6 {0 0 0} def
/LC7 {1 0.3 0} def
/LC8 {0.5 0.5 0.5} def
% Default Line Types
/LTw {PL [] 1 setgray} def
/LTb {BL [] LCb DL} def
/LTa {AL [1 udl mul 2 udl mul] 0 setdash LCa setrgbcolor} def
/LT0 {PL [] LC0 DL} def
/LT1 {PL [4 dl1 2 dl2] LC1 DL} def
/LT2 {PL [2 dl1 3 dl2] LC2 DL} def
/LT3 {PL [1 dl1 1.5 dl2] LC3 DL} def
/LT4 {PL [6 dl1 2 dl2 1 dl1 2 dl2] LC4 DL} def
/LT5 {PL [3 dl1 3 dl2 1 dl1 3 dl2] LC5 DL} def
/LT6 {PL [2 dl1 2 dl2 2 dl1 6 dl2] LC6 DL} def
/LT7 {PL [1 dl1 2 dl2 6 dl1 2 dl2 1 dl1 2 dl2] LC7 DL} def
/LT8 {PL [2 dl1 2 dl2 2 dl1 2 dl2 2 dl1 2 dl2 2 dl1 4 dl2] LC8 DL} def
/Pnt {stroke [] 0 setdash gsave 1 setlinecap M 0 0 V stroke grestore} def
/Dia {stroke [] 0 setdash 2 copy vpt add M
  hpt neg vpt neg V hpt vpt neg V
  hpt vpt V hpt neg vpt V closepath stroke
  Pnt} def
/Pls {stroke [] 0 setdash vpt sub M 0 vpt2 V
  currentpoint stroke M
  hpt neg vpt neg R hpt2 0 V stroke
 } def
/Box {stroke [] 0 setdash 2 copy exch hpt sub exch vpt add M
  0 vpt2 neg V hpt2 0 V 0 vpt2 V
  hpt2 neg 0 V closepath stroke
  Pnt} def
/Crs {stroke [] 0 setdash exch hpt sub exch vpt add M
  hpt2 vpt2 neg V currentpoint stroke M
  hpt2 neg 0 R hpt2 vpt2 V stroke} def
/TriU {stroke [] 0 setdash 2 copy vpt 1.12 mul add M
  hpt neg vpt -1.62 mul V
  hpt 2 mul 0 V
  hpt neg vpt 1.62 mul V closepath stroke
  Pnt} def
/Star {2 copy Pls Crs} def
/BoxF {stroke [] 0 setdash exch hpt sub exch vpt add M
  0 vpt2 neg V hpt2 0 V 0 vpt2 V
  hpt2 neg 0 V closepath fill} def
/TriUF {stroke [] 0 setdash vpt 1.12 mul add M
  hpt neg vpt -1.62 mul V
  hpt 2 mul 0 V
  hpt neg vpt 1.62 mul V closepath fill} def
/TriD {stroke [] 0 setdash 2 copy vpt 1.12 mul sub M
  hpt neg vpt 1.62 mul V
  hpt 2 mul 0 V
  hpt neg vpt -1.62 mul V closepath stroke
  Pnt} def
/TriDF {stroke [] 0 setdash vpt 1.12 mul sub M
  hpt neg vpt 1.62 mul V
  hpt 2 mul 0 V
  hpt neg vpt -1.62 mul V closepath fill} def
/DiaF {stroke [] 0 setdash vpt add M
  hpt neg vpt neg V hpt vpt neg V
  hpt vpt V hpt neg vpt V closepath fill} def
/Pent {stroke [] 0 setdash 2 copy gsave
  translate 0 hpt M 4 {72 rotate 0 hpt L} repeat
  closepath stroke grestore Pnt} def
/PentF {stroke [] 0 setdash gsave
  translate 0 hpt M 4 {72 rotate 0 hpt L} repeat
  closepath fill grestore} def
/Circle {stroke [] 0 setdash 2 copy
  hpt 0 360 arc stroke Pnt} def
/CircleF {stroke [] 0 setdash hpt 0 360 arc fill} def
/C0 {BL [] 0 setdash 2 copy moveto vpt 90 450 arc} bind def
/C1 {BL [] 0 setdash 2 copy moveto
	2 copy vpt 0 90 arc closepath fill
	vpt 0 360 arc closepath} bind def
/C2 {BL [] 0 setdash 2 copy moveto
	2 copy vpt 90 180 arc closepath fill
	vpt 0 360 arc closepath} bind def
/C3 {BL [] 0 setdash 2 copy moveto
	2 copy vpt 0 180 arc closepath fill
	vpt 0 360 arc closepath} bind def
/C4 {BL [] 0 setdash 2 copy moveto
	2 copy vpt 180 270 arc closepath fill
	vpt 0 360 arc closepath} bind def
/C5 {BL [] 0 setdash 2 copy moveto
	2 copy vpt 0 90 arc
	2 copy moveto
	2 copy vpt 180 270 arc closepath fill
	vpt 0 360 arc} bind def
/C6 {BL [] 0 setdash 2 copy moveto
	2 copy vpt 90 270 arc closepath fill
	vpt 0 360 arc closepath} bind def
/C7 {BL [] 0 setdash 2 copy moveto
	2 copy vpt 0 270 arc closepath fill
	vpt 0 360 arc closepath} bind def
/C8 {BL [] 0 setdash 2 copy moveto
	2 copy vpt 270 360 arc closepath fill
	vpt 0 360 arc closepath} bind def
/C9 {BL [] 0 setdash 2 copy moveto
	2 copy vpt 270 450 arc closepath fill
	vpt 0 360 arc closepath} bind def
/C10 {BL [] 0 setdash 2 copy 2 copy moveto vpt 270 360 arc closepath fill
	2 copy moveto
	2 copy vpt 90 180 arc closepath fill
	vpt 0 360 arc closepath} bind def
/C11 {BL [] 0 setdash 2 copy moveto
	2 copy vpt 0 180 arc closepath fill
	2 copy moveto
	2 copy vpt 270 360 arc closepath fill
	vpt 0 360 arc closepath} bind def
/C12 {BL [] 0 setdash 2 copy moveto
	2 copy vpt 180 360 arc closepath fill
	vpt 0 360 arc closepath} bind def
/C13 {BL [] 0 setdash 2 copy moveto
	2 copy vpt 0 90 arc closepath fill
	2 copy moveto
	2 copy vpt 180 360 arc closepath fill
	vpt 0 360 arc closepath} bind def
/C14 {BL [] 0 setdash 2 copy moveto
	2 copy vpt 90 360 arc closepath fill
	vpt 0 360 arc} bind def
/C15 {BL [] 0 setdash 2 copy vpt 0 360 arc closepath fill
	vpt 0 360 arc closepath} bind def
/Rec {newpath 4 2 roll moveto 1 index 0 rlineto 0 exch rlineto
	neg 0 rlineto closepath} bind def
/Square {dup Rec} bind def
/Bsquare {vpt sub exch vpt sub exch vpt2 Square} bind def
/S0 {BL [] 0 setdash 2 copy moveto 0 vpt rlineto BL Bsquare} bind def
/S1 {BL [] 0 setdash 2 copy vpt Square fill Bsquare} bind def
/S2 {BL [] 0 setdash 2 copy exch vpt sub exch vpt Square fill Bsquare} bind def
/S3 {BL [] 0 setdash 2 copy exch vpt sub exch vpt2 vpt Rec fill Bsquare} bind def
/S4 {BL [] 0 setdash 2 copy exch vpt sub exch vpt sub vpt Square fill Bsquare} bind def
/S5 {BL [] 0 setdash 2 copy 2 copy vpt Square fill
	exch vpt sub exch vpt sub vpt Square fill Bsquare} bind def
/S6 {BL [] 0 setdash 2 copy exch vpt sub exch vpt sub vpt vpt2 Rec fill Bsquare} bind def
/S7 {BL [] 0 setdash 2 copy exch vpt sub exch vpt sub vpt vpt2 Rec fill
	2 copy vpt Square fill Bsquare} bind def
/S8 {BL [] 0 setdash 2 copy vpt sub vpt Square fill Bsquare} bind def
/S9 {BL [] 0 setdash 2 copy vpt sub vpt vpt2 Rec fill Bsquare} bind def
/S10 {BL [] 0 setdash 2 copy vpt sub vpt Square fill 2 copy exch vpt sub exch vpt Square fill
	Bsquare} bind def
/S11 {BL [] 0 setdash 2 copy vpt sub vpt Square fill 2 copy exch vpt sub exch vpt2 vpt Rec fill
	Bsquare} bind def
/S12 {BL [] 0 setdash 2 copy exch vpt sub exch vpt sub vpt2 vpt Rec fill Bsquare} bind def
/S13 {BL [] 0 setdash 2 copy exch vpt sub exch vpt sub vpt2 vpt Rec fill
	2 copy vpt Square fill Bsquare} bind def
/S14 {BL [] 0 setdash 2 copy exch vpt sub exch vpt sub vpt2 vpt Rec fill
	2 copy exch vpt sub exch vpt Square fill Bsquare} bind def
/S15 {BL [] 0 setdash 2 copy Bsquare fill Bsquare} bind def
/D0 {gsave translate 45 rotate 0 0 S0 stroke grestore} bind def
/D1 {gsave translate 45 rotate 0 0 S1 stroke grestore} bind def
/D2 {gsave translate 45 rotate 0 0 S2 stroke grestore} bind def
/D3 {gsave translate 45 rotate 0 0 S3 stroke grestore} bind def
/D4 {gsave translate 45 rotate 0 0 S4 stroke grestore} bind def
/D5 {gsave translate 45 rotate 0 0 S5 stroke grestore} bind def
/D6 {gsave translate 45 rotate 0 0 S6 stroke grestore} bind def
/D7 {gsave translate 45 rotate 0 0 S7 stroke grestore} bind def
/D8 {gsave translate 45 rotate 0 0 S8 stroke grestore} bind def
/D9 {gsave translate 45 rotate 0 0 S9 stroke grestore} bind def
/D10 {gsave translate 45 rotate 0 0 S10 stroke grestore} bind def
/D11 {gsave translate 45 rotate 0 0 S11 stroke grestore} bind def
/D12 {gsave translate 45 rotate 0 0 S12 stroke grestore} bind def
/D13 {gsave translate 45 rotate 0 0 S13 stroke grestore} bind def
/D14 {gsave translate 45 rotate 0 0 S14 stroke grestore} bind def
/D15 {gsave translate 45 rotate 0 0 S15 stroke grestore} bind def
/DiaE {stroke [] 0 setdash vpt add M
  hpt neg vpt neg V hpt vpt neg V
  hpt vpt V hpt neg vpt V closepath stroke} def
/BoxE {stroke [] 0 setdash exch hpt sub exch vpt add M
  0 vpt2 neg V hpt2 0 V 0 vpt2 V
  hpt2 neg 0 V closepath stroke} def
/TriUE {stroke [] 0 setdash vpt 1.12 mul add M
  hpt neg vpt -1.62 mul V
  hpt 2 mul 0 V
  hpt neg vpt 1.62 mul V closepath stroke} def
/TriDE {stroke [] 0 setdash vpt 1.12 mul sub M
  hpt neg vpt 1.62 mul V
  hpt 2 mul 0 V
  hpt neg vpt -1.62 mul V closepath stroke} def
/PentE {stroke [] 0 setdash gsave
  translate 0 hpt M 4 {72 rotate 0 hpt L} repeat
  closepath stroke grestore} def
/CircE {stroke [] 0 setdash 
  hpt 0 360 arc stroke} def
/Opaque {gsave closepath 1 setgray fill grestore 0 setgray closepath} def
/DiaW {stroke [] 0 setdash vpt add M
  hpt neg vpt neg V hpt vpt neg V
  hpt vpt V hpt neg vpt V Opaque stroke} def
/BoxW {stroke [] 0 setdash exch hpt sub exch vpt add M
  0 vpt2 neg V hpt2 0 V 0 vpt2 V
  hpt2 neg 0 V Opaque stroke} def
/TriUW {stroke [] 0 setdash vpt 1.12 mul add M
  hpt neg vpt -1.62 mul V
  hpt 2 mul 0 V
  hpt neg vpt 1.62 mul V Opaque stroke} def
/TriDW {stroke [] 0 setdash vpt 1.12 mul sub M
  hpt neg vpt 1.62 mul V
  hpt 2 mul 0 V
  hpt neg vpt -1.62 mul V Opaque stroke} def
/PentW {stroke [] 0 setdash gsave
  translate 0 hpt M 4 {72 rotate 0 hpt L} repeat
  Opaque stroke grestore} def
/CircW {stroke [] 0 setdash 
  hpt 0 360 arc Opaque stroke} def
/BoxFill {gsave Rec 1 setgray fill grestore} def
/Density {
  /Fillden exch def
  currentrgbcolor
  /ColB exch def /ColG exch def /ColR exch def
  /ColR ColR Fillden mul Fillden sub 1 add def
  /ColG ColG Fillden mul Fillden sub 1 add def
  /ColB ColB Fillden mul Fillden sub 1 add def
  ColR ColG ColB setrgbcolor} def
/BoxColFill {gsave Rec PolyFill} def
/PolyFill {gsave Density fill grestore grestore} def
/h {rlineto rlineto rlineto gsave closepath fill grestore} bind def
%
% PostScript Level 1 Pattern Fill routine for rectangles
% Usage: x y w h s a XX PatternFill
%	x,y = lower left corner of box to be filled
%	w,h = width and height of box
%	  a = angle in degrees between lines and x-axis
%	 XX = 0/1 for no/yes cross-hatch
%
/PatternFill {gsave /PFa [ 9 2 roll ] def
  PFa 0 get PFa 2 get 2 div add PFa 1 get PFa 3 get 2 div add translate
  PFa 2 get -2 div PFa 3 get -2 div PFa 2 get PFa 3 get Rec
  gsave 1 setgray fill grestore clip
  currentlinewidth 0.5 mul setlinewidth
  /PFs PFa 2 get dup mul PFa 3 get dup mul add sqrt def
  0 0 M PFa 5 get rotate PFs -2 div dup translate
  0 1 PFs PFa 4 get div 1 add floor cvi
	{PFa 4 get mul 0 M 0 PFs V} for
  0 PFa 6 get ne {
	0 1 PFs PFa 4 get div 1 add floor cvi
	{PFa 4 get mul 0 2 1 roll M PFs 0 V} for
 } if
  stroke grestore} def
%
/languagelevel where
 {pop languagelevel} {1} ifelse
 2 lt
	{/InterpretLevel1 true def}
	{/InterpretLevel1 Level1 def}
 ifelse
%
% PostScript level 2 pattern fill definitions
%
/Level2PatternFill {
/Tile8x8 {/PaintType 2 /PatternType 1 /TilingType 1 /BBox [0 0 8 8] /XStep 8 /YStep 8}
	bind def
/KeepColor {currentrgbcolor [/Pattern /DeviceRGB] setcolorspace} bind def
<< Tile8x8
 /PaintProc {0.5 setlinewidth pop 0 0 M 8 8 L 0 8 M 8 0 L stroke} 
>> matrix makepattern
/Pat1 exch def
<< Tile8x8
 /PaintProc {0.5 setlinewidth pop 0 0 M 8 8 L 0 8 M 8 0 L stroke
	0 4 M 4 8 L 8 4 L 4 0 L 0 4 L stroke}
>> matrix makepattern
/Pat2 exch def
<< Tile8x8
 /PaintProc {0.5 setlinewidth pop 0 0 M 0 8 L
	8 8 L 8 0 L 0 0 L fill}
>> matrix makepattern
/Pat3 exch def
<< Tile8x8
 /PaintProc {0.5 setlinewidth pop -4 8 M 8 -4 L
	0 12 M 12 0 L stroke}
>> matrix makepattern
/Pat4 exch def
<< Tile8x8
 /PaintProc {0.5 setlinewidth pop -4 0 M 8 12 L
	0 -4 M 12 8 L stroke}
>> matrix makepattern
/Pat5 exch def
<< Tile8x8
 /PaintProc {0.5 setlinewidth pop -2 8 M 4 -4 L
	0 12 M 8 -4 L 4 12 M 10 0 L stroke}
>> matrix makepattern
/Pat6 exch def
<< Tile8x8
 /PaintProc {0.5 setlinewidth pop -2 0 M 4 12 L
	0 -4 M 8 12 L 4 -4 M 10 8 L stroke}
>> matrix makepattern
/Pat7 exch def
<< Tile8x8
 /PaintProc {0.5 setlinewidth pop 8 -2 M -4 4 L
	12 0 M -4 8 L 12 4 M 0 10 L stroke}
>> matrix makepattern
/Pat8 exch def
<< Tile8x8
 /PaintProc {0.5 setlinewidth pop 0 -2 M 12 4 L
	-4 0 M 12 8 L -4 4 M 8 10 L stroke}
>> matrix makepattern
/Pat9 exch def
/Pattern1 {PatternBgnd KeepColor Pat1 setpattern} bind def
/Pattern2 {PatternBgnd KeepColor Pat2 setpattern} bind def
/Pattern3 {PatternBgnd KeepColor Pat3 setpattern} bind def
/Pattern4 {PatternBgnd KeepColor Landscape {Pat5} {Pat4} ifelse setpattern} bind def
/Pattern5 {PatternBgnd KeepColor Landscape {Pat4} {Pat5} ifelse setpattern} bind def
/Pattern6 {PatternBgnd KeepColor Landscape {Pat9} {Pat6} ifelse setpattern} bind def
/Pattern7 {PatternBgnd KeepColor Landscape {Pat8} {Pat7} ifelse setpattern} bind def
} def
%
%
%End of PostScript Level 2 code
%
/PatternBgnd {
  TransparentPatterns {} {gsave 1 setgray fill grestore} ifelse
} def
%
% Substitute for Level 2 pattern fill codes with
% grayscale if Level 2 support is not selected.
%
/Level1PatternFill {
/Pattern1 {0.250 Density} bind def
/Pattern2 {0.500 Density} bind def
/Pattern3 {0.750 Density} bind def
/Pattern4 {0.125 Density} bind def
/Pattern5 {0.375 Density} bind def
/Pattern6 {0.625 Density} bind def
/Pattern7 {0.875 Density} bind def
} def
%
% Now test for support of Level 2 code
%
Level1 {Level1PatternFill} {Level2PatternFill} ifelse
%
/Symbol-Oblique /Symbol findfont [1 0 .167 1 0 0] makefont
dup length dict begin {1 index /FID eq {pop pop} {def} ifelse} forall
currentdict end definefont pop
end
%%EndProlog
gnudict begin
gsave
doclip
50 50 translate
0.050 0.050 scale
0 setgray
newpath
1.000 UL
LTb
LCb setrgbcolor
1.000 UL
LTa
LCa setrgbcolor
1210 704 M
6895 0 V
stroke
LTb
LCb setrgbcolor
1210 704 M
63 0 V
6832 0 R
-63 0 V
stroke
LTb
1.000 UL
LTa
LCa setrgbcolor
1210 1128 M
6895 0 V
stroke
LTb
LCb setrgbcolor
1210 1128 M
63 0 V
6832 0 R
-63 0 V
stroke
LTb
1.000 UL
LTa
LCa setrgbcolor
1210 1553 M
6895 0 V
stroke
LTb
LCb setrgbcolor
1210 1553 M
63 0 V
6832 0 R
-63 0 V
stroke
LTb
1.000 UL
LTa
LCa setrgbcolor
1210 1977 M
6895 0 V
stroke
LTb
LCb setrgbcolor
1210 1977 M
63 0 V
6832 0 R
-63 0 V
stroke
LTb
1.000 UL
LTa
LCa setrgbcolor
1210 2402 M
6895 0 V
stroke
LTb
LCb setrgbcolor
1210 2402 M
63 0 V
6832 0 R
-63 0 V
stroke
LTb
1.000 UL
LTa
LCa setrgbcolor
1210 2826 M
6895 0 V
stroke
LTb
LCb setrgbcolor
1210 2826 M
63 0 V
6832 0 R
-63 0 V
stroke
LTb
1.000 UL
LTa
LCa setrgbcolor
1210 3250 M
6895 0 V
stroke
LTb
LCb setrgbcolor
1210 3250 M
63 0 V
6832 0 R
-63 0 V
stroke
LTb
1.000 UL
LTa
LCa setrgbcolor
1210 3675 M
6895 0 V
stroke
LTb
LCb setrgbcolor
1210 3675 M
63 0 V
6832 0 R
-63 0 V
stroke
LTb
1.000 UL
LTa
LCa setrgbcolor
1210 4099 M
6895 0 V
stroke
LTb
LCb setrgbcolor
1210 4099 M
63 0 V
6832 0 R
-63 0 V
stroke
LTb
1.000 UL
LTa
LCa setrgbcolor
1210 704 M
0 3395 V
stroke
LTb
LCb setrgbcolor
1210 704 M
0 63 V
0 3332 R
0 -63 V
stroke
LTb
1.000 UL
LTa
LCa setrgbcolor
1976 704 M
0 3395 V
stroke
LTb
LCb setrgbcolor
1976 704 M
0 63 V
0 3332 R
0 -63 V
stroke
LTb
1.000 UL
LTa
LCa setrgbcolor
2742 704 M
0 3395 V
stroke
LTb
LCb setrgbcolor
2742 704 M
0 63 V
0 3332 R
0 -63 V
stroke
LTb
1.000 UL
LTa
LCa setrgbcolor
3508 704 M
0 3395 V
stroke
LTb
LCb setrgbcolor
3508 704 M
0 63 V
0 3332 R
0 -63 V
stroke
LTb
1.000 UL
LTa
LCa setrgbcolor
4274 704 M
0 3395 V
stroke
LTb
LCb setrgbcolor
4274 704 M
0 63 V
0 3332 R
0 -63 V
stroke
LTb
1.000 UL
LTa
LCa setrgbcolor
5041 704 M
0 3395 V
stroke
LTb
LCb setrgbcolor
5041 704 M
0 63 V
0 3332 R
0 -63 V
stroke
LTb
1.000 UL
LTa
LCa setrgbcolor
5807 704 M
0 3395 V
stroke
LTb
LCb setrgbcolor
5807 704 M
0 63 V
0 3332 R
0 -63 V
stroke
LTb
1.000 UL
LTa
LCa setrgbcolor
6573 704 M
0 3112 V
0 220 R
0 63 V
stroke
LTb
LCb setrgbcolor
6573 704 M
0 63 V
0 3332 R
0 -63 V
stroke
LTb
1.000 UL
LTa
LCa setrgbcolor
7339 704 M
0 3112 V
0 220 R
0 63 V
stroke
LTb
LCb setrgbcolor
7339 704 M
0 63 V
0 3332 R
0 -63 V
stroke
LTb
1.000 UL
LTa
LCa setrgbcolor
8105 704 M
0 3395 V
stroke
LTb
LCb setrgbcolor
8105 704 M
0 63 V
0 3332 R
0 -63 V
stroke
LTb
1.000 UL
LTb
1210 4099 N
0 -3395 V
6895 0 V
0 3395 V
-6895 0 V
Z stroke
1.000 UP
1.000 UL
LTb
1.000 UP
1.000 UL
LT0
LC0 setrgbcolor
LCb setrgbcolor
LT0
LC0 setrgbcolor
1612 717 Pls
1631 719 Pls
1651 722 Pls
1670 725 Pls
1689 722 Pls
1708 720 Pls
1727 720 Pls
1746 722 Pls
1765 720 Pls
1785 719 Pls
1804 722 Pls
1823 719 Pls
1842 719 Pls
1861 717 Pls
1880 714 Pls
1900 714 Pls
1919 712 Pls
1938 707 Pls
1957 710 Pls
1976 710 Pls
1995 712 Pls
2014 714 Pls
2034 716 Pls
2053 722 Pls
2072 725 Pls
2091 726 Pls
2110 726 Pls
2129 726 Pls
2148 727 Pls
2168 730 Pls
2187 729 Pls
2206 732 Pls
2225 733 Pls
2244 732 Pls
2263 729 Pls
2283 726 Pls
2302 723 Pls
2321 720 Pls
2340 716 Pls
2359 714 Pls
2378 713 Pls
2397 713 Pls
2417 714 Pls
2436 716 Pls
2455 717 Pls
2474 717 Pls
2493 720 Pls
2512 719 Pls
2532 722 Pls
2551 725 Pls
2570 727 Pls
2589 735 Pls
2608 739 Pls
2627 740 Pls
2646 742 Pls
2666 739 Pls
2685 740 Pls
2704 740 Pls
2723 737 Pls
2742 739 Pls
2761 737 Pls
2781 735 Pls
2800 730 Pls
2819 729 Pls
2838 725 Pls
2857 719 Pls
2876 716 Pls
2895 716 Pls
2915 714 Pls
2934 716 Pls
2953 719 Pls
2972 726 Pls
2991 730 Pls
3010 737 Pls
3030 739 Pls
3049 746 Pls
3068 749 Pls
3087 755 Pls
3106 762 Pls
3125 766 Pls
3144 771 Pls
3164 771 Pls
3183 776 Pls
3202 771 Pls
3221 771 Pls
3240 759 Pls
3259 750 Pls
3279 745 Pls
3298 736 Pls
3317 732 Pls
3336 730 Pls
3355 730 Pls
3374 727 Pls
3393 726 Pls
3413 730 Pls
3432 735 Pls
3451 742 Pls
3470 749 Pls
3489 761 Pls
3508 774 Pls
3527 782 Pls
3547 801 Pls
3566 817 Pls
3585 827 Pls
3604 837 Pls
3623 841 Pls
3642 844 Pls
3662 841 Pls
3681 840 Pls
3700 831 Pls
3719 821 Pls
3738 807 Pls
3757 794 Pls
3776 781 Pls
3796 772 Pls
3815 763 Pls
3834 756 Pls
3853 749 Pls
3872 753 Pls
3891 758 Pls
3911 771 Pls
3930 789 Pls
3949 812 Pls
3968 843 Pls
3987 877 Pls
4006 921 Pls
4025 973 Pls
4045 1017 Pls
4064 1059 Pls
4083 1092 Pls
4102 1117 Pls
4121 1131 Pls
4140 1135 Pls
4160 1138 Pls
4179 1122 Pls
4198 1099 Pls
4217 1068 Pls
4236 1029 Pls
4255 991 Pls
4274 954 Pls
4294 913 Pls
4313 883 Pls
4332 866 Pls
4351 879 Pls
4370 921 Pls
4389 997 Pls
4409 1101 Pls
4428 1235 Pls
4447 1418 Pls
4466 1693 Pls
4485 2047 Pls
4504 2455 Pls
4523 2897 Pls
4543 3362 Pls
4562 3677 Pls
4581 3677 Pls
4600 3677 Pls
4619 3677 Pls
4638 3677 Pls
4658 3677 Pls
4677 3677 Pls
4696 3677 Pls
4715 3677 Pls
4734 3677 Pls
4753 3677 Pls
4772 3677 Pls
4792 3677 Pls
4811 3677 Pls
4830 3677 Pls
4849 3677 Pls
4868 3677 Pls
4887 3677 Pls
4906 3677 Pls
4926 3677 Pls
4945 3677 Pls
4964 3677 Pls
4983 3677 Pls
5002 3677 Pls
5021 3677 Pls
5041 3677 Pls
5060 3677 Pls
5079 3677 Pls
5098 3677 Pls
5117 3677 Pls
5136 3677 Pls
5155 3516 Pls
5175 3033 Pls
5194 2612 Pls
5213 2237 Pls
5232 1864 Pls
5251 1551 Pls
5270 1316 Pls
5290 1124 Pls
5309 993 Pls
5328 900 Pls
5347 843 Pls
5366 807 Pls
5385 804 Pls
5404 820 Pls
5424 856 Pls
5443 896 Pls
5462 935 Pls
5481 973 Pls
5500 1003 Pls
5519 1033 Pls
5539 1052 Pls
5558 1071 Pls
5577 1073 Pls
5596 1069 Pls
5615 1049 Pls
5634 1029 Pls
5653 1004 Pls
5673 973 Pls
5692 932 Pls
5711 896 Pls
5730 859 Pls
5749 825 Pls
5768 799 Pls
5788 775 Pls
5807 761 Pls
5826 746 Pls
5845 737 Pls
5864 733 Pls
5883 736 Pls
5902 742 Pls
5922 749 Pls
5941 761 Pls
5960 771 Pls
5979 781 Pls
5998 789 Pls
6017 797 Pls
6037 798 Pls
6056 804 Pls
6075 804 Pls
6094 804 Pls
6113 799 Pls
6132 798 Pls
6151 789 Pls
6171 778 Pls
6190 769 Pls
6209 755 Pls
6228 745 Pls
6247 739 Pls
6266 729 Pls
6285 726 Pls
6305 722 Pls
6324 719 Pls
6343 719 Pls
6362 723 Pls
6381 726 Pls
6400 727 Pls
6420 732 Pls
6439 732 Pls
6458 735 Pls
6477 739 Pls
6496 742 Pls
6515 748 Pls
6534 750 Pls
6554 753 Pls
6573 752 Pls
6592 749 Pls
6611 748 Pls
6630 742 Pls
6649 737 Pls
6669 732 Pls
6688 729 Pls
6707 725 Pls
6726 723 Pls
6745 725 Pls
6764 717 Pls
6783 717 Pls
6803 714 Pls
6822 714 Pls
6841 713 Pls
6860 714 Pls
6879 713 Pls
6898 717 Pls
6918 722 Pls
6937 725 Pls
6956 729 Pls
6975 730 Pls
6994 730 Pls
7013 726 Pls
7032 730 Pls
7052 727 Pls
7071 726 Pls
7090 725 Pls
7109 726 Pls
7128 722 Pls
7147 722 Pls
7167 723 Pls
7186 720 Pls
7205 717 Pls
7224 716 Pls
7243 712 Pls
7262 709 Pls
7281 707 Pls
7301 707 Pls
7320 709 Pls
7339 710 Pls
7358 712 Pls
7377 713 Pls
7396 717 Pls
7416 717 Pls
7435 720 Pls
7454 719 Pls
7473 719 Pls
7492 717 Pls
7511 717 Pls
7530 716 Pls
7550 716 Pls
7569 716 Pls
7588 717 Pls
7607 719 Pls
7626 719 Pls
7645 716 Pls
7664 713 Pls
7684 712 Pls
7703 709 Pls
7722 707 Pls
7741 707 Pls
7760 707 Pls
7545 3926 Pls
1.000 UL
LTb
LCb setrgbcolor
1210 4099 N
0 -3395 V
6895 0 V
0 3395 V
-6895 0 V
Z stroke
1.000 UP
1.000 UL
LTb
stroke
grestore
end
showpage
%%Trailer
