11050	0.004704
11100	0.005213
11150	0.006232
11200	0.007252
11250	0.006232
11300	0.005723
11350	0.005723
11400	0.006232
11450	0.005723
11500	0.005213
11550	0.006232
11600	0.005213
11650	0.005213
11700	0.004704
11750	0.003684
11800	0.003684
11850	0.002665
11900	0.001136
11950	0.002155
12000	0.002155
12050	0.002665
12100	0.003684
12150	0.004194
12200	0.006232
12250	0.007252
12300	0.007761
12350	0.007761
12400	0.007761
12450	0.008271
12500	0.009290
12550	0.008781
12600	0.009800
12650	0.010309
12700	0.009800
12750	0.008781
12800	0.007761
12850	0.006742
12900	0.005723
12950	0.004194
13000	0.003684
13050	0.003175
13100	0.003175
13150	0.003684
13200	0.004194
13250	0.004704
13300	0.004704
13350	0.005723
13400	0.005213
13450	0.006232
13500	0.007252
13550	0.008271
13600	0.010819
13650	0.012348
13700	0.012858
13750	0.013367
13800	0.012348
13850	0.012858
13900	0.012858
13950	0.011838
14000	0.012348
14050	0.011838
14100	0.010819
14150	0.009290
14200	0.008781
14250	0.007252
14300	0.005213
14350	0.004194
14400	0.004194
14450	0.003684
14500	0.004194
14550	0.005213
14600	0.007761
14650	0.009290
14700	0.011838
14750	0.012348
14800	0.014896
14850	0.015915
14900	0.017954
14950	0.020502
15000	0.022031
15050	0.023560
15100	0.023560
15150	0.025598
15200	0.023560
15250	0.023560
15300	0.019483
15350	0.016425
15400	0.014386
15450	0.011329
15500	0.009800
15550	0.009290
15600	0.009290
15650	0.008271
15700	0.007761
15750	0.009290
15800	0.010819
15850	0.013367
15900	0.015915
15950	0.019992
16000	0.024579
16050	0.027637
16100	0.034262
16150	0.039868
16200	0.043435
16250	0.047002
16300	0.048531
16350	0.049551
16400	0.048531
16450	0.048022
16500	0.044964
16550	0.041397
16600	0.036300
16650	0.031714
16700	0.027127
16750	0.024069
16800	0.021012
16850	0.018463
16900	0.015915
16950	0.017444
17000	0.018973
17050	0.023560
17100	0.030185
17150	0.038339
17200	0.049041
17250	0.061272
17300	0.076561
17350	0.094907
17400	0.110706
17450	0.125485
17500	0.137206
17550	0.145870
17600	0.150966
17650	0.152495
17700	0.153514
17750	0.147908
17800	0.139754
17850	0.128543
17900	0.114783
17950	0.101532
18000	0.088282
18050	0.074013
18100	0.063310
18150	0.057195
18200	0.061782
18250	0.076561
18300	0.103571
18350	0.140264
18400	0.187659
18450	0.252382
18500	0.349720
18550	0.474578
18600	0.618802
18650	0.775257
18700	0.939357
18750	1.050965
18800	1.050965
18850	1.050965
18900	1.050997
18950	1.050997
19000	1.050997
19050	1.050997
19100	1.050997
19150	1.050997
19200	1.050997
19250	1.050997
19300	1.050997
19350	1.050997
19400	1.050997
19450	1.050997
19500	1.050997
19550	1.050997
19600	1.050997
19650	1.050997
19700	1.050997
19750	1.050997
19800	1.050997
19850	1.050997
19900	1.050997
19950	1.050997
20000	1.050997
20050	1.050997
20100	1.050997
20150	1.050997
20200	1.050965
20250	1.050965
20300	0.993887
20350	0.823162
20400	0.674352
20450	0.541849
20500	0.409856
20550	0.299267
20600	0.216198
20650	0.148418
20700	0.102042
20750	0.069426
20800	0.049041
20850	0.036300
20900	0.035281
20950	0.040887
21000	0.053628
21050	0.067897
21100	0.081657
21150	0.094907
21200	0.105609
21250	0.116312
21300	0.122937
21350	0.129562
21400	0.130581
21450	0.129052
21500	0.121917
21550	0.114783
21600	0.106119
21650	0.094907
21700	0.080638
21750	0.067897
21800	0.054647
21850	0.042925
21900	0.033752
21950	0.025089
22000	0.019992
22050	0.014896
22100	0.011838
22150	0.010309
22200	0.011329
22250	0.013367
22300	0.015915
22350	0.019992
22400	0.023560
22450	0.027127
22500	0.030185
22550	0.032733
22600	0.033243
22650	0.035281
22700	0.035281
22750	0.035281
22800	0.033752
22850	0.033243
22900	0.030185
22950	0.026108
23000	0.023050
23050	0.017954
23100	0.014386
23150	0.012348
23200	0.008781
23250	0.007761
23300	0.006232
23350	0.005213
23400	0.005213
23450	0.006742
23500	0.007761
23550	0.008271
23600	0.009800
23650	0.009800
23700	0.010819
23750	0.012348
23800	0.013367
23850	0.015406
23900	0.016425
23950	0.017444
24000	0.016935
24050	0.015915
24100	0.015406
24150	0.013367
24200	0.011838
24250	0.009800
24300	0.008781
24350	0.007252
24400	0.006742
24450	0.007252
24500	0.004704
24550	0.004704
24600	0.003684
24650	0.003684
24700	0.003175
24750	0.003684
24800	0.003175
24850	0.004704
24900	0.006232
24950	0.007252
25000	0.008781
25050	0.009290
25100	0.009290
25150	0.007761
25200	0.009290
25250	0.008271
25300	0.007761
25350	0.007252
25400	0.007761
25450	0.006232
25500	0.006232
25550	0.006742
25600	0.005723
25650	0.004704
25700	0.004194
25750	0.002665
25800	0.001646
25850	0.001136
25900	0.001136
25950	0.001646
26000	0.002155
26050	0.002665
26100	0.003175
26150	0.004704
26200	0.004704
26250	0.005723
26300	0.005213
26350	0.005213
26400	0.004704
26450	0.004704
26500	0.004194
26550	0.004194
26600	0.004194
26650	0.004704
26700	0.005213
26750	0.005213
26800	0.004194
26850	0.003175
26900	0.002665
26950	0.001646
27000	0.001136
27050	0.001136
27100	0.001136
