%!PS-Adobe-2.0 EPSF-2.0
%%Title: Steg2.tex
%%Creator: gnuplot 4.4 patchlevel 3
%%CreationDate: Sun Mar  3 17:28:30 2013
%%DocumentFonts: 
%%BoundingBox: 50 50 475 268
%%EndComments
%%BeginProlog
/gnudict 256 dict def
gnudict begin
%
% The following true/false flags may be edited by hand if desired.
% The unit line width and grayscale image gamma correction may also be changed.
%
/Color true def
/Blacktext false def
/Solid false def
/Dashlength 1 def
/Landscape false def
/Level1 false def
/Rounded false def
/ClipToBoundingBox false def
/TransparentPatterns false def
/gnulinewidth 5.000 def
/userlinewidth gnulinewidth def
/Gamma 1.0 def
%
/vshift -73 def
/dl1 {
  10.0 Dashlength mul mul
  Rounded { currentlinewidth 0.75 mul sub dup 0 le { pop 0.01 } if } if
} def
/dl2 {
  10.0 Dashlength mul mul
  Rounded { currentlinewidth 0.75 mul add } if
} def
/hpt_ 31.5 def
/vpt_ 31.5 def
/hpt hpt_ def
/vpt vpt_ def
Level1 {} {
/SDict 10 dict def
systemdict /pdfmark known not {
  userdict /pdfmark systemdict /cleartomark get put
} if
SDict begin [
  /Title (Steg2.tex)
  /Subject (gnuplot plot)
  /Creator (gnuplot 4.4 patchlevel 3)
  /Author (julius)
%  /Producer (gnuplot)
%  /Keywords ()
  /CreationDate (Sun Mar  3 17:28:30 2013)
  /DOCINFO pdfmark
end
} ifelse
/doclip {
  ClipToBoundingBox {
    newpath 50 50 moveto 475 50 lineto 475 268 lineto 50 268 lineto closepath
    clip
  } if
} def
%
% Gnuplot Prolog Version 4.4 (August 2010)
%
%/SuppressPDFMark true def
%
/M {moveto} bind def
/L {lineto} bind def
/R {rmoveto} bind def
/V {rlineto} bind def
/N {newpath moveto} bind def
/Z {closepath} bind def
/C {setrgbcolor} bind def
/f {rlineto fill} bind def
/g {setgray} bind def
/Gshow {show} def   % May be redefined later in the file to support UTF-8
/vpt2 vpt 2 mul def
/hpt2 hpt 2 mul def
/Lshow {currentpoint stroke M 0 vshift R 
	Blacktext {gsave 0 setgray show grestore} {show} ifelse} def
/Rshow {currentpoint stroke M dup stringwidth pop neg vshift R
	Blacktext {gsave 0 setgray show grestore} {show} ifelse} def
/Cshow {currentpoint stroke M dup stringwidth pop -2 div vshift R 
	Blacktext {gsave 0 setgray show grestore} {show} ifelse} def
/UP {dup vpt_ mul /vpt exch def hpt_ mul /hpt exch def
  /hpt2 hpt 2 mul def /vpt2 vpt 2 mul def} def
/DL {Color {setrgbcolor Solid {pop []} if 0 setdash}
 {pop pop pop 0 setgray Solid {pop []} if 0 setdash} ifelse} def
/BL {stroke userlinewidth 2 mul setlinewidth
	Rounded {1 setlinejoin 1 setlinecap} if} def
/AL {stroke userlinewidth 2 div setlinewidth
	Rounded {1 setlinejoin 1 setlinecap} if} def
/UL {dup gnulinewidth mul /userlinewidth exch def
	dup 1 lt {pop 1} if 10 mul /udl exch def} def
/PL {stroke userlinewidth setlinewidth
	Rounded {1 setlinejoin 1 setlinecap} if} def
3.8 setmiterlimit
% Default Line colors
/LCw {1 1 1} def
/LCb {0 0 0} def
/LCa {0 0 0} def
/LC0 {1 0 0} def
/LC1 {0 1 0} def
/LC2 {0 0 1} def
/LC3 {1 0 1} def
/LC4 {0 1 1} def
/LC5 {1 1 0} def
/LC6 {0 0 0} def
/LC7 {1 0.3 0} def
/LC8 {0.5 0.5 0.5} def
% Default Line Types
/LTw {PL [] 1 setgray} def
/LTb {BL [] LCb DL} def
/LTa {AL [1 udl mul 2 udl mul] 0 setdash LCa setrgbcolor} def
/LT0 {PL [] LC0 DL} def
/LT1 {PL [4 dl1 2 dl2] LC1 DL} def
/LT2 {PL [2 dl1 3 dl2] LC2 DL} def
/LT3 {PL [1 dl1 1.5 dl2] LC3 DL} def
/LT4 {PL [6 dl1 2 dl2 1 dl1 2 dl2] LC4 DL} def
/LT5 {PL [3 dl1 3 dl2 1 dl1 3 dl2] LC5 DL} def
/LT6 {PL [2 dl1 2 dl2 2 dl1 6 dl2] LC6 DL} def
/LT7 {PL [1 dl1 2 dl2 6 dl1 2 dl2 1 dl1 2 dl2] LC7 DL} def
/LT8 {PL [2 dl1 2 dl2 2 dl1 2 dl2 2 dl1 2 dl2 2 dl1 4 dl2] LC8 DL} def
/Pnt {stroke [] 0 setdash gsave 1 setlinecap M 0 0 V stroke grestore} def
/Dia {stroke [] 0 setdash 2 copy vpt add M
  hpt neg vpt neg V hpt vpt neg V
  hpt vpt V hpt neg vpt V closepath stroke
  Pnt} def
/Pls {stroke [] 0 setdash vpt sub M 0 vpt2 V
  currentpoint stroke M
  hpt neg vpt neg R hpt2 0 V stroke
 } def
/Box {stroke [] 0 setdash 2 copy exch hpt sub exch vpt add M
  0 vpt2 neg V hpt2 0 V 0 vpt2 V
  hpt2 neg 0 V closepath stroke
  Pnt} def
/Crs {stroke [] 0 setdash exch hpt sub exch vpt add M
  hpt2 vpt2 neg V currentpoint stroke M
  hpt2 neg 0 R hpt2 vpt2 V stroke} def
/TriU {stroke [] 0 setdash 2 copy vpt 1.12 mul add M
  hpt neg vpt -1.62 mul V
  hpt 2 mul 0 V
  hpt neg vpt 1.62 mul V closepath stroke
  Pnt} def
/Star {2 copy Pls Crs} def
/BoxF {stroke [] 0 setdash exch hpt sub exch vpt add M
  0 vpt2 neg V hpt2 0 V 0 vpt2 V
  hpt2 neg 0 V closepath fill} def
/TriUF {stroke [] 0 setdash vpt 1.12 mul add M
  hpt neg vpt -1.62 mul V
  hpt 2 mul 0 V
  hpt neg vpt 1.62 mul V closepath fill} def
/TriD {stroke [] 0 setdash 2 copy vpt 1.12 mul sub M
  hpt neg vpt 1.62 mul V
  hpt 2 mul 0 V
  hpt neg vpt -1.62 mul V closepath stroke
  Pnt} def
/TriDF {stroke [] 0 setdash vpt 1.12 mul sub M
  hpt neg vpt 1.62 mul V
  hpt 2 mul 0 V
  hpt neg vpt -1.62 mul V closepath fill} def
/DiaF {stroke [] 0 setdash vpt add M
  hpt neg vpt neg V hpt vpt neg V
  hpt vpt V hpt neg vpt V closepath fill} def
/Pent {stroke [] 0 setdash 2 copy gsave
  translate 0 hpt M 4 {72 rotate 0 hpt L} repeat
  closepath stroke grestore Pnt} def
/PentF {stroke [] 0 setdash gsave
  translate 0 hpt M 4 {72 rotate 0 hpt L} repeat
  closepath fill grestore} def
/Circle {stroke [] 0 setdash 2 copy
  hpt 0 360 arc stroke Pnt} def
/CircleF {stroke [] 0 setdash hpt 0 360 arc fill} def
/C0 {BL [] 0 setdash 2 copy moveto vpt 90 450 arc} bind def
/C1 {BL [] 0 setdash 2 copy moveto
	2 copy vpt 0 90 arc closepath fill
	vpt 0 360 arc closepath} bind def
/C2 {BL [] 0 setdash 2 copy moveto
	2 copy vpt 90 180 arc closepath fill
	vpt 0 360 arc closepath} bind def
/C3 {BL [] 0 setdash 2 copy moveto
	2 copy vpt 0 180 arc closepath fill
	vpt 0 360 arc closepath} bind def
/C4 {BL [] 0 setdash 2 copy moveto
	2 copy vpt 180 270 arc closepath fill
	vpt 0 360 arc closepath} bind def
/C5 {BL [] 0 setdash 2 copy moveto
	2 copy vpt 0 90 arc
	2 copy moveto
	2 copy vpt 180 270 arc closepath fill
	vpt 0 360 arc} bind def
/C6 {BL [] 0 setdash 2 copy moveto
	2 copy vpt 90 270 arc closepath fill
	vpt 0 360 arc closepath} bind def
/C7 {BL [] 0 setdash 2 copy moveto
	2 copy vpt 0 270 arc closepath fill
	vpt 0 360 arc closepath} bind def
/C8 {BL [] 0 setdash 2 copy moveto
	2 copy vpt 270 360 arc closepath fill
	vpt 0 360 arc closepath} bind def
/C9 {BL [] 0 setdash 2 copy moveto
	2 copy vpt 270 450 arc closepath fill
	vpt 0 360 arc closepath} bind def
/C10 {BL [] 0 setdash 2 copy 2 copy moveto vpt 270 360 arc closepath fill
	2 copy moveto
	2 copy vpt 90 180 arc closepath fill
	vpt 0 360 arc closepath} bind def
/C11 {BL [] 0 setdash 2 copy moveto
	2 copy vpt 0 180 arc closepath fill
	2 copy moveto
	2 copy vpt 270 360 arc closepath fill
	vpt 0 360 arc closepath} bind def
/C12 {BL [] 0 setdash 2 copy moveto
	2 copy vpt 180 360 arc closepath fill
	vpt 0 360 arc closepath} bind def
/C13 {BL [] 0 setdash 2 copy moveto
	2 copy vpt 0 90 arc closepath fill
	2 copy moveto
	2 copy vpt 180 360 arc closepath fill
	vpt 0 360 arc closepath} bind def
/C14 {BL [] 0 setdash 2 copy moveto
	2 copy vpt 90 360 arc closepath fill
	vpt 0 360 arc} bind def
/C15 {BL [] 0 setdash 2 copy vpt 0 360 arc closepath fill
	vpt 0 360 arc closepath} bind def
/Rec {newpath 4 2 roll moveto 1 index 0 rlineto 0 exch rlineto
	neg 0 rlineto closepath} bind def
/Square {dup Rec} bind def
/Bsquare {vpt sub exch vpt sub exch vpt2 Square} bind def
/S0 {BL [] 0 setdash 2 copy moveto 0 vpt rlineto BL Bsquare} bind def
/S1 {BL [] 0 setdash 2 copy vpt Square fill Bsquare} bind def
/S2 {BL [] 0 setdash 2 copy exch vpt sub exch vpt Square fill Bsquare} bind def
/S3 {BL [] 0 setdash 2 copy exch vpt sub exch vpt2 vpt Rec fill Bsquare} bind def
/S4 {BL [] 0 setdash 2 copy exch vpt sub exch vpt sub vpt Square fill Bsquare} bind def
/S5 {BL [] 0 setdash 2 copy 2 copy vpt Square fill
	exch vpt sub exch vpt sub vpt Square fill Bsquare} bind def
/S6 {BL [] 0 setdash 2 copy exch vpt sub exch vpt sub vpt vpt2 Rec fill Bsquare} bind def
/S7 {BL [] 0 setdash 2 copy exch vpt sub exch vpt sub vpt vpt2 Rec fill
	2 copy vpt Square fill Bsquare} bind def
/S8 {BL [] 0 setdash 2 copy vpt sub vpt Square fill Bsquare} bind def
/S9 {BL [] 0 setdash 2 copy vpt sub vpt vpt2 Rec fill Bsquare} bind def
/S10 {BL [] 0 setdash 2 copy vpt sub vpt Square fill 2 copy exch vpt sub exch vpt Square fill
	Bsquare} bind def
/S11 {BL [] 0 setdash 2 copy vpt sub vpt Square fill 2 copy exch vpt sub exch vpt2 vpt Rec fill
	Bsquare} bind def
/S12 {BL [] 0 setdash 2 copy exch vpt sub exch vpt sub vpt2 vpt Rec fill Bsquare} bind def
/S13 {BL [] 0 setdash 2 copy exch vpt sub exch vpt sub vpt2 vpt Rec fill
	2 copy vpt Square fill Bsquare} bind def
/S14 {BL [] 0 setdash 2 copy exch vpt sub exch vpt sub vpt2 vpt Rec fill
	2 copy exch vpt sub exch vpt Square fill Bsquare} bind def
/S15 {BL [] 0 setdash 2 copy Bsquare fill Bsquare} bind def
/D0 {gsave translate 45 rotate 0 0 S0 stroke grestore} bind def
/D1 {gsave translate 45 rotate 0 0 S1 stroke grestore} bind def
/D2 {gsave translate 45 rotate 0 0 S2 stroke grestore} bind def
/D3 {gsave translate 45 rotate 0 0 S3 stroke grestore} bind def
/D4 {gsave translate 45 rotate 0 0 S4 stroke grestore} bind def
/D5 {gsave translate 45 rotate 0 0 S5 stroke grestore} bind def
/D6 {gsave translate 45 rotate 0 0 S6 stroke grestore} bind def
/D7 {gsave translate 45 rotate 0 0 S7 stroke grestore} bind def
/D8 {gsave translate 45 rotate 0 0 S8 stroke grestore} bind def
/D9 {gsave translate 45 rotate 0 0 S9 stroke grestore} bind def
/D10 {gsave translate 45 rotate 0 0 S10 stroke grestore} bind def
/D11 {gsave translate 45 rotate 0 0 S11 stroke grestore} bind def
/D12 {gsave translate 45 rotate 0 0 S12 stroke grestore} bind def
/D13 {gsave translate 45 rotate 0 0 S13 stroke grestore} bind def
/D14 {gsave translate 45 rotate 0 0 S14 stroke grestore} bind def
/D15 {gsave translate 45 rotate 0 0 S15 stroke grestore} bind def
/DiaE {stroke [] 0 setdash vpt add M
  hpt neg vpt neg V hpt vpt neg V
  hpt vpt V hpt neg vpt V closepath stroke} def
/BoxE {stroke [] 0 setdash exch hpt sub exch vpt add M
  0 vpt2 neg V hpt2 0 V 0 vpt2 V
  hpt2 neg 0 V closepath stroke} def
/TriUE {stroke [] 0 setdash vpt 1.12 mul add M
  hpt neg vpt -1.62 mul V
  hpt 2 mul 0 V
  hpt neg vpt 1.62 mul V closepath stroke} def
/TriDE {stroke [] 0 setdash vpt 1.12 mul sub M
  hpt neg vpt 1.62 mul V
  hpt 2 mul 0 V
  hpt neg vpt -1.62 mul V closepath stroke} def
/PentE {stroke [] 0 setdash gsave
  translate 0 hpt M 4 {72 rotate 0 hpt L} repeat
  closepath stroke grestore} def
/CircE {stroke [] 0 setdash 
  hpt 0 360 arc stroke} def
/Opaque {gsave closepath 1 setgray fill grestore 0 setgray closepath} def
/DiaW {stroke [] 0 setdash vpt add M
  hpt neg vpt neg V hpt vpt neg V
  hpt vpt V hpt neg vpt V Opaque stroke} def
/BoxW {stroke [] 0 setdash exch hpt sub exch vpt add M
  0 vpt2 neg V hpt2 0 V 0 vpt2 V
  hpt2 neg 0 V Opaque stroke} def
/TriUW {stroke [] 0 setdash vpt 1.12 mul add M
  hpt neg vpt -1.62 mul V
  hpt 2 mul 0 V
  hpt neg vpt 1.62 mul V Opaque stroke} def
/TriDW {stroke [] 0 setdash vpt 1.12 mul sub M
  hpt neg vpt 1.62 mul V
  hpt 2 mul 0 V
  hpt neg vpt -1.62 mul V Opaque stroke} def
/PentW {stroke [] 0 setdash gsave
  translate 0 hpt M 4 {72 rotate 0 hpt L} repeat
  Opaque stroke grestore} def
/CircW {stroke [] 0 setdash 
  hpt 0 360 arc Opaque stroke} def
/BoxFill {gsave Rec 1 setgray fill grestore} def
/Density {
  /Fillden exch def
  currentrgbcolor
  /ColB exch def /ColG exch def /ColR exch def
  /ColR ColR Fillden mul Fillden sub 1 add def
  /ColG ColG Fillden mul Fillden sub 1 add def
  /ColB ColB Fillden mul Fillden sub 1 add def
  ColR ColG ColB setrgbcolor} def
/BoxColFill {gsave Rec PolyFill} def
/PolyFill {gsave Density fill grestore grestore} def
/h {rlineto rlineto rlineto gsave closepath fill grestore} bind def
%
% PostScript Level 1 Pattern Fill routine for rectangles
% Usage: x y w h s a XX PatternFill
%	x,y = lower left corner of box to be filled
%	w,h = width and height of box
%	  a = angle in degrees between lines and x-axis
%	 XX = 0/1 for no/yes cross-hatch
%
/PatternFill {gsave /PFa [ 9 2 roll ] def
  PFa 0 get PFa 2 get 2 div add PFa 1 get PFa 3 get 2 div add translate
  PFa 2 get -2 div PFa 3 get -2 div PFa 2 get PFa 3 get Rec
  gsave 1 setgray fill grestore clip
  currentlinewidth 0.5 mul setlinewidth
  /PFs PFa 2 get dup mul PFa 3 get dup mul add sqrt def
  0 0 M PFa 5 get rotate PFs -2 div dup translate
  0 1 PFs PFa 4 get div 1 add floor cvi
	{PFa 4 get mul 0 M 0 PFs V} for
  0 PFa 6 get ne {
	0 1 PFs PFa 4 get div 1 add floor cvi
	{PFa 4 get mul 0 2 1 roll M PFs 0 V} for
 } if
  stroke grestore} def
%
/languagelevel where
 {pop languagelevel} {1} ifelse
 2 lt
	{/InterpretLevel1 true def}
	{/InterpretLevel1 Level1 def}
 ifelse
%
% PostScript level 2 pattern fill definitions
%
/Level2PatternFill {
/Tile8x8 {/PaintType 2 /PatternType 1 /TilingType 1 /BBox [0 0 8 8] /XStep 8 /YStep 8}
	bind def
/KeepColor {currentrgbcolor [/Pattern /DeviceRGB] setcolorspace} bind def
<< Tile8x8
 /PaintProc {0.5 setlinewidth pop 0 0 M 8 8 L 0 8 M 8 0 L stroke} 
>> matrix makepattern
/Pat1 exch def
<< Tile8x8
 /PaintProc {0.5 setlinewidth pop 0 0 M 8 8 L 0 8 M 8 0 L stroke
	0 4 M 4 8 L 8 4 L 4 0 L 0 4 L stroke}
>> matrix makepattern
/Pat2 exch def
<< Tile8x8
 /PaintProc {0.5 setlinewidth pop 0 0 M 0 8 L
	8 8 L 8 0 L 0 0 L fill}
>> matrix makepattern
/Pat3 exch def
<< Tile8x8
 /PaintProc {0.5 setlinewidth pop -4 8 M 8 -4 L
	0 12 M 12 0 L stroke}
>> matrix makepattern
/Pat4 exch def
<< Tile8x8
 /PaintProc {0.5 setlinewidth pop -4 0 M 8 12 L
	0 -4 M 12 8 L stroke}
>> matrix makepattern
/Pat5 exch def
<< Tile8x8
 /PaintProc {0.5 setlinewidth pop -2 8 M 4 -4 L
	0 12 M 8 -4 L 4 12 M 10 0 L stroke}
>> matrix makepattern
/Pat6 exch def
<< Tile8x8
 /PaintProc {0.5 setlinewidth pop -2 0 M 4 12 L
	0 -4 M 8 12 L 4 -4 M 10 8 L stroke}
>> matrix makepattern
/Pat7 exch def
<< Tile8x8
 /PaintProc {0.5 setlinewidth pop 8 -2 M -4 4 L
	12 0 M -4 8 L 12 4 M 0 10 L stroke}
>> matrix makepattern
/Pat8 exch def
<< Tile8x8
 /PaintProc {0.5 setlinewidth pop 0 -2 M 12 4 L
	-4 0 M 12 8 L -4 4 M 8 10 L stroke}
>> matrix makepattern
/Pat9 exch def
/Pattern1 {PatternBgnd KeepColor Pat1 setpattern} bind def
/Pattern2 {PatternBgnd KeepColor Pat2 setpattern} bind def
/Pattern3 {PatternBgnd KeepColor Pat3 setpattern} bind def
/Pattern4 {PatternBgnd KeepColor Landscape {Pat5} {Pat4} ifelse setpattern} bind def
/Pattern5 {PatternBgnd KeepColor Landscape {Pat4} {Pat5} ifelse setpattern} bind def
/Pattern6 {PatternBgnd KeepColor Landscape {Pat9} {Pat6} ifelse setpattern} bind def
/Pattern7 {PatternBgnd KeepColor Landscape {Pat8} {Pat7} ifelse setpattern} bind def
} def
%
%
%End of PostScript Level 2 code
%
/PatternBgnd {
  TransparentPatterns {} {gsave 1 setgray fill grestore} ifelse
} def
%
% Substitute for Level 2 pattern fill codes with
% grayscale if Level 2 support is not selected.
%
/Level1PatternFill {
/Pattern1 {0.250 Density} bind def
/Pattern2 {0.500 Density} bind def
/Pattern3 {0.750 Density} bind def
/Pattern4 {0.125 Density} bind def
/Pattern5 {0.375 Density} bind def
/Pattern6 {0.625 Density} bind def
/Pattern7 {0.875 Density} bind def
} def
%
% Now test for support of Level 2 code
%
Level1 {Level1PatternFill} {Level2PatternFill} ifelse
%
/Symbol-Oblique /Symbol findfont [1 0 .167 1 0 0] makefont
dup length dict begin {1 index /FID eq {pop pop} {def} ifelse} forall
currentdict end definefont pop
end
%%EndProlog
gnudict begin
gsave
doclip
50 50 translate
0.050 0.050 scale
0 setgray
newpath
1.000 UL
LTb
LCb setrgbcolor
1.000 UL
LTa
LCa setrgbcolor
1210 704 M
6895 0 V
stroke
LTb
LCb setrgbcolor
1210 704 M
63 0 V
6832 0 R
-63 0 V
stroke
LTb
1.000 UL
LTa
LCa setrgbcolor
1210 1128 M
6895 0 V
stroke
LTb
LCb setrgbcolor
1210 1128 M
63 0 V
6832 0 R
-63 0 V
stroke
LTb
1.000 UL
LTa
LCa setrgbcolor
1210 1553 M
6895 0 V
stroke
LTb
LCb setrgbcolor
1210 1553 M
63 0 V
6832 0 R
-63 0 V
stroke
LTb
1.000 UL
LTa
LCa setrgbcolor
1210 1977 M
6895 0 V
stroke
LTb
LCb setrgbcolor
1210 1977 M
63 0 V
6832 0 R
-63 0 V
stroke
LTb
1.000 UL
LTa
LCa setrgbcolor
1210 2402 M
6895 0 V
stroke
LTb
LCb setrgbcolor
1210 2402 M
63 0 V
6832 0 R
-63 0 V
stroke
LTb
1.000 UL
LTa
LCa setrgbcolor
1210 2826 M
6895 0 V
stroke
LTb
LCb setrgbcolor
1210 2826 M
63 0 V
6832 0 R
-63 0 V
stroke
LTb
1.000 UL
LTa
LCa setrgbcolor
1210 3250 M
6895 0 V
stroke
LTb
LCb setrgbcolor
1210 3250 M
63 0 V
6832 0 R
-63 0 V
stroke
LTb
1.000 UL
LTa
LCa setrgbcolor
1210 3675 M
6895 0 V
stroke
LTb
LCb setrgbcolor
1210 3675 M
63 0 V
6832 0 R
-63 0 V
stroke
LTb
1.000 UL
LTa
LCa setrgbcolor
1210 4099 M
6895 0 V
stroke
LTb
LCb setrgbcolor
1210 4099 M
63 0 V
6832 0 R
-63 0 V
stroke
LTb
1.000 UL
LTa
LCa setrgbcolor
1210 704 M
0 3395 V
stroke
LTb
LCb setrgbcolor
1210 704 M
0 63 V
0 3332 R
0 -63 V
stroke
LTb
1.000 UL
LTa
LCa setrgbcolor
1900 704 M
0 3395 V
stroke
LTb
LCb setrgbcolor
1900 704 M
0 63 V
0 3332 R
0 -63 V
stroke
LTb
1.000 UL
LTa
LCa setrgbcolor
2589 704 M
0 3395 V
stroke
LTb
LCb setrgbcolor
2589 704 M
0 63 V
0 3332 R
0 -63 V
stroke
LTb
1.000 UL
LTa
LCa setrgbcolor
3279 704 M
0 3395 V
stroke
LTb
LCb setrgbcolor
3279 704 M
0 63 V
0 3332 R
0 -63 V
stroke
LTb
1.000 UL
LTa
LCa setrgbcolor
3968 704 M
0 3395 V
stroke
LTb
LCb setrgbcolor
3968 704 M
0 63 V
0 3332 R
0 -63 V
stroke
LTb
1.000 UL
LTa
LCa setrgbcolor
4658 704 M
0 3395 V
stroke
LTb
LCb setrgbcolor
4658 704 M
0 63 V
0 3332 R
0 -63 V
stroke
LTb
1.000 UL
LTa
LCa setrgbcolor
5347 704 M
0 3395 V
stroke
LTb
LCb setrgbcolor
5347 704 M
0 63 V
0 3332 R
0 -63 V
stroke
LTb
1.000 UL
LTa
LCa setrgbcolor
6037 704 M
0 3112 V
0 220 R
0 63 V
stroke
LTb
LCb setrgbcolor
6037 704 M
0 63 V
0 3332 R
0 -63 V
stroke
LTb
1.000 UL
LTa
LCa setrgbcolor
6726 704 M
0 3112 V
0 220 R
0 63 V
stroke
LTb
LCb setrgbcolor
6726 704 M
0 63 V
0 3332 R
0 -63 V
stroke
LTb
1.000 UL
LTa
LCa setrgbcolor
7416 704 M
0 3112 V
0 220 R
0 63 V
stroke
LTb
LCb setrgbcolor
7416 704 M
0 63 V
0 3332 R
0 -63 V
stroke
LTb
1.000 UL
LTa
LCa setrgbcolor
8105 704 M
0 3395 V
stroke
LTb
LCb setrgbcolor
8105 704 M
0 63 V
0 3332 R
0 -63 V
stroke
LTb
1.000 UL
LTb
1210 4099 N
0 -3395 V
6895 0 V
0 3395 V
-6895 0 V
Z stroke
1.000 UP
1.000 UL
LTb
1.000 UP
1.000 UL
LT0
LC0 setrgbcolor
LCb setrgbcolor
LT0
LC0 setrgbcolor
1589 750 Pls
1606 749 Pls
1624 750 Pls
1641 750 Pls
1658 753 Pls
1675 753 Pls
1693 752 Pls
1710 753 Pls
1727 749 Pls
1744 746 Pls
1762 743 Pls
1779 739 Pls
1796 736 Pls
1813 735 Pls
1831 736 Pls
1848 736 Pls
1865 736 Pls
1882 732 Pls
1900 733 Pls
1917 735 Pls
1934 735 Pls
1951 739 Pls
1968 740 Pls
1986 743 Pls
2003 748 Pls
2020 749 Pls
2037 752 Pls
2055 753 Pls
2072 756 Pls
2089 758 Pls
2106 762 Pls
2124 765 Pls
2141 769 Pls
2158 771 Pls
2175 762 Pls
2193 762 Pls
2210 758 Pls
2227 756 Pls
2244 756 Pls
2261 753 Pls
2279 750 Pls
2296 749 Pls
2313 749 Pls
2330 740 Pls
2348 736 Pls
2365 735 Pls
2382 737 Pls
2399 736 Pls
2417 737 Pls
2434 737 Pls
2451 735 Pls
2468 739 Pls
2486 739 Pls
2503 748 Pls
2520 748 Pls
2537 755 Pls
2555 761 Pls
2572 763 Pls
2589 766 Pls
2606 766 Pls
2623 769 Pls
2641 775 Pls
2658 776 Pls
2675 776 Pls
2692 784 Pls
2710 781 Pls
2727 787 Pls
2744 789 Pls
2761 785 Pls
2779 781 Pls
2796 776 Pls
2813 771 Pls
2830 768 Pls
2848 763 Pls
2865 759 Pls
2882 755 Pls
2899 752 Pls
2917 748 Pls
2934 749 Pls
2951 750 Pls
2968 749 Pls
2985 749 Pls
3003 753 Pls
3020 762 Pls
3037 771 Pls
3054 785 Pls
3072 797 Pls
3089 807 Pls
3106 815 Pls
3123 823 Pls
3141 827 Pls
3158 840 Pls
3175 850 Pls
3192 859 Pls
3210 861 Pls
3227 861 Pls
3244 863 Pls
3261 853 Pls
3279 850 Pls
3296 846 Pls
3313 837 Pls
3330 827 Pls
3347 817 Pls
3365 808 Pls
3382 797 Pls
3399 787 Pls
3416 778 Pls
3434 769 Pls
3451 769 Pls
3468 771 Pls
3485 776 Pls
3503 785 Pls
3520 797 Pls
3537 810 Pls
3554 824 Pls
3572 846 Pls
3589 867 Pls
3606 896 Pls
3623 923 Pls
3640 951 Pls
3658 975 Pls
3675 994 Pls
3692 1032 Pls
3709 1058 Pls
3727 1079 Pls
3744 1104 Pls
3761 1108 Pls
3778 1124 Pls
3796 1117 Pls
3813 1101 Pls
3830 1094 Pls
3847 1066 Pls
3865 1046 Pls
3882 1009 Pls
3899 978 Pls
3916 954 Pls
3934 923 Pls
3951 915 Pls
3968 903 Pls
3985 905 Pls
4002 936 Pls
4020 975 Pls
4037 1066 Pls
4054 1150 Pls
4071 1272 Pls
4089 1435 Pls
4106 1572 Pls
4123 1748 Pls
4140 2018 Pls
4158 2261 Pls
4175 2698 Pls
4192 3285 Pls
4209 3318 Pls
4227 3677 Pls
4244 3677 Pls
4261 3677 Pls
4278 3677 Pls
4296 3677 Pls
4313 3677 Pls
4330 3677 Pls
4347 3677 Pls
4364 3677 Pls
4382 3677 Pls
4399 3677 Pls
4416 3677 Pls
4433 3677 Pls
4451 3677 Pls
4468 3677 Pls
4485 3677 Pls
4502 3677 Pls
4520 3677 Pls
4537 3677 Pls
4554 3677 Pls
4571 3677 Pls
4589 3677 Pls
4606 3677 Pls
4623 3677 Pls
4640 3677 Pls
4658 3677 Pls
4675 3677 Pls
4692 3677 Pls
4709 3677 Pls
4726 3677 Pls
4744 3677 Pls
4761 3677 Pls
4778 3677 Pls
4795 3676 Pls
4813 3183 Pls
4830 2817 Pls
4847 2508 Pls
4864 2299 Pls
4882 1908 Pls
4899 1748 Pls
4916 1585 Pls
4933 1344 Pls
4951 1221 Pls
4968 1091 Pls
4985 987 Pls
5002 938 Pls
5019 886 Pls
5037 876 Pls
5054 870 Pls
5071 879 Pls
5088 893 Pls
5106 923 Pls
5123 958 Pls
5140 997 Pls
5157 1037 Pls
5175 1060 Pls
5192 1089 Pls
5209 1101 Pls
5226 1108 Pls
5244 1128 Pls
5261 1121 Pls
5278 1114 Pls
5295 1095 Pls
5313 1069 Pls
5330 1050 Pls
5347 1020 Pls
5364 996 Pls
5381 967 Pls
5399 935 Pls
5416 913 Pls
5433 879 Pls
5450 853 Pls
5468 833 Pls
5485 812 Pls
5502 797 Pls
5519 784 Pls
5537 776 Pls
5554 772 Pls
5571 771 Pls
5588 776 Pls
5606 778 Pls
5623 784 Pls
5640 789 Pls
5657 801 Pls
5675 815 Pls
5692 825 Pls
5709 837 Pls
5726 844 Pls
5743 846 Pls
5761 847 Pls
5778 846 Pls
5795 849 Pls
5812 850 Pls
5830 850 Pls
5847 850 Pls
5864 843 Pls
5881 837 Pls
5899 825 Pls
5916 814 Pls
5933 801 Pls
5950 788 Pls
5968 782 Pls
5985 774 Pls
6002 769 Pls
6019 759 Pls
6037 750 Pls
6054 748 Pls
6071 743 Pls
6088 752 Pls
6105 753 Pls
6123 755 Pls
6140 762 Pls
6157 766 Pls
6174 772 Pls
6192 775 Pls
6209 778 Pls
6226 784 Pls
6243 785 Pls
6261 789 Pls
6278 795 Pls
6295 799 Pls
6312 799 Pls
6330 801 Pls
6347 798 Pls
6364 795 Pls
6381 795 Pls
6398 789 Pls
6416 789 Pls
6433 784 Pls
6450 778 Pls
6467 771 Pls
6485 763 Pls
6502 755 Pls
6519 750 Pls
6536 743 Pls
6554 742 Pls
6571 743 Pls
6588 743 Pls
6605 740 Pls
6623 742 Pls
6640 740 Pls
6657 742 Pls
6674 745 Pls
6692 749 Pls
6709 753 Pls
6726 758 Pls
6743 758 Pls
6760 762 Pls
6778 761 Pls
6795 763 Pls
6812 766 Pls
6829 769 Pls
6847 769 Pls
6864 768 Pls
6881 765 Pls
6898 765 Pls
6916 761 Pls
6933 756 Pls
6950 753 Pls
6967 755 Pls
6985 750 Pls
7002 749 Pls
7019 743 Pls
7036 739 Pls
7054 737 Pls
7071 736 Pls
7088 737 Pls
7105 735 Pls
7122 730 Pls
7140 729 Pls
7157 719 Pls
7174 720 Pls
7191 723 Pls
7209 726 Pls
7226 729 Pls
7243 732 Pls
7260 732 Pls
7278 732 Pls
7295 735 Pls
7312 733 Pls
7329 736 Pls
7347 739 Pls
7364 740 Pls
7381 742 Pls
7398 740 Pls
7416 736 Pls
7433 732 Pls
7450 732 Pls
7545 3926 Pls
1.000 UL
LTb
LCb setrgbcolor
1210 4099 N
0 -3395 V
6895 0 V
0 3395 V
-6895 0 V
Z stroke
1.000 UP
1.000 UL
LTb
stroke
grestore
end
showpage
%%Trailer
