<?xml version="1.0" encoding="UTF-8" standalone="no"?>
<svg
   xmlns:dc="http://purl.org/dc/elements/1.1/"
   xmlns:cc="http://creativecommons.org/ns#"
   xmlns:rdf="http://www.w3.org/1999/02/22-rdf-syntax-ns#"
   xmlns:svg="http://www.w3.org/2000/svg"
   xmlns="http://www.w3.org/2000/svg"
   xmlns:sodipodi="http://sodipodi.sourceforge.net/DTD/sodipodi-0.dtd"
   xmlns:inkscape="http://www.inkscape.org/namespaces/inkscape"
   version="1.0"
   x="0px"
   y="0px"
   width="400px"
   height="400px"
   viewBox="0 0 400 400"
   enable-background="new 0 0 400 400"
   xml:space="preserve"
   id="svg2"
   inkscape:version="0.48.3.1 r9886"
   sodipodi:docname="gasdr_aufbau.pdf"><metadata
   id="metadata543"><rdf:RDF><cc:Work
       rdf:about=""><dc:format>image/svg+xml</dc:format><dc:type
         rdf:resource="http://purl.org/dc/dcmitype/StillImage" /><dc:title></dc:title></cc:Work></rdf:RDF></metadata><defs
   id="defs541"><inkscape:perspective
     sodipodi:type="inkscape:persp3d"
     inkscape:vp_x="0 : 200 : 1"
     inkscape:vp_y="0 : 1000 : 0"
     inkscape:vp_z="400 : 200 : 1"
     inkscape:persp3d-origin="200 : 133.33333 : 1"
     id="perspective545" /></defs><sodipodi:namedview
   pagecolor="#ffffff"
   bordercolor="#666666"
   borderopacity="1"
   objecttolerance="10"
   gridtolerance="10"
   guidetolerance="10"
   inkscape:pageopacity="0"
   inkscape:pageshadow="2"
   inkscape:window-width="1366"
   inkscape:window-height="688"
   id="namedview539"
   showgrid="false"
   inkscape:zoom="1.18"
   inkscape:cx="281.72804"
   inkscape:cy="194.44862"
   inkscape:window-x="0"
   inkscape:window-y="24"
   inkscape:window-maximized="1"
   inkscape:current-layer="svg2" />
<g
   id="Skizze">
	<rect
   id="Hintergrund"
   fill="#FFFFFF"
   width="400"
   height="400" />
	<g
   id="Aufbau">
		<path
   id="Leitung"
   d="M283.563,55.153v-6.875c-74.483,0-73.438-11.403-73.438,24.597H217C217,45.465,214.98,55.153,283.563,55.153    z" />
		<g
   id="Gasbehaelter">
			<path
   id="Behaelter"
   fill="#FFFFFF"
   stroke="#000000"
   stroke-width="0.5"
   d="M239.918,257.142c0,32.534-52.054,32.534-52.054,0     c0-26.026,0-77.6,0-90.614c0-13.014,17.567-26.026,17.567-32.533s0-13.014,0-13.014h16.918c0,0,0,6.507,0,13.014     s17.568,19.521,17.568,32.533C239.918,179.541,239.918,231.115,239.918,257.142z" />
			<linearGradient
   id="Huelse_1_"
   gradientUnits="userSpaceOnUse"
   x1="202.9941"
   y1="125.1694"
   x2="224.7871"
   y2="125.1694">
				<stop
   offset="0"
   style="stop-color:#4D4D4D"
   id="stop11" />
				<stop
   offset="0.3462"
   style="stop-color:#E6FFFF"
   id="stop13" />
				<stop
   offset="1"
   style="stop-color:#1A1A1A"
   id="stop15" />
			</linearGradient>
			
				<rect
   id="Huelse"
   x="202.994"
   y="116.345"
   fill="url(#Huelse_1_)"
   stroke="#000000"
   stroke-width="0.5"
   width="21.793"
   height="17.649" />
			<linearGradient
   id="Rohr_1_"
   gradientUnits="userSpaceOnUse"
   x1="205.1738"
   y1="87.1807"
   x2="222.6074"
   y2="87.1807">
				<stop
   offset="0"
   style="stop-color:#B3B3B3"
   id="stop19" />
				<stop
   offset="0.3462"
   style="stop-color:#F2F2F2"
   id="stop21" />
				<stop
   offset="1"
   style="stop-color:#808080"
   id="stop23" />
			</linearGradient>
			
				<rect
   id="Rohr"
   x="205.174"
   y="71.583"
   fill="url(#Rohr_1_)"
   stroke="#000000"
   stroke-width="0.5"
   width="17.434"
   height="31.195" />
			<g
   id="Klemme">
				<linearGradient
   id="KLemme_1_"
   gradientUnits="userSpaceOnUse"
   x1="192.8174"
   y1="109.1143"
   x2="234.9648"
   y2="109.1143">
					<stop
   offset="0"
   style="stop-color:#A9C7C7"
   id="stop28" />
					<stop
   offset="0.3462"
   style="stop-color:#F2F2F2"
   id="stop30" />
					<stop
   offset="1"
   style="stop-color:#93ADAD"
   id="stop32" />
				</linearGradient>
				<path
   id="KLemme"
   fill="url(#KLemme_1_)"
   stroke="#000000"
   stroke-width="0.5"
   d="M234.965,109.114      c0,4.298-3.485,7.783-7.783,7.783h-26.58c-4.299,0-7.784-3.485-7.784-7.783l0,0c0-4.299,3.485-7.783,7.784-7.783h26.58      C231.479,101.331,234.965,104.815,234.965,109.114L234.965,109.114z" />
				<circle
   id="Schraube_3_"
   fill="#BD5C31"
   stroke="#000000"
   stroke-width="0.5"
   cx="204.492"
   cy="109.114"
   r="1.867" />
				<circle
   id="Schraube_2_"
   fill="#BD5C31"
   stroke="#000000"
   stroke-width="0.5"
   cx="223.29"
   cy="109.114"
   r="1.868" />
			</g>
		</g>
		<g
   id="BecherSchmalA">
			<path
   id="Wasser"
   opacity="0.2"
   fill="#00FFFF"
   d="M270.892,310.666c0-12.666,0-126.666,0-126.666h-114c0,10.582,0,114,0,126.666     c0,12.667,0,12.667,50.667,12.667C258.226,323.333,270.892,323.333,270.892,310.666z" />
			<g
   id="EisWuerfel">
				<path
   fill="#F2F2F2"
   stroke="#1A171B"
   stroke-width="0.5"
   d="M181.39,266.23c1.42,3.47,1.121,4.635-2.53,6.128l-8.906,3.643      c-3.65,1.492-4.737,0.996-6.155-2.473l-2.86-6.471c-1.419-3.471-1.207-5.109,2.444-6.602l8.671-3.954      c3.651-1.493,5.884,1.284,7.303,4.755L181.39,266.23z"
   id="path40" />
				<path
   fill="#F2F2F2"
   stroke="#1A171B"
   stroke-width="0.5"
   d="M264.916,237.472c1.42,3.47,1.12,4.635-2.53,6.128l-8.906,3.643      c-3.65,1.492-4.737,0.996-6.155-2.473l-2.86-6.471c-1.419-3.471-1.207-5.109,2.444-6.602l8.67-3.954      c3.651-1.493,5.885,1.284,7.304,4.755L264.916,237.472z"
   id="path42" />
				<path
   fill="#F2F2F2"
   stroke="#1A171B"
   stroke-width="0.5"
   d="M178.588,315.059c-0.817,3.659-1.727,4.445-5.576,3.586      l-7.547-2.844c-3.85-0.859-6.301-1.14-5.484-4.799l1.347-6.945c0.817-3.658,2.04-3.794,5.89-2.935l9.263,0.618      c3.85,0.859,4.354,3.942,3.538,7.601L178.588,315.059z"
   id="path44" />
				<path
   fill="#F2F2F2"
   stroke="#1A171B"
   stroke-width="0.5"
   d="M243.1,271.666c3.645-0.884,6.749,0.02,7.68,3.852l2.27,9.351      c0.93,3.833,0.277,4.833-3.366,5.718l-6.864,0.9c-3.643,0.885-5.248-0.639-6.179-4.471l-2.557-7.139      c-0.931-3.832,2.144-6.848,5.787-7.732L243.1,271.666z"
   id="path46" />
				<path
   fill="#F2F2F2"
   stroke="#1A171B"
   stroke-width="0.5"
   d="M194.466,287.618c0.719,3.681-0.325,6.74-4.195,7.497l-9.444,1.844      c-3.872,0.756-4.84,0.058-5.559-3.622l-0.589-6.897c-0.718-3.68,0.876-5.214,4.747-5.97l7.246-2.23      c3.872-0.757,6.745,2.45,7.463,6.131L194.466,287.618z"
   id="path48" />
				<path
   fill="#F2F2F2"
   stroke="#1A171B"
   stroke-width="0.5"
   d="M177.144,246.659c-2.536,1.996-4.638,2.955-7.002-0.048      l-5.113-8.094c-2.365-3.002-1.903-4.313,0.632-6.309l4.663-3.916c2.535-1.996,3.996-2.139,6.361,0.863l5.964,7.051      c2.364,3.003,0.664,5.595-1.872,7.591L177.144,246.659z"
   id="path50" />
				<path
   fill="#F2F2F2"
   stroke="#1A171B"
   stroke-width="0.5"
   d="M256.145,221.08c-2.536,1.996-4.639,2.955-7.003-0.048      l-5.112-8.094c-2.365-3.002-1.903-4.313,0.631-6.309l4.664-3.916c2.534-1.996,3.996-2.139,6.36,0.863l5.964,7.051      c2.365,3.003,0.664,5.595-1.871,7.591L256.145,221.08z"
   id="path52" />
				<path
   fill="#F2F2F2"
   stroke="#1A171B"
   stroke-width="0.5"
   d="M240.939,307.401c1.873,3.247,1.733,4.442-1.684,6.412      l-8.336,4.807c-3.416,1.971-4.56,1.625-6.432-1.622l-3.704-6.027c-1.873-3.248-1.883-4.9,1.533-6.87l8.061-5.084      c3.418-1.97,6.004,0.481,7.877,3.729L240.939,307.401z"
   id="path54" />
				<path
   fill="#F2F2F2"
   stroke="#1A171B"
   stroke-width="0.5"
   d="M195.529,318.76c-3.715-0.502-4.576-1.344-4.047-5.252l2.192-7.761      c0.529-3.909,0.6-6.376,4.315-5.872l7.035,0.751c3.715,0.503,3.955,1.71,3.424,5.618l0.172,9.283      c-0.528,3.908-3.557,4.674-7.271,4.171L195.529,318.76z"
   id="path56" />
				<path
   fill="#F2F2F2"
   stroke="#1A171B"
   stroke-width="0.5"
   d="M160.246,212.939c-0.538-3.711,0.653-6.717,4.556-7.284      l9.522-1.382c3.903-0.565,4.837,0.178,5.376,3.889l0.252,6.919c0.538,3.71-1.129,5.165-5.032,5.73l-7.346,1.876      c-3.903,0.566-6.617-2.777-7.155-6.487L160.246,212.939z"
   id="path58" />
				<path
   fill="#F2F2F2"
   stroke="#1A171B"
   stroke-width="0.5"
   d="M204.932,287.449c1.348-3.499,3.859-5.537,7.539-4.12l8.979,3.459      c3.68,1.419,4.13,2.524,2.782,6.023l-3.169,6.155c-1.348,3.498-3.514,3.951-7.193,2.532l-7.323-1.962      c-3.681-1.418-4.409-5.662-3.062-9.16L204.932,287.449z"
   id="path60" />
				<path
   fill="#F2F2F2"
   stroke="#1A171B"
   stroke-width="0.5"
   d="M263.707,310.502c-1.293,3.521-3.77,5.598-7.473,4.24l-9.032-3.313      c-3.703-1.358-4.171-2.457-2.88-5.978l3.068-6.205c1.291-3.52,3.449-4.007,7.152-2.649l7.354,1.845      c3.703,1.358,4.5,5.59,3.21,9.111L263.707,310.502z"
   id="path62" />
				<path
   fill="#F2F2F2"
   stroke="#1A171B"
   stroke-width="0.5"
   d="M247.866,266.467c-1.435-2.89-1.944-5.144,1.479-6.845l8.969-3.351      c3.423-1.699,4.61-0.979,6.046,1.909l2.881,5.366c1.436,2.889,1.275,4.349-2.146,6.05l-8.122,4.396      c-3.423,1.7-5.612-0.494-7.047-3.385L247.866,266.467z"
   id="path64" />
			</g>
			<linearGradient
   id="Glas_1_"
   gradientUnits="userSpaceOnUse"
   x1="146.7358"
   y1="241"
   x2="281.0479"
   y2="241">
				<stop
   offset="0"
   style="stop-color:#CCCCCC"
   id="stop67" />
				<stop
   offset="0.3462"
   style="stop-color:#F2F2F2"
   id="stop69" />
				<stop
   offset="1"
   style="stop-color:#CCCCCC"
   id="stop71" />
			</linearGradient>
			<path
   id="Glas_3_"
   opacity="0.3"
   fill="url(#Glas_1_)"
   d="M270.892,310.666c0-12.666,0-114,0-126.666     c0-12.667,17.733-25.333,6.334-25.333c-11.401,0-115.266,0-126.667,0s6.333,12.667,6.333,25.333c0,10.582,0,114,0,126.666     c0,12.667,0,12.667,50.667,12.667C258.226,323.333,270.892,323.333,270.892,310.666z" />
			<path
   id="Kontur_1_"
   fill="none"
   stroke="#1A171B"
   stroke-width="0.5"
   d="M270.892,310.666c0-12.666,0-114,0-126.666     c0-12.667,17.733-25.333,6.334-25.333c-11.401,0-115.266,0-126.667,0s6.333,12.667,6.333,25.333c0,10.582,0,114,0,126.666     c0,12.667,0,12.667,50.667,12.667C258.226,323.333,270.892,323.333,270.892,310.666z" />
			<line
   id="Rand_5_"
   fill="none"
   stroke="#1A171B"
   stroke-width="0.5"
   x1="155.484"
   y1="164.296"
   x2="272.299"
   y2="164.296" />
		</g>
		<g
   id="Stativ_1_">
			<g
   id="StativFuss_1_">
				<linearGradient
   id="SVGID_1_"
   gradientUnits="userSpaceOnUse"
   x1="95.8037"
   y1="321.334"
   x2="106.8037"
   y2="321.334">
					<stop
   offset="0"
   style="stop-color:#333333"
   id="stop79" />
					<stop
   offset="0.3242"
   style="stop-color:#808080"
   id="stop81" />
					<stop
   offset="1"
   style="stop-color:#333333"
   id="stop83" />
				</linearGradient>
				<rect
   x="95.804"
   y="243.667"
   fill="url(#SVGID_1_)"
   stroke="#1A171B"
   stroke-width="0.5"
   width="11"
   height="155.333"
   id="rect85" />
			</g>
			<g
   id="StativArm_1_">
				<g
   id="Arm">
					<linearGradient
   id="SVGID_2_"
   gradientUnits="userSpaceOnUse"
   x1="116.1367"
   y1="344.2637"
   x2="116.1367"
   y2="350.9314">
						<stop
   offset="0"
   style="stop-color:#666666"
   id="stop90" />
						<stop
   offset="0.3626"
   style="stop-color:#B3B3B3"
   id="stop92" />
						<stop
   offset="1"
   style="stop-color:#666666"
   id="stop94" />
					</linearGradient>
					<rect
   x="41.856"
   y="343.796"
   fill="url(#SVGID_2_)"
   stroke="#1A171B"
   stroke-width="0.5"
   width="148.561"
   height="8.102"
   id="rect96" />
				</g>
				<rect
   x="89.804"
   y="337.597"
   fill="#666666"
   stroke="#1A171B"
   stroke-width="0.5"
   width="22.5"
   height="20"
   id="rect98" />
				<g
   id="Schraube">
					<circle
   fill="#999999"
   stroke="#1A171B"
   stroke-width="0.5"
   cx="101.201"
   cy="347.894"
   r="5.5"
   id="circle101" />
					<path
   fill="#999999"
   stroke="#1A171B"
   stroke-width="0.5"
   d="M92.487,362.54c-1.187-0.707-1.577-2.24-0.87-3.428l14.828-24.922       c0.707-1.188,2.241-1.576,3.427-0.869l0,0c1.187,0.705,1.577,2.24,0.87,3.426l-14.828,24.922       C95.207,362.856,93.673,363.245,92.487,362.54L92.487,362.54z"
   id="path103" />
				</g>
			</g>
		</g>
		<g
   id="Stativ_2_">
			<g
   id="StativFuss_2_">
				
					<linearGradient
   id="SVGID_3_"
   gradientUnits="userSpaceOnUse"
   x1="263.9277"
   y1="216"
   x2="274.9277"
   y2="216"
   gradientTransform="matrix(1 0 0 1 115.0527 0)">
					<stop
   offset="0"
   style="stop-color:#333333"
   id="stop108" />
					<stop
   offset="0.3242"
   style="stop-color:#808080"
   id="stop110" />
					<stop
   offset="1"
   style="stop-color:#333333"
   id="stop112" />
				</linearGradient>
				<rect
   x="378.98"
   y="33"
   fill="url(#SVGID_3_)"
   stroke="#1A171B"
   stroke-width="0.5"
   width="11"
   height="366"
   id="rect114" />
			</g>
			<g
   id="StativArm_2_">
				<g
   id="Arm_1_">
					
						<linearGradient
   id="SVGID_4_"
   gradientUnits="userSpaceOnUse"
   x1="684.2715"
   y1="85.0005"
   x2="684.2715"
   y2="91.667"
   gradientTransform="matrix(-1 0 0 1 1018.9941 0)">
						<stop
   offset="0"
   style="stop-color:#666666"
   id="stop119" />
						<stop
   offset="0.3626"
   style="stop-color:#B3B3B3"
   id="stop121" />
						<stop
   offset="1"
   style="stop-color:#666666"
   id="stop123" />
					</linearGradient>
					<rect
   x="270.444"
   y="84.533"
   fill="url(#SVGID_4_)"
   stroke="#1A171B"
   stroke-width="0.5"
   width="128.556"
   height="8.1"
   id="rect125" />
					<rect
   x="226.853"
   y="81.833"
   fill="#999999"
   stroke="#1A171B"
   stroke-width="0.5"
   width="46.395"
   height="13.5"
   id="rect127" />
					
						<linearGradient
   id="SVGID_5_"
   gradientUnits="userSpaceOnUse"
   x1="391.9277"
   y1="88.5835"
   x2="425.0664"
   y2="88.5835"
   gradientTransform="matrix(1 0 0 1 -195.9473 0)">
						<stop
   offset="0"
   style="stop-color:#4D4D4D"
   id="stop130" />
						<stop
   offset="0.0282"
   style="stop-color:#585858"
   id="stop132" />
						<stop
   offset="0.1942"
   style="stop-color:#969696"
   id="stop134" />
						<stop
   offset="0.3158"
   style="stop-color:#BDBDBD"
   id="stop136" />
						<stop
   offset="0.3791"
   style="stop-color:#CCCCCC"
   id="stop138" />
						<stop
   offset="0.507"
   style="stop-color:#B7B7B7"
   id="stop140" />
						<stop
   offset="0.7698"
   style="stop-color:#818181"
   id="stop142" />
						<stop
   offset="1"
   style="stop-color:#4D4D4D"
   id="stop144" />
					</linearGradient>
					<rect
   x="195.98"
   y="77.333"
   fill="url(#SVGID_5_)"
   stroke="#1A171B"
   stroke-width="0.5"
   width="33.139"
   height="22.5"
   id="rect146" />
					<g
   id="g148">
						<path
   fill="#999999"
   stroke="#1A171B"
   stroke-width="0.5"
   d="M255.635,92.129c1.682,2.348,4.704,2.689,6.751,0.762        c2.048-1.927,2.345-5.393,0.664-7.741c-1.68-2.348-4.703-2.689-6.751-0.762C254.252,86.316,253.955,89.781,255.635,92.129z"
   id="path150" />
						<path
   fill="#999999"
   stroke="#1A171B"
   stroke-width="0.5"
   d="M247.855,99.452c0.764,1.067,2.138,1.223,3.068,0.346        l19.549-18.399c0.93-0.876,1.064-2.452,0.301-3.519l0,0c-0.764-1.067-2.138-1.223-3.068-0.346l-19.548,18.399        C247.226,96.81,247.092,98.385,247.855,99.452L247.855,99.452z"
   id="path152" />
					</g>
				</g>
				<rect
   x="373.48"
   y="78.333"
   fill="#666666"
   stroke="#1A171B"
   stroke-width="0.5"
   width="22.5"
   height="20"
   id="rect154" />
				<g
   id="Schraube_4_">
					<circle
   fill="#999999"
   stroke="#1A171B"
   stroke-width="0.5"
   cx="384.584"
   cy="88.63"
   r="5.5"
   id="circle157" />
					<path
   fill="#999999"
   stroke="#1A171B"
   stroke-width="0.5"
   d="M393.297,103.276c1.188-0.706,1.577-2.24,0.871-3.427       L379.34,74.927c-0.707-1.187-2.241-1.576-3.428-0.87l0,0c-1.187,0.706-1.576,2.24-0.869,3.427l14.828,24.922       C390.577,103.592,392.111,103.982,393.297,103.276L393.297,103.276z"
   id="path159" />
				</g>
			</g>
		</g>
		<path
   id="Schlauch"
   fill="#00FFFF"
   stroke="#000000"
   stroke-width="0.5"
   d="M321.096,105.726    c-29.532,10.749-34.395,66.985-1.245,66.985v-6.875c-22.684,0-17.948-45.804,3.931-53.767    c30.549-11.119,53.719-64.319,8.71-63.647v6.875C364.875,55.296,349.125,94.14,321.096,105.726z" />
		<g
   id="Ventil">
			<g
   id="Schraube_1_">
				<linearGradient
   id="SVGID_6_"
   gradientUnits="userSpaceOnUse"
   x1="306.6846"
   y1="29.4653"
   x2="310.1748"
   y2="29.4653">
					<stop
   offset="0"
   style="stop-color:#F7BE7C"
   id="stop165" />
					<stop
   offset="0.3462"
   style="stop-color:#F7DDBE"
   id="stop167" />
					<stop
   offset="1"
   style="stop-color:#E6B173"
   id="stop169" />
				</linearGradient>
				<rect
   x="306.685"
   y="26.715"
   fill="url(#SVGID_6_)"
   stroke="#1A171B"
   stroke-width="0.5"
   width="3.49"
   height="5.5"
   id="rect171" />
				<linearGradient
   id="SVGID_7_"
   gradientUnits="userSpaceOnUse"
   x1="303.4521"
   y1="23.2778"
   x2="313.4053"
   y2="23.2778">
					<stop
   offset="0"
   style="stop-color:#F7BE7C"
   id="stop174" />
					<stop
   offset="0.3462"
   style="stop-color:#F7DDBE"
   id="stop176" />
					<stop
   offset="1"
   style="stop-color:#E6B173"
   id="stop178" />
				</linearGradient>
				<rect
   x="303.452"
   y="18.465"
   fill="url(#SVGID_7_)"
   stroke="#1A171B"
   stroke-width="0.5"
   width="9.953"
   height="9.625"
   id="rect180" />
				<g
   id="Deckel">
					
						<linearGradient
   id="SVGID_8_"
   gradientUnits="userSpaceOnUse"
   x1="616.8945"
   y1="735.2109"
   x2="636.8848"
   y2="735.2109"
   gradientTransform="matrix(1 0 0 1 -318.4609 -720.5313)">
						<stop
   offset="0"
   style="stop-color:#F7BE7C"
   id="stop184" />
						<stop
   offset="0.3462"
   style="stop-color:#F7DDBE"
   id="stop186" />
						<stop
   offset="1"
   style="stop-color:#E6B173"
   id="stop188" />
					</linearGradient>
					<path
   fill="url(#SVGID_8_)"
   stroke="#1A171B"
   stroke-width="0.5"
   d="M318.424,16.583c0,3.808,0,3.808-3.333,3.808       c-3.331,0-9.993,0-13.324,0c-3.333,0-3.333,0-3.333-3.808c0,0,0,0,0-3.807c0-3.808,0-3.808,3.333-3.808       c3.331,0,9.993,0,13.324,0c3.333,0,3.333,0,3.333,3.808C318.424,16.583,318.424,12.776,318.424,16.583z"
   id="path190" />
					<line
   fill="none"
   stroke="#1A171B"
   stroke-width="0.5"
   x1="308.429"
   y1="9.729"
   x2="308.429"
   y2="19.629"
   id="line192" />
					<line
   fill="none"
   stroke="#1A171B"
   stroke-width="0.5"
   x1="306.271"
   y1="9.729"
   x2="306.271"
   y2="19.629"
   id="line194" />
					<line
   fill="none"
   stroke="#1A171B"
   stroke-width="0.5"
   x1="310.586"
   y1="9.729"
   x2="310.586"
   y2="19.629"
   id="line196" />
					<line
   fill="none"
   stroke="#1A171B"
   stroke-width="0.5"
   x1="304.051"
   y1="9.729"
   x2="304.051"
   y2="19.629"
   id="line198" />
					<line
   fill="none"
   stroke="#1A171B"
   stroke-width="0.5"
   x1="302.549"
   y1="9.729"
   x2="302.549"
   y2="19.629"
   id="line200" />
					<line
   fill="none"
   stroke="#1A171B"
   stroke-width="0.5"
   x1="301.047"
   y1="9.729"
   x2="301.047"
   y2="19.629"
   id="line202" />
					<line
   fill="none"
   stroke="#1A171B"
   stroke-width="0.5"
   x1="317.313"
   y1="9.729"
   x2="317.313"
   y2="19.629"
   id="line204" />
					<line
   fill="none"
   stroke="#1A171B"
   stroke-width="0.5"
   x1="315.811"
   y1="9.729"
   x2="315.811"
   y2="19.629"
   id="line206" />
					<line
   fill="none"
   stroke="#1A171B"
   stroke-width="0.5"
   x1="314.309"
   y1="9.729"
   x2="314.309"
   y2="19.629"
   id="line208" />
					<line
   fill="none"
   stroke="#1A171B"
   stroke-width="0.5"
   x1="312.808"
   y1="9.729"
   x2="312.808"
   y2="19.629"
   id="line210" />
					<line
   fill="none"
   stroke="#1A171B"
   stroke-width="0.5"
   x1="299.545"
   y1="9.729"
   x2="299.545"
   y2="19.629"
   id="line212" />
				</g>
			</g>
			<linearGradient
   id="SVGID_9_"
   gradientUnits="userSpaceOnUse"
   x1="299.6162"
   y1="32.0591"
   x2="317.2412"
   y2="32.0591">
				<stop
   offset="0"
   style="stop-color:#333333"
   id="stop215" />
				<stop
   offset="0.3462"
   style="stop-color:#808080"
   id="stop217" />
				<stop
   offset="1"
   style="stop-color:#000000"
   id="stop219" />
			</linearGradient>
			<path
   fill="url(#SVGID_9_)"
   stroke="#1A171B"
   stroke-width="0.5"
   d="M317.241,32.059c0,0.846-0.686,1.531-1.531,1.531h-14.563     c-0.846,0-1.531-0.686-1.531-1.531l0,0c0-0.846,0.686-1.531,1.531-1.531h14.563C316.556,30.528,317.241,31.213,317.241,32.059     L317.241,32.059z"
   id="path221" />
			
				<linearGradient
   id="Einlass_1_"
   gradientUnits="userSpaceOnUse"
   x1="245.9922"
   y1="45.4653"
   x2="245.9922"
   y2="58.0693"
   gradientTransform="matrix(-1 0 0 1 574.4219 0)">
				<stop
   offset="0"
   style="stop-color:#333333"
   id="stop224" />
				<stop
   offset="0.3462"
   style="stop-color:#666666"
   id="stop226" />
				<stop
   offset="1"
   style="stop-color:#000000"
   id="stop228" />
			</linearGradient>
			<path
   id="Einlass"
   fill="url(#Einlass_1_)"
   stroke="#1A171B"
   stroke-width="0.5"
   d="M322.144,58.069l12.616-1.261     c1.604,0,1.457-2.257,1.457-5.042l0,0c0-2.785,0.147-5.042-1.457-5.042l-12.616-1.26     C320.137,45.465,320.137,58.069,322.144,58.069z" />
			<linearGradient
   id="Auslass_1_"
   gradientUnits="userSpaceOnUse"
   x1="288.4297"
   y1="45.4653"
   x2="288.4297"
   y2="58.0693">
				<stop
   offset="0"
   style="stop-color:#333333"
   id="stop232" />
				<stop
   offset="0.3462"
   style="stop-color:#666666"
   id="stop234" />
				<stop
   offset="1"
   style="stop-color:#000000"
   id="stop236" />
			</linearGradient>
			<path
   id="Auslass"
   fill="url(#Auslass_1_)"
   stroke="#1A171B"
   stroke-width="0.5"
   d="M294.716,58.069L282.1,56.809     c-1.604,0-1.457-2.257-1.457-5.042l0,0c0-2.785-0.147-5.042,1.457-5.042l12.616-1.26     C296.723,45.465,296.723,58.069,294.716,58.069z" />
			<radialGradient
   id="Kasten_2_"
   cx="292.7588"
   cy="99.5488"
   r="67.9134"
   gradientUnits="userSpaceOnUse">
				<stop
   offset="0"
   style="stop-color:#E3B37D"
   id="stop240" />
				<stop
   offset="0.3596"
   style="stop-color:#C69C6D"
   id="stop242" />
				<stop
   offset="0.7105"
   style="stop-color:#D2A674"
   id="stop244" />
				<stop
   offset="1"
   style="stop-color:#E0B17C"
   id="stop246" />
			</radialGradient>
			
				<rect
   id="Kasten"
   x="291.763"
   y="32.42"
   fill="url(#Kasten_2_)"
   stroke="#1A171B"
   stroke-width="0.5"
   width="33.333"
   height="67.962" />
		</g>
		<g
   id="Heizung">
			<linearGradient
   id="Platte_1_"
   gradientUnits="userSpaceOnUse"
   x1="138.2905"
   y1="324.6299"
   x2="289.4912"
   y2="324.6299">
				<stop
   offset="0"
   style="stop-color:#8C8C8C"
   id="stop251" />
				<stop
   offset="0.3462"
   style="stop-color:#B2B2B2"
   id="stop253" />
				<stop
   offset="1"
   style="stop-color:#696969"
   id="stop255" />
			</linearGradient>
			<path
   id="Platte"
   fill="url(#Platte_1_)"
   stroke="#000000"
   stroke-width="0.5"
   d="M289.491,324.63c0,2.982-2.417,3-5.399,3     H143.69c-2.982,0-5.4-0.018-5.4-3l0,0c0-2.982,2.417-3,5.4-3h140.401C287.074,321.63,289.491,321.647,289.491,324.63     L289.491,324.63z" />
			<linearGradient
   id="Heizkoerper_1_"
   gradientUnits="userSpaceOnUse"
   x1="134.5107"
   y1="347.9297"
   x2="293.2725"
   y2="347.9297">
				<stop
   offset="0"
   style="stop-color:#995B40"
   id="stop259" />
				<stop
   offset="0.3462"
   style="stop-color:#E07A4F"
   id="stop261" />
				<stop
   offset="1"
   style="stop-color:#6E402D"
   id="stop263" />
			</linearGradient>
			<path
   id="Heizkoerper"
   fill="url(#Heizkoerper_1_)"
   stroke="#000000"
   stroke-width="0.5"
   d="M292.272,334.61l-3.537,1     c0,0,0,28.498,0,30.939c0,2.442-0.188,2.521-2.394,2.521c-2.206,0-143.434,0-145.112,0c-2.183,0-2.183-0.158-2.183-2.521     s0-30.939,0-30.939l-3.536-1l-1-4.671c0-3.131,2.538-3.149,5.67-3.149h147.421c3.131,0,5.671,0.019,5.671,3.149L292.272,334.61z" />
			<line
   id="Rand"
   fill="none"
   stroke="#000000"
   stroke-width="0.5"
   x1="139.046"
   y1="335.61"
   x2="288.735"
   y2="335.61" />
		</g>
		<g
   id="Schalter">
			<path
   id="Kabel"
   d="M10,399H1c0-9,11-23,11-32h9C21,376,10,390,10,399z" />
			<path
   id="Kasten_1_"
   fill="#808080"
   stroke="#1A171B"
   stroke-width="0.5"
   d="M73.973,364.51c0,4.561,0,4.561-4.561,4.561H5.561     C1,369.07,1,369.07,1,364.51v-68.852c0-4.561,0-4.561,4.561-4.561h63.851c4.561,0,4.561,0,4.561,4.561V364.51z" />
			<g
   id="Drehschalter">
				<linearGradient
   id="SVGID_10_"
   gradientUnits="userSpaceOnUse"
   x1="15.3721"
   y1="304.4697"
   x2="59.6021"
   y2="348.6998">
					<stop
   offset="0"
   style="stop-color:#FFFFFF"
   id="stop272" />
					<stop
   offset="0.6424"
   style="stop-color:#1A1A1A"
   id="stop274" />
				</linearGradient>
				<circle
   fill="url(#SVGID_10_)"
   stroke="#1A171B"
   stroke-width="0.5"
   cx="37.486"
   cy="326.584"
   r="31.275"
   id="circle276" />
				<circle
   fill="#333333"
   stroke="#1A171B"
   stroke-width="0.5"
   cx="37.486"
   cy="326.584"
   r="21.893"
   id="circle278" />
				<rect
   x="34.111"
   y="324.109"
   fill="#CCCCCC"
   stroke="#1A171B"
   width="6.75"
   height="22.5"
   id="rect280" />
			</g>
			<radialGradient
   id="Lampe_1_"
   cx="8.6953"
   cy="358.1064"
   r="6.1558"
   gradientUnits="userSpaceOnUse">
				<stop
   offset="0"
   style="stop-color:#FF7A7A"
   id="stop283" />
				<stop
   offset="0.9658"
   style="stop-color:#8E0404"
   id="stop285" />
				<stop
   offset="1"
   style="stop-color:#8A0000"
   id="stop287" />
			</radialGradient>
			<circle
   id="Lampe"
   fill="url(#Lampe_1_)"
   stroke="#1A171B"
   stroke-width="0.5"
   cx="10.195"
   cy="359.273"
   r="5.398" />
		</g>
		
			<rect
   id="Metallplatte"
   x="318.851"
   y="138.128"
   fill="#BAB2A9"
   stroke="#1A171B"
   stroke-width="0.5"
   width="76.149"
   height="138.667" />
		<g
   id="Druckmessgeraet">
			<g
   id="Messgeraet">
				<path
   id="Gehauese"
   fill="#E6E6E6"
   stroke="#000000"
   stroke-width="0.5"
   d="M395,256.348c0,10.878,0,10.878-10.879,10.878      h-54.392c-10.879,0-10.879,2.177-10.879-10.878V158.44c0-10.878,0-10.878,10.879-10.878h54.392c10.879,0,10.879,0,10.879,10.878      V256.348z" />
				<radialGradient
   id="Schraube_9_"
   cx="325.0449"
   cy="153.8066"
   r="4.105"
   gradientUnits="userSpaceOnUse">
					<stop
   offset="0"
   style="stop-color:#EBF6FF"
   id="stop295" />
					<stop
   offset="0.8745"
   style="stop-color:#758D9F"
   id="stop297" />
					<stop
   offset="1"
   style="stop-color:#647E91"
   id="stop299" />
				</radialGradient>
				<circle
   id="Schraube_8_"
   fill="url(#Schraube_9_)"
   stroke="#000000"
   stroke-width="0.5"
   cx="325.801"
   cy="154.512"
   r="3.324" />
				<radialGradient
   id="Schraube_10_"
   cx="387.2939"
   cy="153.8066"
   r="4.105"
   gradientUnits="userSpaceOnUse">
					<stop
   offset="0"
   style="stop-color:#EBF6FF"
   id="stop303" />
					<stop
   offset="0.8745"
   style="stop-color:#758D9F"
   id="stop305" />
					<stop
   offset="1"
   style="stop-color:#647E91"
   id="stop307" />
				</radialGradient>
				<circle
   id="Schraube_7_"
   fill="url(#Schraube_10_)"
   stroke="#000000"
   stroke-width="0.5"
   cx="388.05"
   cy="154.512"
   r="3.324" />
				<radialGradient
   id="Schraube_11_"
   cx="325.0449"
   cy="259.707"
   r="4.1045"
   gradientUnits="userSpaceOnUse">
					<stop
   offset="0"
   style="stop-color:#EBF6FF"
   id="stop311" />
					<stop
   offset="0.8745"
   style="stop-color:#758D9F"
   id="stop313" />
					<stop
   offset="1"
   style="stop-color:#647E91"
   id="stop315" />
				</radialGradient>
				<circle
   id="Schraube_6_"
   fill="url(#Schraube_11_)"
   stroke="#000000"
   stroke-width="0.5"
   cx="325.801"
   cy="260.411"
   r="3.324" />
				<radialGradient
   id="Schraube_12_"
   cx="387.2939"
   cy="259.707"
   r="4.1045"
   gradientUnits="userSpaceOnUse">
					<stop
   offset="0"
   style="stop-color:#EBF6FF"
   id="stop319" />
					<stop
   offset="0.8745"
   style="stop-color:#758D9F"
   id="stop321" />
					<stop
   offset="1"
   style="stop-color:#647E91"
   id="stop323" />
				</radialGradient>
				<circle
   id="Schraube_5_"
   fill="url(#Schraube_12_)"
   stroke="#000000"
   stroke-width="0.5"
   cx="388.05"
   cy="260.411"
   r="3.324" />
			</g>
			<rect
   id="Rahmen"
   x="325.801"
   y="164.149"
   fill="none"
   stroke="#00BFBF"
   width="62.249"
   height="86.625" />
			<g
   id="Display">
				<rect
   x="328.913"
   y="170.294"
   fill="#1A1A1A"
   width="56.024"
   height="25.987"
   id="rect328" />
				<rect
   x="334.516"
   y="175.491"
   fill="#22B573"
   width="44.819"
   height="15.592"
   id="rect330" />
				<g
   id="g332">
					<path
   d="M348.497,179.093v2.922l-0.923,0.923l-0.308-0.308v-3.999L348.497,179.093z M347.267,187.554v-4l0.308-0.307       l0.923,0.923v2.923L347.267,187.554z M352.651,188.631h-4.615c-0.411-0.103-0.667-0.359-0.77-0.77l1.23-0.462h3.692       L352.651,188.631z M352.189,178.785h-3.677l-1.231-0.461c0.103-0.41,0.359-0.667,0.77-0.77h4.601L352.189,178.785z        M352.496,182.016v-3.23l0.462-1.231c0.411,0.103,0.667,0.36,0.77,0.77v4.307l-0.308,0.308L352.496,182.016z M353.42,183.247       l0.308,0.307v4.308c-0.103,0.411-0.358,0.667-0.77,0.77l-0.462-1.231v-3.229L353.42,183.247z"
   id="path334" />
					<path
   d="M358.804,188.631h-1.23v-1.231h1.23V188.631z"
   id="path336" />
					<path
   d="M363.882,179.093v2.922l-0.924,0.923l-0.308-0.308v-3.999L363.882,179.093z M362.65,187.554v-4l0.308-0.307       l0.924,0.923v2.923L362.65,187.554z M368.035,188.631h-4.615c-0.411-0.103-0.667-0.359-0.77-0.77l1.231-0.462h3.691       L368.035,188.631z M367.573,178.785h-3.677l-1.23-0.461c0.103-0.41,0.358-0.667,0.77-0.77h4.6L367.573,178.785z        M367.881,182.016v-3.23l0.461-1.231c0.411,0.103,0.667,0.36,0.77,0.77v4.307l-0.308,0.308L367.881,182.016z M368.804,183.247       l0.308,0.307v4.308c-0.103,0.411-0.358,0.667-0.77,0.77l-0.461-1.231v-3.229L368.804,183.247z"
   id="path338" />
					<path
   d="M371.573,179.093v2.922l-0.924,0.923l-0.308-0.308v-3.999L371.573,179.093z M370.342,187.554v-4l0.308-0.307       l0.924,0.923v2.923L370.342,187.554z M375.727,188.631h-4.615c-0.411-0.103-0.667-0.359-0.77-0.77l1.231-0.462h3.691       L375.727,188.631z M375.265,178.785h-3.677l-1.23-0.461c0.103-0.41,0.358-0.667,0.77-0.77h4.6L375.265,178.785z        M375.572,182.016v-3.23l0.461-1.231c0.411,0.103,0.667,0.36,0.77,0.77v4.307l-0.308,0.308L375.572,182.016z M376.495,183.247       l0.308,0.307v4.308c-0.103,0.411-0.358,0.667-0.77,0.77l-0.461-1.231v-3.229L376.495,183.247z"
   id="path340" />
				</g>
			</g>
			<g
   id="g342">
				<path
   fill="#000094"
   d="M331.294,208.877l2.26-3.229l-2.166-3.039h2.024l1.109,1.724l1.169-1.724h1.947l-2.124,2.969      l2.319,3.299h-2.036l-1.275-1.941l-1.286,1.941H331.294z"
   id="path344" />
				<path
   fill="#000094"
   d="M347.417,207.337v1.54h-5.813c0.063-0.582,0.252-1.134,0.566-1.655c0.315-0.521,0.937-1.213,1.865-2.074      c0.748-0.696,1.206-1.169,1.375-1.417c0.229-0.342,0.343-0.681,0.343-1.015c0-0.37-0.1-0.654-0.298-0.854      c-0.199-0.198-0.474-0.298-0.823-0.298c-0.347,0-0.622,0.104-0.827,0.313c-0.204,0.208-0.322,0.555-0.354,1.038l-1.652-0.165      c0.098-0.913,0.407-1.568,0.927-1.966c0.519-0.397,1.168-0.596,1.947-0.596c0.854,0,1.524,0.23,2.013,0.69      c0.487,0.461,0.731,1.033,0.731,1.718c0,0.39-0.069,0.761-0.209,1.112c-0.14,0.353-0.361,0.721-0.664,1.106      c-0.201,0.256-0.563,0.624-1.086,1.104c-0.523,0.48-0.855,0.799-0.995,0.956c-0.14,0.158-0.253,0.312-0.339,0.461H347.417z"
   id="path346" />
				<path
   fill="#000094"
   d="M351.886,204.062v-1.523h6.049v1.523H351.886z M351.886,206.682v-1.528h6.049v1.528H351.886z"
   id="path348" />
				<path
   fill="#000094"
   d="M362.609,208.877v-8.652h1.658v4.592l1.942-2.207h2.042l-2.143,2.29l2.296,3.978h-1.788l-1.576-2.815      l-0.773,0.809v2.007H362.609z"
   id="path350" />
				<path
   fill="#000094"
   d="M369.344,202.609h1.546v0.921c0.201-0.315,0.473-0.57,0.814-0.768c0.343-0.196,0.723-0.295,1.14-0.295      c0.728,0,1.346,0.285,1.854,0.855c0.507,0.57,0.761,1.365,0.761,2.385c0,1.047-0.256,1.86-0.767,2.44      c-0.512,0.58-1.132,0.87-1.859,0.87c-0.347,0-0.66-0.068-0.941-0.206s-0.577-0.374-0.889-0.708v3.157h-1.658V202.609z       M370.984,205.637c0,0.705,0.14,1.225,0.419,1.562c0.279,0.336,0.62,0.505,1.021,0.505c0.386,0,0.706-0.155,0.962-0.464      s0.384-0.815,0.384-1.52c0-0.657-0.132-1.146-0.396-1.464s-0.591-0.478-0.979-0.478c-0.405,0-0.742,0.156-1.01,0.469      S370.984,205.023,370.984,205.637z"
   id="path352" />
				<path
   fill="#000094"
   d="M378.014,204.521l-1.506-0.271c0.17-0.605,0.461-1.055,0.874-1.346s1.026-0.437,1.842-0.437      c0.739,0,1.29,0.088,1.652,0.263c0.361,0.175,0.616,0.397,0.764,0.667s0.222,0.764,0.222,1.484l-0.018,1.936      c0,0.551,0.026,0.957,0.079,1.219c0.054,0.262,0.153,0.542,0.299,0.841h-1.641c-0.044-0.11-0.097-0.273-0.16-0.489      c-0.027-0.099-0.047-0.164-0.059-0.195c-0.283,0.275-0.586,0.482-0.909,0.62c-0.322,0.138-0.667,0.206-1.032,0.206      c-0.646,0-1.154-0.175-1.526-0.525c-0.371-0.35-0.558-0.792-0.558-1.327c0-0.354,0.085-0.67,0.254-0.947s0.406-0.49,0.711-0.638      c0.306-0.147,0.745-0.276,1.319-0.387c0.775-0.146,1.313-0.281,1.611-0.407v-0.165c0-0.319-0.079-0.546-0.236-0.682      s-0.454-0.204-0.891-0.204c-0.296,0-0.525,0.059-0.69,0.175C378.249,204.026,378.115,204.23,378.014,204.521z M380.232,205.867      c-0.213,0.071-0.549,0.155-1.009,0.254c-0.461,0.099-0.762,0.194-0.903,0.289c-0.217,0.153-0.325,0.349-0.325,0.584      c0,0.232,0.087,0.434,0.26,0.603c0.174,0.169,0.394,0.254,0.661,0.254c0.299,0,0.585-0.099,0.856-0.296      c0.2-0.149,0.332-0.332,0.395-0.549c0.044-0.142,0.065-0.411,0.065-0.809V205.867z"
   id="path354" />
			</g>
			<g
   id="g356">
				<path
   fill="#000094"
   d="M328.721,236.455v-5.667h1.952c0.441,0,0.777,0.027,1.009,0.081c0.325,0.075,0.603,0.21,0.831,0.406      c0.3,0.253,0.522,0.575,0.671,0.969c0.148,0.393,0.223,0.842,0.223,1.347c0,0.431-0.051,0.812-0.151,1.145      c-0.101,0.332-0.229,0.607-0.386,0.825s-0.33,0.389-0.517,0.514s-0.412,0.22-0.677,0.284c-0.264,0.064-0.567,0.097-0.91,0.097      H328.721z M329.471,235.786h1.21c0.374,0,0.667-0.034,0.88-0.104c0.212-0.069,0.382-0.167,0.508-0.293      c0.178-0.179,0.316-0.417,0.416-0.718c0.099-0.3,0.148-0.664,0.148-1.092c0-0.593-0.098-1.048-0.292-1.366      s-0.431-0.531-0.709-0.64c-0.201-0.077-0.524-0.116-0.971-0.116h-1.19V235.786z"
   id="path358" />
				<path
   fill="#000094"
   d="M334.341,236.455v-4.105h0.627v0.623c0.159-0.292,0.307-0.483,0.442-0.576      c0.135-0.093,0.284-0.14,0.446-0.14c0.234,0,0.473,0.075,0.715,0.225l-0.239,0.646c-0.17-0.101-0.34-0.15-0.511-0.15      c-0.151,0-0.288,0.045-0.409,0.137s-0.208,0.219-0.259,0.381c-0.077,0.247-0.116,0.518-0.116,0.812v2.149H334.341z"
   id="path360" />
				<path
   fill="#000094"
   d="M339.676,236.455v-0.603c-0.319,0.464-0.754,0.695-1.303,0.695c-0.242,0-0.468-0.047-0.678-0.139      c-0.21-0.093-0.366-0.21-0.468-0.351c-0.103-0.141-0.174-0.313-0.215-0.516c-0.028-0.137-0.042-0.354-0.042-0.649v-2.544h0.695      v2.277c0,0.363,0.014,0.608,0.043,0.734c0.043,0.183,0.136,0.326,0.278,0.431c0.142,0.104,0.316,0.156,0.525,0.156      s0.404-0.053,0.588-0.16c0.183-0.106,0.312-0.252,0.388-0.437s0.114-0.452,0.114-0.802v-2.2h0.696v4.105H339.676z"
   id="path362" />
				<path
   fill="#000094"
   d="M344.066,234.951l0.685,0.089c-0.075,0.472-0.266,0.841-0.574,1.107c-0.308,0.267-0.686,0.4-1.135,0.4      c-0.562,0-1.013-0.184-1.354-0.551s-0.512-0.894-0.512-1.579c0-0.443,0.073-0.831,0.22-1.163      c0.147-0.333,0.371-0.582,0.671-0.748c0.3-0.167,0.627-0.25,0.979-0.25c0.446,0,0.811,0.113,1.095,0.339      c0.283,0.226,0.465,0.545,0.545,0.96l-0.677,0.104c-0.064-0.275-0.179-0.483-0.342-0.622c-0.164-0.14-0.361-0.209-0.594-0.209      c-0.351,0-0.635,0.126-0.854,0.377c-0.219,0.251-0.328,0.648-0.328,1.192c0,0.552,0.105,0.952,0.317,1.202      c0.211,0.25,0.486,0.375,0.827,0.375c0.272,0,0.501-0.084,0.684-0.251C343.902,235.557,344.018,235.299,344.066,234.951z"
   id="path364" />
				<path
   fill="#000094"
   d="M345.35,236.455v-5.667h0.696v3.231l1.646-1.67h0.9l-1.569,1.523l1.729,2.582h-0.858l-1.357-2.099      l-0.49,0.472v1.627H345.35z"
   id="path366" />
				<path
   fill="#000094"
   d="M349.305,236.455v-4.105h0.623v0.576c0.129-0.201,0.3-0.362,0.514-0.485      c0.214-0.122,0.457-0.184,0.73-0.184c0.305,0,0.554,0.063,0.748,0.189c0.194,0.127,0.332,0.303,0.412,0.53      c0.324-0.479,0.747-0.72,1.268-0.72c0.407,0,0.72,0.113,0.939,0.339c0.219,0.226,0.328,0.572,0.328,1.041v2.818h-0.691v-2.586      c0-0.278-0.022-0.479-0.068-0.602c-0.045-0.122-0.127-0.221-0.245-0.295c-0.118-0.075-0.258-0.112-0.417-0.112      c-0.289,0-0.528,0.096-0.72,0.288c-0.19,0.191-0.286,0.499-0.286,0.922v2.385h-0.695v-2.667c0-0.31-0.057-0.541-0.17-0.696      c-0.113-0.154-0.299-0.231-0.557-0.231c-0.196,0-0.377,0.052-0.543,0.154c-0.166,0.104-0.287,0.254-0.361,0.452      c-0.075,0.199-0.112,0.484-0.112,0.858v2.13H349.305z"
   id="path368" />
				<path
   fill="#000094"
   d="M358.709,235.133l0.719,0.089c-0.113,0.42-0.323,0.746-0.63,0.979c-0.307,0.231-0.698,0.348-1.175,0.348      c-0.601,0-1.077-0.185-1.429-0.555s-0.527-0.889-0.527-1.556c0-0.69,0.178-1.227,0.533-1.608      c0.355-0.381,0.817-0.572,1.384-0.572c0.549,0,0.997,0.188,1.346,0.561c0.348,0.374,0.521,0.899,0.521,1.577      c0,0.042-0.001,0.104-0.004,0.186h-3.062c0.025,0.451,0.153,0.797,0.383,1.036s0.516,0.359,0.858,0.359      c0.255,0,0.473-0.066,0.653-0.201C358.46,235.641,358.604,235.427,358.709,235.133z M356.425,234.008h2.292      c-0.031-0.345-0.118-0.604-0.263-0.776c-0.222-0.269-0.509-0.402-0.862-0.402c-0.319,0-0.588,0.107-0.806,0.321      S356.447,233.65,356.425,234.008z"
   id="path370" />
				<path
   fill="#000094"
   d="M360.023,235.229l0.688-0.108c0.039,0.276,0.146,0.487,0.322,0.635c0.177,0.146,0.424,0.22,0.74,0.22      c0.32,0,0.557-0.064,0.712-0.195c0.154-0.13,0.231-0.282,0.231-0.458c0-0.157-0.068-0.28-0.205-0.371      c-0.095-0.062-0.332-0.141-0.711-0.235c-0.51-0.129-0.864-0.24-1.061-0.335c-0.197-0.094-0.347-0.224-0.449-0.39      c-0.102-0.167-0.152-0.351-0.152-0.551c0-0.184,0.042-0.353,0.126-0.509c0.083-0.156,0.197-0.285,0.342-0.389      c0.108-0.079,0.256-0.147,0.442-0.203c0.188-0.055,0.388-0.083,0.602-0.083c0.322,0,0.604,0.047,0.849,0.14      c0.243,0.093,0.423,0.218,0.539,0.377c0.116,0.158,0.195,0.37,0.239,0.636l-0.68,0.093c-0.031-0.211-0.121-0.376-0.27-0.495      c-0.147-0.118-0.357-0.178-0.628-0.178c-0.319,0-0.548,0.053-0.684,0.158c-0.137,0.106-0.205,0.229-0.205,0.371      c0,0.091,0.028,0.172,0.085,0.244c0.057,0.074,0.146,0.137,0.267,0.186c0.069,0.025,0.274,0.085,0.614,0.178      c0.492,0.131,0.836,0.239,1.03,0.322c0.194,0.084,0.348,0.206,0.458,0.365c0.111,0.16,0.167,0.358,0.167,0.596      c0,0.232-0.068,0.45-0.203,0.655c-0.136,0.205-0.331,0.363-0.586,0.476s-0.544,0.168-0.866,0.168      c-0.533,0-0.939-0.11-1.219-0.332C360.279,235.994,360.102,235.665,360.023,235.229z"
   id="path372" />
				<path
   fill="#000094"
   d="M363.981,235.229l0.688-0.108c0.039,0.276,0.146,0.487,0.322,0.635c0.177,0.146,0.424,0.22,0.74,0.22      c0.32,0,0.557-0.064,0.712-0.195c0.154-0.13,0.231-0.282,0.231-0.458c0-0.157-0.068-0.28-0.205-0.371      c-0.095-0.062-0.332-0.141-0.711-0.235c-0.51-0.129-0.864-0.24-1.061-0.335c-0.197-0.094-0.347-0.224-0.449-0.39      c-0.102-0.167-0.152-0.351-0.152-0.551c0-0.184,0.042-0.353,0.126-0.509c0.083-0.156,0.197-0.285,0.342-0.389      c0.108-0.079,0.256-0.147,0.442-0.203c0.188-0.055,0.388-0.083,0.602-0.083c0.322,0,0.604,0.047,0.849,0.14      c0.243,0.093,0.423,0.218,0.539,0.377c0.116,0.158,0.195,0.37,0.239,0.636l-0.68,0.093c-0.031-0.211-0.121-0.376-0.27-0.495      c-0.147-0.118-0.357-0.178-0.628-0.178c-0.319,0-0.548,0.053-0.684,0.158c-0.137,0.106-0.205,0.229-0.205,0.371      c0,0.091,0.028,0.172,0.085,0.244c0.057,0.074,0.146,0.137,0.267,0.186c0.069,0.025,0.274,0.085,0.614,0.178      c0.492,0.131,0.836,0.239,1.03,0.322c0.194,0.084,0.348,0.206,0.458,0.365c0.111,0.16,0.167,0.358,0.167,0.596      c0,0.232-0.068,0.45-0.203,0.655c-0.136,0.205-0.331,0.363-0.586,0.476s-0.544,0.168-0.866,0.168      c-0.533,0-0.939-0.11-1.219-0.332C364.237,235.994,364.06,235.665,363.981,235.229z"
   id="path374" />
				<path
   fill="#000094"
   d="M368.091,236.795l0.676,0.101c0.028,0.209,0.107,0.361,0.236,0.456c0.173,0.129,0.408,0.193,0.707,0.193      c0.322,0,0.571-0.064,0.746-0.193c0.176-0.129,0.294-0.309,0.355-0.541c0.036-0.142,0.053-0.439,0.051-0.893      c-0.305,0.358-0.684,0.537-1.137,0.537c-0.564,0-1.001-0.203-1.311-0.61c-0.309-0.407-0.464-0.896-0.464-1.466      c0-0.392,0.071-0.753,0.213-1.084s0.348-0.587,0.616-0.768c0.27-0.18,0.586-0.271,0.949-0.271c0.484,0,0.884,0.196,1.198,0.588      v-0.495h0.642v3.549c0,0.639-0.065,1.092-0.195,1.358s-0.336,0.478-0.618,0.633c-0.282,0.154-0.63,0.231-1.042,0.231      c-0.489,0-0.885-0.11-1.187-0.33C368.226,237.57,368.08,237.238,368.091,236.795z M368.667,234.329      c0,0.539,0.106,0.932,0.32,1.179c0.214,0.248,0.481,0.371,0.804,0.371c0.32,0,0.588-0.123,0.805-0.369      c0.216-0.246,0.324-0.632,0.324-1.157c0-0.503-0.111-0.882-0.334-1.137s-0.492-0.383-0.807-0.383      c-0.309,0-0.571,0.126-0.788,0.377S368.667,233.834,368.667,234.329z"
   id="path376" />
				<path
   fill="#000094"
   d="M375.432,235.133l0.719,0.089c-0.113,0.42-0.323,0.746-0.63,0.979c-0.307,0.231-0.698,0.348-1.175,0.348      c-0.601,0-1.077-0.185-1.429-0.555s-0.527-0.889-0.527-1.556c0-0.69,0.178-1.227,0.533-1.608      c0.355-0.381,0.817-0.572,1.384-0.572c0.549,0,0.997,0.188,1.346,0.561c0.348,0.374,0.521,0.899,0.521,1.577      c0,0.042-0.001,0.104-0.004,0.186h-3.062c0.025,0.451,0.153,0.797,0.383,1.036s0.516,0.359,0.858,0.359      c0.255,0,0.473-0.066,0.653-0.201C375.183,235.641,375.326,235.427,375.432,235.133z M373.147,234.008h2.292      c-0.031-0.345-0.118-0.604-0.263-0.776c-0.222-0.269-0.509-0.402-0.862-0.402c-0.319,0-0.588,0.107-0.806,0.321      S373.17,233.65,373.147,234.008z"
   id="path378" />
				<path
   fill="#000094"
   d="M377.016,236.455v-4.105h0.627v0.623c0.159-0.292,0.307-0.483,0.442-0.576      c0.135-0.093,0.284-0.14,0.446-0.14c0.234,0,0.473,0.075,0.715,0.225l-0.239,0.646c-0.17-0.101-0.34-0.15-0.511-0.15      c-0.151,0-0.288,0.045-0.409,0.137s-0.208,0.219-0.259,0.381c-0.077,0.247-0.116,0.518-0.116,0.812v2.149H377.016z"
   id="path380" />
				<path
   fill="#000094"
   d="M382.339,235.948c-0.257,0.22-0.505,0.374-0.744,0.464c-0.238,0.091-0.494,0.136-0.767,0.136      c-0.451,0-0.798-0.11-1.04-0.33c-0.242-0.221-0.363-0.502-0.363-0.845c0-0.201,0.046-0.385,0.137-0.551      c0.092-0.167,0.212-0.3,0.36-0.4c0.147-0.101,0.314-0.177,0.5-0.229c0.137-0.035,0.343-0.07,0.618-0.104      c0.563-0.067,0.976-0.147,1.241-0.24c0.003-0.095,0.004-0.155,0.004-0.182c0-0.283-0.065-0.483-0.197-0.599      c-0.178-0.157-0.441-0.236-0.792-0.236c-0.327,0-0.569,0.058-0.725,0.172c-0.156,0.115-0.271,0.318-0.347,0.609l-0.68-0.093      c0.062-0.291,0.163-0.526,0.305-0.706c0.142-0.179,0.347-0.316,0.615-0.413c0.268-0.097,0.578-0.146,0.932-0.146      c0.35,0,0.635,0.042,0.854,0.124c0.22,0.083,0.381,0.187,0.483,0.312c0.104,0.125,0.176,0.282,0.217,0.474      c0.023,0.118,0.034,0.332,0.034,0.642v0.928c0,0.646,0.016,1.056,0.045,1.227c0.029,0.172,0.088,0.336,0.176,0.493h-0.727      C382.406,236.311,382.36,236.142,382.339,235.948z M382.281,234.395c-0.253,0.104-0.632,0.191-1.137,0.263      c-0.286,0.042-0.488,0.088-0.606,0.14c-0.119,0.052-0.21,0.127-0.274,0.226c-0.064,0.1-0.097,0.21-0.097,0.331      c0,0.186,0.07,0.34,0.211,0.464c0.14,0.124,0.346,0.186,0.616,0.186c0.268,0,0.506-0.059,0.715-0.176s0.362-0.278,0.46-0.481      c0.075-0.157,0.112-0.389,0.112-0.695V234.395z M380.232,231.546v-0.792h0.727v0.792H380.232z M381.675,231.546v-0.792h0.727      v0.792H381.675z"
   id="path382" />
				<path
   fill="#000094"
   d="M385.582,235.833l0.101,0.614c-0.196,0.041-0.371,0.062-0.525,0.062c-0.253,0-0.449-0.04-0.588-0.119      c-0.14-0.08-0.237-0.186-0.294-0.315s-0.085-0.404-0.085-0.821v-2.361h-0.511v-0.542h0.511v-1.017l0.692-0.417v1.434h0.699      v0.542h-0.699v2.4c0,0.198,0.012,0.325,0.036,0.382c0.024,0.058,0.064,0.103,0.12,0.136s0.135,0.05,0.237,0.05      C385.354,235.859,385.456,235.851,385.582,235.833z"
   id="path384" />
				<path
   fill="#000094"
   d="M343.014,245.955v-5.667h1.952c0.441,0,0.777,0.027,1.009,0.081c0.325,0.075,0.603,0.21,0.831,0.406      c0.3,0.253,0.522,0.575,0.671,0.969c0.148,0.393,0.223,0.842,0.223,1.347c0,0.431-0.051,0.812-0.151,1.145      c-0.101,0.332-0.229,0.607-0.386,0.825s-0.33,0.389-0.517,0.514s-0.412,0.22-0.677,0.284c-0.264,0.064-0.567,0.097-0.91,0.097      H343.014z M343.764,245.286h1.21c0.374,0,0.667-0.034,0.88-0.104c0.212-0.069,0.382-0.167,0.508-0.293      c0.178-0.179,0.316-0.417,0.416-0.718c0.099-0.3,0.148-0.664,0.148-1.092c0-0.593-0.098-1.048-0.292-1.366      s-0.431-0.531-0.709-0.64c-0.201-0.077-0.524-0.116-0.971-0.116h-1.19V245.286z"
   id="path386" />
				<path
   fill="#000094"
   d="M348.742,245.955v-5.667h2.513c0.505,0,0.89,0.051,1.152,0.153c0.263,0.102,0.473,0.281,0.63,0.539      s0.235,0.542,0.235,0.854c0,0.401-0.13,0.74-0.39,1.017c-0.261,0.275-0.663,0.45-1.206,0.525      c0.198,0.096,0.349,0.189,0.452,0.282c0.219,0.201,0.426,0.452,0.622,0.754l0.985,1.542h-0.942l-0.75-1.179      c-0.22-0.341-0.399-0.601-0.542-0.781c-0.142-0.181-0.269-0.307-0.38-0.379c-0.112-0.072-0.227-0.122-0.343-0.15      c-0.085-0.019-0.224-0.027-0.417-0.027h-0.87v2.517H348.742z M349.492,242.789h1.612c0.343,0,0.61-0.035,0.804-0.106      c0.193-0.07,0.34-0.184,0.44-0.34s0.151-0.325,0.151-0.508c0-0.269-0.098-0.489-0.292-0.661c-0.194-0.173-0.502-0.26-0.922-0.26      h-1.794V242.789z"
   id="path388" />
				<path
   fill="#000094"
   d="M353.717,247.528v-0.503h4.611v0.503H353.717z"
   id="path390" />
				<path
   fill="#000094"
   d="M358.568,244.471l0.731-0.062c0.054,0.355,0.18,0.623,0.376,0.802c0.197,0.179,0.436,0.269,0.714,0.269      c0.335,0,0.618-0.126,0.851-0.379c0.231-0.252,0.348-0.587,0.348-1.005c0-0.396-0.111-0.71-0.335-0.939      c-0.223-0.229-0.515-0.344-0.875-0.344c-0.225,0-0.427,0.051-0.607,0.152c-0.18,0.103-0.321,0.234-0.425,0.396l-0.653-0.085      l0.549-2.911h2.818v0.665h-2.262l-0.306,1.523c0.341-0.237,0.697-0.355,1.071-0.355c0.495,0,0.912,0.171,1.252,0.514      c0.341,0.343,0.511,0.783,0.511,1.322c0,0.513-0.149,0.956-0.448,1.329c-0.363,0.459-0.859,0.688-1.488,0.688      c-0.516,0-0.937-0.145-1.263-0.433C358.802,245.33,358.615,244.947,358.568,244.471z"
   id="path392" />
				<path
   fill="#000094"
   d="M362.971,243.16c0-0.67,0.069-1.209,0.207-1.617c0.138-0.409,0.343-0.724,0.615-0.945      c0.271-0.222,0.613-0.333,1.025-0.333c0.305,0,0.571,0.062,0.801,0.184c0.229,0.123,0.419,0.3,0.568,0.53      s0.267,0.512,0.352,0.843s0.128,0.777,0.128,1.339c0,0.665-0.068,1.202-0.205,1.61s-0.341,0.724-0.613,0.947      c-0.271,0.223-0.615,0.334-1.03,0.334c-0.546,0-0.975-0.196-1.287-0.588C363.158,244.992,362.971,244.225,362.971,243.16z       M363.687,243.16c0,0.931,0.108,1.55,0.326,1.857s0.486,0.462,0.806,0.462c0.32,0,0.589-0.154,0.807-0.464      s0.326-0.928,0.326-1.855c0-0.933-0.108-1.553-0.326-1.859s-0.489-0.46-0.813-0.46c-0.32,0-0.575,0.136-0.766,0.406      C363.806,241.593,363.687,242.23,363.687,243.16z"
   id="path394" />
				<path
   fill="#000094"
   d="M369.604,245.955v-1.356h-2.458v-0.638l2.586-3.673h0.568v3.673h0.766v0.638h-0.766v1.356H369.604z       M369.604,243.961v-2.556l-1.773,2.556H369.604z"
   id="path396" />
			</g>
		</g>
	</g>
	<rect
   id="ueberdeckung"
   y="398"
   fill="#FFFFFF"
   width="400"
   height="2" />
	<rect
   id="Ueberdeckung"
   x="397.875"
   y="76.125"
   fill="#FFFFFF"
   width="2.125"
   height="22.208" />
</g>
<g
   id="Beschriftung">
	<g
   id="g401">
		<path
   d="M177.271,393.667l2.398-11.453h1.523l-0.992,4.758h5.938l0.992-4.758h1.531l-2.391,11.453h-1.531l1.125-5.398h-5.93    l-1.133,5.398H177.271z"
   id="path403" />
		<path
   d="M194.779,390.847l1.375,0.141c-0.198,0.683-0.652,1.331-1.363,1.945s-1.559,0.922-2.543,0.922    c-0.615,0-1.178-0.142-1.691-0.426s-0.904-0.696-1.172-1.238s-0.402-1.159-0.402-1.852c0-0.906,0.209-1.785,0.629-2.637    s0.962-1.484,1.629-1.898s1.388-0.621,2.164-0.621c0.99,0,1.78,0.308,2.371,0.922s0.887,1.453,0.887,2.516    c0,0.406-0.037,0.823-0.109,1.25h-6.109c-0.021,0.161-0.031,0.308-0.031,0.438c0,0.776,0.178,1.368,0.535,1.777    s0.793,0.613,1.309,0.613c0.484,0,0.961-0.159,1.43-0.477S194.519,391.445,194.779,390.847z M190.67,388.792h4.656    c0.005-0.146,0.008-0.25,0.008-0.313c0-0.708-0.177-1.251-0.531-1.629s-0.81-0.566-1.367-0.566c-0.604,0-1.155,0.208-1.652,0.625    S190.915,387.953,190.67,388.792z"
   id="path405" />
		<path
   d="M197.529,393.667l1.734-8.297h1.414l-1.734,8.297H197.529z M199.592,383.815l0.336-1.602h1.406l-0.336,1.602H199.592z"
   id="path407" />
		<path
   d="M200.92,393.667l0.227-1.094l4.461-5.023c0.318-0.354,0.672-0.722,1.063-1.102c-0.672,0.067-1.154,0.102-1.445,0.102    h-3.086l0.25-1.18h6.414l-0.188,0.891l-4.5,5.055c-0.256,0.286-0.635,0.68-1.141,1.18c0.787-0.047,1.326-0.07,1.617-0.07h3.266    l-0.258,1.242H200.92z"
   id="path409" />
		<path
   d="M208.443,396.847l2.398-11.477h1.305l-0.242,1.156c0.484-0.505,0.918-0.855,1.301-1.051s0.787-0.293,1.215-0.293    c0.791,0,1.447,0.288,1.969,0.863s0.781,1.399,0.781,2.473c0,0.864-0.143,1.652-0.43,2.363s-0.639,1.282-1.055,1.715    s-0.838,0.75-1.266,0.953s-0.865,0.305-1.313,0.305c-0.994,0-1.766-0.505-2.313-1.516l-0.938,4.508H208.443z M211.24,390.276    c0,0.62,0.045,1.05,0.133,1.289c0.131,0.339,0.344,0.612,0.641,0.82s0.641,0.313,1.031,0.313c0.813,0,1.469-0.457,1.969-1.371    s0.75-1.848,0.75-2.801c0-0.703-0.168-1.246-0.504-1.629s-0.754-0.574-1.254-0.574c-0.359,0-0.693,0.095-1,0.285    s-0.592,0.474-0.855,0.852s-0.48,0.84-0.652,1.387S211.24,389.87,211.24,390.276z"
   id="path411" />
		<path
   d="M217.928,393.667l2.391-11.453h1.414l-2.391,11.453H217.928z"
   id="path413" />
		<path
   d="M227.186,392.636c-0.49,0.422-0.961,0.73-1.414,0.926s-0.938,0.293-1.453,0.293c-0.766,0-1.383-0.226-1.852-0.676    s-0.703-1.027-0.703-1.73c0-0.464,0.105-0.874,0.316-1.23s0.49-0.644,0.84-0.859s0.775-0.371,1.281-0.465    c0.318-0.063,0.92-0.112,1.809-0.148s1.525-0.13,1.91-0.281c0.109-0.386,0.164-0.706,0.164-0.961c0-0.328-0.119-0.586-0.359-0.773    c-0.328-0.261-0.807-0.391-1.438-0.391c-0.594,0-1.08,0.132-1.457,0.395s-0.652,0.637-0.824,1.121l-1.43-0.125    c0.291-0.823,0.754-1.453,1.387-1.891s1.432-0.656,2.395-0.656c1.025,0,1.838,0.245,2.438,0.734    c0.459,0.364,0.688,0.839,0.688,1.422c0,0.442-0.064,0.956-0.195,1.539l-0.461,2.063c-0.146,0.656-0.219,1.19-0.219,1.602    c0,0.261,0.057,0.636,0.172,1.125h-1.43C227.271,393.396,227.217,393.053,227.186,392.636z M227.709,389.464    c-0.197,0.078-0.41,0.138-0.637,0.18s-0.605,0.086-1.137,0.133c-0.822,0.073-1.404,0.165-1.742,0.277s-0.594,0.29-0.766,0.535    s-0.258,0.516-0.258,0.813c0,0.396,0.137,0.722,0.41,0.977s0.662,0.383,1.168,0.383c0.469,0,0.92-0.124,1.352-0.371    s0.773-0.593,1.023-1.035S227.568,390.281,227.709,389.464z"
   id="path415" />
		<path
   d="M233.795,392.519l-0.234,1.156c-0.338,0.089-0.666,0.133-0.984,0.133c-0.563,0-1.01-0.138-1.344-0.414    c-0.25-0.208-0.375-0.492-0.375-0.852c0-0.183,0.068-0.602,0.203-1.258l1.008-4.82h-1.117l0.227-1.094h1.117l0.43-2.039    l1.617-0.977l-0.633,3.016h1.391l-0.234,1.094h-1.383l-0.961,4.586c-0.119,0.583-0.18,0.933-0.18,1.047    c0,0.167,0.049,0.294,0.145,0.383s0.254,0.133,0.473,0.133C233.271,392.612,233.551,392.581,233.795,392.519z"
   id="path417" />
		<path
   d="M238.24,392.519l-0.234,1.156c-0.338,0.089-0.666,0.133-0.984,0.133c-0.563,0-1.01-0.138-1.344-0.414    c-0.25-0.208-0.375-0.492-0.375-0.852c0-0.183,0.068-0.602,0.203-1.258l1.008-4.82h-1.117l0.227-1.094h1.117l0.43-2.039    l1.617-0.977l-0.633,3.016h1.391l-0.234,1.094h-1.383l-0.961,4.586c-0.119,0.583-0.18,0.933-0.18,1.047    c0,0.167,0.049,0.294,0.145,0.383s0.254,0.133,0.473,0.133C237.717,392.612,237.996,392.581,238.24,392.519z"
   id="path419" />
		<path
   d="M245.475,390.847l1.375,0.141c-0.197,0.683-0.652,1.331-1.363,1.945s-1.559,0.922-2.543,0.922    c-0.615,0-1.178-0.142-1.691-0.426s-0.904-0.696-1.172-1.238s-0.402-1.159-0.402-1.852c0-0.906,0.209-1.785,0.629-2.637    s0.963-1.484,1.629-1.898s1.389-0.621,2.164-0.621c0.99,0,1.779,0.308,2.371,0.922s0.887,1.453,0.887,2.516    c0,0.406-0.037,0.823-0.109,1.25h-6.109c-0.021,0.161-0.031,0.308-0.031,0.438c0,0.776,0.178,1.368,0.535,1.777    s0.793,0.613,1.309,0.613c0.484,0,0.961-0.159,1.43-0.477S245.215,391.445,245.475,390.847z M241.365,388.792h4.656    c0.006-0.146,0.008-0.25,0.008-0.313c0-0.708-0.178-1.251-0.531-1.629s-0.811-0.566-1.367-0.566c-0.604,0-1.154,0.208-1.652,0.625    S241.609,387.953,241.365,388.792z"
   id="path421" />
	</g>
	<g
   id="g423">
		<path
   d="M24.891,195.092l2.398-11.453h8.266l-0.273,1.305h-6.734l-0.75,3.563h6.563l-0.273,1.305h-6.563l-0.828,3.984h7.211    l-0.273,1.297H24.891z"
   id="path425" />
		<path
   d="M35.321,195.092l1.734-8.297h1.414l-1.734,8.297H35.321z M37.383,185.241l0.336-1.602h1.406l-0.336,1.602H37.383z"
   id="path427" />
		<path
   d="M39.063,192.256l1.414-0.086c0,0.406,0.063,0.752,0.188,1.039s0.355,0.521,0.691,0.703s0.728,0.273,1.176,0.273    c0.625,0,1.094-0.125,1.406-0.375s0.469-0.544,0.469-0.883c0-0.245-0.094-0.477-0.281-0.695c-0.193-0.219-0.663-0.488-1.41-0.809    s-1.225-0.545-1.434-0.676c-0.349-0.213-0.612-0.465-0.789-0.754s-0.266-0.621-0.266-0.996c0-0.656,0.26-1.219,0.781-1.688    s1.25-0.703,2.188-0.703c1.042,0,1.834,0.241,2.379,0.723s0.827,1.116,0.848,1.902l-1.383,0.094    c-0.021-0.5-0.198-0.896-0.531-1.188s-0.805-0.438-1.414-0.438c-0.49,0-0.87,0.112-1.141,0.336s-0.406,0.466-0.406,0.727    s0.117,0.49,0.352,0.688c0.156,0.135,0.56,0.344,1.211,0.625c1.083,0.469,1.766,0.838,2.047,1.109    c0.448,0.432,0.672,0.958,0.672,1.578c0,0.412-0.126,0.815-0.379,1.211s-0.638,0.712-1.156,0.949s-1.129,0.355-1.832,0.355    c-0.958,0-1.773-0.237-2.445-0.711S39.026,193.324,39.063,192.256z"
   id="path429" />
		<path
   d="M48.508,195.092l-0.867-8.297H49l0.375,3.727l0.148,2.094c0.01,0.156,0.026,0.471,0.047,0.945    c0.156-0.531,0.289-0.939,0.398-1.223s0.284-0.689,0.523-1.215l1.977-4.328h1.539l0.273,4.148c0.042,0.63,0.068,1.471,0.078,2.523    c0.26-0.698,0.685-1.667,1.273-2.906l1.781-3.766h1.414l-4.055,8.297h-1.469l-0.313-4.867c-0.021-0.302-0.037-0.891-0.047-1.766    c-0.213,0.557-0.466,1.159-0.758,1.805l-2.195,4.828H48.508z"
   id="path431" />
		<path
   d="M64.079,194.061c-0.49,0.422-0.961,0.73-1.414,0.926s-0.938,0.293-1.453,0.293c-0.766,0-1.383-0.225-1.852-0.676    s-0.703-1.027-0.703-1.73c0-0.463,0.105-0.874,0.316-1.23s0.491-0.643,0.84-0.859s0.776-0.371,1.281-0.465    c0.318-0.063,0.92-0.112,1.809-0.148s1.525-0.13,1.91-0.281c0.109-0.385,0.164-0.706,0.164-0.961c0-0.328-0.12-0.586-0.359-0.773    c-0.328-0.26-0.807-0.391-1.438-0.391c-0.594,0-1.08,0.131-1.457,0.395s-0.652,0.637-0.824,1.121l-1.43-0.125    c0.292-0.823,0.754-1.453,1.387-1.891s1.431-0.656,2.395-0.656c1.026,0,1.838,0.245,2.438,0.734    c0.458,0.365,0.688,0.838,0.688,1.422c0,0.443-0.065,0.956-0.195,1.539l-0.461,2.063c-0.146,0.656-0.219,1.19-0.219,1.602    c0,0.26,0.057,0.635,0.172,1.125h-1.43C64.165,194.821,64.11,194.478,64.079,194.061z M64.602,190.889    c-0.198,0.078-0.41,0.138-0.637,0.18s-0.605,0.086-1.137,0.133c-0.823,0.073-1.404,0.166-1.742,0.277s-0.594,0.291-0.766,0.535    s-0.258,0.516-0.258,0.813c0,0.396,0.137,0.721,0.41,0.977s0.663,0.383,1.168,0.383c0.469,0,0.919-0.124,1.352-0.371    s0.773-0.592,1.023-1.035S64.461,191.707,64.602,190.889z"
   id="path433" />
		<path
   d="M67.516,192.256l1.414-0.086c0,0.406,0.063,0.752,0.188,1.039s0.355,0.521,0.691,0.703s0.728,0.273,1.176,0.273    c0.625,0,1.094-0.125,1.406-0.375s0.469-0.544,0.469-0.883c0-0.245-0.094-0.477-0.281-0.695c-0.193-0.219-0.663-0.488-1.41-0.809    s-1.225-0.545-1.434-0.676c-0.349-0.213-0.612-0.465-0.789-0.754s-0.266-0.621-0.266-0.996c0-0.656,0.26-1.219,0.781-1.688    s1.25-0.703,2.188-0.703c1.042,0,1.834,0.241,2.379,0.723s0.827,1.116,0.848,1.902l-1.383,0.094    c-0.021-0.5-0.198-0.896-0.531-1.188s-0.805-0.438-1.414-0.438c-0.49,0-0.87,0.112-1.141,0.336S70,188.504,70,188.764    s0.117,0.49,0.352,0.688c0.156,0.135,0.56,0.344,1.211,0.625c1.083,0.469,1.766,0.838,2.047,1.109    c0.448,0.432,0.672,0.958,0.672,1.578c0,0.412-0.126,0.815-0.379,1.211s-0.638,0.712-1.156,0.949s-1.129,0.355-1.832,0.355    c-0.958,0-1.773-0.237-2.445-0.711S67.479,193.324,67.516,192.256z"
   id="path435" />
		<path
   d="M75.516,192.256l1.414-0.086c0,0.406,0.063,0.752,0.188,1.039s0.355,0.521,0.691,0.703s0.728,0.273,1.176,0.273    c0.625,0,1.094-0.125,1.406-0.375s0.469-0.544,0.469-0.883c0-0.245-0.094-0.477-0.281-0.695c-0.193-0.219-0.663-0.488-1.41-0.809    s-1.225-0.545-1.434-0.676c-0.349-0.213-0.612-0.465-0.789-0.754s-0.266-0.621-0.266-0.996c0-0.656,0.26-1.219,0.781-1.688    s1.25-0.703,2.188-0.703c1.042,0,1.834,0.241,2.379,0.723s0.827,1.116,0.848,1.902l-1.383,0.094    c-0.021-0.5-0.198-0.896-0.531-1.188s-0.805-0.438-1.414-0.438c-0.49,0-0.87,0.112-1.141,0.336S78,188.504,78,188.764    s0.117,0.49,0.352,0.688c0.156,0.135,0.56,0.344,1.211,0.625c1.083,0.469,1.766,0.838,2.047,1.109    c0.448,0.432,0.672,0.958,0.672,1.578c0,0.412-0.126,0.815-0.379,1.211s-0.638,0.712-1.156,0.949s-1.129,0.355-1.832,0.355    c-0.958,0-1.773-0.237-2.445-0.711S75.479,193.324,75.516,192.256z"
   id="path437" />
		<path
   d="M89.477,192.272l1.375,0.141c-0.198,0.682-0.652,1.331-1.363,1.945s-1.559,0.922-2.543,0.922    c-0.615,0-1.178-0.142-1.691-0.426s-0.904-0.697-1.172-1.238s-0.402-1.159-0.402-1.852c0-0.906,0.209-1.785,0.629-2.637    s0.962-1.484,1.629-1.898s1.388-0.621,2.164-0.621c0.99,0,1.78,0.307,2.371,0.922s0.887,1.453,0.887,2.516    c0,0.406-0.037,0.823-0.109,1.25h-6.109c-0.021,0.162-0.031,0.307-0.031,0.438c0,0.776,0.178,1.369,0.535,1.777    s0.793,0.613,1.309,0.613c0.484,0,0.961-0.159,1.43-0.477S89.217,192.871,89.477,192.272z M85.368,190.217h4.656    c0.005-0.146,0.008-0.25,0.008-0.313c0-0.708-0.177-1.251-0.531-1.629s-0.81-0.566-1.367-0.566c-0.604,0-1.155,0.208-1.652,0.625    S85.612,189.379,85.368,190.217z"
   id="path439" />
		<path
   d="M92.282,195.092l1.734-8.297h1.25l-0.352,1.695c0.427-0.641,0.845-1.115,1.254-1.422s0.827-0.461,1.254-0.461    c0.281,0,0.627,0.102,1.039,0.305l-0.578,1.313c-0.245-0.177-0.513-0.266-0.805-0.266c-0.495,0-1.002,0.276-1.523,0.828    s-0.93,1.544-1.227,2.977l-0.703,3.328H92.282z"
   id="path441" />
		<path
   d="M97.61,195.092L100,183.639h1.414l-0.852,4.094c0.448-0.412,0.854-0.702,1.219-0.871s0.745-0.254,1.141-0.254    c0.776,0,1.423,0.289,1.941,0.867s0.777,1.419,0.777,2.523c0,0.734-0.104,1.406-0.313,2.016s-0.466,1.121-0.773,1.535    s-0.625,0.745-0.953,0.992s-0.664,0.432-1.008,0.555s-0.674,0.184-0.992,0.184c-0.547,0-1.029-0.145-1.445-0.434    s-0.742-0.73-0.977-1.324l-0.328,1.57H97.61z M99.704,191.686l-0.008,0.266c0,0.708,0.169,1.248,0.508,1.617    s0.76,0.555,1.266,0.555c0.495,0,0.949-0.173,1.363-0.52s0.754-0.887,1.02-1.621s0.398-1.412,0.398-2.031    c0-0.698-0.168-1.24-0.504-1.625s-0.751-0.578-1.246-0.578c-0.51,0-0.979,0.197-1.406,0.59s-0.784,0.999-1.07,1.816    C99.811,190.764,99.704,191.274,99.704,191.686z"
   id="path443" />
		<path
   d="M112.102,194.061c-0.49,0.422-0.961,0.73-1.414,0.926s-0.938,0.293-1.453,0.293c-0.766,0-1.383-0.225-1.852-0.676    s-0.703-1.027-0.703-1.73c0-0.463,0.105-0.874,0.316-1.23s0.491-0.643,0.84-0.859s0.776-0.371,1.281-0.465    c0.318-0.063,0.92-0.112,1.809-0.148s1.525-0.13,1.91-0.281c0.109-0.385,0.164-0.706,0.164-0.961c0-0.328-0.12-0.586-0.359-0.773    c-0.328-0.26-0.807-0.391-1.438-0.391c-0.594,0-1.08,0.131-1.457,0.395s-0.652,0.637-0.824,1.121l-1.43-0.125    c0.292-0.823,0.754-1.453,1.387-1.891s1.431-0.656,2.395-0.656c1.026,0,1.838,0.245,2.438,0.734    c0.458,0.365,0.688,0.838,0.688,1.422c0,0.443-0.065,0.956-0.195,1.539l-0.461,2.063c-0.146,0.656-0.219,1.19-0.219,1.602    c0,0.26,0.057,0.635,0.172,1.125h-1.43C112.188,194.821,112.133,194.478,112.102,194.061z M112.625,190.889    c-0.198,0.078-0.41,0.138-0.637,0.18s-0.605,0.086-1.137,0.133c-0.823,0.073-1.404,0.166-1.742,0.277s-0.594,0.291-0.766,0.535    s-0.258,0.516-0.258,0.813c0,0.396,0.137,0.721,0.41,0.977s0.663,0.383,1.168,0.383c0.469,0,0.919-0.124,1.352-0.371    s0.773-0.592,1.023-1.035S112.485,191.707,112.625,190.889z"
   id="path445" />
		<path
   d="M121,193.889c-0.807,0.927-1.651,1.391-2.531,1.391c-0.787,0-1.441-0.291-1.965-0.871s-0.785-1.423-0.785-2.527    c0-1.01,0.207-1.934,0.621-2.77s0.932-1.462,1.555-1.879s1.246-0.625,1.871-0.625c1.031,0,1.81,0.498,2.336,1.492l0.938-4.461    h1.406l-2.391,11.453h-1.305L121,193.889z M117.125,191.616c0,0.578,0.057,1.034,0.172,1.367s0.31,0.611,0.586,0.832    s0.607,0.332,0.992,0.332c0.641,0,1.221-0.333,1.742-1c0.698-0.885,1.047-1.979,1.047-3.281c0-0.656-0.172-1.169-0.516-1.539    s-0.776-0.555-1.297-0.555c-0.338,0-0.647,0.076-0.926,0.227s-0.555,0.408-0.828,0.77s-0.504,0.822-0.691,1.379    S117.125,191.194,117.125,191.616z"
   id="path447" />
	</g>
	<g
   id="g449">
		<path
   d="M58.776,104.599l0.273-1.297h5.016l-0.977,4.664c-0.63,0.396-1.349,0.719-2.156,0.969    c-0.808,0.25-1.602,0.375-2.383,0.375c-1.667,0-2.912-0.502-3.734-1.508c-0.693-0.849-1.039-1.94-1.039-3.273    c0-1.375,0.303-2.626,0.91-3.754c0.606-1.127,1.372-1.961,2.297-2.5c0.924-0.539,1.952-0.809,3.082-0.809    c0.813,0,1.542,0.147,2.188,0.441c0.646,0.294,1.141,0.688,1.484,1.18s0.591,1.134,0.742,1.926l-1.5,0.164    c-0.162-0.786-0.496-1.389-1.004-1.809c-0.508-0.419-1.16-0.629-1.957-0.629c-0.828,0-1.602,0.226-2.32,0.676    c-0.719,0.451-1.293,1.13-1.723,2.039c-0.43,0.909-0.645,1.941-0.645,3.098c0,1.151,0.284,2.021,0.852,2.609    c0.567,0.589,1.352,0.883,2.352,0.883c0.995,0,2.065-0.328,3.211-0.984l0.516-2.461H58.776z"
   id="path451" />
		<path
   d="M70.792,108.083c-0.49,0.422-0.961,0.73-1.414,0.926s-0.938,0.293-1.453,0.293c-0.766,0-1.383-0.225-1.852-0.676    c-0.469-0.45-0.703-1.027-0.703-1.73c0-0.463,0.105-0.874,0.316-1.23c0.211-0.356,0.491-0.643,0.84-0.859    c0.349-0.216,0.776-0.371,1.281-0.465c0.317-0.063,0.92-0.112,1.809-0.148c0.888-0.036,1.524-0.13,1.91-0.281    c0.109-0.385,0.164-0.706,0.164-0.961c0-0.328-0.12-0.586-0.359-0.773c-0.328-0.26-0.808-0.391-1.438-0.391    c-0.594,0-1.08,0.132-1.457,0.395c-0.378,0.263-0.652,0.637-0.824,1.121l-1.43-0.125c0.292-0.823,0.754-1.453,1.387-1.891    s1.431-0.656,2.395-0.656c1.026,0,1.838,0.245,2.438,0.734c0.458,0.365,0.688,0.839,0.688,1.422c0,0.443-0.065,0.956-0.195,1.539    l-0.461,2.063c-0.146,0.656-0.219,1.19-0.219,1.602c0,0.261,0.057,0.636,0.172,1.125h-1.43    C70.878,108.844,70.823,108.5,70.792,108.083z M71.315,104.911c-0.198,0.078-0.41,0.138-0.637,0.18    c-0.227,0.042-0.605,0.086-1.137,0.133c-0.823,0.073-1.404,0.166-1.742,0.277c-0.339,0.112-0.594,0.291-0.766,0.535    c-0.172,0.245-0.258,0.516-0.258,0.813c0,0.396,0.137,0.722,0.41,0.977c0.273,0.255,0.663,0.383,1.168,0.383    c0.469,0,0.919-0.124,1.352-0.371c0.432-0.247,0.773-0.592,1.023-1.035C70.979,106.359,71.175,105.729,71.315,104.911z"
   id="path453" />
		<path
   d="M74.229,106.278l1.414-0.086c0,0.406,0.063,0.753,0.188,1.039c0.125,0.287,0.355,0.521,0.691,0.703    c0.336,0.183,0.728,0.273,1.176,0.273c0.625,0,1.094-0.125,1.406-0.375s0.469-0.544,0.469-0.883c0-0.245-0.094-0.477-0.281-0.695    c-0.193-0.219-0.663-0.488-1.41-0.809c-0.748-0.32-1.226-0.545-1.434-0.676c-0.349-0.213-0.612-0.465-0.789-0.754    c-0.177-0.289-0.266-0.621-0.266-0.996c0-0.656,0.26-1.219,0.781-1.688c0.521-0.469,1.25-0.703,2.188-0.703    c1.042,0,1.834,0.241,2.379,0.723c0.544,0.482,0.827,1.116,0.848,1.902l-1.383,0.094c-0.021-0.5-0.198-0.896-0.531-1.188    c-0.333-0.292-0.805-0.438-1.414-0.438c-0.49,0-0.87,0.112-1.141,0.336c-0.271,0.224-0.406,0.466-0.406,0.727    c0,0.261,0.117,0.49,0.352,0.688c0.156,0.136,0.56,0.344,1.211,0.625c1.083,0.469,1.766,0.839,2.047,1.109    c0.448,0.433,0.672,0.958,0.672,1.578c0,0.412-0.126,0.815-0.379,1.211c-0.253,0.396-0.638,0.712-1.156,0.949    c-0.519,0.237-1.129,0.355-1.832,0.355c-0.958,0-1.773-0.237-2.445-0.711C74.511,108.117,74.193,107.346,74.229,106.278z"
   id="path455" />
		<path
   d="M82.097,109.114l2.391-11.453h1.414l-0.852,4.094c0.448-0.411,0.854-0.702,1.219-0.871    c0.364-0.169,0.745-0.254,1.141-0.254c0.776,0,1.423,0.289,1.941,0.867c0.518,0.578,0.777,1.419,0.777,2.523    c0,0.734-0.104,1.406-0.313,2.016c-0.208,0.609-0.466,1.121-0.773,1.535c-0.308,0.414-0.625,0.745-0.953,0.992    c-0.328,0.248-0.664,0.433-1.008,0.555s-0.675,0.184-0.992,0.184c-0.547,0-1.029-0.145-1.445-0.434    c-0.417-0.289-0.742-0.73-0.977-1.324l-0.328,1.57H82.097z M84.19,105.708l-0.008,0.266c0,0.708,0.169,1.248,0.508,1.617    c0.338,0.37,0.76,0.555,1.266,0.555c0.495,0,0.949-0.173,1.363-0.52c0.414-0.346,0.754-0.887,1.02-1.621s0.398-1.411,0.398-2.031    c0-0.698-0.168-1.239-0.504-1.625c-0.336-0.385-0.751-0.578-1.246-0.578c-0.511,0-0.979,0.197-1.406,0.59    c-0.427,0.394-0.784,0.999-1.07,1.816C84.297,104.786,84.19,105.297,84.19,105.708z"
   id="path457" />
		<path
   d="M97.089,106.294l1.375,0.141c-0.198,0.683-0.652,1.331-1.363,1.945c-0.711,0.615-1.559,0.922-2.543,0.922    c-0.615,0-1.179-0.142-1.691-0.426c-0.513-0.284-0.904-0.696-1.172-1.238c-0.269-0.542-0.402-1.159-0.402-1.852    c0-0.906,0.209-1.785,0.629-2.637c0.419-0.852,0.962-1.484,1.629-1.898c0.667-0.414,1.388-0.621,2.164-0.621    c0.989,0,1.78,0.308,2.371,0.922c0.591,0.615,0.887,1.453,0.887,2.516c0,0.406-0.037,0.823-0.109,1.25h-6.109    c-0.021,0.162-0.031,0.308-0.031,0.438c0,0.776,0.178,1.369,0.535,1.777c0.356,0.409,0.793,0.613,1.309,0.613    c0.484,0,0.961-0.159,1.43-0.477C96.464,107.352,96.828,106.893,97.089,106.294z M92.979,104.239h4.656    c0.005-0.146,0.008-0.25,0.008-0.313c0-0.708-0.177-1.251-0.531-1.629c-0.354-0.377-0.81-0.566-1.367-0.566    c-0.604,0-1.155,0.208-1.652,0.625C93.595,102.773,93.224,103.401,92.979,104.239z"
   id="path459" />
		<path
   d="M99.894,109.114l2.391-11.453h1.414l-0.914,4.398c0.526-0.51,1.016-0.876,1.469-1.098    c0.453-0.221,0.919-0.332,1.398-0.332c0.688,0,1.221,0.181,1.602,0.543c0.38,0.362,0.57,0.84,0.57,1.434    c0,0.292-0.083,0.828-0.25,1.609l-1.023,4.898h-1.414l1.055-5.023c0.151-0.729,0.227-1.188,0.227-1.375    c0-0.271-0.094-0.492-0.281-0.664s-0.458-0.258-0.813-0.258c-0.511,0-0.998,0.134-1.461,0.402    c-0.464,0.269-0.827,0.636-1.09,1.102c-0.263,0.466-0.504,1.218-0.723,2.254l-0.742,3.563H99.894z"
   id="path461" />
		<path
   d="M114.386,108.083c-0.49,0.422-0.961,0.73-1.414,0.926s-0.938,0.293-1.453,0.293c-0.766,0-1.383-0.225-1.852-0.676    c-0.469-0.45-0.703-1.027-0.703-1.73c0-0.463,0.105-0.874,0.316-1.23c0.211-0.356,0.491-0.643,0.84-0.859    c0.349-0.216,0.776-0.371,1.281-0.465c0.317-0.063,0.92-0.112,1.809-0.148c0.888-0.036,1.524-0.13,1.91-0.281    c0.109-0.385,0.164-0.706,0.164-0.961c0-0.328-0.12-0.586-0.359-0.773c-0.328-0.26-0.808-0.391-1.438-0.391    c-0.594,0-1.08,0.132-1.457,0.395c-0.378,0.263-0.652,0.637-0.824,1.121l-1.43-0.125c0.292-0.823,0.754-1.453,1.387-1.891    s1.431-0.656,2.395-0.656c1.026,0,1.838,0.245,2.438,0.734c0.458,0.365,0.688,0.839,0.688,1.422c0,0.443-0.065,0.956-0.195,1.539    l-0.461,2.063c-0.146,0.656-0.219,1.19-0.219,1.602c0,0.261,0.057,0.636,0.172,1.125h-1.43    C114.472,108.844,114.417,108.5,114.386,108.083z M114.909,104.911c-0.198,0.078-0.41,0.138-0.637,0.18    c-0.227,0.042-0.605,0.086-1.137,0.133c-0.823,0.073-1.404,0.166-1.742,0.277c-0.339,0.112-0.594,0.291-0.766,0.535    c-0.172,0.245-0.258,0.516-0.258,0.813c0,0.396,0.137,0.722,0.41,0.977c0.273,0.255,0.663,0.383,1.168,0.383    c0.469,0,0.919-0.124,1.352-0.371c0.432-0.247,0.773-0.592,1.023-1.035C114.573,106.359,114.769,105.729,114.909,104.911z     M111.745,99.528l0.336-1.602h1.477l-0.336,1.602H111.745z M114.628,99.528l0.336-1.602h1.469l-0.328,1.602H114.628z"
   id="path463" />
		<path
   d="M117.581,109.114l2.391-11.453h1.414l-2.391,11.453H117.581z"
   id="path465" />
		<path
   d="M124.55,107.966l-0.234,1.156c-0.339,0.088-0.667,0.133-0.984,0.133c-0.563,0-1.011-0.138-1.344-0.414    c-0.25-0.208-0.375-0.492-0.375-0.852c0-0.182,0.067-0.602,0.203-1.258l1.008-4.82h-1.117l0.227-1.094h1.117l0.43-2.039    l1.617-0.977l-0.633,3.016h1.391l-0.234,1.094h-1.383l-0.961,4.586c-0.12,0.583-0.18,0.933-0.18,1.047    c0,0.167,0.048,0.294,0.145,0.383c0.096,0.089,0.254,0.133,0.473,0.133C124.026,108.06,124.305,108.028,124.55,107.966z"
   id="path467" />
		<path
   d="M131.784,106.294l1.375,0.141c-0.198,0.683-0.652,1.331-1.363,1.945c-0.711,0.615-1.559,0.922-2.543,0.922    c-0.615,0-1.179-0.142-1.691-0.426c-0.513-0.284-0.904-0.696-1.172-1.238c-0.269-0.542-0.402-1.159-0.402-1.852    c0-0.906,0.209-1.785,0.629-2.637c0.419-0.852,0.962-1.484,1.629-1.898c0.667-0.414,1.388-0.621,2.164-0.621    c0.989,0,1.78,0.308,2.371,0.922c0.591,0.615,0.887,1.453,0.887,2.516c0,0.406-0.037,0.823-0.109,1.25h-6.109    c-0.021,0.162-0.031,0.308-0.031,0.438c0,0.776,0.178,1.369,0.535,1.777c0.356,0.409,0.793,0.613,1.309,0.613    c0.484,0,0.961-0.159,1.43-0.477C131.159,107.352,131.523,106.893,131.784,106.294z M127.675,104.239h4.656    c0.005-0.146,0.008-0.25,0.008-0.313c0-0.708-0.177-1.251-0.531-1.629c-0.354-0.377-0.81-0.566-1.367-0.566    c-0.604,0-1.155,0.208-1.652,0.625C128.291,102.773,127.919,103.401,127.675,104.239z"
   id="path469" />
		<path
   d="M134.589,109.114l1.734-8.297h1.25l-0.352,1.695c0.427-0.641,0.845-1.114,1.254-1.422    c0.409-0.307,0.827-0.461,1.254-0.461c0.281,0,0.627,0.102,1.039,0.305l-0.578,1.313c-0.245-0.177-0.513-0.266-0.805-0.266    c-0.495,0-1.003,0.276-1.523,0.828c-0.521,0.552-0.93,1.544-1.227,2.977l-0.703,3.328H134.589z"
   id="path471" />
	</g>
	<g
   id="g473">
		<path
   d="M218.388,26.715l-2.203-11.453h1.477l1.328,6.828c0.245,1.24,0.403,2.24,0.477,3c0.479-0.979,0.872-1.755,1.18-2.328    l4.086-7.5h1.578l-6.281,11.453H218.388z"
   id="path475" />
		<path
   d="M230.903,23.895l1.375,0.141c-0.198,0.683-0.652,1.331-1.363,1.945c-0.711,0.615-1.559,0.922-2.543,0.922    c-0.614,0-1.179-0.142-1.691-0.426s-0.903-0.696-1.172-1.238c-0.269-0.542-0.402-1.159-0.402-1.852    c0-0.906,0.21-1.785,0.629-2.637s0.962-1.484,1.629-1.898s1.388-0.621,2.164-0.621c0.989,0,1.78,0.308,2.371,0.922    c0.591,0.615,0.887,1.453,0.887,2.516c0,0.406-0.036,0.823-0.109,1.25h-6.109c-0.021,0.162-0.031,0.308-0.031,0.438    c0,0.776,0.179,1.369,0.535,1.777c0.356,0.409,0.793,0.613,1.309,0.613c0.484,0,0.961-0.159,1.43-0.477    C230.278,24.953,230.643,24.494,230.903,23.895z M226.794,21.84h4.656c0.005-0.146,0.008-0.25,0.008-0.313    c0-0.708-0.177-1.251-0.531-1.629c-0.354-0.377-0.81-0.566-1.367-0.566c-0.604,0-1.155,0.208-1.652,0.625    C227.41,20.375,227.039,21.002,226.794,21.84z"
   id="path477" />
		<path
   d="M233.708,26.715l1.734-8.297h1.281l-0.305,1.445c0.558-0.567,1.078-0.981,1.563-1.242c0.484-0.26,0.979-0.391,1.484-0.391    c0.672,0,1.199,0.183,1.582,0.547c0.383,0.365,0.574,0.852,0.574,1.461c0,0.308-0.067,0.792-0.203,1.453l-1.055,5.023h-1.414    l1.102-5.258c0.109-0.51,0.164-0.888,0.164-1.133c0-0.276-0.095-0.5-0.285-0.672s-0.465-0.258-0.824-0.258    c-0.724,0-1.368,0.261-1.934,0.781c-0.565,0.521-0.98,1.414-1.246,2.68l-0.805,3.859H233.708z"
   id="path479" />
		<path
   d="M245.911,25.567l-0.234,1.156c-0.339,0.088-0.667,0.133-0.984,0.133c-0.563,0-1.011-0.138-1.344-0.414    c-0.25-0.208-0.375-0.492-0.375-0.852c0-0.182,0.067-0.602,0.203-1.258l1.008-4.82h-1.117l0.227-1.094h1.117l0.43-2.039    l1.617-0.977l-0.633,3.016h1.391l-0.234,1.094h-1.383l-0.961,4.586c-0.12,0.583-0.18,0.933-0.18,1.047    c0,0.167,0.048,0.294,0.145,0.383c0.097,0.089,0.254,0.133,0.473,0.133C245.388,25.661,245.666,25.629,245.911,25.567z"
   id="path481" />
		<path
   d="M246.997,26.715l1.734-8.297h1.414l-1.734,8.297H246.997z M249.06,16.864l0.336-1.602h1.406l-0.336,1.602H249.06z"
   id="path483" />
		<path
   d="M250.497,26.715l2.391-11.453h1.414l-2.391,11.453H250.497z"
   id="path485" />
	</g>
	<g
   id="g487">
		<path
   d="M313.379,311.53l2.391-11.453h3.453c0.828,0,1.461,0.06,1.898,0.18c0.625,0.161,1.158,0.449,1.602,0.863    c0.442,0.414,0.775,0.931,1,1.551c0.224,0.62,0.336,1.315,0.336,2.086c0,0.922-0.14,1.762-0.418,2.52    c-0.279,0.758-0.644,1.425-1.094,2c-0.451,0.575-0.922,1.026-1.414,1.352s-1.074,0.566-1.746,0.723    c-0.511,0.12-1.139,0.18-1.883,0.18H313.379z M315.184,310.233h1.813c0.817,0,1.544-0.075,2.18-0.227    c0.396-0.094,0.734-0.231,1.016-0.414c0.369-0.234,0.705-0.544,1.008-0.93c0.396-0.511,0.712-1.093,0.949-1.746    c0.236-0.653,0.355-1.397,0.355-2.23c0-0.927-0.162-1.64-0.484-2.137c-0.323-0.497-0.734-0.827-1.234-0.988    c-0.37-0.12-0.945-0.18-1.727-0.18h-2.023L315.184,310.233z"
   id="path489" />
		<path
   d="M324.754,311.53l1.734-8.297h1.25l-0.352,1.695c0.427-0.641,0.845-1.114,1.254-1.422c0.408-0.308,0.826-0.461,1.254-0.461    c0.281,0,0.627,0.102,1.039,0.305l-0.578,1.313c-0.245-0.177-0.514-0.266-0.805-0.266c-0.495,0-1.003,0.276-1.523,0.828    c-0.521,0.552-0.93,1.544-1.227,2.977l-0.703,3.328H324.754z"
   id="path491" />
		<path
   d="M335.746,310.03c-0.995,1.125-2.014,1.688-3.055,1.688c-0.641,0-1.158-0.184-1.551-0.551    c-0.394-0.367-0.59-0.816-0.59-1.348c0-0.349,0.088-0.948,0.266-1.797l1-4.789h1.414l-1.109,5.305    c-0.094,0.442-0.141,0.786-0.141,1.031c0,0.313,0.095,0.556,0.285,0.73c0.189,0.175,0.47,0.262,0.84,0.262    c0.396,0,0.782-0.097,1.16-0.289c0.377-0.192,0.703-0.453,0.977-0.781s0.496-0.716,0.668-1.164    c0.114-0.286,0.247-0.789,0.398-1.508l0.75-3.586h1.414l-1.734,8.297h-1.305L335.746,310.03z"
   id="path493" />
		<path
   d="M344.707,308.507l1.414,0.148c-0.354,1.036-0.858,1.806-1.512,2.309c-0.654,0.503-1.397,0.754-2.23,0.754    c-0.901,0-1.632-0.292-2.191-0.875c-0.561-0.583-0.84-1.398-0.84-2.445c0-0.906,0.18-1.797,0.539-2.672s0.873-1.54,1.543-1.996    c0.669-0.456,1.434-0.684,2.293-0.684c0.891,0,1.596,0.251,2.117,0.754c0.521,0.503,0.781,1.168,0.781,1.996l-1.391,0.094    c-0.006-0.526-0.158-0.938-0.457-1.234c-0.3-0.297-0.694-0.445-1.184-0.445c-0.568,0-1.061,0.18-1.477,0.539    c-0.417,0.359-0.744,0.905-0.98,1.637c-0.237,0.731-0.355,1.437-0.355,2.113c0,0.708,0.156,1.239,0.469,1.594    s0.697,0.531,1.156,0.531c0.458,0,0.896-0.175,1.316-0.523C344.138,309.752,344.467,309.221,344.707,308.507z"
   id="path495" />
		<path
   d="M346.996,311.53l2.398-11.453h1.406l-1.484,7.102l4.125-3.945h1.867l-3.539,3.094l2.141,5.203h-1.547l-1.656-4.258    l-1.719,1.484l-0.578,2.773H346.996z"
   id="path497" />
		<path
   d="M355.191,308.093l0.297-1.414h4.313l-0.289,1.414H355.191z"
   id="path499" />
		<path
   d="M299.398,330.73l1.734-8.297h1.414l-0.289,1.367c0.525-0.588,0.996-0.994,1.41-1.219s0.863-0.336,1.348-0.336    c0.516,0,0.946,0.137,1.293,0.41c0.346,0.273,0.574,0.654,0.684,1.145c0.422-0.521,0.865-0.91,1.332-1.168    c0.466-0.258,0.957-0.387,1.473-0.387c0.692,0,1.212,0.164,1.559,0.492c0.346,0.328,0.52,0.789,0.52,1.383    c0,0.256-0.061,0.678-0.18,1.266l-1.117,5.344h-1.414l1.141-5.484c0.099-0.447,0.148-0.768,0.148-0.961    c0-0.271-0.086-0.484-0.258-0.641s-0.414-0.234-0.727-0.234c-0.422,0-0.852,0.127-1.289,0.383s-0.777,0.59-1.02,1.004    s-0.455,1.051-0.637,1.91l-0.844,4.023h-1.414l1.172-5.602c0.083-0.381,0.125-0.65,0.125-0.813c0-0.271-0.085-0.49-0.254-0.656    c-0.17-0.166-0.39-0.25-0.66-0.25c-0.401,0-0.822,0.127-1.262,0.383c-0.44,0.256-0.799,0.611-1.074,1.066    c-0.276,0.455-0.503,1.105-0.68,1.949l-0.82,3.922H299.398z"
   id="path501" />
		<path
   d="M318.828,327.91l1.375,0.141c-0.198,0.682-0.652,1.33-1.363,1.945s-1.559,0.922-2.543,0.922    c-0.615,0-1.179-0.143-1.691-0.426c-0.514-0.283-0.904-0.697-1.172-1.238c-0.269-0.541-0.402-1.158-0.402-1.852    c0-0.906,0.209-1.785,0.629-2.637c0.419-0.852,0.962-1.484,1.629-1.898c0.666-0.414,1.388-0.621,2.164-0.621    c0.989,0,1.779,0.307,2.371,0.922c0.591,0.615,0.887,1.453,0.887,2.516c0,0.406-0.037,0.822-0.109,1.25h-6.109    c-0.021,0.162-0.031,0.307-0.031,0.438c0,0.775,0.178,1.369,0.535,1.777c0.356,0.408,0.793,0.613,1.309,0.613    c0.484,0,0.961-0.158,1.43-0.477S318.567,328.51,318.828,327.91z M314.719,325.855h4.656c0.005-0.146,0.008-0.25,0.008-0.313    c0-0.709-0.178-1.252-0.531-1.629c-0.354-0.377-0.811-0.566-1.367-0.566c-0.604,0-1.155,0.209-1.652,0.625    C315.334,324.389,314.963,325.018,314.719,325.855z"
   id="path503" />
		<path
   d="M321.766,327.895l1.414-0.086c0,0.406,0.063,0.752,0.188,1.039s0.355,0.521,0.691,0.703s0.728,0.273,1.176,0.273    c0.625,0,1.094-0.125,1.406-0.375s0.469-0.545,0.469-0.883c0-0.244-0.094-0.477-0.281-0.695c-0.193-0.219-0.663-0.488-1.41-0.809    c-0.748-0.32-1.226-0.545-1.434-0.676c-0.35-0.213-0.612-0.465-0.789-0.754c-0.178-0.289-0.266-0.621-0.266-0.996    c0-0.656,0.26-1.219,0.781-1.688c0.521-0.469,1.25-0.703,2.188-0.703c1.041,0,1.834,0.24,2.379,0.723    c0.544,0.482,0.826,1.115,0.848,1.902l-1.383,0.094c-0.021-0.5-0.198-0.896-0.531-1.188c-0.334-0.291-0.805-0.438-1.414-0.438    c-0.49,0-0.87,0.111-1.141,0.336c-0.271,0.225-0.406,0.467-0.406,0.727s0.117,0.49,0.352,0.688    c0.156,0.135,0.56,0.344,1.211,0.625c1.083,0.469,1.766,0.838,2.047,1.109c0.447,0.432,0.672,0.959,0.672,1.578    c0,0.412-0.127,0.814-0.379,1.211c-0.253,0.396-0.639,0.713-1.156,0.949c-0.519,0.236-1.129,0.355-1.832,0.355    c-0.959,0-1.773-0.236-2.445-0.711S321.729,328.963,321.766,327.895z"
   id="path505" />
		<path
   d="M329.766,327.895l1.414-0.086c0,0.406,0.063,0.752,0.188,1.039s0.355,0.521,0.691,0.703s0.728,0.273,1.176,0.273    c0.625,0,1.094-0.125,1.406-0.375s0.469-0.545,0.469-0.883c0-0.244-0.094-0.477-0.281-0.695c-0.193-0.219-0.663-0.488-1.41-0.809    c-0.748-0.32-1.226-0.545-1.434-0.676c-0.35-0.213-0.612-0.465-0.789-0.754c-0.178-0.289-0.266-0.621-0.266-0.996    c0-0.656,0.26-1.219,0.781-1.688c0.521-0.469,1.25-0.703,2.188-0.703c1.041,0,1.834,0.24,2.379,0.723    c0.544,0.482,0.826,1.115,0.848,1.902l-1.383,0.094c-0.021-0.5-0.198-0.896-0.531-1.188c-0.334-0.291-0.805-0.438-1.414-0.438    c-0.49,0-0.87,0.111-1.141,0.336c-0.271,0.225-0.406,0.467-0.406,0.727s0.117,0.49,0.352,0.688    c0.156,0.135,0.56,0.344,1.211,0.625c1.083,0.469,1.766,0.838,2.047,1.109c0.447,0.432,0.672,0.959,0.672,1.578    c0,0.412-0.127,0.814-0.379,1.211c-0.253,0.396-0.639,0.713-1.156,0.949c-0.519,0.236-1.129,0.355-1.832,0.355    c-0.959,0-1.773-0.236-2.445-0.711S329.729,328.963,329.766,327.895z"
   id="path507" />
		<path
   d="M337.555,331.48l1.43,0.133c-0.011,0.322,0.028,0.564,0.117,0.727c0.088,0.162,0.229,0.287,0.422,0.375    c0.255,0.115,0.586,0.172,0.992,0.172c0.854,0,1.469-0.221,1.844-0.664c0.244-0.297,0.471-0.943,0.68-1.938l0.141-0.672    c-0.734,0.744-1.516,1.117-2.344,1.117c-0.839,0-1.541-0.309-2.105-0.926c-0.565-0.617-0.848-1.49-0.848-2.621    c0-0.932,0.223-1.789,0.668-2.57s0.975-1.371,1.59-1.77c0.614-0.398,1.247-0.598,1.898-0.598c1.088,0,1.927,0.516,2.516,1.547    l0.281-1.359h1.297l-1.672,8.008c-0.183,0.881-0.422,1.566-0.719,2.059s-0.71,0.873-1.238,1.145    c-0.529,0.271-1.14,0.406-1.832,0.406c-0.667,0-1.241-0.086-1.723-0.258c-0.482-0.172-0.842-0.424-1.078-0.754    c-0.237-0.33-0.355-0.709-0.355-1.137C337.516,331.771,337.528,331.631,337.555,331.48z M339.32,327.059    c0,0.568,0.055,0.994,0.164,1.281c0.156,0.4,0.379,0.707,0.668,0.918s0.61,0.316,0.965,0.316c0.463,0,0.924-0.162,1.383-0.488    c0.458-0.326,0.829-0.83,1.113-1.512c0.283-0.682,0.426-1.334,0.426-1.953c0-0.682-0.189-1.225-0.566-1.629    c-0.378-0.404-0.846-0.605-1.402-0.605c-0.344,0-0.678,0.092-1,0.277c-0.323,0.186-0.624,0.467-0.902,0.844    c-0.279,0.377-0.49,0.83-0.633,1.355C339.392,326.389,339.32,326.787,339.32,327.059z"
   id="path509" />
		<path
   d="M352.625,327.91l1.375,0.141c-0.198,0.682-0.652,1.33-1.363,1.945s-1.559,0.922-2.543,0.922    c-0.615,0-1.179-0.143-1.691-0.426c-0.514-0.283-0.904-0.697-1.172-1.238c-0.269-0.541-0.402-1.158-0.402-1.852    c0-0.906,0.209-1.785,0.629-2.637c0.419-0.852,0.962-1.484,1.629-1.898c0.666-0.414,1.388-0.621,2.164-0.621    c0.989,0,1.779,0.307,2.371,0.922c0.591,0.615,0.887,1.453,0.887,2.516c0,0.406-0.037,0.822-0.109,1.25h-6.109    c-0.021,0.162-0.031,0.307-0.031,0.438c0,0.775,0.178,1.369,0.535,1.777c0.356,0.408,0.793,0.613,1.309,0.613    c0.484,0,0.961-0.158,1.43-0.477S352.364,328.51,352.625,327.91z M348.516,325.855h4.656c0.005-0.146,0.008-0.25,0.008-0.313    c0-0.709-0.178-1.252-0.531-1.629c-0.354-0.377-0.811-0.566-1.367-0.566c-0.604,0-1.155,0.209-1.652,0.625    C349.131,324.389,348.76,325.018,348.516,325.855z"
   id="path511" />
		<path
   d="M355.43,330.73l1.734-8.297h1.25l-0.352,1.695c0.427-0.641,0.845-1.115,1.254-1.422c0.408-0.307,0.826-0.461,1.254-0.461    c0.281,0,0.627,0.102,1.039,0.305l-0.578,1.313c-0.245-0.178-0.514-0.266-0.805-0.266c-0.495,0-1.003,0.275-1.523,0.828    c-0.521,0.553-0.93,1.545-1.227,2.977l-0.703,3.328H355.43z"
   id="path513" />
		<path
   d="M366.352,329.699c-0.49,0.422-0.961,0.73-1.414,0.926s-0.938,0.293-1.453,0.293c-0.766,0-1.383-0.225-1.852-0.676    s-0.703-1.027-0.703-1.73c0-0.463,0.105-0.873,0.316-1.23s0.49-0.643,0.84-0.859c0.349-0.217,0.775-0.371,1.281-0.465    c0.317-0.063,0.92-0.111,1.809-0.148c0.888-0.037,1.524-0.131,1.91-0.281c0.109-0.385,0.164-0.705,0.164-0.961    c0-0.328-0.12-0.586-0.359-0.773c-0.328-0.26-0.808-0.391-1.438-0.391c-0.594,0-1.08,0.131-1.457,0.395    c-0.378,0.264-0.652,0.637-0.824,1.121l-1.43-0.125c0.291-0.822,0.754-1.453,1.387-1.891s1.431-0.656,2.395-0.656    c1.025,0,1.838,0.244,2.438,0.734c0.458,0.365,0.688,0.838,0.688,1.422c0,0.443-0.065,0.955-0.195,1.539l-0.461,2.063    c-0.146,0.656-0.219,1.189-0.219,1.602c0,0.26,0.057,0.635,0.172,1.125h-1.43C366.438,330.459,366.383,330.115,366.352,329.699z     M366.875,326.527c-0.198,0.078-0.41,0.139-0.637,0.18s-0.605,0.086-1.137,0.133c-0.823,0.072-1.404,0.166-1.742,0.277    c-0.339,0.111-0.594,0.291-0.766,0.535s-0.258,0.516-0.258,0.813c0,0.396,0.137,0.721,0.41,0.977s0.662,0.383,1.168,0.383    c0.469,0,0.919-0.123,1.352-0.371c0.432-0.248,0.773-0.592,1.023-1.035S366.734,327.346,366.875,326.527z M363.711,321.145    l0.336-1.602h1.477l-0.336,1.602H363.711z M366.594,321.145l0.336-1.602h1.469l-0.328,1.602H366.594z"
   id="path515" />
		<path
   d="M372.961,329.582l-0.234,1.156c-0.339,0.088-0.667,0.133-0.984,0.133c-0.563,0-1.011-0.139-1.344-0.414    c-0.25-0.209-0.375-0.492-0.375-0.852c0-0.182,0.067-0.602,0.203-1.258l1.008-4.82h-1.117l0.227-1.094h1.117l0.43-2.039    l1.617-0.977l-0.633,3.016h1.391l-0.234,1.094h-1.383l-0.961,4.586c-0.12,0.584-0.18,0.932-0.18,1.047    c0,0.166,0.048,0.295,0.145,0.383c0.096,0.088,0.254,0.133,0.473,0.133C372.438,329.676,372.716,329.645,372.961,329.582z"
   id="path517" />
	</g>
	<g
   id="Pfeil_1_">
		<polygon
   id="PfeilGerade_4_"
   fill="#1A171A"
   points="365.143,278.341 371.355,285.389 368.057,285.833 365.303,287.703   " />
		<path
   fill="none"
   stroke="#000000"
   d="M364.997,312.37c6.065-6.037,8.956-16.138,1.76-29.935"
   id="path521" />
	</g>
	<g
   id="Pfeil_5_">
		<polygon
   id="PfeilGerade_5_"
   fill="#1A171A"
   points="290.002,32.009 285.204,23.932 283.768,26.935 281.143,28.98   " />
		<path
   fill="none"
   stroke="#000000"
   d="M259.314,21.25c13.176,0,20.839,1.518,28.287,8.965"
   id="path525" />
	</g>
	<g
   id="Pfeil_3_">
		<polygon
   id="PfeilGerade_2_"
   fill="#1A171A"
   points="179.99,200.25 173.141,193.818 172.593,197.101 170.638,199.795   " />
		<path
   fill="none"
   stroke="#000000"
   d="M127.375,190.827c19.361,0,33.84,0.807,48.572,7.86"
   id="path529" />
	</g>
	<g
   id="Pfeil_2_">
		<polygon
   id="PfeilGerade_1_"
   fill="#1A171A"
   points="260.47,371.195 266.683,378.243 263.384,378.688 260.63,380.558   " />
		<path
   fill="none"
   stroke="#000000"
   d="M251.429,390.258c9.738,0,17.852-1.171,10.655-14.968"
   id="path533" />
	</g>
	<g
   id="Pfeil_4_">
		<polygon
   id="PfeilGerade_3_"
   fill="#1A171A"
   points="192.111,150.541 182.737,151.175 184.394,148.289 184.587,144.966   " />
		<path
   fill="none"
   stroke="#000000"
   d="M97.333,113.31C111,135,172.017,145.954,188.038,149.133"
   id="path537" />
	</g>
</g>
<rect
   style="fill:#ffffff"
   id="rect3353"
   width="94.067795"
   height="17.79661"
   x="48.305084"
   y="91.525421" /><rect
   style="fill:#ffffff"
   id="rect3401"
   width="102.54237"
   height="19.491526"
   x="22.033897"
   y="179.66101" /><text
   xml:space="preserve"
   style="font-size:20.47311211px;font-style:normal;font-weight:normal;fill:#000000;fill-opacity:1;stroke:none;font-family:Bitstream Vera Sans"
   x="27.425352"
   y="178.51353"
   id="text3403"
   transform="scale(0.91073312,1.0980165)"><tspan
     sodipodi:role="line"
     id="tspan3405"
     x="27.425352"
     y="178.51353">Eiswasserbad</tspan></text>

<rect
   style="fill:#ffffff"
   id="rect3407"
   width="52.542374"
   height="44.067795"
   x="308.47458"
   y="293.22034" /><rect
   style="fill:#ffffff"
   id="rect3409"
   width="77.966103"
   height="19.491526"
   x="299.15256"
   y="314.40677" /><flowRoot
   xml:space="preserve"
   id="flowRoot3419"
   style="fill:black;stroke:none;stroke-opacity:1;stroke-width:1px;stroke-linejoin:miter;stroke-linecap:butt;fill-opacity:1;font-family:Bitstream Vera Sans;font-style:normal;font-weight:normal;font-size:40px"><flowRegion
     id="flowRegion3421"><rect
       id="rect3423"
       width="126.27119"
       height="125.42373"
       x="445.76273"
       y="266.10168" /></flowRegion><flowPara
     id="flowPara3425" /></flowRoot><flowRoot
   xml:space="preserve"
   id="flowRoot3427"
   style="font-size:12px;font-style:normal;font-weight:normal;text-align:center;text-anchor:middle;fill:#000000;fill-opacity:1;stroke:none;font-family:Bitstream Vera Sans"
   transform="translate(-4.2372893,-8.4745762)"><flowRegion
     id="flowRegion3429"><rect
       id="rect3431"
       width="73.728813"
       height="72.033897"
       x="303.38983"
       y="313.55933"
       style="font-size:12px;text-align:center;text-anchor:middle" /></flowRegion><flowPara
     id="flowPara3435">Druck-</flowPara><flowPara
     id="flowPara3439">messgerät</flowPara></flowRoot><flowRoot
   xml:space="preserve"
   id="flowRoot3441"
   style="font-size:22px;font-style:normal;font-weight:normal;fill:#000000;fill-opacity:1;stroke:none;font-family:Bitstream Vera Sans"
   transform="translate(36.440678,33.898306)"><flowRegion
     id="flowRegion3443"><rect
       id="rect3445"
       width="177.11864"
       height="47.457626"
       x="5.9322033"
       y="62.711864"
       style="font-size:22px" /></flowRegion><flowPara
     id="flowPara3447">Gasbehälter</flowPara></flowRoot><rect
   style="fill:#ffffff"
   id="rect3449"
   width="43.220341"
   height="17.79661"
   x="212.71187"
   y="11.864407" /><flowRoot
   xml:space="preserve"
   id="flowRoot3451"
   style="font-size:18px;font-style:normal;font-weight:normal;fill:#000000;fill-opacity:1;stroke:none;font-family:Bitstream Vera Sans"
   transform="translate(43.220339,32.203389)"><flowRegion
     id="flowRegion3453"><rect
       id="rect3455"
       width="94.067795"
       height="56.779659"
       x="163.55933"
       y="-17.79661"
       style="font-size:18px" /></flowRegion><flowPara
     id="flowPara3457">Ventil</flowPara></flowRoot><rect
   style="fill:#ffffff"
   id="rect3459"
   width="74.576271"
   height="18.644068"
   x="174.57628"
   y="379.66101" /><flowRoot
   xml:space="preserve"
   id="flowRoot3461"
   style="font-size:24px;font-style:normal;font-weight:normal;text-align:center;text-anchor:middle;fill:#000000;fill-opacity:1;stroke:none;font-family:Bitstream Vera Sans"
   transform="matrix(0.85002527,0,0,0.45270143,48.994283,238.05099)"><flowRegion
     id="flowRegion3463"><rect
       id="rect3465"
       width="126.27119"
       height="90.677963"
       x="124.57627"
       y="317.7966"
       style="font-size:24px" /></flowRegion><flowPara
     id="flowPara3467">Heizplatte</flowPara></flowRoot></svg>