\relax 
\catcode`"\active
\ifx\hyper@anchor\@undefined
\global \let \oldcontentsline\contentsline
\gdef \contentsline#1#2#3#4{\oldcontentsline{#1}{#2}{#3}}
\global \let \oldnewlabel\newlabel
\gdef \newlabel#1#2{\newlabelxx{#1}#2}
\gdef \newlabelxx#1#2#3#4#5#6{\oldnewlabel{#1}{{#2}{#3}}}
\AtEndDocument{\let \contentsline\oldcontentsline
\let \newlabel\oldnewlabel}
\else
\global \let \hyper@last\relax 
\fi

\select@language{ngerman}
\@writefile{toc}{\select@language{ngerman}}
\@writefile{lof}{\select@language{ngerman}}
\@writefile{lot}{\select@language{ngerman}}
\citation{Gerthsen}
\citation{Gerthsen}
\@writefile{toc}{\contentsline {section}{\numberline {1}Einleitung}{4}{section.1}}
\@writefile{toc}{\contentsline {section}{\numberline {2}Theorie}{4}{section.2}}
\@writefile{toc}{\contentsline {subsection}{\numberline {2.1}Ideales Gas}{4}{subsection.2.1}}
\@writefile{toc}{\contentsline {subsection}{\numberline {2.2}Temperatur, Druck und Volumen}{4}{subsection.2.2}}
\citation{Gerthsen}
\citation{Gerthsen}
\citation{Gerthsen}
\citation{Gerthsen}
\citation{Gerthsen}
\@writefile{toc}{\contentsline {subsection}{\numberline {2.3}Haupts\IeC {\"a}tze der Thermodynamik}{5}{subsection.2.3}}
\@writefile{toc}{\contentsline {subsection}{\numberline {2.4}Spezifische W\IeC {\"a}rme}{5}{subsection.2.4}}
\citation{LP-Gasdruck}
\citation{LP-Gasdruck}
\citation{LP-SpezWaerme}
\citation{LP-SpezWaerme}
\@writefile{toc}{\contentsline {section}{\numberline {3}Durchf\IeC {\"u}hrung}{6}{section.3}}
\@writefile{toc}{\contentsline {subsection}{\numberline {3.1}Gasthermometer}{6}{subsection.3.1}}
\@writefile{lof}{\contentsline {figure}{\numberline {1}{\ignorespaces Skizze des Aufbaus vom Versuch zum Gasthermometer (Ver\IeC {\"a}ndert nach LP \cite  {LP-Gasdruck})\relax }}{6}{figure.caption.3}}
\newlabel{fig:gasdr_aufbau}{{1}{6}{Skizze des Aufbaus vom Versuch zum Gasthermometer (Verändert nach LP \cite {LP-Gasdruck})\relax \relax }{figure.caption.3}{}}
\@writefile{toc}{\contentsline {subsection}{\numberline {3.2}Spezifische W\IeC {\"a}rme}{6}{subsection.3.2}}
\citation{Rubber}
\@writefile{lof}{\contentsline {figure}{\numberline {2}{\ignorespaces Skizze des Aufbaus vom Versuch zur spezifischen W\IeC {\"a}rme (Ver\IeC {\"a}ndert nach LP \cite  {LP-SpezWaerme})\relax }}{7}{figure.caption.4}}
\newlabel{fig:spezw_aufbau}{{2}{7}{Skizze des Aufbaus vom Versuch zur spezifischen Wärme (Verändert nach LP \cite {LP-SpezWaerme})\relax \relax }{figure.caption.4}{}}
\@writefile{toc}{\contentsline {section}{\numberline {4}Auswertung}{7}{section.4}}
\@writefile{toc}{\contentsline {subsection}{\numberline {4.1}Gasthermometer}{7}{subsection.4.1}}
\@writefile{lof}{\contentsline {figure}{\numberline {3}{\ignorespaces Lineare Regression der Messwerte f\IeC {\"u}r das Gasthermometer beim Erhitzen\relax }}{8}{figure.caption.5}}
\newlabel{fig:gasdruck_heiz}{{3}{8}{Lineare Regression der Messwerte für das Gasthermometer beim Erhitzen\relax \relax }{figure.caption.5}{}}
\@writefile{lof}{\contentsline {figure}{\numberline {4}{\ignorespaces Lineare Regression der Messwerte f\IeC {\"u}r das Gasthermometer beim Abk\IeC {\"u}hlen\relax }}{8}{figure.caption.6}}
\newlabel{fig:gasdruck_kuehl}{{4}{8}{Lineare Regression der Messwerte für das Gasthermometer beim Abkühlen\relax \relax }{figure.caption.6}{}}
\citation{Rubber}
\@writefile{toc}{\contentsline {subsection}{\numberline {4.2}Spezifische W\IeC {\"a}rme}{9}{subsection.4.2}}
\@writefile{lof}{\contentsline {figure}{\numberline {5}{\ignorespaces Messwerte zur spezifischen W\IeC {\"a}rme\relax }}{9}{figure.caption.7}}
\newlabel{fig:spezwaerme}{{5}{9}{Messwerte zur spezifischen Wärme\relax \relax }{figure.caption.7}{}}
\@writefile{toc}{\contentsline {section}{\numberline {5}Diskussion}{10}{section.5}}
\@writefile{toc}{\contentsline {subsection}{\numberline {5.1}Absoluter Nullpunkt}{10}{subsection.5.1}}
\@writefile{toc}{\contentsline {subsection}{\numberline {5.2}Spezifische W\IeC {\"a}rme der Luft und Anzahl der Freiheitsgrade}{10}{subsection.5.2}}
\@writefile{toc}{\contentsline {subsection}{\numberline {5.3}Verbesserungsvorschl\IeC {\"a}ge}{10}{subsection.5.3}}
\bibstyle{dinat}
\bibdata{../Shared/bibliography.bib}
\bibcite{Rubber}{{1}{2010}{{Lide}}{{}}}
\@writefile{toc}{\contentsline {section}{\numberline {A}Tabellen und Grafiken}{11}{appendix.A}}
\@writefile{lot}{\contentsline {table}{\numberline {1}{\ignorespaces Berechneter Druck bei jeweiliger Temperatur in Teil 1 des Versuchs\relax }}{11}{table.caption.8}}
\newlabel{tab:gasdruck}{{1}{11}{Berechneter Druck bei jeweiliger Temperatur in Teil 1 des Versuchs\relax \relax }{table.caption.8}{}}
\@writefile{lot}{\contentsline {table}{\numberline {2}{\ignorespaces Gemessener H\IeC {\"o}henunterschied, zugeh\IeC {\"o}rige Volumen- und Druckdifferenzen und das jeweils resultierende $c_V$ in Teil 2 des Versuchs\relax }}{11}{table.caption.9}}
\newlabel{tab:spezwaerme}{{2}{11}{Gemessener Höhenunterschied, zugehörige Volumen- und Druckdifferenzen und das jeweils resultierende $c_V$ in Teil 2 des Versuchs\relax \relax }{table.caption.9}{}}
\bibcite{Gerthsen}{{2}{2006}{{Meschede}}{{}}}
\bibcite{LP-Gasdruck}{{3}{}{{Prior und Mann}}{{}}}
\bibcite{LP-SpezWaerme}{{4}{}{{Prior und Mann}}{{}}}
