<?xml version="1.0" encoding="UTF-8" standalone="no"?>
<svg
   xmlns:dc="http://purl.org/dc/elements/1.1/"
   xmlns:cc="http://creativecommons.org/ns#"
   xmlns:rdf="http://www.w3.org/1999/02/22-rdf-syntax-ns#"
   xmlns:svg="http://www.w3.org/2000/svg"
   xmlns="http://www.w3.org/2000/svg"
   xmlns:sodipodi="http://sodipodi.sourceforge.net/DTD/sodipodi-0.dtd"
   xmlns:inkscape="http://www.inkscape.org/namespaces/inkscape"
   version="1.1"
   id="Adiabatenexponent_x5F_pVDiag"
   x="0px"
   y="0px"
   width="400px"
   height="310px"
   viewBox="0 0 400 310"
   enable-background="new 0 0 400 310"
   xml:space="preserve"
   inkscape:version="0.48.2 r9819"
   sodipodi:docname="PV-Diagramm.pdf"><metadata
   id="metadata224"><rdf:RDF><cc:Work
       rdf:about=""><dc:format>image/svg+xml</dc:format><dc:type
         rdf:resource="http://purl.org/dc/dcmitype/StillImage" /><dc:title></dc:title></cc:Work></rdf:RDF></metadata><defs
   id="defs222" /><sodipodi:namedview
   pagecolor="#ffffff"
   bordercolor="#666666"
   borderopacity="1"
   objecttolerance="10"
   gridtolerance="10"
   guidetolerance="10"
   inkscape:pageopacity="0"
   inkscape:pageshadow="2"
   inkscape:window-width="1057"
   inkscape:window-height="682"
   id="namedview220"
   showgrid="false"
   inkscape:zoom="1.5225806"
   inkscape:cx="200"
   inkscape:cy="207.54237"
   inkscape:window-x="0"
   inkscape:window-y="0"
   inkscape:window-maximized="0"
   inkscape:current-layer="Adiabatenexponent_x5F_pVDiag" />
<rect
   id="Hintergrund"
   fill="#FFFFFF"
   width="400"
   height="310" />
<g
   id="Linien">
	<line
   fill="none"
   stroke="#808184"
   stroke-dasharray="4"
   x1="130.667"
   y1="279.611"
   x2="130.667"
   y2="72.323"
   id="line5" />
	<line
   fill="none"
   stroke="#808184"
   stroke-dasharray="4"
   x1="302"
   y1="242.322"
   x2="302"
   y2="279.611"
   id="line7" />
	<line
   fill="none"
   stroke="#808184"
   stroke-dasharray="4"
   x1="130.667"
   y1="242.322"
   x2="72.963"
   y2="242.322"
   id="line9" />
	<line
   fill="none"
   stroke="#808184"
   stroke-dasharray="4"
   x1="130.667"
   y1="122.989"
   x2="72.963"
   y2="122.989"
   id="line11" />
	<line
   fill="none"
   stroke="#808184"
   stroke-dasharray="4"
   x1="130.667"
   y1="72.323"
   x2="72.963"
   y2="72.323"
   id="line13" />
	<line
   fill="none"
   stroke="#000000"
   x1="72.963"
   y1="72.323"
   x2="67.438"
   y2="72.323"
   id="line15" />
	<line
   fill="none"
   stroke="#000000"
   x1="72.963"
   y1="122.989"
   x2="67.438"
   y2="122.989"
   id="line17" />
	<line
   fill="none"
   stroke="#000000"
   x1="72.963"
   y1="242.322"
   x2="67.438"
   y2="242.322"
   id="line19" />
	<line
   fill="none"
   stroke="#000000"
   x1="130.667"
   y1="279.611"
   x2="130.667"
   y2="285.137"
   id="line21" />
	<line
   fill="none"
   stroke="#000000"
   x1="302"
   y1="279.611"
   x2="302"
   y2="285.137"
   id="line23" />
</g>
<g
   id="Zustaende">
	<path
   fill="none"
   stroke="#000000"
   d="M130.667,72.323c0,76.667,78.333,170,171.333,170H130.667V122.989"
   id="path26" />
	<circle
   id="PunktA_1_"
   fill="#EC1C24"
   stroke="#EC1C24"
   cx="130.667"
   cy="72.323"
   r="4.284" />
	<circle
   id="PunktB_1_"
   stroke="#000000"
   cx="302"
   cy="242.323"
   r="4.284" />
	<circle
   id="PunktC_1_"
   stroke="#000000"
   cx="130.667"
   cy="242.323"
   r="4.284" />
	<circle
   id="PunktD_1_"
   fill="#EC1C24"
   stroke="#EC1C24"
   cx="130.667"
   cy="123.452"
   r="4.284" />
</g>
<g
   id="Achsen">
	<g
   id="yAchse">
		<line
   id="Linie_3_"
   fill="none"
   stroke="#000000"
   x1="72.963"
   y1="15.208"
   x2="72.963"
   y2="297.208" />
		<polygon
   id="Spitze_1_"
   points="72.897,8.09 76.204,16.884 72.961,16.129 69.723,16.9   " />
		<g
   id="g36">
			<path
   d="M62.312,32.661V22.619h1.121v0.943c0.264-0.369,0.563-0.646,0.896-0.831s0.736-0.277,1.21-0.277     c0.62,0,1.167,0.16,1.641,0.479s0.832,0.769,1.073,1.35s0.362,1.218,0.362,1.911c0,0.743-0.133,1.412-0.4,2.006     s-0.654,1.05-1.162,1.367s-1.042,0.475-1.603,0.475c-0.41,0-0.778-0.086-1.104-0.26s-0.594-0.392-0.803-0.656v3.534H62.312z      M63.426,26.29c0,0.934,0.189,1.625,0.567,2.071s0.836,0.67,1.374,0.67c0.547,0,1.015-0.231,1.405-0.694s0.584-1.179,0.584-2.15     c0-0.925-0.19-1.618-0.571-2.078s-0.835-0.69-1.364-0.69c-0.524,0-0.988,0.245-1.391,0.735S63.426,25.355,63.426,26.29z"
   id="path38" />
		</g>
	</g>
	<g
   id="xAchse_1_">
		<line
   id="Linie_2_"
   fill="none"
   stroke="#000000"
   x1="376"
   y1="279.611"
   x2="56"
   y2="279.611" />
		<polygon
   id="Spitze_2_"
   points="383.117,279.546 374.324,282.853 375.078,279.61 374.309,276.372   " />
		<g
   id="g43">
			<path
   d="M365.151,294.662l-3.883-10.021h1.436l2.604,7.28c0.21,0.583,0.385,1.13,0.526,1.641c0.155-0.547,0.335-1.094,0.54-1.641     l2.707-7.28h1.354l-3.924,10.021H365.151z"
   id="path45" />
		</g>
	</g>
</g>
<g
   id="Beschriftung">
	<g
   id="g48">
		<g
   id="g50">
			<path
   d="M126.444,299.114l-3.883-10.021h1.436l2.604,7.28c0.209,0.583,0.385,1.13,0.526,1.641     c0.155-0.547,0.335-1.094,0.54-1.641l2.707-7.28h1.354l-3.924,10.021H126.444z"
   id="path52" />
		</g>
		<g
   id="g54">
			<path
   d="M131.998,298.878c0-1.016,0.104-1.833,0.313-2.452s0.52-1.097,0.932-1.433s0.931-0.504,1.556-0.504     c0.461,0,0.865,0.093,1.213,0.278s0.635,0.453,0.861,0.803s0.404,0.775,0.533,1.277s0.193,1.179,0.193,2.03     c0,1.008-0.104,1.821-0.311,2.44s-0.517,1.098-0.929,1.436s-0.933,0.507-1.562,0.507c-0.828,0-1.479-0.297-1.951-0.891     C132.281,301.655,131.998,300.491,131.998,298.878z M133.082,298.878c0,1.41,0.165,2.349,0.495,2.815s0.737,0.7,1.222,0.7     s0.892-0.234,1.222-0.703s0.495-1.406,0.495-2.813c0-1.414-0.165-2.354-0.495-2.818s-0.741-0.697-1.233-0.697     c-0.484,0-0.871,0.205-1.16,0.615C133.264,296.501,133.082,297.468,133.082,298.878z"
   id="path56" />
		</g>
	</g>
	<g
   id="g58">
		<g
   id="g60">
			<path
   d="M280.444,299.114l-3.883-10.021h1.436l2.604,7.28c0.209,0.583,0.385,1.13,0.526,1.641     c0.155-0.547,0.335-1.094,0.54-1.641l2.707-7.28h1.354l-3.924,10.021H280.444z"
   id="path62" />
			<path
   d="M301.014,297.494v-2.748h-2.728v-1.148h2.728v-2.728h1.162v2.728h2.728v1.148h-2.728v2.748H301.014z"
   id="path64" />
			<path
   d="M308.786,299.114l3.849-10.021h1.429l4.102,10.021H308.786z M310.625,297.932h5.571l-2.167-5.708     c-0.324-0.856-0.561-1.55-0.711-2.078c-0.123,0.62-0.303,1.258-0.54,1.914L310.625,297.932z"
   id="path66" />
			<path
   d="M322.096,299.114l-3.883-10.021h1.436l2.604,7.28c0.21,0.583,0.386,1.13,0.526,1.641c0.154-0.547,0.335-1.094,0.54-1.641     l2.707-7.28h1.354l-3.924,10.021H322.096z"
   id="path68" />
		</g>
		<g
   id="g70">
			<path
   d="M286.998,298.878c0-1.016,0.104-1.833,0.313-2.452s0.52-1.097,0.932-1.433s0.931-0.504,1.556-0.504     c0.461,0,0.865,0.093,1.213,0.278s0.635,0.453,0.861,0.803s0.404,0.775,0.533,1.277s0.193,1.179,0.193,2.03     c0,1.008-0.104,1.821-0.311,2.44s-0.517,1.098-0.929,1.436s-0.933,0.507-1.562,0.507c-0.828,0-1.479-0.297-1.951-0.891     C287.281,301.655,286.998,300.491,286.998,298.878z M288.082,298.878c0,1.41,0.165,2.349,0.495,2.815s0.737,0.7,1.222,0.7     s0.892-0.234,1.222-0.703s0.495-1.406,0.495-2.813c0-1.414-0.165-2.354-0.495-2.818s-0.741-0.697-1.233-0.697     c-0.484,0-0.871,0.205-1.16,0.615C288.264,296.501,288.082,297.468,288.082,298.878z"
   id="path72" />
		</g>
	</g>
	<g
   id="g74">
		<g
   id="g76">
			<path
   d="M18.058,74.607h-1.142V64.586h1.23v3.575c0.52-0.652,1.183-0.978,1.989-0.978c0.447,0,0.869,0.09,1.268,0.27     s0.727,0.433,0.984,0.759s0.459,0.719,0.605,1.179s0.219,0.953,0.219,1.477c0,1.244-0.308,2.206-0.923,2.885     s-1.354,1.019-2.215,1.019c-0.857,0-1.529-0.358-2.017-1.073V74.607z M18.044,70.923c0,0.871,0.119,1.5,0.355,1.887     c0.387,0.633,0.912,0.95,1.572,0.95c0.538,0,1.002-0.233,1.395-0.701s0.588-1.163,0.588-2.088c0-0.948-0.188-1.647-0.564-2.099     s-0.831-0.677-1.364-0.677c-0.538,0-1.002,0.233-1.395,0.701S18.044,70.039,18.044,70.923z"
   id="path78" />
			<path
   d="M31.183,72.987v-2.748h-2.728v-1.148h2.728v-2.728h1.162v2.728h2.728v1.148h-2.728v2.748H31.183z"
   id="path80" />
			<path
   d="M38.955,74.607l3.849-10.021h1.429l4.102,10.021H38.955z M40.794,73.425h5.571l-2.167-5.708     c-0.324-0.857-0.561-1.549-0.711-2.078c-0.123,0.62-0.303,1.258-0.54,1.914L40.794,73.425z"
   id="path82" />
			<path
   d="M49.243,77.39V67.348h1.121v0.943c0.264-0.369,0.563-0.646,0.896-0.831s0.736-0.277,1.21-0.277     c0.62,0,1.167,0.16,1.641,0.479s0.832,0.769,1.073,1.35s0.362,1.218,0.362,1.911c0,0.743-0.133,1.412-0.4,2.006     s-0.654,1.05-1.162,1.367s-1.042,0.475-1.603,0.475c-0.41,0-0.778-0.086-1.104-0.26s-0.594-0.392-0.803-0.656v3.534H49.243z      M50.357,71.019c0,0.934,0.189,1.625,0.567,2.071s0.836,0.67,1.374,0.67c0.547,0,1.015-0.231,1.405-0.694s0.584-1.179,0.584-2.15     c0-0.925-0.19-1.618-0.571-2.078s-0.835-0.69-1.364-0.69c-0.524,0-0.988,0.245-1.391,0.735S50.357,70.084,50.357,71.019z"
   id="path84" />
		</g>
		<g
   id="g86">
			<path
   d="M62.471,78.607h-1.055v-6.721c-0.254,0.242-0.587,0.484-0.999,0.727s-0.782,0.424-1.11,0.545v-1.02     c0.59-0.277,1.105-0.613,1.547-1.008s0.754-0.777,0.938-1.148h0.68V78.607z"
   id="path88" />
		</g>
	</g>
	<g
   id="g90">
		<g
   id="g92">
			<path
   d="M18.058,124.607h-1.142v-10.021h1.23v3.575c0.52-0.652,1.183-0.978,1.989-0.978c0.447,0,0.869,0.09,1.268,0.27     s0.727,0.433,0.984,0.759s0.459,0.719,0.605,1.179s0.219,0.953,0.219,1.477c0,1.244-0.308,2.206-0.923,2.885     s-1.354,1.019-2.215,1.019c-0.857,0-1.529-0.358-2.017-1.073V124.607z M18.044,120.923c0,0.871,0.119,1.5,0.355,1.887     c0.387,0.633,0.912,0.95,1.572,0.95c0.538,0,1.002-0.233,1.395-0.701s0.588-1.163,0.588-2.088c0-0.948-0.188-1.647-0.564-2.099     s-0.831-0.677-1.364-0.677c-0.538,0-1.002,0.233-1.395,0.701S18.044,120.039,18.044,120.923z"
   id="path94" />
			<path
   d="M31.183,122.987v-2.748h-2.728v-1.148h2.728v-2.728h1.162v2.728h2.728v1.148h-2.728v2.748H31.183z"
   id="path96" />
			<path
   d="M38.955,124.607l3.849-10.021h1.429l4.102,10.021H38.955z M40.794,123.425h5.571l-2.167-5.708     c-0.324-0.857-0.561-1.549-0.711-2.078c-0.123,0.62-0.303,1.258-0.54,1.914L40.794,123.425z"
   id="path98" />
			<path
   d="M49.243,127.39v-10.042h1.121v0.943c0.264-0.369,0.563-0.646,0.896-0.831s0.736-0.277,1.21-0.277     c0.62,0,1.167,0.16,1.641,0.479s0.832,0.769,1.073,1.35s0.362,1.218,0.362,1.911c0,0.743-0.133,1.412-0.4,2.006     s-0.654,1.05-1.162,1.367s-1.042,0.475-1.603,0.475c-0.41,0-0.778-0.086-1.104-0.26s-0.594-0.392-0.803-0.656v3.534H49.243z      M50.357,121.019c0,0.934,0.189,1.625,0.567,2.071s0.836,0.67,1.374,0.67c0.547,0,1.015-0.231,1.405-0.694     s0.584-1.179,0.584-2.15c0-0.925-0.19-1.618-0.571-2.078s-0.835-0.69-1.364-0.69c-0.524,0-0.988,0.245-1.391,0.735     S50.357,120.084,50.357,121.019z"
   id="path100" />
		</g>
		<g
   id="g102">
			<path
   d="M64.041,127.594v1.014h-5.678c-0.008-0.254,0.033-0.498,0.123-0.732c0.145-0.387,0.376-0.768,0.694-1.143     s0.778-0.809,1.38-1.301c0.934-0.766,1.564-1.372,1.893-1.819s0.492-0.87,0.492-1.269c0-0.418-0.149-0.771-0.448-1.058     s-0.688-0.431-1.169-0.431c-0.508,0-0.914,0.152-1.219,0.457s-0.459,0.727-0.463,1.266l-1.084-0.111     c0.074-0.809,0.354-1.425,0.838-1.849s1.135-0.636,1.951-0.636c0.824,0,1.477,0.229,1.957,0.686s0.721,1.023,0.721,1.699     c0,0.344-0.07,0.682-0.211,1.014s-0.374,0.682-0.7,1.049s-0.868,0.871-1.626,1.512c-0.633,0.531-1.039,0.892-1.219,1.081     s-0.328,0.38-0.445,0.571H64.041z"
   id="path104" />
		</g>
	</g>
	<g
   id="g106">
		<path
   d="M58.945,246.156h-1.142v-10.021h1.23v3.575c0.52-0.651,1.183-0.978,1.989-0.978c0.447,0,0.869,0.09,1.268,0.271    c0.399,0.18,0.727,0.433,0.984,0.758c0.257,0.326,0.459,0.72,0.605,1.18s0.219,0.952,0.219,1.477c0,1.244-0.308,2.206-0.923,2.885    s-1.354,1.019-2.215,1.019c-0.857,0-1.529-0.357-2.017-1.073V246.156z M58.932,242.472c0,0.87,0.119,1.499,0.355,1.887    c0.387,0.634,0.912,0.95,1.572,0.95c0.538,0,1.002-0.233,1.395-0.7c0.392-0.468,0.588-1.164,0.588-2.089    c0-0.948-0.188-1.647-0.564-2.099s-0.831-0.677-1.364-0.677c-0.538,0-1.002,0.233-1.395,0.7    C59.127,240.912,58.932,241.588,58.932,242.472z"
   id="path108" />
	</g>
	<g
   id="g110">
		<g
   id="g112">
			<path
   d="M115.773,86.052v-8.839h-3.302v-1.183h7.943v1.183H117.1v8.839H115.773z"
   id="path114" />
		</g>
		<g
   id="g116">
			<path
   d="M121.642,85.816c0-1.016,0.104-1.833,0.313-2.452s0.52-1.097,0.932-1.433s0.931-0.504,1.556-0.504     c0.461,0,0.865,0.093,1.213,0.278s0.635,0.453,0.861,0.803s0.404,0.775,0.533,1.277s0.193,1.179,0.193,2.03     c0,1.008-0.104,1.821-0.311,2.44s-0.517,1.098-0.929,1.436s-0.933,0.507-1.562,0.507c-0.828,0-1.479-0.297-1.951-0.891     C121.925,88.593,121.642,87.429,121.642,85.816z M122.726,85.816c0,1.41,0.165,2.349,0.495,2.815s0.737,0.7,1.222,0.7     s0.892-0.234,1.222-0.703s0.495-1.406,0.495-2.813c0-1.414-0.165-2.354-0.495-2.818s-0.741-0.697-1.233-0.697     c-0.484,0-0.871,0.205-1.16,0.615C122.907,83.439,122.726,84.406,122.726,85.816z"
   id="path118" />
		</g>
	</g>
	<g
   id="g120">
		<g
   id="g122">
			<path
   d="M115.773,136.802v-8.839h-3.302v-1.183h7.943v1.183H117.1v8.839H115.773z"
   id="path124" />
		</g>
		<g
   id="g126">
			<path
   d="M121.642,136.566c0-1.016,0.104-1.833,0.313-2.452s0.52-1.097,0.932-1.433s0.931-0.504,1.556-0.504     c0.461,0,0.865,0.093,1.213,0.278s0.635,0.453,0.861,0.803s0.404,0.775,0.533,1.277s0.193,1.179,0.193,2.03     c0,1.008-0.104,1.821-0.311,2.44s-0.517,1.098-0.929,1.436s-0.933,0.507-1.562,0.507c-0.828,0-1.479-0.297-1.951-0.891     C121.925,139.343,121.642,138.179,121.642,136.566z M122.726,136.566c0,1.41,0.165,2.349,0.495,2.815s0.737,0.7,1.222,0.7     s0.892-0.234,1.222-0.703s0.495-1.406,0.495-2.813c0-1.414-0.165-2.354-0.495-2.818s-0.741-0.697-1.233-0.697     c-0.484,0-0.871,0.205-1.16,0.615C122.907,134.189,122.726,135.156,122.726,136.566z"
   id="path128" />
		</g>
	</g>
	<g
   id="g130">
		<g
   id="g132">
			<path
   d="M141.012,258.142v-8.838h-3.302v-1.184h7.943v1.184h-3.315v8.838H141.012z"
   id="path134" />
			<path
   d="M157.794,255.134v-1.236h3.78v1.236H157.794z"
   id="path136" />
			<path
   d="M165.115,258.142l3.849-10.021h1.429l4.102,10.021H165.115z M166.954,256.96h5.571l-2.167-5.709     c-0.323-0.856-0.561-1.549-0.711-2.078c-0.123,0.62-0.303,1.258-0.54,1.914L166.954,256.96z"
   id="path138" />
			<path
   d="M178.11,258.142v-8.838h-3.302v-1.184h7.943v1.184h-3.315v8.838H178.11z"
   id="path140" />
		</g>
		<g
   id="g142">
			<path
   d="M146.88,257.905c0-1.016,0.104-1.832,0.313-2.451s0.52-1.098,0.932-1.434s0.931-0.504,1.556-0.504     c0.461,0,0.865,0.094,1.213,0.279s0.635,0.453,0.861,0.803s0.404,0.775,0.533,1.277s0.193,1.178,0.193,2.029     c0,1.008-0.104,1.822-0.311,2.441s-0.517,1.098-0.929,1.436s-0.933,0.506-1.562,0.506c-0.828,0-1.479-0.297-1.951-0.891     C147.164,260.683,146.88,259.519,146.88,257.905z M147.964,257.905c0,1.41,0.165,2.35,0.495,2.816s0.737,0.699,1.222,0.699     s0.892-0.234,1.222-0.703s0.495-1.406,0.495-2.813c0-1.414-0.165-2.354-0.495-2.818s-0.741-0.697-1.233-0.697     c-0.484,0-0.871,0.205-1.16,0.615C148.146,255.528,147.964,256.495,147.964,257.905z"
   id="path144" />
		</g>
	</g>
	<g
   id="g146">
		<g
   id="g148">
			<path
   d="M312.346,258.142v-8.838h-3.302v-1.184h7.943v1.184h-3.315v8.838H312.346z"
   id="path150" />
			<path
   d="M329.127,255.134v-1.236h3.781v1.236H329.127z"
   id="path152" />
			<path
   d="M336.449,258.142l3.848-10.021h1.43l4.102,10.021H336.449z M338.287,256.96h5.572l-2.168-5.709     c-0.322-0.856-0.561-1.549-0.711-2.078c-0.123,0.62-0.303,1.258-0.539,1.914L338.287,256.96z"
   id="path154" />
			<path
   d="M349.443,258.142v-8.838h-3.301v-1.184h7.943v1.184h-3.316v8.838H349.443z"
   id="path156" />
		</g>
		<g
   id="g158">
			<path
   d="M318.214,257.905c0-1.016,0.104-1.832,0.313-2.451s0.52-1.098,0.932-1.434s0.931-0.504,1.556-0.504     c0.461,0,0.865,0.094,1.213,0.279s0.635,0.453,0.861,0.803s0.404,0.775,0.533,1.277s0.193,1.178,0.193,2.029     c0,1.008-0.104,1.822-0.311,2.441s-0.517,1.098-0.929,1.436s-0.933,0.506-1.562,0.506c-0.828,0-1.479-0.297-1.951-0.891     C318.497,260.683,318.214,259.519,318.214,257.905z M319.298,257.905c0,1.41,0.165,2.35,0.495,2.816s0.737,0.699,1.222,0.699     s0.892-0.234,1.222-0.703s0.495-1.406,0.495-2.813c0-1.414-0.165-2.354-0.495-2.818s-0.741-0.697-1.233-0.697     c-0.484,0-0.871,0.205-1.16,0.615C319.479,255.528,319.298,256.495,319.298,257.905z"
   id="path160" />
		</g>
	</g>
	<g
   id="g162">
		<path
   d="M115.454,66.862c-0.582-0.734-1.074-1.594-1.477-2.578s-0.604-2.004-0.604-3.059c0-0.93,0.15-1.82,0.451-2.672    c0.352-0.988,0.895-1.973,1.629-2.953h0.756c-0.473,0.813-0.785,1.393-0.938,1.74c-0.238,0.539-0.426,1.102-0.563,1.688    c-0.168,0.73-0.252,1.465-0.252,2.203c0,1.879,0.584,3.756,1.752,5.631H115.454z"
   id="path164" />
		<path
   d="M121.495,63.569c-0.391,0.332-0.767,0.566-1.128,0.703s-0.749,0.205-1.163,0.205c-0.684,0-1.209-0.167-1.576-0.501    s-0.551-0.761-0.551-1.28c0-0.305,0.069-0.583,0.208-0.835s0.32-0.454,0.545-0.606s0.478-0.268,0.759-0.346    c0.207-0.055,0.52-0.107,0.938-0.158c0.852-0.102,1.479-0.223,1.881-0.363c0.004-0.145,0.006-0.236,0.006-0.275    c0-0.43-0.1-0.732-0.299-0.908c-0.27-0.238-0.67-0.357-1.201-0.357c-0.496,0-0.862,0.087-1.099,0.261s-0.411,0.481-0.524,0.923    l-1.031-0.141c0.094-0.441,0.248-0.798,0.463-1.069s0.525-0.48,0.932-0.627s0.877-0.22,1.412-0.22    c0.531,0,0.963,0.063,1.295,0.188s0.576,0.282,0.732,0.472s0.266,0.429,0.328,0.718c0.035,0.18,0.053,0.504,0.053,0.973v1.406    c0,0.98,0.022,1.601,0.067,1.86s0.134,0.509,0.267,0.747h-1.102C121.596,64.118,121.526,63.862,121.495,63.569z M121.407,61.214    c-0.383,0.156-0.957,0.289-1.723,0.398c-0.434,0.063-0.74,0.133-0.92,0.211s-0.318,0.192-0.416,0.343s-0.146,0.317-0.146,0.501    c0,0.281,0.106,0.516,0.319,0.703s0.524,0.281,0.935,0.281c0.406,0,0.768-0.089,1.084-0.267s0.549-0.421,0.697-0.729    c0.113-0.238,0.17-0.59,0.17-1.055V61.214z"
   id="path166" />
		<path
   d="M124.799,66.862h-0.756c1.168-1.875,1.752-3.752,1.752-5.631c0-0.734-0.084-1.463-0.252-2.186    c-0.133-0.586-0.318-1.148-0.557-1.688c-0.152-0.352-0.467-0.938-0.943-1.758h0.756c0.734,0.98,1.277,1.965,1.629,2.953    c0.301,0.852,0.451,1.742,0.451,2.672c0,1.055-0.202,2.074-0.606,3.059S125.377,66.128,124.799,66.862z"
   id="path168" />
	</g>
	<g
   id="g170">
		<path
   d="M308.523,235.348c-0.582-0.734-1.074-1.594-1.477-2.578s-0.604-2.004-0.604-3.059c0-0.93,0.15-1.82,0.451-2.672    c0.352-0.988,0.895-1.973,1.629-2.953h0.756c-0.473,0.813-0.785,1.393-0.938,1.74c-0.238,0.539-0.426,1.102-0.563,1.688    c-0.168,0.73-0.252,1.465-0.252,2.203c0,1.879,0.584,3.756,1.752,5.631H308.523z"
   id="path172" />
		<path
   d="M311.477,232.822h-0.979v-8.59h1.055v3.064c0.445-0.559,1.014-0.838,1.705-0.838c0.383,0,0.744,0.077,1.086,0.231    s0.623,0.371,0.844,0.65s0.395,0.616,0.52,1.011s0.188,0.816,0.188,1.266c0,1.066-0.264,1.891-0.791,2.473    s-1.16,0.873-1.898,0.873c-0.734,0-1.311-0.307-1.729-0.92V232.822z M311.465,229.664c0,0.746,0.102,1.285,0.305,1.617    c0.332,0.543,0.781,0.814,1.348,0.814c0.461,0,0.859-0.2,1.195-0.601s0.504-0.997,0.504-1.79c0-0.813-0.162-1.412-0.484-1.799    s-0.711-0.58-1.168-0.58c-0.461,0-0.859,0.2-1.195,0.601S311.465,228.906,311.465,229.664z"
   id="path174" />
		<path
   d="M317.869,235.348h-0.756c1.168-1.875,1.752-3.752,1.752-5.631c0-0.734-0.084-1.463-0.252-2.186    c-0.133-0.586-0.318-1.148-0.557-1.688c-0.152-0.352-0.467-0.938-0.943-1.758h0.756c0.734,0.98,1.277,1.965,1.629,2.953    c0.301,0.852,0.451,1.742,0.451,2.672c0,1.055-0.203,2.074-0.607,3.059S318.447,234.613,317.869,235.348z"
   id="path176" />
	</g>
	<g
   id="g178">
		<path
   d="M137.189,236.349c-0.582-0.734-1.074-1.594-1.477-2.578s-0.604-2.004-0.604-3.059c0-0.93,0.15-1.82,0.451-2.672    c0.352-0.988,0.895-1.973,1.629-2.953h0.756c-0.473,0.813-0.785,1.393-0.938,1.74c-0.238,0.539-0.426,1.102-0.563,1.688    c-0.168,0.73-0.252,1.465-0.252,2.203c0,1.879,0.584,3.756,1.752,5.631H137.189z"
   id="path180" />
		<path
   d="M143.23,231.544l1.037,0.135c-0.113,0.715-0.403,1.274-0.87,1.679s-1.04,0.606-1.72,0.606    c-0.852,0-1.536-0.278-2.054-0.835s-0.776-1.354-0.776-2.394c0-0.672,0.111-1.26,0.334-1.764s0.562-0.882,1.017-1.134    s0.95-0.378,1.485-0.378c0.676,0,1.229,0.171,1.658,0.513s0.705,0.827,0.826,1.456l-1.025,0.158    c-0.098-0.418-0.271-0.732-0.519-0.943s-0.548-0.316-0.899-0.316c-0.531,0-0.963,0.19-1.295,0.571s-0.498,0.983-0.498,1.808    c0,0.836,0.16,1.443,0.48,1.822s0.738,0.568,1.254,0.568c0.414,0,0.76-0.127,1.037-0.381S143.156,232.071,143.23,231.544z"
   id="path182" />
		<path
   d="M145.861,236.349h-0.756c1.168-1.875,1.752-3.752,1.752-5.631c0-0.734-0.084-1.463-0.252-2.186    c-0.133-0.586-0.318-1.148-0.557-1.688c-0.152-0.352-0.467-0.938-0.943-1.758h0.756c0.734,0.98,1.277,1.965,1.629,2.953    c0.301,0.852,0.451,1.742,0.451,2.672c0,1.055-0.202,2.074-0.606,3.059S146.439,235.614,145.861,236.349z"
   id="path184" />
	</g>
	<g
   id="g186">
		<path
   d="M115.454,117.99c-0.582-0.734-1.074-1.594-1.477-2.578s-0.604-2.004-0.604-3.059c0-0.93,0.15-1.82,0.451-2.672    c0.352-0.988,0.895-1.973,1.629-2.953h0.756c-0.473,0.813-0.785,1.393-0.938,1.74c-0.238,0.539-0.426,1.102-0.563,1.688    c-0.168,0.73-0.252,1.465-0.252,2.203c0,1.879,0.584,3.756,1.752,5.631H115.454z"
   id="path188" />
		<path
   d="M121.471,115.465v-0.785c-0.395,0.617-0.975,0.926-1.74,0.926c-0.496,0-0.952-0.137-1.368-0.41s-0.738-0.655-0.967-1.146    s-0.343-1.054-0.343-1.69c0-0.621,0.104-1.185,0.311-1.69s0.518-0.894,0.932-1.163s0.877-0.404,1.389-0.404    c0.375,0,0.709,0.079,1.002,0.237s0.531,0.364,0.715,0.618v-3.082h1.049v8.59H121.471z M118.137,112.359    c0,0.797,0.168,1.393,0.504,1.787s0.732,0.592,1.189,0.592c0.461,0,0.853-0.188,1.175-0.565s0.483-0.952,0.483-1.726    c0-0.852-0.164-1.477-0.492-1.875s-0.732-0.598-1.213-0.598c-0.469,0-0.86,0.191-1.175,0.574S118.137,111.535,118.137,112.359z"
   id="path190" />
		<path
   d="M124.799,117.99h-0.756c1.168-1.875,1.752-3.752,1.752-5.631c0-0.734-0.084-1.463-0.252-2.186    c-0.133-0.586-0.318-1.148-0.557-1.688c-0.152-0.352-0.467-0.938-0.943-1.758h0.756c0.734,0.98,1.277,1.965,1.629,2.953    c0.301,0.852,0.451,1.742,0.451,2.672c0,1.055-0.202,2.074-0.606,3.059S125.377,117.256,124.799,117.99z"
   id="path192" />
	</g>
</g>
<g
   id="Legende">
	<g
   id="g195">
		<circle
   id="PunktA_2_"
   fill="#EC1C24"
   stroke="#EC1C24"
   cx="285.742"
   cy="31.441"
   r="4.284" />
		<g
   id="g198">
			<path
   d="M296.281,35.176V25.154h1.996l2.372,7.096c0.219,0.661,0.378,1.155,0.479,1.483c0.114-0.365,0.292-0.9,0.533-1.606     l2.399-6.973h1.784v10.021h-1.278v-8.388l-2.912,8.388h-1.196l-2.898-8.531v8.531H296.281z"
   id="path200" />
			<path
   d="M312.797,32.838l1.271,0.157c-0.2,0.743-0.572,1.319-1.114,1.729s-1.235,0.615-2.078,0.615     c-1.062,0-1.903-0.327-2.526-0.981c-0.621-0.654-0.933-1.571-0.933-2.751c0-1.221,0.314-2.169,0.943-2.844     s1.444-1.012,2.447-1.012c0.971,0,1.764,0.331,2.379,0.991s0.923,1.59,0.923,2.789c0,0.073-0.002,0.182-0.007,0.328h-5.414     c0.046,0.797,0.271,1.408,0.677,1.832s0.911,0.636,1.518,0.636c0.451,0,0.836-0.119,1.155-0.355S312.61,33.357,312.797,32.838z      M308.757,30.849h4.054c-0.055-0.611-0.21-1.069-0.465-1.374c-0.392-0.474-0.9-0.711-1.524-0.711     c-0.565,0-1.04,0.189-1.425,0.567C309.011,29.709,308.798,30.215,308.757,30.849z"
   id="path202" />
			<path
   d="M315.121,33.009l1.217-0.191c0.068,0.488,0.259,0.861,0.57,1.121c0.313,0.26,0.749,0.39,1.31,0.39     c0.565,0,0.984-0.115,1.258-0.345s0.41-0.5,0.41-0.81c0-0.278-0.121-0.497-0.362-0.656c-0.169-0.109-0.588-0.249-1.258-0.417     c-0.902-0.228-1.527-0.425-1.877-0.591c-0.348-0.167-0.612-0.396-0.793-0.69c-0.18-0.294-0.27-0.619-0.27-0.974     c0-0.324,0.074-0.623,0.223-0.899c0.147-0.276,0.35-0.505,0.604-0.687c0.191-0.141,0.452-0.261,0.782-0.359     c0.331-0.098,0.686-0.147,1.063-0.147c0.569,0,1.069,0.082,1.501,0.246c0.43,0.164,0.748,0.386,0.953,0.667     s0.347,0.655,0.424,1.125l-1.203,0.164c-0.055-0.374-0.213-0.666-0.475-0.875c-0.263-0.209-0.633-0.314-1.111-0.314     c-0.565,0-0.969,0.093-1.21,0.28s-0.362,0.406-0.362,0.656c0,0.16,0.05,0.303,0.15,0.431c0.101,0.132,0.258,0.242,0.472,0.328     c0.123,0.045,0.485,0.15,1.087,0.314c0.87,0.232,1.478,0.423,1.822,0.571c0.344,0.148,0.613,0.363,0.81,0.646     s0.294,0.633,0.294,1.053c0,0.41-0.119,0.796-0.359,1.159c-0.238,0.362-0.584,0.643-1.035,0.841s-0.962,0.297-1.531,0.297     c-0.943,0-1.662-0.196-2.156-0.588C315.573,34.36,315.258,33.779,315.121,33.009z"
   id="path204" />
			<path
   d="M322.121,33.009l1.217-0.191c0.068,0.488,0.259,0.861,0.57,1.121c0.313,0.26,0.749,0.39,1.31,0.39     c0.565,0,0.984-0.115,1.258-0.345s0.41-0.5,0.41-0.81c0-0.278-0.121-0.497-0.362-0.656c-0.169-0.109-0.588-0.249-1.258-0.417     c-0.902-0.228-1.527-0.425-1.877-0.591c-0.348-0.167-0.612-0.396-0.793-0.69c-0.18-0.294-0.27-0.619-0.27-0.974     c0-0.324,0.074-0.623,0.223-0.899c0.147-0.276,0.35-0.505,0.604-0.687c0.191-0.141,0.452-0.261,0.782-0.359     c0.331-0.098,0.686-0.147,1.063-0.147c0.569,0,1.069,0.082,1.501,0.246c0.43,0.164,0.748,0.386,0.953,0.667     s0.347,0.655,0.424,1.125l-1.203,0.164c-0.055-0.374-0.213-0.666-0.475-0.875c-0.263-0.209-0.633-0.314-1.111-0.314     c-0.565,0-0.969,0.093-1.21,0.28s-0.362,0.406-0.362,0.656c0,0.16,0.05,0.303,0.15,0.431c0.101,0.132,0.258,0.242,0.472,0.328     c0.123,0.045,0.485,0.15,1.087,0.314c0.87,0.232,1.478,0.423,1.822,0.571c0.344,0.148,0.613,0.363,0.81,0.646     s0.294,0.633,0.294,1.053c0,0.41-0.119,0.796-0.359,1.159c-0.238,0.362-0.584,0.643-1.035,0.841s-0.962,0.297-1.531,0.297     c-0.943,0-1.662-0.196-2.156-0.588C322.573,34.36,322.258,33.779,322.121,33.009z"
   id="path206" />
			<path
   d="M329.613,37.958V27.916h1.121v0.943c0.265-0.369,0.563-0.646,0.896-0.831s0.736-0.277,1.21-0.277     c0.62,0,1.167,0.16,1.641,0.479s0.832,0.769,1.073,1.35s0.362,1.218,0.362,1.911c0,0.743-0.133,1.412-0.4,2.006     c-0.266,0.595-0.653,1.05-1.162,1.367c-0.508,0.317-1.042,0.475-1.603,0.475c-0.41,0-0.778-0.086-1.104-0.26     c-0.325-0.173-0.593-0.392-0.803-0.656v3.534H329.613z M330.728,31.587c0,0.934,0.189,1.625,0.567,2.071s0.836,0.67,1.374,0.67     c0.547,0,1.015-0.231,1.405-0.694c0.389-0.462,0.584-1.179,0.584-2.15c0-0.925-0.19-1.618-0.57-2.078     c-0.381-0.46-0.836-0.69-1.364-0.69c-0.524,0-0.987,0.245-1.392,0.735C330.93,29.94,330.728,30.653,330.728,31.587z"
   id="path208" />
			<path
   d="M342.157,35.176v-1.066c-0.565,0.82-1.333,1.23-2.304,1.23c-0.429,0-0.828-0.082-1.199-0.246     c-0.372-0.164-0.647-0.37-0.828-0.619c-0.18-0.249-0.306-0.553-0.379-0.913c-0.05-0.242-0.075-0.625-0.075-1.148v-4.498h1.23     v4.026c0,0.643,0.025,1.076,0.075,1.299c0.077,0.324,0.241,0.578,0.492,0.762s0.561,0.277,0.93,0.277s0.716-0.095,1.039-0.284     s0.553-0.447,0.688-0.772c0.134-0.326,0.201-0.799,0.201-1.418v-3.89h1.23v7.26H342.157z"
   id="path210" />
			<path
   d="M345.186,35.176v-7.26h1.107v1.032c0.533-0.797,1.304-1.196,2.311-1.196c0.438,0,0.84,0.079,1.207,0.236     c0.366,0.157,0.641,0.363,0.823,0.619s0.31,0.558,0.383,0.909c0.046,0.228,0.068,0.626,0.068,1.196v4.464h-1.23V30.76     c0-0.501-0.048-0.876-0.144-1.125s-0.266-0.447-0.51-0.595c-0.243-0.148-0.529-0.222-0.857-0.222     c-0.524,0-0.977,0.167-1.357,0.499c-0.38,0.333-0.57,0.964-0.57,1.894v3.965H345.186z"
   id="path212" />
			<path
   d="M352.979,35.176V25.154h1.23v5.715l2.912-2.953h1.593l-2.775,2.693l3.056,4.566h-1.518l-2.399-3.712l-0.868,0.834v2.878     H352.979z"
   id="path214" />
			<path
   d="M362.658,34.075l0.178,1.087c-0.347,0.073-0.656,0.109-0.93,0.109c-0.446,0-0.793-0.071-1.039-0.212     s-0.419-0.327-0.52-0.557s-0.15-0.714-0.15-1.453v-4.177h-0.902v-0.957h0.902v-1.798l1.224-0.738v2.536h1.237v0.957h-1.237v4.245     c0,0.351,0.021,0.577,0.065,0.677c0.043,0.1,0.113,0.18,0.211,0.239c0.099,0.059,0.238,0.089,0.421,0.089     C362.255,34.123,362.435,34.107,362.658,34.075z"
   id="path216" />
		</g>
		<rect
   x="273.367"
   y="18.09"
   fill="none"
   stroke="#000000"
   width="99.75"
   height="25"
   id="rect218" />
	</g>
</g>
</svg>