%!PS-Adobe-2.0 EPSF-2.0
%%Title: 1min.tex
%%Creator: gnuplot 4.4 patchlevel 3
%%CreationDate: Mon Apr  1 14:39:57 2013
%%DocumentFonts: 
%%BoundingBox: 50 50 410 302
%%EndComments
%%BeginProlog
/gnudict 256 dict def
gnudict begin
%
% The following true/false flags may be edited by hand if desired.
% The unit line width and grayscale image gamma correction may also be changed.
%
/Color true def
/Blacktext false def
/Solid false def
/Dashlength 1 def
/Landscape false def
/Level1 false def
/Rounded false def
/ClipToBoundingBox false def
/TransparentPatterns false def
/gnulinewidth 5.000 def
/userlinewidth gnulinewidth def
/Gamma 1.0 def
%
/vshift -73 def
/dl1 {
  10.0 Dashlength mul mul
  Rounded { currentlinewidth 0.75 mul sub dup 0 le { pop 0.01 } if } if
} def
/dl2 {
  10.0 Dashlength mul mul
  Rounded { currentlinewidth 0.75 mul add } if
} def
/hpt_ 31.5 def
/vpt_ 31.5 def
/hpt hpt_ def
/vpt vpt_ def
Level1 {} {
/SDict 10 dict def
systemdict /pdfmark known not {
  userdict /pdfmark systemdict /cleartomark get put
} if
SDict begin [
  /Title (1min.tex)
  /Subject (gnuplot plot)
  /Creator (gnuplot 4.4 patchlevel 3)
  /Author (julius)
%  /Producer (gnuplot)
%  /Keywords ()
  /CreationDate (Mon Apr  1 14:39:57 2013)
  /DOCINFO pdfmark
end
} ifelse
/doclip {
  ClipToBoundingBox {
    newpath 50 50 moveto 410 50 lineto 410 302 lineto 50 302 lineto closepath
    clip
  } if
} def
%
% Gnuplot Prolog Version 4.4 (August 2010)
%
%/SuppressPDFMark true def
%
/M {moveto} bind def
/L {lineto} bind def
/R {rmoveto} bind def
/V {rlineto} bind def
/N {newpath moveto} bind def
/Z {closepath} bind def
/C {setrgbcolor} bind def
/f {rlineto fill} bind def
/g {setgray} bind def
/Gshow {show} def   % May be redefined later in the file to support UTF-8
/vpt2 vpt 2 mul def
/hpt2 hpt 2 mul def
/Lshow {currentpoint stroke M 0 vshift R 
	Blacktext {gsave 0 setgray show grestore} {show} ifelse} def
/Rshow {currentpoint stroke M dup stringwidth pop neg vshift R
	Blacktext {gsave 0 setgray show grestore} {show} ifelse} def
/Cshow {currentpoint stroke M dup stringwidth pop -2 div vshift R 
	Blacktext {gsave 0 setgray show grestore} {show} ifelse} def
/UP {dup vpt_ mul /vpt exch def hpt_ mul /hpt exch def
  /hpt2 hpt 2 mul def /vpt2 vpt 2 mul def} def
/DL {Color {setrgbcolor Solid {pop []} if 0 setdash}
 {pop pop pop 0 setgray Solid {pop []} if 0 setdash} ifelse} def
/BL {stroke userlinewidth 2 mul setlinewidth
	Rounded {1 setlinejoin 1 setlinecap} if} def
/AL {stroke userlinewidth 2 div setlinewidth
	Rounded {1 setlinejoin 1 setlinecap} if} def
/UL {dup gnulinewidth mul /userlinewidth exch def
	dup 1 lt {pop 1} if 10 mul /udl exch def} def
/PL {stroke userlinewidth setlinewidth
	Rounded {1 setlinejoin 1 setlinecap} if} def
3.8 setmiterlimit
% Default Line colors
/LCw {1 1 1} def
/LCb {0 0 0} def
/LCa {0 0 0} def
/LC0 {1 0 0} def
/LC1 {0 1 0} def
/LC2 {0 0 1} def
/LC3 {1 0 1} def
/LC4 {0 1 1} def
/LC5 {1 1 0} def
/LC6 {0 0 0} def
/LC7 {1 0.3 0} def
/LC8 {0.5 0.5 0.5} def
% Default Line Types
/LTw {PL [] 1 setgray} def
/LTb {BL [] LCb DL} def
/LTa {AL [1 udl mul 2 udl mul] 0 setdash LCa setrgbcolor} def
/LT0 {PL [] LC0 DL} def
/LT1 {PL [4 dl1 2 dl2] LC1 DL} def
/LT2 {PL [2 dl1 3 dl2] LC2 DL} def
/LT3 {PL [1 dl1 1.5 dl2] LC3 DL} def
/LT4 {PL [6 dl1 2 dl2 1 dl1 2 dl2] LC4 DL} def
/LT5 {PL [3 dl1 3 dl2 1 dl1 3 dl2] LC5 DL} def
/LT6 {PL [2 dl1 2 dl2 2 dl1 6 dl2] LC6 DL} def
/LT7 {PL [1 dl1 2 dl2 6 dl1 2 dl2 1 dl1 2 dl2] LC7 DL} def
/LT8 {PL [2 dl1 2 dl2 2 dl1 2 dl2 2 dl1 2 dl2 2 dl1 4 dl2] LC8 DL} def
/Pnt {stroke [] 0 setdash gsave 1 setlinecap M 0 0 V stroke grestore} def
/Dia {stroke [] 0 setdash 2 copy vpt add M
  hpt neg vpt neg V hpt vpt neg V
  hpt vpt V hpt neg vpt V closepath stroke
  Pnt} def
/Pls {stroke [] 0 setdash vpt sub M 0 vpt2 V
  currentpoint stroke M
  hpt neg vpt neg R hpt2 0 V stroke
 } def
/Box {stroke [] 0 setdash 2 copy exch hpt sub exch vpt add M
  0 vpt2 neg V hpt2 0 V 0 vpt2 V
  hpt2 neg 0 V closepath stroke
  Pnt} def
/Crs {stroke [] 0 setdash exch hpt sub exch vpt add M
  hpt2 vpt2 neg V currentpoint stroke M
  hpt2 neg 0 R hpt2 vpt2 V stroke} def
/TriU {stroke [] 0 setdash 2 copy vpt 1.12 mul add M
  hpt neg vpt -1.62 mul V
  hpt 2 mul 0 V
  hpt neg vpt 1.62 mul V closepath stroke
  Pnt} def
/Star {2 copy Pls Crs} def
/BoxF {stroke [] 0 setdash exch hpt sub exch vpt add M
  0 vpt2 neg V hpt2 0 V 0 vpt2 V
  hpt2 neg 0 V closepath fill} def
/TriUF {stroke [] 0 setdash vpt 1.12 mul add M
  hpt neg vpt -1.62 mul V
  hpt 2 mul 0 V
  hpt neg vpt 1.62 mul V closepath fill} def
/TriD {stroke [] 0 setdash 2 copy vpt 1.12 mul sub M
  hpt neg vpt 1.62 mul V
  hpt 2 mul 0 V
  hpt neg vpt -1.62 mul V closepath stroke
  Pnt} def
/TriDF {stroke [] 0 setdash vpt 1.12 mul sub M
  hpt neg vpt 1.62 mul V
  hpt 2 mul 0 V
  hpt neg vpt -1.62 mul V closepath fill} def
/DiaF {stroke [] 0 setdash vpt add M
  hpt neg vpt neg V hpt vpt neg V
  hpt vpt V hpt neg vpt V closepath fill} def
/Pent {stroke [] 0 setdash 2 copy gsave
  translate 0 hpt M 4 {72 rotate 0 hpt L} repeat
  closepath stroke grestore Pnt} def
/PentF {stroke [] 0 setdash gsave
  translate 0 hpt M 4 {72 rotate 0 hpt L} repeat
  closepath fill grestore} def
/Circle {stroke [] 0 setdash 2 copy
  hpt 0 360 arc stroke Pnt} def
/CircleF {stroke [] 0 setdash hpt 0 360 arc fill} def
/C0 {BL [] 0 setdash 2 copy moveto vpt 90 450 arc} bind def
/C1 {BL [] 0 setdash 2 copy moveto
	2 copy vpt 0 90 arc closepath fill
	vpt 0 360 arc closepath} bind def
/C2 {BL [] 0 setdash 2 copy moveto
	2 copy vpt 90 180 arc closepath fill
	vpt 0 360 arc closepath} bind def
/C3 {BL [] 0 setdash 2 copy moveto
	2 copy vpt 0 180 arc closepath fill
	vpt 0 360 arc closepath} bind def
/C4 {BL [] 0 setdash 2 copy moveto
	2 copy vpt 180 270 arc closepath fill
	vpt 0 360 arc closepath} bind def
/C5 {BL [] 0 setdash 2 copy moveto
	2 copy vpt 0 90 arc
	2 copy moveto
	2 copy vpt 180 270 arc closepath fill
	vpt 0 360 arc} bind def
/C6 {BL [] 0 setdash 2 copy moveto
	2 copy vpt 90 270 arc closepath fill
	vpt 0 360 arc closepath} bind def
/C7 {BL [] 0 setdash 2 copy moveto
	2 copy vpt 0 270 arc closepath fill
	vpt 0 360 arc closepath} bind def
/C8 {BL [] 0 setdash 2 copy moveto
	2 copy vpt 270 360 arc closepath fill
	vpt 0 360 arc closepath} bind def
/C9 {BL [] 0 setdash 2 copy moveto
	2 copy vpt 270 450 arc closepath fill
	vpt 0 360 arc closepath} bind def
/C10 {BL [] 0 setdash 2 copy 2 copy moveto vpt 270 360 arc closepath fill
	2 copy moveto
	2 copy vpt 90 180 arc closepath fill
	vpt 0 360 arc closepath} bind def
/C11 {BL [] 0 setdash 2 copy moveto
	2 copy vpt 0 180 arc closepath fill
	2 copy moveto
	2 copy vpt 270 360 arc closepath fill
	vpt 0 360 arc closepath} bind def
/C12 {BL [] 0 setdash 2 copy moveto
	2 copy vpt 180 360 arc closepath fill
	vpt 0 360 arc closepath} bind def
/C13 {BL [] 0 setdash 2 copy moveto
	2 copy vpt 0 90 arc closepath fill
	2 copy moveto
	2 copy vpt 180 360 arc closepath fill
	vpt 0 360 arc closepath} bind def
/C14 {BL [] 0 setdash 2 copy moveto
	2 copy vpt 90 360 arc closepath fill
	vpt 0 360 arc} bind def
/C15 {BL [] 0 setdash 2 copy vpt 0 360 arc closepath fill
	vpt 0 360 arc closepath} bind def
/Rec {newpath 4 2 roll moveto 1 index 0 rlineto 0 exch rlineto
	neg 0 rlineto closepath} bind def
/Square {dup Rec} bind def
/Bsquare {vpt sub exch vpt sub exch vpt2 Square} bind def
/S0 {BL [] 0 setdash 2 copy moveto 0 vpt rlineto BL Bsquare} bind def
/S1 {BL [] 0 setdash 2 copy vpt Square fill Bsquare} bind def
/S2 {BL [] 0 setdash 2 copy exch vpt sub exch vpt Square fill Bsquare} bind def
/S3 {BL [] 0 setdash 2 copy exch vpt sub exch vpt2 vpt Rec fill Bsquare} bind def
/S4 {BL [] 0 setdash 2 copy exch vpt sub exch vpt sub vpt Square fill Bsquare} bind def
/S5 {BL [] 0 setdash 2 copy 2 copy vpt Square fill
	exch vpt sub exch vpt sub vpt Square fill Bsquare} bind def
/S6 {BL [] 0 setdash 2 copy exch vpt sub exch vpt sub vpt vpt2 Rec fill Bsquare} bind def
/S7 {BL [] 0 setdash 2 copy exch vpt sub exch vpt sub vpt vpt2 Rec fill
	2 copy vpt Square fill Bsquare} bind def
/S8 {BL [] 0 setdash 2 copy vpt sub vpt Square fill Bsquare} bind def
/S9 {BL [] 0 setdash 2 copy vpt sub vpt vpt2 Rec fill Bsquare} bind def
/S10 {BL [] 0 setdash 2 copy vpt sub vpt Square fill 2 copy exch vpt sub exch vpt Square fill
	Bsquare} bind def
/S11 {BL [] 0 setdash 2 copy vpt sub vpt Square fill 2 copy exch vpt sub exch vpt2 vpt Rec fill
	Bsquare} bind def
/S12 {BL [] 0 setdash 2 copy exch vpt sub exch vpt sub vpt2 vpt Rec fill Bsquare} bind def
/S13 {BL [] 0 setdash 2 copy exch vpt sub exch vpt sub vpt2 vpt Rec fill
	2 copy vpt Square fill Bsquare} bind def
/S14 {BL [] 0 setdash 2 copy exch vpt sub exch vpt sub vpt2 vpt Rec fill
	2 copy exch vpt sub exch vpt Square fill Bsquare} bind def
/S15 {BL [] 0 setdash 2 copy Bsquare fill Bsquare} bind def
/D0 {gsave translate 45 rotate 0 0 S0 stroke grestore} bind def
/D1 {gsave translate 45 rotate 0 0 S1 stroke grestore} bind def
/D2 {gsave translate 45 rotate 0 0 S2 stroke grestore} bind def
/D3 {gsave translate 45 rotate 0 0 S3 stroke grestore} bind def
/D4 {gsave translate 45 rotate 0 0 S4 stroke grestore} bind def
/D5 {gsave translate 45 rotate 0 0 S5 stroke grestore} bind def
/D6 {gsave translate 45 rotate 0 0 S6 stroke grestore} bind def
/D7 {gsave translate 45 rotate 0 0 S7 stroke grestore} bind def
/D8 {gsave translate 45 rotate 0 0 S8 stroke grestore} bind def
/D9 {gsave translate 45 rotate 0 0 S9 stroke grestore} bind def
/D10 {gsave translate 45 rotate 0 0 S10 stroke grestore} bind def
/D11 {gsave translate 45 rotate 0 0 S11 stroke grestore} bind def
/D12 {gsave translate 45 rotate 0 0 S12 stroke grestore} bind def
/D13 {gsave translate 45 rotate 0 0 S13 stroke grestore} bind def
/D14 {gsave translate 45 rotate 0 0 S14 stroke grestore} bind def
/D15 {gsave translate 45 rotate 0 0 S15 stroke grestore} bind def
/DiaE {stroke [] 0 setdash vpt add M
  hpt neg vpt neg V hpt vpt neg V
  hpt vpt V hpt neg vpt V closepath stroke} def
/BoxE {stroke [] 0 setdash exch hpt sub exch vpt add M
  0 vpt2 neg V hpt2 0 V 0 vpt2 V
  hpt2 neg 0 V closepath stroke} def
/TriUE {stroke [] 0 setdash vpt 1.12 mul add M
  hpt neg vpt -1.62 mul V
  hpt 2 mul 0 V
  hpt neg vpt 1.62 mul V closepath stroke} def
/TriDE {stroke [] 0 setdash vpt 1.12 mul sub M
  hpt neg vpt 1.62 mul V
  hpt 2 mul 0 V
  hpt neg vpt -1.62 mul V closepath stroke} def
/PentE {stroke [] 0 setdash gsave
  translate 0 hpt M 4 {72 rotate 0 hpt L} repeat
  closepath stroke grestore} def
/CircE {stroke [] 0 setdash 
  hpt 0 360 arc stroke} def
/Opaque {gsave closepath 1 setgray fill grestore 0 setgray closepath} def
/DiaW {stroke [] 0 setdash vpt add M
  hpt neg vpt neg V hpt vpt neg V
  hpt vpt V hpt neg vpt V Opaque stroke} def
/BoxW {stroke [] 0 setdash exch hpt sub exch vpt add M
  0 vpt2 neg V hpt2 0 V 0 vpt2 V
  hpt2 neg 0 V Opaque stroke} def
/TriUW {stroke [] 0 setdash vpt 1.12 mul add M
  hpt neg vpt -1.62 mul V
  hpt 2 mul 0 V
  hpt neg vpt 1.62 mul V Opaque stroke} def
/TriDW {stroke [] 0 setdash vpt 1.12 mul sub M
  hpt neg vpt 1.62 mul V
  hpt 2 mul 0 V
  hpt neg vpt -1.62 mul V Opaque stroke} def
/PentW {stroke [] 0 setdash gsave
  translate 0 hpt M 4 {72 rotate 0 hpt L} repeat
  Opaque stroke grestore} def
/CircW {stroke [] 0 setdash 
  hpt 0 360 arc Opaque stroke} def
/BoxFill {gsave Rec 1 setgray fill grestore} def
/Density {
  /Fillden exch def
  currentrgbcolor
  /ColB exch def /ColG exch def /ColR exch def
  /ColR ColR Fillden mul Fillden sub 1 add def
  /ColG ColG Fillden mul Fillden sub 1 add def
  /ColB ColB Fillden mul Fillden sub 1 add def
  ColR ColG ColB setrgbcolor} def
/BoxColFill {gsave Rec PolyFill} def
/PolyFill {gsave Density fill grestore grestore} def
/h {rlineto rlineto rlineto gsave closepath fill grestore} bind def
%
% PostScript Level 1 Pattern Fill routine for rectangles
% Usage: x y w h s a XX PatternFill
%	x,y = lower left corner of box to be filled
%	w,h = width and height of box
%	  a = angle in degrees between lines and x-axis
%	 XX = 0/1 for no/yes cross-hatch
%
/PatternFill {gsave /PFa [ 9 2 roll ] def
  PFa 0 get PFa 2 get 2 div add PFa 1 get PFa 3 get 2 div add translate
  PFa 2 get -2 div PFa 3 get -2 div PFa 2 get PFa 3 get Rec
  gsave 1 setgray fill grestore clip
  currentlinewidth 0.5 mul setlinewidth
  /PFs PFa 2 get dup mul PFa 3 get dup mul add sqrt def
  0 0 M PFa 5 get rotate PFs -2 div dup translate
  0 1 PFs PFa 4 get div 1 add floor cvi
	{PFa 4 get mul 0 M 0 PFs V} for
  0 PFa 6 get ne {
	0 1 PFs PFa 4 get div 1 add floor cvi
	{PFa 4 get mul 0 2 1 roll M PFs 0 V} for
 } if
  stroke grestore} def
%
/languagelevel where
 {pop languagelevel} {1} ifelse
 2 lt
	{/InterpretLevel1 true def}
	{/InterpretLevel1 Level1 def}
 ifelse
%
% PostScript level 2 pattern fill definitions
%
/Level2PatternFill {
/Tile8x8 {/PaintType 2 /PatternType 1 /TilingType 1 /BBox [0 0 8 8] /XStep 8 /YStep 8}
	bind def
/KeepColor {currentrgbcolor [/Pattern /DeviceRGB] setcolorspace} bind def
<< Tile8x8
 /PaintProc {0.5 setlinewidth pop 0 0 M 8 8 L 0 8 M 8 0 L stroke} 
>> matrix makepattern
/Pat1 exch def
<< Tile8x8
 /PaintProc {0.5 setlinewidth pop 0 0 M 8 8 L 0 8 M 8 0 L stroke
	0 4 M 4 8 L 8 4 L 4 0 L 0 4 L stroke}
>> matrix makepattern
/Pat2 exch def
<< Tile8x8
 /PaintProc {0.5 setlinewidth pop 0 0 M 0 8 L
	8 8 L 8 0 L 0 0 L fill}
>> matrix makepattern
/Pat3 exch def
<< Tile8x8
 /PaintProc {0.5 setlinewidth pop -4 8 M 8 -4 L
	0 12 M 12 0 L stroke}
>> matrix makepattern
/Pat4 exch def
<< Tile8x8
 /PaintProc {0.5 setlinewidth pop -4 0 M 8 12 L
	0 -4 M 12 8 L stroke}
>> matrix makepattern
/Pat5 exch def
<< Tile8x8
 /PaintProc {0.5 setlinewidth pop -2 8 M 4 -4 L
	0 12 M 8 -4 L 4 12 M 10 0 L stroke}
>> matrix makepattern
/Pat6 exch def
<< Tile8x8
 /PaintProc {0.5 setlinewidth pop -2 0 M 4 12 L
	0 -4 M 8 12 L 4 -4 M 10 8 L stroke}
>> matrix makepattern
/Pat7 exch def
<< Tile8x8
 /PaintProc {0.5 setlinewidth pop 8 -2 M -4 4 L
	12 0 M -4 8 L 12 4 M 0 10 L stroke}
>> matrix makepattern
/Pat8 exch def
<< Tile8x8
 /PaintProc {0.5 setlinewidth pop 0 -2 M 12 4 L
	-4 0 M 12 8 L -4 4 M 8 10 L stroke}
>> matrix makepattern
/Pat9 exch def
/Pattern1 {PatternBgnd KeepColor Pat1 setpattern} bind def
/Pattern2 {PatternBgnd KeepColor Pat2 setpattern} bind def
/Pattern3 {PatternBgnd KeepColor Pat3 setpattern} bind def
/Pattern4 {PatternBgnd KeepColor Landscape {Pat5} {Pat4} ifelse setpattern} bind def
/Pattern5 {PatternBgnd KeepColor Landscape {Pat4} {Pat5} ifelse setpattern} bind def
/Pattern6 {PatternBgnd KeepColor Landscape {Pat9} {Pat6} ifelse setpattern} bind def
/Pattern7 {PatternBgnd KeepColor Landscape {Pat8} {Pat7} ifelse setpattern} bind def
} def
%
%
%End of PostScript Level 2 code
%
/PatternBgnd {
  TransparentPatterns {} {gsave 1 setgray fill grestore} ifelse
} def
%
% Substitute for Level 2 pattern fill codes with
% grayscale if Level 2 support is not selected.
%
/Level1PatternFill {
/Pattern1 {0.250 Density} bind def
/Pattern2 {0.500 Density} bind def
/Pattern3 {0.750 Density} bind def
/Pattern4 {0.125 Density} bind def
/Pattern5 {0.375 Density} bind def
/Pattern6 {0.625 Density} bind def
/Pattern7 {0.875 Density} bind def
} def
%
% Now test for support of Level 2 code
%
Level1 {Level1PatternFill} {Level2PatternFill} ifelse
%
/Symbol-Oblique /Symbol findfont [1 0 .167 1 0 0] makefont
dup length dict begin {1 index /FID eq {pop pop} {def} ifelse} forall
currentdict end definefont pop
end
%%EndProlog
gnudict begin
gsave
doclip
50 50 translate
0.050 0.050 scale
0 setgray
newpath
1.000 UL
LTb
LCb setrgbcolor
1078 704 M
63 0 V
5662 0 R
-63 0 V
stroke
LTb
1078 1383 M
63 0 V
5662 0 R
-63 0 V
1078 2061 M
63 0 V
5662 0 R
-63 0 V
1078 2740 M
63 0 V
5662 0 R
-63 0 V
1078 3418 M
63 0 V
5662 0 R
-63 0 V
1078 4097 M
63 0 V
5662 0 R
-63 0 V
1078 4775 M
63 0 V
5662 0 R
-63 0 V
1078 704 M
0 63 V
0 4008 R
0 -63 V
1896 704 M
0 63 V
0 4008 R
0 -63 V
2714 704 M
0 63 V
0 4008 R
0 -63 V
3532 704 M
0 63 V
0 4008 R
0 -63 V
4349 704 M
0 63 V
0 4008 R
0 -63 V
5167 704 M
0 63 V
0 4008 R
0 -63 V
5985 704 M
0 63 V
0 4008 R
0 -63 V
6803 704 M
0 63 V
0 4008 R
0 -63 V
stroke
1078 4775 N
0 -4071 V
5725 0 V
0 4071 V
-5725 0 V
Z stroke
1.000 UP
1.000 UL
LTb
2.000 UL
LT0
LC0 setrgbcolor
LCb setrgbcolor
LT0
LC0 setrgbcolor
5948 4602 M
591 0 V
1438 721 M
53 0 V
53 0 V
53 0 V
53 0 V
53 0 V
52 0 V
53 0 V
53 0 V
53 0 V
53 0 V
53 0 V
53 0 V
53 0 V
53 0 V
53 0 V
53 0 V
53 0 V
53 0 V
53 0 V
53 0 V
53 0 V
52 0 V
53 0 V
53 0 V
53 0 V
53 0 V
53 0 V
53 0 V
53 0 V
53 0 V
53 0 V
53 0 V
53 0 V
53 0 V
53 0 V
53 0 V
53 0 V
52 0 V
53 0 V
53 0 V
53 0 V
53 0 V
53 0 V
53 0 V
53 0 V
53 0 V
53 0 V
53 0 V
53 0 V
53 0 V
53 0 V
53 0 V
53 0 V
52 0 V
53 0 V
53 0 V
53 0 V
53 0 V
53 0 V
53 0 V
53 0 V
53 0 V
53 0 V
53 0 V
53 0 V
53 0 V
53 0 V
53 0 V
53 0 V
52 0 V
53 0 V
53 0 V
53 0 V
53 0 V
53 0 V
53 0 V
53 0 V
53 0 V
53 0 V
53 0 V
53 0 V
53 0 V
53 0 V
53 0 V
53 0 V
52 0 V
53 0 V
53 0 V
53 0 V
53 0 V
53 0 V
53 0 V
53 0 V
53 0 V
53 0 V
53 0 V
53 0 V
53 0 V
53 0 V
stroke
LT0
LC2 setrgbcolor
LCb setrgbcolor
LT0
LC0 setrgbcolor
LC2 setrgbcolor
5948 4382 M
591 0 V
1438 1009 M
53 -5 V
53 -5 V
53 -6 V
53 -5 V
53 -5 V
52 -5 V
53 -5 V
53 -5 V
53 -5 V
53 -4 V
53 -5 V
53 -4 V
53 -5 V
53 -4 V
53 -4 V
53 -4 V
53 -4 V
53 -4 V
53 -4 V
53 -4 V
53 -4 V
52 -3 V
53 -4 V
53 -3 V
53 -4 V
53 -3 V
53 -4 V
53 -3 V
53 -3 V
53 -3 V
53 -3 V
53 -3 V
53 -3 V
53 -3 V
53 -3 V
53 -3 V
53 -3 V
52 -2 V
53 -3 V
53 -3 V
53 -2 V
53 -3 V
53 -2 V
53 -3 V
53 -2 V
53 -2 V
53 -2 V
53 -3 V
53 -2 V
53 -2 V
53 -2 V
53 -2 V
53 -2 V
52 -2 V
53 -2 V
53 -2 V
53 -2 V
53 -2 V
53 -2 V
53 -1 V
53 -2 V
53 -2 V
53 -1 V
53 -2 V
53 -2 V
53 -1 V
53 -2 V
53 -1 V
53 -2 V
52 -1 V
53 -2 V
53 -1 V
53 -1 V
53 -2 V
53 -1 V
53 -1 V
53 -2 V
53 -1 V
53 -1 V
53 -1 V
53 -1 V
53 -2 V
53 -1 V
53 -1 V
53 -1 V
52 -1 V
53 -1 V
53 -1 V
53 -1 V
53 -1 V
53 -1 V
53 -1 V
53 -1 V
53 -1 V
53 -1 V
53 -1 V
53 0 V
53 -1 V
53 -1 V
stroke
LT0
LC0 setrgbcolor
LC3 setrgbcolor
LCb setrgbcolor
LT0
LC0 setrgbcolor
LC3 setrgbcolor
5948 4162 M
591 0 V
1438 3776 M
53 -272 V
53 -247 V
53 -225 V
53 -206 V
53 -187 V
52 -170 V
53 -156 V
53 -141 V
53 -129 V
53 -118 V
53 -107 V
53 -97 V
53 -89 V
53 -81 V
53 -74 V
53 -67 V
53 -61 V
53 -56 V
53 -51 V
53 -46 V
53 -42 V
52 -39 V
53 -35 V
53 -32 V
53 -29 V
53 -26 V
53 -24 V
53 -22 V
53 -21 V
53 -18 V
53 -16 V
53 -16 V
53 -13 V
53 -13 V
53 -11 V
53 -11 V
53 -9 V
52 -9 V
53 -8 V
53 -7 V
53 -7 V
53 -6 V
53 -5 V
53 -5 V
53 -5 V
53 -4 V
53 -3 V
53 -4 V
53 -3 V
53 -3 V
53 -2 V
53 -3 V
53 -2 V
52 -2 V
53 -2 V
53 -1 V
53 -2 V
53 -1 V
53 -1 V
53 -1 V
53 -1 V
53 -1 V
53 -1 V
53 -1 V
53 -1 V
53 0 V
53 -1 V
53 0 V
53 -1 V
52 0 V
53 -1 V
53 0 V
53 0 V
53 -1 V
53 0 V
53 0 V
53 0 V
53 -1 V
53 0 V
53 0 V
53 0 V
53 0 V
53 0 V
53 -1 V
53 0 V
52 0 V
53 0 V
53 0 V
53 0 V
53 0 V
53 0 V
53 0 V
53 0 V
53 0 V
53 0 V
53 0 V
53 0 V
53 0 V
53 -1 V
stroke
LT0
LC0 setrgbcolor
LCa setrgbcolor
LCb setrgbcolor
LT0
LC0 setrgbcolor
LCa setrgbcolor
5948 3942 M
591 0 V
1438 4064 M
53 -277 V
53 -253 V
53 -230 V
53 -211 V
53 -192 V
52 -176 V
53 -160 V
53 -146 V
53 -134 V
53 -122 V
53 -112 V
53 -102 V
53 -93 V
53 -85 V
53 -78 V
53 -71 V
53 -66 V
53 -59 V
53 -55 V
53 -50 V
53 -46 V
52 -42 V
53 -39 V
53 -35 V
53 -33 V
53 -30 V
53 -27 V
53 -26 V
53 -23 V
53 -21 V
53 -20 V
53 -18 V
53 -17 V
53 -15 V
53 -15 V
53 -13 V
53 -12 V
52 -12 V
53 -10 V
53 -10 V
53 -9 V
53 -8 V
53 -8 V
53 -8 V
53 -7 V
53 -6 V
53 -6 V
53 -6 V
53 -5 V
53 -5 V
53 -5 V
53 -4 V
53 -4 V
52 -4 V
53 -4 V
53 -3 V
53 -4 V
53 -3 V
53 -3 V
53 -3 V
53 -3 V
53 -2 V
53 -3 V
53 -2 V
53 -2 V
53 -3 V
53 -2 V
53 -2 V
53 -2 V
52 -2 V
53 -1 V
53 -2 V
53 -2 V
53 -2 V
53 -1 V
53 -2 V
53 -1 V
53 -2 V
53 -1 V
53 -1 V
53 -2 V
53 -1 V
53 -1 V
53 -2 V
53 -1 V
52 -1 V
53 -1 V
53 -1 V
53 -1 V
53 -1 V
53 -1 V
53 -1 V
53 -1 V
53 -1 V
53 -1 V
53 -1 V
53 -1 V
53 -1 V
53 -1 V
1.000 UP
stroke
1.000 UL
LT4
LC4 setrgbcolor
LC1 setrgbcolor
LCb setrgbcolor
LT4
LC4 setrgbcolor
LC1 setrgbcolor
5948 3722 M
591 0 V
-591 31 R
0 -62 V
591 62 R
0 -62 V
1438 3905 M
0 302 V
-31 -302 R
62 0 V
-62 302 R
62 0 V
51 -885 R
0 273 V
-31 -273 R
62 0 V
-62 273 R
62 0 V
50 -326 R
0 271 V
-31 -271 R
62 0 V
-62 271 R
62 0 V
51 -449 R
0 261 V
-31 -261 R
62 0 V
-62 261 R
62 0 V
51 -783 R
0 232 V
-31 -232 R
62 0 V
-62 232 R
62 0 V
52 -528 R
0 214 V
-31 -214 R
62 0 V
-62 214 R
62 0 V
51 -95 R
0 220 V
-31 -220 R
62 0 V
-62 220 R
62 0 V
51 -804 R
0 180 V
-31 -180 R
62 0 V
-62 180 R
62 0 V
51 -284 R
0 171 V
-31 -171 R
62 0 V
-62 171 R
62 0 V
51 -191 R
0 170 V
-31 -170 R
62 0 V
-62 170 R
62 0 V
50 -189 R
0 168 V
-31 -168 R
62 0 V
-62 168 R
62 0 V
51 -344 R
0 153 V
-31 -153 R
62 0 V
-62 153 R
62 0 V
51 -263 R
0 143 V
-31 -143 R
62 0 V
-62 143 R
62 0 V
51 -252 R
0 130 V
-31 -130 R
62 0 V
-62 130 R
62 0 V
50 -265 R
0 115 V
-31 -115 R
62 0 V
-62 115 R
62 0 V
51 129 R
0 143 V
-31 -143 R
62 0 V
-62 143 R
62 0 V
51 -336 R
0 121 V
-31 -121 R
62 0 V
stroke 2779 1186 M
-62 121 R
62 0 V
51 -153 R
0 118 V
-31 -118 R
62 0 V
-62 118 R
62 0 V
51 -245 R
0 100 V
-31 -100 R
62 0 V
-62 100 R
62 0 V
50 -113 R
0 99 V
-31 -99 R
62 0 V
-62 99 R
62 0 V
53 -174 R
0 87 V
-31 -87 R
62 0 V
-62 87 R
62 0 V
51 45 R
0 107 V
-31 -107 R
62 0 V
-62 107 R
62 0 V
50 -214 R
0 91 V
-31 -91 R
62 0 V
-62 91 R
62 0 V
51 -47 R
0 98 V
-31 -98 R
62 0 V
-62 98 R
62 0 V
51 -217 R
0 78 V
-31 -78 R
62 0 V
-62 78 R
62 0 V
51 -53 R
0 82 V
-31 -82 R
62 0 V
-62 82 R
62 0 V
51 -57 R
0 87 V
-31 -87 R
62 0 V
-62 87 R
62 0 V
50 -180 R
0 69 V
-31 -69 R
62 0 V
-62 69 R
62 0 V
51 -38 R
0 75 V
-31 -75 R
62 0 V
-62 75 R
62 0 V
51 -118 R
0 66 V
-31 -66 R
62 0 V
-62 66 R
62 0 V
51 -42 R
0 72 V
-31 -72 R
62 0 V
-62 72 R
62 0 V
50 15 R
0 88 V
-31 -88 R
62 0 V
-62 88 R
62 0 V
51 -199 R
0 66 V
-31 -66 R
62 0 V
-62 66 R
62 0 V
51 -23 R
0 75 V
-31 -75 R
62 0 V
-62 75 R
62 0 V
stroke 4171 952 M
51 -94 R
0 72 V
-31 -72 R
62 0 V
-62 72 R
62 0 V
51 -109 R
0 64 V
-31 -64 R
62 0 V
-62 64 R
62 0 V
52 -146 R
0 38 V
-31 -38 R
62 0 V
-62 38 R
62 0 V
51 69 R
0 69 V
-31 -69 R
62 0 V
-62 69 R
62 0 V
51 -153 R
0 47 V
-31 -47 R
62 0 V
-62 47 R
62 0 V
50 6 R
0 63 V
-31 -63 R
62 0 V
-62 63 R
62 0 V
51 -75 R
0 59 V
-31 -59 R
62 0 V
-62 59 R
62 0 V
51 -47 R
0 63 V
-31 -63 R
62 0 V
-62 63 R
62 0 V
51 -57 R
0 64 V
-31 -64 R
62 0 V
-62 64 R
62 0 V
51 -129 R
0 45 V
-31 -45 R
62 0 V
-62 45 R
62 0 V
50 -16 R
0 55 V
-31 -55 R
62 0 V
-62 55 R
62 0 V
51 -84 R
0 45 V
-31 -45 R
62 0 V
-62 45 R
62 0 V
51 -39 R
0 47 V
-31 -47 R
62 0 V
-62 47 R
62 0 V
51 19 R
0 65 V
-31 -65 R
62 0 V
-62 65 R
62 0 V
50 -72 R
0 64 V
-31 -64 R
62 0 V
-62 64 R
62 0 V
53 -123 R
0 47 V
-31 -47 R
62 0 V
-62 47 R
62 0 V
51 -41 R
0 49 V
-31 -49 R
62 0 V
-62 49 R
62 0 V
50 -72 R
0 40 V
stroke 5615 785 M
-31 -40 R
62 0 V
-62 40 R
62 0 V
51 -6 R
0 53 V
-31 -53 R
62 0 V
-62 53 R
62 0 V
51 -47 R
0 55 V
-31 -55 R
62 0 V
-62 55 R
62 0 V
51 -90 R
0 43 V
-31 -43 R
62 0 V
-62 43 R
62 0 V
51 -48 R
0 40 V
-31 -40 R
62 0 V
-62 40 R
62 0 V
50 -51 R
0 35 V
-31 -35 R
62 0 V
-62 35 R
62 0 V
51 -30 R
0 38 V
-31 -38 R
62 0 V
-62 38 R
62 0 V
51 8 R
0 55 V
-31 -55 R
62 0 V
-62 55 R
62 0 V
51 -61 R
0 53 V
-31 -53 R
62 0 V
-62 53 R
62 0 V
51 -70 R
0 47 V
-31 -47 R
62 0 V
-62 47 R
62 0 V
50 -59 R
0 43 V
-31 -43 R
62 0 V
-62 43 R
62 0 V
51 -65 R
0 33 V
-31 -33 R
62 0 V
-62 33 R
62 0 V
51 7 R
0 49 V
-31 -49 R
62 0 V
-62 49 R
62 0 V
51 -83 R
0 35 V
-31 -35 R
62 0 V
-62 35 R
62 0 V
1438 4056 Pls
1520 3459 Pls
1601 3404 Pls
1683 3221 Pls
1765 2685 Pls
1848 2380 Pls
1930 2502 Pls
2012 1898 Pls
2094 1790 Pls
2176 1769 Pls
2257 1749 Pls
2339 1566 Pls
2421 1450 Pls
2503 1335 Pls
2584 1193 Pls
2666 1450 Pls
2748 1247 Pls
2830 1213 Pls
2912 1077 Pls
2993 1064 Pls
3077 982 Pls
3159 1125 Pls
3240 1009 Pls
3322 1057 Pls
3404 928 Pls
3486 955 Pls
3568 982 Pls
3649 880 Pls
3731 914 Pls
3813 867 Pls
3895 894 Pls
3976 989 Pls
4058 867 Pls
4140 914 Pls
4222 894 Pls
4304 853 Pls
4387 758 Pls
4469 880 Pls
4551 785 Pls
4632 846 Pls
4714 833 Pls
4796 846 Pls
4878 853 Pls
4960 779 Pls
5041 813 Pls
5123 779 Pls
5205 785 Pls
5287 860 Pls
5368 853 Pls
5452 785 Pls
5534 792 Pls
5615 765 Pls
5697 806 Pls
5779 813 Pls
5861 772 Pls
5943 765 Pls
6024 751 Pls
6106 758 Pls
6188 813 Pls
6270 806 Pls
6352 785 Pls
6433 772 Pls
6515 745 Pls
6597 792 Pls
6679 751 Pls
6243 3722 Pls
1.000 UL
LTb
LCb setrgbcolor
1078 4775 N
0 -4071 V
5725 0 V
0 4071 V
-5725 0 V
Z stroke
1.000 UP
1.000 UL
LTb
stroke
grestore
end
showpage
%%Trailer
