%!PS-Adobe-2.0 EPSF-2.0
%%Title: 1minLog.tex
%%Creator: gnuplot 4.4 patchlevel 3
%%CreationDate: Mon Apr  1 14:39:57 2013
%%DocumentFonts: 
%%BoundingBox: 50 50 410 302
%%EndComments
%%BeginProlog
/gnudict 256 dict def
gnudict begin
%
% The following true/false flags may be edited by hand if desired.
% The unit line width and grayscale image gamma correction may also be changed.
%
/Color true def
/Blacktext false def
/Solid false def
/Dashlength 1 def
/Landscape false def
/Level1 false def
/Rounded false def
/ClipToBoundingBox false def
/TransparentPatterns false def
/gnulinewidth 5.000 def
/userlinewidth gnulinewidth def
/Gamma 1.0 def
%
/vshift -73 def
/dl1 {
  10.0 Dashlength mul mul
  Rounded { currentlinewidth 0.75 mul sub dup 0 le { pop 0.01 } if } if
} def
/dl2 {
  10.0 Dashlength mul mul
  Rounded { currentlinewidth 0.75 mul add } if
} def
/hpt_ 31.5 def
/vpt_ 31.5 def
/hpt hpt_ def
/vpt vpt_ def
Level1 {} {
/SDict 10 dict def
systemdict /pdfmark known not {
  userdict /pdfmark systemdict /cleartomark get put
} if
SDict begin [
  /Title (1minLog.tex)
  /Subject (gnuplot plot)
  /Creator (gnuplot 4.4 patchlevel 3)
  /Author (julius)
%  /Producer (gnuplot)
%  /Keywords ()
  /CreationDate (Mon Apr  1 14:39:57 2013)
  /DOCINFO pdfmark
end
} ifelse
/doclip {
  ClipToBoundingBox {
    newpath 50 50 moveto 410 50 lineto 410 302 lineto 50 302 lineto closepath
    clip
  } if
} def
%
% Gnuplot Prolog Version 4.4 (August 2010)
%
%/SuppressPDFMark true def
%
/M {moveto} bind def
/L {lineto} bind def
/R {rmoveto} bind def
/V {rlineto} bind def
/N {newpath moveto} bind def
/Z {closepath} bind def
/C {setrgbcolor} bind def
/f {rlineto fill} bind def
/g {setgray} bind def
/Gshow {show} def   % May be redefined later in the file to support UTF-8
/vpt2 vpt 2 mul def
/hpt2 hpt 2 mul def
/Lshow {currentpoint stroke M 0 vshift R 
	Blacktext {gsave 0 setgray show grestore} {show} ifelse} def
/Rshow {currentpoint stroke M dup stringwidth pop neg vshift R
	Blacktext {gsave 0 setgray show grestore} {show} ifelse} def
/Cshow {currentpoint stroke M dup stringwidth pop -2 div vshift R 
	Blacktext {gsave 0 setgray show grestore} {show} ifelse} def
/UP {dup vpt_ mul /vpt exch def hpt_ mul /hpt exch def
  /hpt2 hpt 2 mul def /vpt2 vpt 2 mul def} def
/DL {Color {setrgbcolor Solid {pop []} if 0 setdash}
 {pop pop pop 0 setgray Solid {pop []} if 0 setdash} ifelse} def
/BL {stroke userlinewidth 2 mul setlinewidth
	Rounded {1 setlinejoin 1 setlinecap} if} def
/AL {stroke userlinewidth 2 div setlinewidth
	Rounded {1 setlinejoin 1 setlinecap} if} def
/UL {dup gnulinewidth mul /userlinewidth exch def
	dup 1 lt {pop 1} if 10 mul /udl exch def} def
/PL {stroke userlinewidth setlinewidth
	Rounded {1 setlinejoin 1 setlinecap} if} def
3.8 setmiterlimit
% Default Line colors
/LCw {1 1 1} def
/LCb {0 0 0} def
/LCa {0 0 0} def
/LC0 {1 0 0} def
/LC1 {0 1 0} def
/LC2 {0 0 1} def
/LC3 {1 0 1} def
/LC4 {0 1 1} def
/LC5 {1 1 0} def
/LC6 {0 0 0} def
/LC7 {1 0.3 0} def
/LC8 {0.5 0.5 0.5} def
% Default Line Types
/LTw {PL [] 1 setgray} def
/LTb {BL [] LCb DL} def
/LTa {AL [1 udl mul 2 udl mul] 0 setdash LCa setrgbcolor} def
/LT0 {PL [] LC0 DL} def
/LT1 {PL [4 dl1 2 dl2] LC1 DL} def
/LT2 {PL [2 dl1 3 dl2] LC2 DL} def
/LT3 {PL [1 dl1 1.5 dl2] LC3 DL} def
/LT4 {PL [6 dl1 2 dl2 1 dl1 2 dl2] LC4 DL} def
/LT5 {PL [3 dl1 3 dl2 1 dl1 3 dl2] LC5 DL} def
/LT6 {PL [2 dl1 2 dl2 2 dl1 6 dl2] LC6 DL} def
/LT7 {PL [1 dl1 2 dl2 6 dl1 2 dl2 1 dl1 2 dl2] LC7 DL} def
/LT8 {PL [2 dl1 2 dl2 2 dl1 2 dl2 2 dl1 2 dl2 2 dl1 4 dl2] LC8 DL} def
/Pnt {stroke [] 0 setdash gsave 1 setlinecap M 0 0 V stroke grestore} def
/Dia {stroke [] 0 setdash 2 copy vpt add M
  hpt neg vpt neg V hpt vpt neg V
  hpt vpt V hpt neg vpt V closepath stroke
  Pnt} def
/Pls {stroke [] 0 setdash vpt sub M 0 vpt2 V
  currentpoint stroke M
  hpt neg vpt neg R hpt2 0 V stroke
 } def
/Box {stroke [] 0 setdash 2 copy exch hpt sub exch vpt add M
  0 vpt2 neg V hpt2 0 V 0 vpt2 V
  hpt2 neg 0 V closepath stroke
  Pnt} def
/Crs {stroke [] 0 setdash exch hpt sub exch vpt add M
  hpt2 vpt2 neg V currentpoint stroke M
  hpt2 neg 0 R hpt2 vpt2 V stroke} def
/TriU {stroke [] 0 setdash 2 copy vpt 1.12 mul add M
  hpt neg vpt -1.62 mul V
  hpt 2 mul 0 V
  hpt neg vpt 1.62 mul V closepath stroke
  Pnt} def
/Star {2 copy Pls Crs} def
/BoxF {stroke [] 0 setdash exch hpt sub exch vpt add M
  0 vpt2 neg V hpt2 0 V 0 vpt2 V
  hpt2 neg 0 V closepath fill} def
/TriUF {stroke [] 0 setdash vpt 1.12 mul add M
  hpt neg vpt -1.62 mul V
  hpt 2 mul 0 V
  hpt neg vpt 1.62 mul V closepath fill} def
/TriD {stroke [] 0 setdash 2 copy vpt 1.12 mul sub M
  hpt neg vpt 1.62 mul V
  hpt 2 mul 0 V
  hpt neg vpt -1.62 mul V closepath stroke
  Pnt} def
/TriDF {stroke [] 0 setdash vpt 1.12 mul sub M
  hpt neg vpt 1.62 mul V
  hpt 2 mul 0 V
  hpt neg vpt -1.62 mul V closepath fill} def
/DiaF {stroke [] 0 setdash vpt add M
  hpt neg vpt neg V hpt vpt neg V
  hpt vpt V hpt neg vpt V closepath fill} def
/Pent {stroke [] 0 setdash 2 copy gsave
  translate 0 hpt M 4 {72 rotate 0 hpt L} repeat
  closepath stroke grestore Pnt} def
/PentF {stroke [] 0 setdash gsave
  translate 0 hpt M 4 {72 rotate 0 hpt L} repeat
  closepath fill grestore} def
/Circle {stroke [] 0 setdash 2 copy
  hpt 0 360 arc stroke Pnt} def
/CircleF {stroke [] 0 setdash hpt 0 360 arc fill} def
/C0 {BL [] 0 setdash 2 copy moveto vpt 90 450 arc} bind def
/C1 {BL [] 0 setdash 2 copy moveto
	2 copy vpt 0 90 arc closepath fill
	vpt 0 360 arc closepath} bind def
/C2 {BL [] 0 setdash 2 copy moveto
	2 copy vpt 90 180 arc closepath fill
	vpt 0 360 arc closepath} bind def
/C3 {BL [] 0 setdash 2 copy moveto
	2 copy vpt 0 180 arc closepath fill
	vpt 0 360 arc closepath} bind def
/C4 {BL [] 0 setdash 2 copy moveto
	2 copy vpt 180 270 arc closepath fill
	vpt 0 360 arc closepath} bind def
/C5 {BL [] 0 setdash 2 copy moveto
	2 copy vpt 0 90 arc
	2 copy moveto
	2 copy vpt 180 270 arc closepath fill
	vpt 0 360 arc} bind def
/C6 {BL [] 0 setdash 2 copy moveto
	2 copy vpt 90 270 arc closepath fill
	vpt 0 360 arc closepath} bind def
/C7 {BL [] 0 setdash 2 copy moveto
	2 copy vpt 0 270 arc closepath fill
	vpt 0 360 arc closepath} bind def
/C8 {BL [] 0 setdash 2 copy moveto
	2 copy vpt 270 360 arc closepath fill
	vpt 0 360 arc closepath} bind def
/C9 {BL [] 0 setdash 2 copy moveto
	2 copy vpt 270 450 arc closepath fill
	vpt 0 360 arc closepath} bind def
/C10 {BL [] 0 setdash 2 copy 2 copy moveto vpt 270 360 arc closepath fill
	2 copy moveto
	2 copy vpt 90 180 arc closepath fill
	vpt 0 360 arc closepath} bind def
/C11 {BL [] 0 setdash 2 copy moveto
	2 copy vpt 0 180 arc closepath fill
	2 copy moveto
	2 copy vpt 270 360 arc closepath fill
	vpt 0 360 arc closepath} bind def
/C12 {BL [] 0 setdash 2 copy moveto
	2 copy vpt 180 360 arc closepath fill
	vpt 0 360 arc closepath} bind def
/C13 {BL [] 0 setdash 2 copy moveto
	2 copy vpt 0 90 arc closepath fill
	2 copy moveto
	2 copy vpt 180 360 arc closepath fill
	vpt 0 360 arc closepath} bind def
/C14 {BL [] 0 setdash 2 copy moveto
	2 copy vpt 90 360 arc closepath fill
	vpt 0 360 arc} bind def
/C15 {BL [] 0 setdash 2 copy vpt 0 360 arc closepath fill
	vpt 0 360 arc closepath} bind def
/Rec {newpath 4 2 roll moveto 1 index 0 rlineto 0 exch rlineto
	neg 0 rlineto closepath} bind def
/Square {dup Rec} bind def
/Bsquare {vpt sub exch vpt sub exch vpt2 Square} bind def
/S0 {BL [] 0 setdash 2 copy moveto 0 vpt rlineto BL Bsquare} bind def
/S1 {BL [] 0 setdash 2 copy vpt Square fill Bsquare} bind def
/S2 {BL [] 0 setdash 2 copy exch vpt sub exch vpt Square fill Bsquare} bind def
/S3 {BL [] 0 setdash 2 copy exch vpt sub exch vpt2 vpt Rec fill Bsquare} bind def
/S4 {BL [] 0 setdash 2 copy exch vpt sub exch vpt sub vpt Square fill Bsquare} bind def
/S5 {BL [] 0 setdash 2 copy 2 copy vpt Square fill
	exch vpt sub exch vpt sub vpt Square fill Bsquare} bind def
/S6 {BL [] 0 setdash 2 copy exch vpt sub exch vpt sub vpt vpt2 Rec fill Bsquare} bind def
/S7 {BL [] 0 setdash 2 copy exch vpt sub exch vpt sub vpt vpt2 Rec fill
	2 copy vpt Square fill Bsquare} bind def
/S8 {BL [] 0 setdash 2 copy vpt sub vpt Square fill Bsquare} bind def
/S9 {BL [] 0 setdash 2 copy vpt sub vpt vpt2 Rec fill Bsquare} bind def
/S10 {BL [] 0 setdash 2 copy vpt sub vpt Square fill 2 copy exch vpt sub exch vpt Square fill
	Bsquare} bind def
/S11 {BL [] 0 setdash 2 copy vpt sub vpt Square fill 2 copy exch vpt sub exch vpt2 vpt Rec fill
	Bsquare} bind def
/S12 {BL [] 0 setdash 2 copy exch vpt sub exch vpt sub vpt2 vpt Rec fill Bsquare} bind def
/S13 {BL [] 0 setdash 2 copy exch vpt sub exch vpt sub vpt2 vpt Rec fill
	2 copy vpt Square fill Bsquare} bind def
/S14 {BL [] 0 setdash 2 copy exch vpt sub exch vpt sub vpt2 vpt Rec fill
	2 copy exch vpt sub exch vpt Square fill Bsquare} bind def
/S15 {BL [] 0 setdash 2 copy Bsquare fill Bsquare} bind def
/D0 {gsave translate 45 rotate 0 0 S0 stroke grestore} bind def
/D1 {gsave translate 45 rotate 0 0 S1 stroke grestore} bind def
/D2 {gsave translate 45 rotate 0 0 S2 stroke grestore} bind def
/D3 {gsave translate 45 rotate 0 0 S3 stroke grestore} bind def
/D4 {gsave translate 45 rotate 0 0 S4 stroke grestore} bind def
/D5 {gsave translate 45 rotate 0 0 S5 stroke grestore} bind def
/D6 {gsave translate 45 rotate 0 0 S6 stroke grestore} bind def
/D7 {gsave translate 45 rotate 0 0 S7 stroke grestore} bind def
/D8 {gsave translate 45 rotate 0 0 S8 stroke grestore} bind def
/D9 {gsave translate 45 rotate 0 0 S9 stroke grestore} bind def
/D10 {gsave translate 45 rotate 0 0 S10 stroke grestore} bind def
/D11 {gsave translate 45 rotate 0 0 S11 stroke grestore} bind def
/D12 {gsave translate 45 rotate 0 0 S12 stroke grestore} bind def
/D13 {gsave translate 45 rotate 0 0 S13 stroke grestore} bind def
/D14 {gsave translate 45 rotate 0 0 S14 stroke grestore} bind def
/D15 {gsave translate 45 rotate 0 0 S15 stroke grestore} bind def
/DiaE {stroke [] 0 setdash vpt add M
  hpt neg vpt neg V hpt vpt neg V
  hpt vpt V hpt neg vpt V closepath stroke} def
/BoxE {stroke [] 0 setdash exch hpt sub exch vpt add M
  0 vpt2 neg V hpt2 0 V 0 vpt2 V
  hpt2 neg 0 V closepath stroke} def
/TriUE {stroke [] 0 setdash vpt 1.12 mul add M
  hpt neg vpt -1.62 mul V
  hpt 2 mul 0 V
  hpt neg vpt 1.62 mul V closepath stroke} def
/TriDE {stroke [] 0 setdash vpt 1.12 mul sub M
  hpt neg vpt 1.62 mul V
  hpt 2 mul 0 V
  hpt neg vpt -1.62 mul V closepath stroke} def
/PentE {stroke [] 0 setdash gsave
  translate 0 hpt M 4 {72 rotate 0 hpt L} repeat
  closepath stroke grestore} def
/CircE {stroke [] 0 setdash 
  hpt 0 360 arc stroke} def
/Opaque {gsave closepath 1 setgray fill grestore 0 setgray closepath} def
/DiaW {stroke [] 0 setdash vpt add M
  hpt neg vpt neg V hpt vpt neg V
  hpt vpt V hpt neg vpt V Opaque stroke} def
/BoxW {stroke [] 0 setdash exch hpt sub exch vpt add M
  0 vpt2 neg V hpt2 0 V 0 vpt2 V
  hpt2 neg 0 V Opaque stroke} def
/TriUW {stroke [] 0 setdash vpt 1.12 mul add M
  hpt neg vpt -1.62 mul V
  hpt 2 mul 0 V
  hpt neg vpt 1.62 mul V Opaque stroke} def
/TriDW {stroke [] 0 setdash vpt 1.12 mul sub M
  hpt neg vpt 1.62 mul V
  hpt 2 mul 0 V
  hpt neg vpt -1.62 mul V Opaque stroke} def
/PentW {stroke [] 0 setdash gsave
  translate 0 hpt M 4 {72 rotate 0 hpt L} repeat
  Opaque stroke grestore} def
/CircW {stroke [] 0 setdash 
  hpt 0 360 arc Opaque stroke} def
/BoxFill {gsave Rec 1 setgray fill grestore} def
/Density {
  /Fillden exch def
  currentrgbcolor
  /ColB exch def /ColG exch def /ColR exch def
  /ColR ColR Fillden mul Fillden sub 1 add def
  /ColG ColG Fillden mul Fillden sub 1 add def
  /ColB ColB Fillden mul Fillden sub 1 add def
  ColR ColG ColB setrgbcolor} def
/BoxColFill {gsave Rec PolyFill} def
/PolyFill {gsave Density fill grestore grestore} def
/h {rlineto rlineto rlineto gsave closepath fill grestore} bind def
%
% PostScript Level 1 Pattern Fill routine for rectangles
% Usage: x y w h s a XX PatternFill
%	x,y = lower left corner of box to be filled
%	w,h = width and height of box
%	  a = angle in degrees between lines and x-axis
%	 XX = 0/1 for no/yes cross-hatch
%
/PatternFill {gsave /PFa [ 9 2 roll ] def
  PFa 0 get PFa 2 get 2 div add PFa 1 get PFa 3 get 2 div add translate
  PFa 2 get -2 div PFa 3 get -2 div PFa 2 get PFa 3 get Rec
  gsave 1 setgray fill grestore clip
  currentlinewidth 0.5 mul setlinewidth
  /PFs PFa 2 get dup mul PFa 3 get dup mul add sqrt def
  0 0 M PFa 5 get rotate PFs -2 div dup translate
  0 1 PFs PFa 4 get div 1 add floor cvi
	{PFa 4 get mul 0 M 0 PFs V} for
  0 PFa 6 get ne {
	0 1 PFs PFa 4 get div 1 add floor cvi
	{PFa 4 get mul 0 2 1 roll M PFs 0 V} for
 } if
  stroke grestore} def
%
/languagelevel where
 {pop languagelevel} {1} ifelse
 2 lt
	{/InterpretLevel1 true def}
	{/InterpretLevel1 Level1 def}
 ifelse
%
% PostScript level 2 pattern fill definitions
%
/Level2PatternFill {
/Tile8x8 {/PaintType 2 /PatternType 1 /TilingType 1 /BBox [0 0 8 8] /XStep 8 /YStep 8}
	bind def
/KeepColor {currentrgbcolor [/Pattern /DeviceRGB] setcolorspace} bind def
<< Tile8x8
 /PaintProc {0.5 setlinewidth pop 0 0 M 8 8 L 0 8 M 8 0 L stroke} 
>> matrix makepattern
/Pat1 exch def
<< Tile8x8
 /PaintProc {0.5 setlinewidth pop 0 0 M 8 8 L 0 8 M 8 0 L stroke
	0 4 M 4 8 L 8 4 L 4 0 L 0 4 L stroke}
>> matrix makepattern
/Pat2 exch def
<< Tile8x8
 /PaintProc {0.5 setlinewidth pop 0 0 M 0 8 L
	8 8 L 8 0 L 0 0 L fill}
>> matrix makepattern
/Pat3 exch def
<< Tile8x8
 /PaintProc {0.5 setlinewidth pop -4 8 M 8 -4 L
	0 12 M 12 0 L stroke}
>> matrix makepattern
/Pat4 exch def
<< Tile8x8
 /PaintProc {0.5 setlinewidth pop -4 0 M 8 12 L
	0 -4 M 12 8 L stroke}
>> matrix makepattern
/Pat5 exch def
<< Tile8x8
 /PaintProc {0.5 setlinewidth pop -2 8 M 4 -4 L
	0 12 M 8 -4 L 4 12 M 10 0 L stroke}
>> matrix makepattern
/Pat6 exch def
<< Tile8x8
 /PaintProc {0.5 setlinewidth pop -2 0 M 4 12 L
	0 -4 M 8 12 L 4 -4 M 10 8 L stroke}
>> matrix makepattern
/Pat7 exch def
<< Tile8x8
 /PaintProc {0.5 setlinewidth pop 8 -2 M -4 4 L
	12 0 M -4 8 L 12 4 M 0 10 L stroke}
>> matrix makepattern
/Pat8 exch def
<< Tile8x8
 /PaintProc {0.5 setlinewidth pop 0 -2 M 12 4 L
	-4 0 M 12 8 L -4 4 M 8 10 L stroke}
>> matrix makepattern
/Pat9 exch def
/Pattern1 {PatternBgnd KeepColor Pat1 setpattern} bind def
/Pattern2 {PatternBgnd KeepColor Pat2 setpattern} bind def
/Pattern3 {PatternBgnd KeepColor Pat3 setpattern} bind def
/Pattern4 {PatternBgnd KeepColor Landscape {Pat5} {Pat4} ifelse setpattern} bind def
/Pattern5 {PatternBgnd KeepColor Landscape {Pat4} {Pat5} ifelse setpattern} bind def
/Pattern6 {PatternBgnd KeepColor Landscape {Pat9} {Pat6} ifelse setpattern} bind def
/Pattern7 {PatternBgnd KeepColor Landscape {Pat8} {Pat7} ifelse setpattern} bind def
} def
%
%
%End of PostScript Level 2 code
%
/PatternBgnd {
  TransparentPatterns {} {gsave 1 setgray fill grestore} ifelse
} def
%
% Substitute for Level 2 pattern fill codes with
% grayscale if Level 2 support is not selected.
%
/Level1PatternFill {
/Pattern1 {0.250 Density} bind def
/Pattern2 {0.500 Density} bind def
/Pattern3 {0.750 Density} bind def
/Pattern4 {0.125 Density} bind def
/Pattern5 {0.375 Density} bind def
/Pattern6 {0.625 Density} bind def
/Pattern7 {0.875 Density} bind def
} def
%
% Now test for support of Level 2 code
%
Level1 {Level1PatternFill} {Level2PatternFill} ifelse
%
/Symbol-Oblique /Symbol findfont [1 0 .167 1 0 0] makefont
dup length dict begin {1 index /FID eq {pop pop} {def} ifelse} forall
currentdict end definefont pop
end
%%EndProlog
gnudict begin
gsave
doclip
50 50 translate
0.050 0.050 scale
0 setgray
newpath
1.000 UL
LTb
LCb setrgbcolor
1210 704 M
63 0 V
5530 0 R
-63 0 V
stroke
LTb
1210 1112 M
31 0 V
5562 0 R
-31 0 V
1210 1351 M
31 0 V
5562 0 R
-31 0 V
1210 1521 M
31 0 V
5562 0 R
-31 0 V
1210 1653 M
31 0 V
5562 0 R
-31 0 V
1210 1760 M
31 0 V
5562 0 R
-31 0 V
-5562 91 R
31 0 V
5562 0 R
-31 0 V
-5562 78 R
31 0 V
5562 0 R
-31 0 V
-5562 70 R
31 0 V
5562 0 R
-31 0 V
-5562 62 R
63 0 V
5530 0 R
-63 0 V
1210 2469 M
31 0 V
5562 0 R
-31 0 V
1210 2708 M
31 0 V
5562 0 R
-31 0 V
1210 2878 M
31 0 V
5562 0 R
-31 0 V
1210 3010 M
31 0 V
5562 0 R
-31 0 V
1210 3117 M
31 0 V
5562 0 R
-31 0 V
-5562 91 R
31 0 V
5562 0 R
-31 0 V
-5562 78 R
31 0 V
5562 0 R
-31 0 V
-5562 70 R
31 0 V
5562 0 R
-31 0 V
-5562 62 R
63 0 V
5530 0 R
-63 0 V
1210 3826 M
31 0 V
5562 0 R
-31 0 V
1210 4065 M
31 0 V
5562 0 R
-31 0 V
1210 4235 M
31 0 V
5562 0 R
-31 0 V
1210 4367 M
31 0 V
5562 0 R
-31 0 V
1210 4474 M
31 0 V
5562 0 R
-31 0 V
-5562 91 R
31 0 V
5562 0 R
-31 0 V
-5562 78 R
31 0 V
5562 0 R
-31 0 V
-5562 70 R
31 0 V
5562 0 R
-31 0 V
-5562 62 R
63 0 V
stroke 1273 4775 M
5530 0 R
-63 0 V
1210 704 M
0 63 V
0 4008 R
0 -63 V
2009 704 M
0 63 V
0 4008 R
0 -63 V
2808 704 M
0 63 V
0 4008 R
0 -63 V
3607 704 M
0 63 V
0 4008 R
0 -63 V
4406 704 M
0 63 V
0 4008 R
0 -63 V
5205 704 M
0 63 V
0 4008 R
0 -63 V
6004 704 M
0 63 V
0 4008 R
0 -63 V
6803 704 M
0 63 V
0 4008 R
0 -63 V
stroke
1210 4775 N
0 -4071 V
5593 0 V
0 4071 V
-5593 0 V
Z stroke
1.000 UP
1.000 UL
LTb
2.000 UL
LT0
LC0 setrgbcolor
LCb setrgbcolor
LT0
LC0 setrgbcolor
5948 4602 M
591 0 V
1562 1252 M
51 0 V
52 0 V
52 0 V
51 0 V
52 0 V
52 0 V
52 0 V
51 0 V
52 0 V
52 0 V
51 0 V
52 0 V
52 0 V
52 0 V
51 0 V
52 0 V
52 0 V
51 0 V
52 0 V
52 0 V
52 0 V
51 0 V
52 0 V
52 0 V
51 0 V
52 0 V
52 0 V
52 0 V
51 0 V
52 0 V
52 0 V
52 0 V
51 0 V
52 0 V
52 0 V
51 0 V
52 0 V
52 0 V
52 0 V
51 0 V
52 0 V
52 0 V
51 0 V
52 0 V
52 0 V
52 0 V
51 0 V
52 0 V
52 0 V
51 0 V
52 0 V
52 0 V
52 0 V
51 0 V
52 0 V
52 0 V
51 0 V
52 0 V
52 0 V
52 0 V
51 0 V
52 0 V
52 0 V
51 0 V
52 0 V
52 0 V
52 0 V
51 0 V
52 0 V
52 0 V
51 0 V
52 0 V
52 0 V
52 0 V
51 0 V
52 0 V
52 0 V
51 0 V
52 0 V
52 0 V
52 0 V
51 0 V
52 0 V
52 0 V
52 0 V
51 0 V
52 0 V
52 0 V
51 0 V
52 0 V
52 0 V
52 0 V
51 0 V
52 0 V
52 0 V
51 0 V
52 0 V
52 0 V
52 0 V
stroke
LT0
LC2 setrgbcolor
LCb setrgbcolor
LT0
LC0 setrgbcolor
LC2 setrgbcolor
5948 4382 M
591 0 V
1562 2948 M
51 -11 V
52 -11 V
52 -10 V
51 -11 V
52 -11 V
52 -11 V
52 -10 V
51 -11 V
52 -10 V
52 -11 V
51 -11 V
52 -10 V
52 -11 V
52 -10 V
51 -11 V
52 -10 V
52 -11 V
51 -10 V
52 -11 V
52 -10 V
52 -11 V
51 -10 V
52 -11 V
52 -10 V
51 -10 V
52 -11 V
52 -10 V
52 -11 V
51 -10 V
52 -10 V
52 -10 V
52 -11 V
51 -10 V
52 -10 V
52 -10 V
51 -10 V
52 -11 V
52 -10 V
52 -10 V
51 -10 V
52 -10 V
52 -10 V
51 -10 V
52 -10 V
52 -10 V
52 -10 V
51 -10 V
52 -10 V
52 -10 V
51 -10 V
52 -9 V
52 -10 V
52 -10 V
51 -10 V
52 -9 V
52 -10 V
51 -10 V
52 -9 V
52 -10 V
52 -10 V
51 -9 V
52 -10 V
52 -9 V
51 -10 V
52 -9 V
52 -9 V
52 -10 V
51 -9 V
52 -9 V
52 -10 V
51 -9 V
52 -9 V
52 -9 V
52 -9 V
51 -9 V
52 -9 V
52 -9 V
51 -9 V
52 -9 V
52 -9 V
52 -9 V
51 -9 V
52 -9 V
52 -9 V
52 -8 V
51 -9 V
52 -9 V
52 -8 V
51 -9 V
52 -8 V
52 -9 V
52 -8 V
51 -9 V
52 -8 V
52 -8 V
51 -8 V
52 -9 V
52 -8 V
52 -8 V
stroke
LT0
LC0 setrgbcolor
LC3 setrgbcolor
LCb setrgbcolor
LT0
LC0 setrgbcolor
LC3 setrgbcolor
5948 4162 M
591 0 V
1562 4308 M
51 -55 V
52 -54 V
52 -55 V
51 -54 V
52 -54 V
52 -55 V
52 -54 V
51 -54 V
52 -55 V
52 -54 V
51 -54 V
52 -54 V
52 -54 V
52 -53 V
51 -54 V
52 -54 V
52 -53 V
51 -53 V
52 -54 V
52 -53 V
52 -53 V
51 -52 V
52 -53 V
52 -52 V
51 -52 V
52 -52 V
52 -51 V
52 -51 V
51 -51 V
52 -51 V
52 -50 V
52 -49 V
51 -49 V
52 -49 V
52 -48 V
51 -48 V
52 -47 V
52 -46 V
52 -46 V
51 -45 V
52 -44 V
52 -43 V
51 -42 V
52 -42 V
52 -40 V
52 -40 V
51 -38 V
52 -38 V
52 -36 V
51 -35 V
52 -34 V
52 -32 V
52 -32 V
51 -30 V
52 -29 V
52 -27 V
51 -27 V
52 -25 V
52 -24 V
52 -22 V
51 -22 V
52 -20 V
52 -19 V
51 -17 V
52 -17 V
52 -16 V
52 -14 V
51 -14 V
52 -13 V
52 -12 V
51 -11 V
52 -10 V
52 -9 V
52 -9 V
51 -8 V
52 -8 V
52 -7 V
51 -6 V
52 -6 V
52 -5 V
52 -5 V
51 -5 V
52 -4 V
52 -4 V
52 -3 V
51 -3 V
52 -3 V
52 -3 V
51 -2 V
52 -3 V
52 -2 V
52 -1 V
51 -2 V
52 -2 V
52 -1 V
51 -2 V
52 -1 V
52 -1 V
52 -1 V
stroke
LT0
LC0 setrgbcolor
LCa setrgbcolor
LCb setrgbcolor
LT0
LC0 setrgbcolor
LCa setrgbcolor
5948 3942 M
591 0 V
1562 4361 M
51 -51 V
52 -50 V
52 -50 V
51 -50 V
52 -50 V
52 -49 V
52 -48 V
51 -49 V
52 -47 V
52 -48 V
51 -47 V
52 -46 V
52 -46 V
52 -45 V
51 -45 V
52 -44 V
52 -44 V
51 -42 V
52 -43 V
52 -41 V
52 -41 V
51 -40 V
52 -39 V
52 -38 V
51 -38 V
52 -37 V
52 -36 V
52 -35 V
51 -35 V
52 -33 V
52 -33 V
52 -32 V
51 -30 V
52 -31 V
52 -29 V
51 -28 V
52 -28 V
52 -27 V
52 -26 V
51 -25 V
52 -24 V
52 -24 V
51 -23 V
52 -22 V
52 -22 V
52 -21 V
51 -20 V
52 -20 V
52 -19 V
51 -18 V
52 -18 V
52 -17 V
52 -17 V
51 -17 V
52 -16 V
52 -15 V
51 -16 V
52 -14 V
52 -15 V
52 -14 V
51 -14 V
52 -13 V
52 -13 V
51 -13 V
52 -13 V
52 -12 V
52 -12 V
51 -12 V
52 -12 V
52 -11 V
51 -12 V
52 -11 V
52 -11 V
52 -10 V
51 -11 V
52 -11 V
52 -10 V
51 -10 V
52 -10 V
52 -10 V
52 -10 V
51 -10 V
52 -9 V
52 -10 V
52 -9 V
51 -10 V
52 -9 V
52 -9 V
51 -9 V
52 -9 V
52 -9 V
52 -9 V
51 -9 V
52 -8 V
52 -9 V
51 -9 V
52 -8 V
52 -9 V
52 -8 V
1.000 UP
stroke
1.000 UL
LT4
LC4 setrgbcolor
LC1 setrgbcolor
LCb setrgbcolor
LT4
LC4 setrgbcolor
LC1 setrgbcolor
5948 3722 M
591 0 V
-591 31 R
0 -62 V
591 62 R
0 -62 V
1562 4332 M
0 53 V
-31 -53 R
62 0 V
-62 53 R
62 0 V
48 -171 R
0 58 V
-31 -58 R
62 0 V
-62 58 R
62 0 V
49 -70 R
0 59 V
-31 -59 R
62 0 V
-62 59 R
62 0 V
49 -102 R
0 61 V
-31 -61 R
62 0 V
-62 61 R
62 0 V
49 -206 R
0 69 V
-31 -69 R
62 0 V
-62 69 R
62 0 V
51 -171 R
0 75 V
-31 -75 R
62 0 V
-62 75 R
62 0 V
49 -32 R
0 72 V
-31 -72 R
62 0 V
-62 72 R
62 0 V
48 -322 R
0 89 V
-31 -89 R
62 0 V
-62 89 R
62 0 V
49 -148 R
0 94 V
-31 -94 R
62 0 V
-62 94 R
62 0 V
49 -105 R
0 94 V
-31 -94 R
62 0 V
-62 94 R
62 0 V
49 -106 R
0 95 V
-31 -95 R
62 0 V
-62 95 R
62 0 V
49 -214 R
0 105 V
-31 -105 R
62 0 V
-62 105 R
62 0 V
49 -194 R
0 113 V
-31 -113 R
62 0 V
-62 113 R
62 0 V
49 -217 R
0 122 V
-31 -122 R
62 0 V
-62 122 R
62 0 V
49 -282 R
0 139 V
-31 -139 R
62 0 V
-62 139 R
62 0 V
49 125 R
0 113 V
-31 -113 R
62 0 V
-62 113 R
62 0 V
49 -311 R
0 132 V
-31 -132 R
62 0 V
stroke 2873 3217 M
-62 132 R
62 0 V
48 -173 R
0 137 V
-31 -137 R
62 0 V
-62 137 R
62 0 V
49 -333 R
0 160 V
-31 -160 R
62 0 V
-62 160 R
62 0 V
49 -183 R
0 163 V
-31 -163 R
62 0 V
-62 163 R
62 0 V
51 -328 R
0 186 V
-31 -186 R
62 0 V
-62 186 R
62 0 V
49 78 R
0 151 V
-31 -151 R
62 0 V
-62 151 R
62 0 V
49 -355 R
0 177 V
-31 -177 R
62 0 V
-62 177 R
62 0 V
48 -84 R
0 164 V
-31 -164 R
62 0 V
-62 164 R
62 0 V
49 -457 R
0 207 V
-31 -207 R
62 0 V
-62 207 R
62 0 V
49 -133 R
0 196 V
-31 -196 R
62 0 V
-62 196 R
62 0 V
49 -130 R
0 186 V
-31 -186 R
62 0 V
-62 186 R
62 0 V
49 -483 R
0 235 V
-31 -235 R
62 0 V
-62 235 R
62 0 V
49 -119 R
0 214 V
-31 -214 R
62 0 V
-62 214 R
62 0 V
49 -383 R
0 244 V
-31 -244 R
62 0 V
-62 244 R
62 0 V
49 -142 R
0 226 V
-31 -226 R
62 0 V
-62 226 R
62 0 V
49 38 R
0 183 V
-31 -183 R
62 0 V
-62 183 R
62 0 V
49 -549 R
0 244 V
-31 -244 R
62 0 V
-62 244 R
62 0 V
48 -75 R
0 214 V
-31 -214 R
62 0 V
-62 214 R
62 0 V
stroke 4232 2825 M
49 -281 R
0 226 V
-31 -226 R
62 0 V
-62 226 R
62 0 V
49 -386 R
0 256 V
-31 -256 R
62 0 V
-62 256 R
62 0 V
51 -968 R
0 436 V
-31 -436 R
62 0 V
-62 436 R
62 0 V
49 387 R
0 235 V
-31 -235 R
62 0 V
-62 235 R
62 0 V
49 -762 R
0 350 V
-31 -350 R
62 0 V
-62 350 R
62 0 V
48 35 R
0 262 V
-31 -262 R
62 0 V
-62 262 R
62 0 V
49 -329 R
0 275 V
-31 -275 R
62 0 V
-62 275 R
62 0 V
49 -208 R
0 262 V
-31 -262 R
62 0 V
-62 262 R
62 0 V
49 -231 R
0 256 V
-31 -256 R
62 0 V
-62 256 R
62 0 V
49 -734 R
0 366 V
-31 -366 R
62 0 V
-62 366 R
62 0 V
49 -104 R
0 301 V
-31 -301 R
62 0 V
-62 301 R
62 0 V
49 -563 R
0 366 V
-31 -366 R
62 0 V
-62 366 R
62 0 V
49 -304 R
0 350 V
-31 -350 R
62 0 V
-62 350 R
62 0 V
49 96 R
0 249 V
-31 -249 R
62 0 V
-62 249 R
62 0 V
49 -279 R
0 256 V
-31 -256 R
62 0 V
-62 256 R
62 0 V
50 -672 R
0 350 V
-31 -350 R
62 0 V
-62 350 R
62 0 V
49 -294 R
0 336 V
-31 -336 R
62 0 V
-62 336 R
62 0 V
49 -600 R
0 408 V
stroke 5643 2168 M
-31 -408 R
62 0 V
-62 408 R
62 0 V
49 -44 R
0 311 V
-31 -311 R
62 0 V
-62 311 R
62 0 V
49 -267 R
0 301 V
-31 -301 R
62 0 V
-62 301 R
62 0 V
49 -632 R
0 386 V
-31 -386 R
62 0 V
-62 386 R
62 0 V
48 -463 R
0 408 V
-31 -408 R
62 0 V
-62 408 R
62 0 V
49 -597 R
0 469 V
-31 -469 R
62 0 V
-62 469 R
62 0 V
49 -368 R
0 436 V
-31 -436 R
62 0 V
-62 436 R
62 0 V
49 60 R
0 301 V
-31 -301 R
62 0 V
-62 301 R
62 0 V
49 -345 R
0 311 V
-31 -311 R
62 0 V
-62 311 R
62 0 V
49 -467 R
0 350 V
-31 -350 R
62 0 V
-62 350 R
62 0 V
49 -481 R
0 386 V
-31 -386 R
62 0 V
-62 386 R
62 0 V
49 -772 R
0 511 V
-31 -511 R
62 0 V
-62 511 R
62 0 V
49 62 R
0 336 V
-31 -336 R
62 0 V
-62 336 R
62 0 V
49 -789 R
0 469 V
-31 -469 R
62 0 V
-62 469 R
62 0 V
1562 4359 Pls
1641 4244 Pls
1721 4232 Pls
1801 4191 Pls
1881 4050 Pls
1963 3951 Pls
2043 3992 Pls
2122 3751 Pls
2202 3695 Pls
2282 3684 Pls
2362 3672 Pls
2442 3559 Pls
2522 3474 Pls
2602 3375 Pls
2682 3224 Pls
2762 3474 Pls
2842 3286 Pls
2921 3248 Pls
3001 3066 Pls
3081 3044 Pls
3163 2893 Pls
3243 3136 Pls
3323 2947 Pls
3402 3033 Pls
3482 2765 Pls
3562 2832 Pls
3642 2893 Pls
3722 2624 Pls
3802 2728 Pls
3882 2577 Pls
3962 2668 Pls
4042 2907 Pls
4122 2577 Pls
4201 2728 Pls
4281 2668 Pls
4361 2526 Pls
4443 1929 Pls
4523 2624 Pls
4603 2168 Pls
4682 2498 Pls
4762 2439 Pls
4842 2498 Pls
4922 2526 Pls
5002 2117 Pls
5082 2338 Pls
5162 2117 Pls
5242 2168 Pls
5322 2552 Pls
5402 2526 Pls
5483 2168 Pls
5563 2216 Pls
5643 1999 Pls
5723 2300 Pls
5803 2338 Pls
5883 2061 Pls
5962 1999 Pls
6042 1851 Pls
6122 1929 Pls
6202 2338 Pls
6282 2300 Pls
6362 2168 Pls
6442 2061 Pls
6522 1760 Pls
6602 2216 Pls
6682 1851 Pls
6243 3722 Pls
1.000 UL
LTb
LCb setrgbcolor
1210 4775 N
0 -4071 V
5593 0 V
0 4071 V
-5593 0 V
Z stroke
1.000 UP
1.000 UL
LTb
stroke
grestore
end
showpage
%%Trailer
