%!PS-Adobe-2.0 EPSF-2.0
%%Title: 2min.tex
%%Creator: gnuplot 4.4 patchlevel 3
%%CreationDate: Mon Apr  1 14:39:57 2013
%%DocumentFonts: 
%%BoundingBox: 50 50 410 302
%%EndComments
%%BeginProlog
/gnudict 256 dict def
gnudict begin
%
% The following true/false flags may be edited by hand if desired.
% The unit line width and grayscale image gamma correction may also be changed.
%
/Color true def
/Blacktext false def
/Solid false def
/Dashlength 1 def
/Landscape false def
/Level1 false def
/Rounded false def
/ClipToBoundingBox false def
/TransparentPatterns false def
/gnulinewidth 5.000 def
/userlinewidth gnulinewidth def
/Gamma 1.0 def
%
/vshift -73 def
/dl1 {
  10.0 Dashlength mul mul
  Rounded { currentlinewidth 0.75 mul sub dup 0 le { pop 0.01 } if } if
} def
/dl2 {
  10.0 Dashlength mul mul
  Rounded { currentlinewidth 0.75 mul add } if
} def
/hpt_ 31.5 def
/vpt_ 31.5 def
/hpt hpt_ def
/vpt vpt_ def
Level1 {} {
/SDict 10 dict def
systemdict /pdfmark known not {
  userdict /pdfmark systemdict /cleartomark get put
} if
SDict begin [
  /Title (2min.tex)
  /Subject (gnuplot plot)
  /Creator (gnuplot 4.4 patchlevel 3)
  /Author (julius)
%  /Producer (gnuplot)
%  /Keywords ()
  /CreationDate (Mon Apr  1 14:39:57 2013)
  /DOCINFO pdfmark
end
} ifelse
/doclip {
  ClipToBoundingBox {
    newpath 50 50 moveto 410 50 lineto 410 302 lineto 50 302 lineto closepath
    clip
  } if
} def
%
% Gnuplot Prolog Version 4.4 (August 2010)
%
%/SuppressPDFMark true def
%
/M {moveto} bind def
/L {lineto} bind def
/R {rmoveto} bind def
/V {rlineto} bind def
/N {newpath moveto} bind def
/Z {closepath} bind def
/C {setrgbcolor} bind def
/f {rlineto fill} bind def
/g {setgray} bind def
/Gshow {show} def   % May be redefined later in the file to support UTF-8
/vpt2 vpt 2 mul def
/hpt2 hpt 2 mul def
/Lshow {currentpoint stroke M 0 vshift R 
	Blacktext {gsave 0 setgray show grestore} {show} ifelse} def
/Rshow {currentpoint stroke M dup stringwidth pop neg vshift R
	Blacktext {gsave 0 setgray show grestore} {show} ifelse} def
/Cshow {currentpoint stroke M dup stringwidth pop -2 div vshift R 
	Blacktext {gsave 0 setgray show grestore} {show} ifelse} def
/UP {dup vpt_ mul /vpt exch def hpt_ mul /hpt exch def
  /hpt2 hpt 2 mul def /vpt2 vpt 2 mul def} def
/DL {Color {setrgbcolor Solid {pop []} if 0 setdash}
 {pop pop pop 0 setgray Solid {pop []} if 0 setdash} ifelse} def
/BL {stroke userlinewidth 2 mul setlinewidth
	Rounded {1 setlinejoin 1 setlinecap} if} def
/AL {stroke userlinewidth 2 div setlinewidth
	Rounded {1 setlinejoin 1 setlinecap} if} def
/UL {dup gnulinewidth mul /userlinewidth exch def
	dup 1 lt {pop 1} if 10 mul /udl exch def} def
/PL {stroke userlinewidth setlinewidth
	Rounded {1 setlinejoin 1 setlinecap} if} def
3.8 setmiterlimit
% Default Line colors
/LCw {1 1 1} def
/LCb {0 0 0} def
/LCa {0 0 0} def
/LC0 {1 0 0} def
/LC1 {0 1 0} def
/LC2 {0 0 1} def
/LC3 {1 0 1} def
/LC4 {0 1 1} def
/LC5 {1 1 0} def
/LC6 {0 0 0} def
/LC7 {1 0.3 0} def
/LC8 {0.5 0.5 0.5} def
% Default Line Types
/LTw {PL [] 1 setgray} def
/LTb {BL [] LCb DL} def
/LTa {AL [1 udl mul 2 udl mul] 0 setdash LCa setrgbcolor} def
/LT0 {PL [] LC0 DL} def
/LT1 {PL [4 dl1 2 dl2] LC1 DL} def
/LT2 {PL [2 dl1 3 dl2] LC2 DL} def
/LT3 {PL [1 dl1 1.5 dl2] LC3 DL} def
/LT4 {PL [6 dl1 2 dl2 1 dl1 2 dl2] LC4 DL} def
/LT5 {PL [3 dl1 3 dl2 1 dl1 3 dl2] LC5 DL} def
/LT6 {PL [2 dl1 2 dl2 2 dl1 6 dl2] LC6 DL} def
/LT7 {PL [1 dl1 2 dl2 6 dl1 2 dl2 1 dl1 2 dl2] LC7 DL} def
/LT8 {PL [2 dl1 2 dl2 2 dl1 2 dl2 2 dl1 2 dl2 2 dl1 4 dl2] LC8 DL} def
/Pnt {stroke [] 0 setdash gsave 1 setlinecap M 0 0 V stroke grestore} def
/Dia {stroke [] 0 setdash 2 copy vpt add M
  hpt neg vpt neg V hpt vpt neg V
  hpt vpt V hpt neg vpt V closepath stroke
  Pnt} def
/Pls {stroke [] 0 setdash vpt sub M 0 vpt2 V
  currentpoint stroke M
  hpt neg vpt neg R hpt2 0 V stroke
 } def
/Box {stroke [] 0 setdash 2 copy exch hpt sub exch vpt add M
  0 vpt2 neg V hpt2 0 V 0 vpt2 V
  hpt2 neg 0 V closepath stroke
  Pnt} def
/Crs {stroke [] 0 setdash exch hpt sub exch vpt add M
  hpt2 vpt2 neg V currentpoint stroke M
  hpt2 neg 0 R hpt2 vpt2 V stroke} def
/TriU {stroke [] 0 setdash 2 copy vpt 1.12 mul add M
  hpt neg vpt -1.62 mul V
  hpt 2 mul 0 V
  hpt neg vpt 1.62 mul V closepath stroke
  Pnt} def
/Star {2 copy Pls Crs} def
/BoxF {stroke [] 0 setdash exch hpt sub exch vpt add M
  0 vpt2 neg V hpt2 0 V 0 vpt2 V
  hpt2 neg 0 V closepath fill} def
/TriUF {stroke [] 0 setdash vpt 1.12 mul add M
  hpt neg vpt -1.62 mul V
  hpt 2 mul 0 V
  hpt neg vpt 1.62 mul V closepath fill} def
/TriD {stroke [] 0 setdash 2 copy vpt 1.12 mul sub M
  hpt neg vpt 1.62 mul V
  hpt 2 mul 0 V
  hpt neg vpt -1.62 mul V closepath stroke
  Pnt} def
/TriDF {stroke [] 0 setdash vpt 1.12 mul sub M
  hpt neg vpt 1.62 mul V
  hpt 2 mul 0 V
  hpt neg vpt -1.62 mul V closepath fill} def
/DiaF {stroke [] 0 setdash vpt add M
  hpt neg vpt neg V hpt vpt neg V
  hpt vpt V hpt neg vpt V closepath fill} def
/Pent {stroke [] 0 setdash 2 copy gsave
  translate 0 hpt M 4 {72 rotate 0 hpt L} repeat
  closepath stroke grestore Pnt} def
/PentF {stroke [] 0 setdash gsave
  translate 0 hpt M 4 {72 rotate 0 hpt L} repeat
  closepath fill grestore} def
/Circle {stroke [] 0 setdash 2 copy
  hpt 0 360 arc stroke Pnt} def
/CircleF {stroke [] 0 setdash hpt 0 360 arc fill} def
/C0 {BL [] 0 setdash 2 copy moveto vpt 90 450 arc} bind def
/C1 {BL [] 0 setdash 2 copy moveto
	2 copy vpt 0 90 arc closepath fill
	vpt 0 360 arc closepath} bind def
/C2 {BL [] 0 setdash 2 copy moveto
	2 copy vpt 90 180 arc closepath fill
	vpt 0 360 arc closepath} bind def
/C3 {BL [] 0 setdash 2 copy moveto
	2 copy vpt 0 180 arc closepath fill
	vpt 0 360 arc closepath} bind def
/C4 {BL [] 0 setdash 2 copy moveto
	2 copy vpt 180 270 arc closepath fill
	vpt 0 360 arc closepath} bind def
/C5 {BL [] 0 setdash 2 copy moveto
	2 copy vpt 0 90 arc
	2 copy moveto
	2 copy vpt 180 270 arc closepath fill
	vpt 0 360 arc} bind def
/C6 {BL [] 0 setdash 2 copy moveto
	2 copy vpt 90 270 arc closepath fill
	vpt 0 360 arc closepath} bind def
/C7 {BL [] 0 setdash 2 copy moveto
	2 copy vpt 0 270 arc closepath fill
	vpt 0 360 arc closepath} bind def
/C8 {BL [] 0 setdash 2 copy moveto
	2 copy vpt 270 360 arc closepath fill
	vpt 0 360 arc closepath} bind def
/C9 {BL [] 0 setdash 2 copy moveto
	2 copy vpt 270 450 arc closepath fill
	vpt 0 360 arc closepath} bind def
/C10 {BL [] 0 setdash 2 copy 2 copy moveto vpt 270 360 arc closepath fill
	2 copy moveto
	2 copy vpt 90 180 arc closepath fill
	vpt 0 360 arc closepath} bind def
/C11 {BL [] 0 setdash 2 copy moveto
	2 copy vpt 0 180 arc closepath fill
	2 copy moveto
	2 copy vpt 270 360 arc closepath fill
	vpt 0 360 arc closepath} bind def
/C12 {BL [] 0 setdash 2 copy moveto
	2 copy vpt 180 360 arc closepath fill
	vpt 0 360 arc closepath} bind def
/C13 {BL [] 0 setdash 2 copy moveto
	2 copy vpt 0 90 arc closepath fill
	2 copy moveto
	2 copy vpt 180 360 arc closepath fill
	vpt 0 360 arc closepath} bind def
/C14 {BL [] 0 setdash 2 copy moveto
	2 copy vpt 90 360 arc closepath fill
	vpt 0 360 arc} bind def
/C15 {BL [] 0 setdash 2 copy vpt 0 360 arc closepath fill
	vpt 0 360 arc closepath} bind def
/Rec {newpath 4 2 roll moveto 1 index 0 rlineto 0 exch rlineto
	neg 0 rlineto closepath} bind def
/Square {dup Rec} bind def
/Bsquare {vpt sub exch vpt sub exch vpt2 Square} bind def
/S0 {BL [] 0 setdash 2 copy moveto 0 vpt rlineto BL Bsquare} bind def
/S1 {BL [] 0 setdash 2 copy vpt Square fill Bsquare} bind def
/S2 {BL [] 0 setdash 2 copy exch vpt sub exch vpt Square fill Bsquare} bind def
/S3 {BL [] 0 setdash 2 copy exch vpt sub exch vpt2 vpt Rec fill Bsquare} bind def
/S4 {BL [] 0 setdash 2 copy exch vpt sub exch vpt sub vpt Square fill Bsquare} bind def
/S5 {BL [] 0 setdash 2 copy 2 copy vpt Square fill
	exch vpt sub exch vpt sub vpt Square fill Bsquare} bind def
/S6 {BL [] 0 setdash 2 copy exch vpt sub exch vpt sub vpt vpt2 Rec fill Bsquare} bind def
/S7 {BL [] 0 setdash 2 copy exch vpt sub exch vpt sub vpt vpt2 Rec fill
	2 copy vpt Square fill Bsquare} bind def
/S8 {BL [] 0 setdash 2 copy vpt sub vpt Square fill Bsquare} bind def
/S9 {BL [] 0 setdash 2 copy vpt sub vpt vpt2 Rec fill Bsquare} bind def
/S10 {BL [] 0 setdash 2 copy vpt sub vpt Square fill 2 copy exch vpt sub exch vpt Square fill
	Bsquare} bind def
/S11 {BL [] 0 setdash 2 copy vpt sub vpt Square fill 2 copy exch vpt sub exch vpt2 vpt Rec fill
	Bsquare} bind def
/S12 {BL [] 0 setdash 2 copy exch vpt sub exch vpt sub vpt2 vpt Rec fill Bsquare} bind def
/S13 {BL [] 0 setdash 2 copy exch vpt sub exch vpt sub vpt2 vpt Rec fill
	2 copy vpt Square fill Bsquare} bind def
/S14 {BL [] 0 setdash 2 copy exch vpt sub exch vpt sub vpt2 vpt Rec fill
	2 copy exch vpt sub exch vpt Square fill Bsquare} bind def
/S15 {BL [] 0 setdash 2 copy Bsquare fill Bsquare} bind def
/D0 {gsave translate 45 rotate 0 0 S0 stroke grestore} bind def
/D1 {gsave translate 45 rotate 0 0 S1 stroke grestore} bind def
/D2 {gsave translate 45 rotate 0 0 S2 stroke grestore} bind def
/D3 {gsave translate 45 rotate 0 0 S3 stroke grestore} bind def
/D4 {gsave translate 45 rotate 0 0 S4 stroke grestore} bind def
/D5 {gsave translate 45 rotate 0 0 S5 stroke grestore} bind def
/D6 {gsave translate 45 rotate 0 0 S6 stroke grestore} bind def
/D7 {gsave translate 45 rotate 0 0 S7 stroke grestore} bind def
/D8 {gsave translate 45 rotate 0 0 S8 stroke grestore} bind def
/D9 {gsave translate 45 rotate 0 0 S9 stroke grestore} bind def
/D10 {gsave translate 45 rotate 0 0 S10 stroke grestore} bind def
/D11 {gsave translate 45 rotate 0 0 S11 stroke grestore} bind def
/D12 {gsave translate 45 rotate 0 0 S12 stroke grestore} bind def
/D13 {gsave translate 45 rotate 0 0 S13 stroke grestore} bind def
/D14 {gsave translate 45 rotate 0 0 S14 stroke grestore} bind def
/D15 {gsave translate 45 rotate 0 0 S15 stroke grestore} bind def
/DiaE {stroke [] 0 setdash vpt add M
  hpt neg vpt neg V hpt vpt neg V
  hpt vpt V hpt neg vpt V closepath stroke} def
/BoxE {stroke [] 0 setdash exch hpt sub exch vpt add M
  0 vpt2 neg V hpt2 0 V 0 vpt2 V
  hpt2 neg 0 V closepath stroke} def
/TriUE {stroke [] 0 setdash vpt 1.12 mul add M
  hpt neg vpt -1.62 mul V
  hpt 2 mul 0 V
  hpt neg vpt 1.62 mul V closepath stroke} def
/TriDE {stroke [] 0 setdash vpt 1.12 mul sub M
  hpt neg vpt 1.62 mul V
  hpt 2 mul 0 V
  hpt neg vpt -1.62 mul V closepath stroke} def
/PentE {stroke [] 0 setdash gsave
  translate 0 hpt M 4 {72 rotate 0 hpt L} repeat
  closepath stroke grestore} def
/CircE {stroke [] 0 setdash 
  hpt 0 360 arc stroke} def
/Opaque {gsave closepath 1 setgray fill grestore 0 setgray closepath} def
/DiaW {stroke [] 0 setdash vpt add M
  hpt neg vpt neg V hpt vpt neg V
  hpt vpt V hpt neg vpt V Opaque stroke} def
/BoxW {stroke [] 0 setdash exch hpt sub exch vpt add M
  0 vpt2 neg V hpt2 0 V 0 vpt2 V
  hpt2 neg 0 V Opaque stroke} def
/TriUW {stroke [] 0 setdash vpt 1.12 mul add M
  hpt neg vpt -1.62 mul V
  hpt 2 mul 0 V
  hpt neg vpt 1.62 mul V Opaque stroke} def
/TriDW {stroke [] 0 setdash vpt 1.12 mul sub M
  hpt neg vpt 1.62 mul V
  hpt 2 mul 0 V
  hpt neg vpt -1.62 mul V Opaque stroke} def
/PentW {stroke [] 0 setdash gsave
  translate 0 hpt M 4 {72 rotate 0 hpt L} repeat
  Opaque stroke grestore} def
/CircW {stroke [] 0 setdash 
  hpt 0 360 arc Opaque stroke} def
/BoxFill {gsave Rec 1 setgray fill grestore} def
/Density {
  /Fillden exch def
  currentrgbcolor
  /ColB exch def /ColG exch def /ColR exch def
  /ColR ColR Fillden mul Fillden sub 1 add def
  /ColG ColG Fillden mul Fillden sub 1 add def
  /ColB ColB Fillden mul Fillden sub 1 add def
  ColR ColG ColB setrgbcolor} def
/BoxColFill {gsave Rec PolyFill} def
/PolyFill {gsave Density fill grestore grestore} def
/h {rlineto rlineto rlineto gsave closepath fill grestore} bind def
%
% PostScript Level 1 Pattern Fill routine for rectangles
% Usage: x y w h s a XX PatternFill
%	x,y = lower left corner of box to be filled
%	w,h = width and height of box
%	  a = angle in degrees between lines and x-axis
%	 XX = 0/1 for no/yes cross-hatch
%
/PatternFill {gsave /PFa [ 9 2 roll ] def
  PFa 0 get PFa 2 get 2 div add PFa 1 get PFa 3 get 2 div add translate
  PFa 2 get -2 div PFa 3 get -2 div PFa 2 get PFa 3 get Rec
  gsave 1 setgray fill grestore clip
  currentlinewidth 0.5 mul setlinewidth
  /PFs PFa 2 get dup mul PFa 3 get dup mul add sqrt def
  0 0 M PFa 5 get rotate PFs -2 div dup translate
  0 1 PFs PFa 4 get div 1 add floor cvi
	{PFa 4 get mul 0 M 0 PFs V} for
  0 PFa 6 get ne {
	0 1 PFs PFa 4 get div 1 add floor cvi
	{PFa 4 get mul 0 2 1 roll M PFs 0 V} for
 } if
  stroke grestore} def
%
/languagelevel where
 {pop languagelevel} {1} ifelse
 2 lt
	{/InterpretLevel1 true def}
	{/InterpretLevel1 Level1 def}
 ifelse
%
% PostScript level 2 pattern fill definitions
%
/Level2PatternFill {
/Tile8x8 {/PaintType 2 /PatternType 1 /TilingType 1 /BBox [0 0 8 8] /XStep 8 /YStep 8}
	bind def
/KeepColor {currentrgbcolor [/Pattern /DeviceRGB] setcolorspace} bind def
<< Tile8x8
 /PaintProc {0.5 setlinewidth pop 0 0 M 8 8 L 0 8 M 8 0 L stroke} 
>> matrix makepattern
/Pat1 exch def
<< Tile8x8
 /PaintProc {0.5 setlinewidth pop 0 0 M 8 8 L 0 8 M 8 0 L stroke
	0 4 M 4 8 L 8 4 L 4 0 L 0 4 L stroke}
>> matrix makepattern
/Pat2 exch def
<< Tile8x8
 /PaintProc {0.5 setlinewidth pop 0 0 M 0 8 L
	8 8 L 8 0 L 0 0 L fill}
>> matrix makepattern
/Pat3 exch def
<< Tile8x8
 /PaintProc {0.5 setlinewidth pop -4 8 M 8 -4 L
	0 12 M 12 0 L stroke}
>> matrix makepattern
/Pat4 exch def
<< Tile8x8
 /PaintProc {0.5 setlinewidth pop -4 0 M 8 12 L
	0 -4 M 12 8 L stroke}
>> matrix makepattern
/Pat5 exch def
<< Tile8x8
 /PaintProc {0.5 setlinewidth pop -2 8 M 4 -4 L
	0 12 M 8 -4 L 4 12 M 10 0 L stroke}
>> matrix makepattern
/Pat6 exch def
<< Tile8x8
 /PaintProc {0.5 setlinewidth pop -2 0 M 4 12 L
	0 -4 M 8 12 L 4 -4 M 10 8 L stroke}
>> matrix makepattern
/Pat7 exch def
<< Tile8x8
 /PaintProc {0.5 setlinewidth pop 8 -2 M -4 4 L
	12 0 M -4 8 L 12 4 M 0 10 L stroke}
>> matrix makepattern
/Pat8 exch def
<< Tile8x8
 /PaintProc {0.5 setlinewidth pop 0 -2 M 12 4 L
	-4 0 M 12 8 L -4 4 M 8 10 L stroke}
>> matrix makepattern
/Pat9 exch def
/Pattern1 {PatternBgnd KeepColor Pat1 setpattern} bind def
/Pattern2 {PatternBgnd KeepColor Pat2 setpattern} bind def
/Pattern3 {PatternBgnd KeepColor Pat3 setpattern} bind def
/Pattern4 {PatternBgnd KeepColor Landscape {Pat5} {Pat4} ifelse setpattern} bind def
/Pattern5 {PatternBgnd KeepColor Landscape {Pat4} {Pat5} ifelse setpattern} bind def
/Pattern6 {PatternBgnd KeepColor Landscape {Pat9} {Pat6} ifelse setpattern} bind def
/Pattern7 {PatternBgnd KeepColor Landscape {Pat8} {Pat7} ifelse setpattern} bind def
} def
%
%
%End of PostScript Level 2 code
%
/PatternBgnd {
  TransparentPatterns {} {gsave 1 setgray fill grestore} ifelse
} def
%
% Substitute for Level 2 pattern fill codes with
% grayscale if Level 2 support is not selected.
%
/Level1PatternFill {
/Pattern1 {0.250 Density} bind def
/Pattern2 {0.500 Density} bind def
/Pattern3 {0.750 Density} bind def
/Pattern4 {0.125 Density} bind def
/Pattern5 {0.375 Density} bind def
/Pattern6 {0.625 Density} bind def
/Pattern7 {0.875 Density} bind def
} def
%
% Now test for support of Level 2 code
%
Level1 {Level1PatternFill} {Level2PatternFill} ifelse
%
/Symbol-Oblique /Symbol findfont [1 0 .167 1 0 0] makefont
dup length dict begin {1 index /FID eq {pop pop} {def} ifelse} forall
currentdict end definefont pop
end
%%EndProlog
gnudict begin
gsave
doclip
50 50 translate
0.050 0.050 scale
0 setgray
newpath
1.000 UL
LTb
LCb setrgbcolor
1078 704 M
63 0 V
5662 0 R
-63 0 V
stroke
LTb
1078 1286 M
63 0 V
5662 0 R
-63 0 V
1078 1867 M
63 0 V
5662 0 R
-63 0 V
1078 2449 M
63 0 V
5662 0 R
-63 0 V
1078 3030 M
63 0 V
5662 0 R
-63 0 V
1078 3612 M
63 0 V
5662 0 R
-63 0 V
1078 4193 M
63 0 V
5662 0 R
-63 0 V
1078 4775 M
63 0 V
5662 0 R
-63 0 V
1078 704 M
0 63 V
0 4008 R
0 -63 V
1896 704 M
0 63 V
0 4008 R
0 -63 V
2714 704 M
0 63 V
0 4008 R
0 -63 V
3532 704 M
0 63 V
0 4008 R
0 -63 V
4349 704 M
0 63 V
0 4008 R
0 -63 V
5167 704 M
0 63 V
0 4008 R
0 -63 V
5985 704 M
0 63 V
0 4008 R
0 -63 V
6803 704 M
0 63 V
0 4008 R
0 -63 V
stroke
1078 4775 N
0 -4071 V
5725 0 V
0 4071 V
-5725 0 V
Z stroke
1.000 UP
1.000 UL
LTb
2.000 UL
LT0
LC0 setrgbcolor
LCb setrgbcolor
LT0
LC0 setrgbcolor
5948 4602 M
591 0 V
1250 719 M
49 0 V
49 0 V
49 0 V
50 0 V
49 0 V
49 0 V
49 0 V
50 0 V
49 0 V
49 0 V
49 0 V
49 0 V
50 0 V
49 0 V
49 0 V
49 0 V
49 0 V
50 0 V
49 0 V
49 0 V
49 0 V
50 0 V
49 0 V
49 0 V
49 0 V
49 0 V
50 0 V
49 0 V
49 0 V
49 0 V
50 0 V
49 0 V
49 0 V
49 0 V
49 0 V
50 0 V
49 0 V
49 0 V
49 0 V
50 0 V
49 0 V
49 0 V
49 0 V
49 0 V
50 0 V
49 0 V
49 0 V
49 0 V
50 0 V
49 0 V
49 0 V
49 0 V
49 0 V
50 0 V
49 0 V
49 0 V
49 0 V
50 0 V
49 0 V
49 0 V
49 0 V
49 0 V
50 0 V
49 0 V
49 0 V
49 0 V
49 0 V
50 0 V
49 0 V
49 0 V
49 0 V
50 0 V
49 0 V
49 0 V
49 0 V
49 0 V
50 0 V
49 0 V
49 0 V
49 0 V
50 0 V
49 0 V
49 0 V
49 0 V
49 0 V
50 0 V
49 0 V
49 0 V
49 0 V
50 0 V
49 0 V
49 0 V
49 0 V
49 0 V
50 0 V
49 0 V
49 0 V
49 0 V
50 0 V
stroke
LT0
LC2 setrgbcolor
LCb setrgbcolor
LT0
LC0 setrgbcolor
LC2 setrgbcolor
5948 4382 M
591 0 V
1250 1235 M
49 -18 V
49 -18 V
49 -17 V
50 -16 V
49 -16 V
49 -15 V
49 -15 V
50 -14 V
49 -13 V
49 -14 V
49 -12 V
49 -13 V
50 -11 V
49 -12 V
49 -11 V
49 -10 V
49 -11 V
50 -10 V
49 -9 V
49 -9 V
49 -9 V
50 -9 V
49 -8 V
49 -8 V
49 -8 V
49 -7 V
50 -7 V
49 -7 V
49 -7 V
49 -6 V
50 -7 V
49 -6 V
49 -5 V
49 -6 V
49 -5 V
50 -5 V
49 -5 V
49 -5 V
49 -5 V
50 -4 V
49 -5 V
49 -4 V
49 -4 V
49 -4 V
50 -4 V
49 -3 V
49 -4 V
49 -3 V
50 -3 V
49 -3 V
49 -3 V
49 -3 V
49 -3 V
50 -3 V
49 -3 V
49 -2 V
49 -3 V
50 -2 V
49 -2 V
49 -2 V
49 -2 V
49 -2 V
50 -2 V
49 -2 V
49 -2 V
49 -2 V
49 -2 V
50 -1 V
49 -2 V
49 -1 V
49 -2 V
50 -1 V
49 -2 V
49 -1 V
49 -1 V
49 -2 V
50 -1 V
49 -1 V
49 -1 V
49 -1 V
50 -1 V
49 -1 V
49 -1 V
49 -1 V
49 -1 V
50 -1 V
49 -1 V
49 0 V
49 -1 V
50 -1 V
49 -1 V
49 0 V
49 -1 V
49 -1 V
50 0 V
49 -1 V
49 0 V
49 -1 V
50 0 V
stroke
LT0
LC0 setrgbcolor
LC3 setrgbcolor
LCb setrgbcolor
LT0
LC0 setrgbcolor
LC3 setrgbcolor
5948 4162 M
591 0 V
1250 3861 M
49 -500 V
49 -420 V
49 -353 V
50 -297 V
49 -250 V
49 -210 V
49 -177 V
50 -149 V
49 -125 V
49 -105 V
49 -88 V
49 -75 V
50 -62 V
49 -53 V
49 -44 V
49 -37 V
49 -32 V
50 -26 V
49 -22 V
49 -19 V
49 -15 V
50 -14 V
49 -11 V
49 -9 V
49 -8 V
49 -6 V
50 -6 V
49 -5 V
49 -4 V
49 -3 V
50 -3 V
49 -2 V
49 -2 V
49 -2 V
49 -1 V
50 -1 V
49 -1 V
49 -1 V
49 -1 V
50 0 V
49 -1 V
49 0 V
49 0 V
49 -1 V
50 0 V
49 0 V
49 0 V
49 0 V
50 -1 V
49 0 V
49 0 V
49 0 V
49 0 V
50 0 V
49 0 V
49 0 V
49 0 V
50 0 V
49 0 V
49 0 V
49 0 V
49 0 V
50 0 V
49 0 V
49 0 V
49 0 V
49 0 V
50 0 V
49 0 V
49 0 V
49 0 V
50 0 V
49 0 V
49 0 V
49 0 V
49 0 V
50 0 V
49 0 V
49 0 V
49 0 V
50 0 V
49 0 V
49 0 V
49 0 V
49 0 V
50 0 V
49 0 V
49 0 V
49 0 V
50 0 V
49 0 V
49 0 V
49 0 V
49 0 V
50 0 V
49 0 V
49 0 V
49 0 V
50 0 V
stroke
LT0
LC0 setrgbcolor
LCa setrgbcolor
LCb setrgbcolor
LT0
LC0 setrgbcolor
LCa setrgbcolor
5948 3942 M
591 0 V
1250 4377 M
49 -518 V
49 -437 V
49 -370 V
50 -314 V
49 -266 V
49 -225 V
49 -191 V
50 -163 V
49 -139 V
49 -118 V
49 -101 V
49 -87 V
50 -74 V
49 -65 V
49 -55 V
49 -48 V
49 -41 V
50 -36 V
49 -32 V
49 -28 V
49 -24 V
50 -22 V
49 -19 V
49 -18 V
49 -15 V
49 -14 V
50 -13 V
49 -12 V
49 -10 V
49 -10 V
50 -9 V
49 -8 V
49 -8 V
49 -7 V
49 -7 V
50 -6 V
49 -6 V
49 -6 V
49 -5 V
50 -5 V
49 -5 V
49 -5 V
49 -4 V
49 -4 V
50 -4 V
49 -4 V
49 -4 V
49 -3 V
50 -4 V
49 -3 V
49 -3 V
49 -3 V
49 -3 V
50 -3 V
49 -2 V
49 -3 V
49 -2 V
50 -3 V
49 -2 V
49 -2 V
49 -2 V
49 -2 V
50 -2 V
49 -2 V
49 -2 V
49 -2 V
49 -2 V
50 -1 V
49 -2 V
49 -1 V
49 -2 V
50 -1 V
49 -2 V
49 -1 V
49 -1 V
49 -2 V
50 -1 V
49 -1 V
49 -1 V
49 -1 V
50 -1 V
49 -1 V
49 -1 V
49 -1 V
49 -1 V
50 -1 V
49 -1 V
49 0 V
49 -1 V
50 -1 V
49 -1 V
49 0 V
49 -1 V
49 -1 V
50 0 V
49 -1 V
49 0 V
49 -1 V
50 0 V
1.000 UP
stroke
1.000 UL
LT4
LC4 setrgbcolor
LC1 setrgbcolor
LCb setrgbcolor
LT4
LC4 setrgbcolor
LC1 setrgbcolor
5948 3722 M
591 0 V
-591 31 R
0 -62 V
591 62 R
0 -62 V
1250 4159 M
0 290 V
-31 -290 R
62 0 V
-62 290 R
62 0 V
10 -603 R
0 276 V
-31 -276 R
62 0 V
-62 276 R
62 0 V
10 -720 R
0 257 V
-31 -257 R
62 0 V
-62 257 R
62 0 V
9 -592 R
0 240 V
-31 -240 R
62 0 V
-62 240 R
62 0 V
10 -529 R
0 225 V
-31 -225 R
62 0 V
-62 225 R
62 0 V
10 -202 R
0 226 V
-31 -226 R
62 0 V
-62 226 R
62 0 V
10 -560 R
0 208 V
-31 -208 R
62 0 V
-62 208 R
62 0 V
11 -682 R
0 179 V
-31 -179 R
62 0 V
-62 179 R
62 0 V
10 -16 R
0 190 V
-31 -190 R
62 0 V
-62 190 R
62 0 V
10 -359 R
0 179 V
-31 -179 R
62 0 V
-62 179 R
62 0 V
9 -443 R
0 160 V
-31 -160 R
62 0 V
-62 160 R
62 0 V
10 -322 R
0 147 V
-31 -147 R
62 0 V
-62 147 R
62 0 V
10 -80 R
0 153 V
-31 -153 R
62 0 V
-62 153 R
62 0 V
10 -404 R
0 131 V
-31 -131 R
62 0 V
-62 131 R
62 0 V
10 -20 R
0 141 V
-31 -141 R
62 0 V
-62 141 R
62 0 V
10 -246 R
0 131 V
-31 -131 R
62 0 V
-62 131 R
62 0 V
10 -220 R
0 123 V
-31 -123 R
62 0 V
stroke 1936 1294 M
-62 123 R
62 0 V
10 -18 R
0 133 V
-31 -133 R
62 0 V
-62 133 R
62 0 V
10 -415 R
0 104 V
-31 -104 R
62 0 V
-62 104 R
62 0 V
10 -126 R
0 102 V
-31 -102 R
62 0 V
-62 102 R
62 0 V
10 -63 R
0 106 V
-31 -106 R
62 0 V
-62 106 R
62 0 V
10 -79 R
0 109 V
-31 -109 R
62 0 V
-62 109 R
62 0 V
10 -197 R
0 99 V
-31 -99 R
62 0 V
-62 99 R
62 0 V
10 -60 R
0 103 V
-31 -103 R
62 0 V
-62 103 R
62 0 V
10 -191 R
0 93 V
-31 -93 R
62 0 V
-62 93 R
62 0 V
10 -125 R
0 87 V
-31 -87 R
62 0 V
-62 87 R
62 0 V
10 -38 R
0 94 V
-31 -94 R
62 0 V
-62 94 R
62 0 V
9 -224 R
0 75 V
-31 -75 R
62 0 V
-62 75 R
62 0 V
10 -86 R
0 73 V
-31 -73 R
62 0 V
-62 73 R
62 0 V
10 2 R
0 86 V
-31 -86 R
62 0 V
-62 86 R
62 0 V
10 -129 R
0 79 V
-31 -79 R
62 0 V
-62 79 R
62 0 V
10 -100 R
0 75 V
-31 -75 R
62 0 V
-62 75 R
62 0 V
10 -81 R
0 75 V
-31 -75 R
62 0 V
-62 75 R
62 0 V
10 -102 R
0 70 V
-31 -70 R
62 0 V
-62 70 R
62 0 V
stroke 2632 948 M
10 -112 R
0 62 V
-31 -62 R
62 0 V
-62 62 R
62 0 V
10 83 R
0 86 V
-31 -86 R
62 0 V
-62 86 R
62 0 V
10 -199 R
0 68 V
-31 -68 R
62 0 V
-62 68 R
62 0 V
9 -31 R
0 75 V
-31 -75 R
62 0 V
-62 75 R
62 0 V
10 -53 R
0 78 V
-31 -78 R
62 0 V
-62 78 R
62 0 V
11 -41 R
0 84 V
-31 -84 R
62 0 V
-62 84 R
62 0 V
10 -228 R
0 58 V
-31 -58 R
62 0 V
-62 58 R
62 0 V
10 -47 R
0 60 V
-31 -60 R
62 0 V
-62 60 R
62 0 V
10 -34 R
0 66 V
-31 -66 R
62 0 V
-62 66 R
62 0 V
10 -124 R
0 54 V
-31 -54 R
62 0 V
-62 54 R
62 0 V
9 -22 R
0 60 V
-31 -60 R
62 0 V
-62 60 R
62 0 V
10 -60 R
0 60 V
-31 -60 R
62 0 V
-62 60 R
62 0 V
10 -97 R
0 52 V
-31 -52 R
62 0 V
-62 52 R
62 0 V
10 11 R
0 66 V
-31 -66 R
62 0 V
-62 66 R
62 0 V
10 -139 R
0 49 V
-31 -49 R
62 0 V
-62 49 R
62 0 V
10 -13 R
0 58 V
-31 -58 R
62 0 V
-62 58 R
62 0 V
10 -63 R
0 57 V
-31 -57 R
62 0 V
-62 57 R
62 0 V
10 -62 R
0 56 V
stroke 3338 866 M
-31 -56 R
62 0 V
-62 56 R
62 0 V
10 -46 R
0 58 V
-31 -58 R
62 0 V
-62 58 R
62 0 V
10 -104 R
0 46 V
-31 -46 R
62 0 V
-62 46 R
62 0 V
10 -31 R
0 51 V
-31 -51 R
62 0 V
-62 51 R
62 0 V
10 -41 R
0 54 V
-31 -54 R
62 0 V
-62 54 R
62 0 V
10 -54 R
0 54 V
-31 -54 R
62 0 V
-62 54 R
62 0 V
10 -59 R
0 52 V
-31 -52 R
62 0 V
-62 52 R
62 0 V
10 -77 R
0 45 V
-31 -45 R
62 0 V
-62 45 R
62 0 V
10 6 R
0 58 V
-31 -58 R
62 0 V
-62 58 R
62 0 V
10 -94 R
0 49 V
-31 -49 R
62 0 V
-62 49 R
62 0 V
9 -34 R
0 54 V
-31 -54 R
62 0 V
-62 54 R
62 0 V
10 -43 R
0 56 V
-31 -56 R
62 0 V
-62 56 R
62 0 V
10 -137 R
0 31 V
-31 -31 R
62 0 V
-62 31 R
62 0 V
10 14 R
0 46 V
-31 -46 R
62 0 V
-62 46 R
62 0 V
10 -61 R
0 42 V
-31 -42 R
62 0 V
-62 42 R
62 0 V
11 -12 R
0 51 V
-31 -51 R
62 0 V
-62 51 R
62 0 V
10 -61 R
0 48 V
-31 -48 R
62 0 V
-62 48 R
62 0 V
10 -53 R
0 46 V
-31 -46 R
62 0 V
stroke 4066 774 M
-62 46 R
62 0 V
9 -36 R
0 49 V
-31 -49 R
62 0 V
-62 49 R
62 0 V
10 -94 R
0 35 V
-31 -35 R
62 0 V
-62 35 R
62 0 V
10 62 R
0 62 V
-31 -62 R
62 0 V
-62 62 R
62 0 V
10 -93 R
0 54 V
-31 -54 R
62 0 V
-62 54 R
62 0 V
10 -95 R
0 43 V
-31 -43 R
62 0 V
-62 43 R
62 0 V
10 -68 R
0 35 V
-31 -35 R
62 0 V
-62 35 R
62 0 V
10 -5 R
0 45 V
-31 -45 R
62 0 V
-62 45 R
62 0 V
10 -50 R
0 43 V
-31 -43 R
62 0 V
-62 43 R
62 0 V
10 -48 R
0 42 V
-31 -42 R
62 0 V
-62 42 R
62 0 V
9 -27 R
0 46 V
-31 -46 R
62 0 V
-62 46 R
62 0 V
10 -81 R
0 35 V
-31 -35 R
62 0 V
-62 35 R
62 0 V
10 -25 R
0 38 V
-31 -38 R
62 0 V
-62 38 R
62 0 V
10 -38 R
0 38 V
-31 -38 R
62 0 V
-62 38 R
62 0 V
10 -8 R
0 48 V
-31 -48 R
62 0 V
-62 48 R
62 0 V
10 -78 R
0 38 V
-31 -38 R
62 0 V
-62 38 R
62 0 V
11 -33 R
0 40 V
-31 -40 R
62 0 V
-62 40 R
62 0 V
10 -25 R
0 45 V
-31 -45 R
62 0 V
-62 45 R
62 0 V
stroke 4762 814 M
9 -80 R
0 33 V
-31 -33 R
62 0 V
-62 33 R
62 0 V
10 12 R
0 48 V
-31 -48 R
62 0 V
-62 48 R
62 0 V
10 -93 R
0 33 V
-31 -33 R
62 0 V
-62 33 R
62 0 V
10 -33 R
0 33 V
-31 -33 R
62 0 V
-62 33 R
62 0 V
10 -51 R
0 23 V
-31 -23 R
62 0 V
-62 23 R
62 0 V
10 15 R
0 40 V
-31 -40 R
62 0 V
-62 40 R
62 0 V
10 -20 R
0 46 V
-31 -46 R
62 0 V
-62 46 R
62 0 V
10 -71 R
0 38 V
-31 -38 R
62 0 V
-62 38 R
62 0 V
10 -43 R
0 37 V
-31 -37 R
62 0 V
-62 37 R
62 0 V
9 -47 R
0 33 V
-31 -33 R
62 0 V
-62 33 R
62 0 V
10 2 R
0 45 V
-31 -45 R
62 0 V
-62 45 R
62 0 V
11 -55 R
0 42 V
-31 -42 R
62 0 V
-62 42 R
62 0 V
10 -90 R
0 21 V
-31 -21 R
62 0 V
-62 21 R
62 0 V
10 22 R
0 40 V
-31 -40 R
62 0 V
-62 40 R
62 0 V
10 -69 R
0 28 V
-31 -28 R
62 0 V
-62 28 R
62 0 V
10 -14 R
0 35 V
-31 -35 R
62 0 V
-62 35 R
62 0 V
10 -40 R
0 33 V
-31 -33 R
62 0 V
-62 33 R
62 0 V
9 -47 R
0 26 V
stroke 5467 746 M
-31 -26 R
62 0 V
-62 26 R
62 0 V
10 -21 R
0 28 V
-31 -28 R
62 0 V
-62 28 R
62 0 V
10 -42 R
0 21 V
-31 -21 R
62 0 V
-62 21 R
62 0 V
10 -16 R
0 23 V
-31 -23 R
62 0 V
-62 23 R
62 0 V
10 5 R
0 37 V
-31 -37 R
62 0 V
-62 37 R
62 0 V
10 -65 R
0 23 V
-31 -23 R
62 0 V
-62 23 R
62 0 V
10 10 R
0 38 V
-31 -38 R
62 0 V
-62 38 R
62 0 V
10 -67 R
0 26 V
-31 -26 R
62 0 V
-62 26 R
62 0 V
10 -7 R
0 35 V
-31 -35 R
62 0 V
-62 35 R
62 0 V
10 -49 R
0 28 V
-31 -28 R
62 0 V
-62 28 R
62 0 V
10 -4 R
0 38 V
-31 -38 R
62 0 V
-62 38 R
62 0 V
10 -58 R
0 31 V
-31 -31 R
62 0 V
-62 31 R
62 0 V
10 -35 R
0 28 V
-31 -28 R
62 0 V
-62 28 R
62 0 V
10 -24 R
0 31 V
-31 -31 R
62 0 V
-62 31 R
62 0 V
10 -26 R
0 33 V
-31 -33 R
62 0 V
-62 33 R
62 0 V
10 -18 R
0 38 V
-31 -38 R
62 0 V
-62 38 R
62 0 V
10 -53 R
0 33 V
-31 -33 R
62 0 V
-62 33 R
62 0 V
1250 4304 Pls
1291 3984 Pls
1332 3530 Pls
1372 3187 Pls
1413 2891 Pls
1454 2914 Pls
1495 2571 Pls
1537 2082 Pls
1578 2251 Pls
1619 2077 Pls
1659 1803 Pls
1700 1635 Pls
1741 1704 Pls
1782 1443 Pls
1823 1559 Pls
1864 1448 Pls
1905 1355 Pls
1946 1466 Pls
1987 1169 Pls
2028 1146 Pls
2069 1187 Pls
2110 1216 Pls
2151 1123 Pls
2192 1163 Pls
2233 1070 Pls
2274 1035 Pls
2315 1088 Pls
2355 948 Pls
2396 937 Pls
2437 1018 Pls
2478 972 Pls
2519 948 Pls
2560 942 Pls
2601 913 Pls
2642 867 Pls
2683 1024 Pls
2724 902 Pls
2764 942 Pls
2805 966 Pls
2847 1006 Pls
2888 849 Pls
2929 861 Pls
2970 890 Pls
3011 826 Pls
3051 861 Pls
3092 861 Pls
3133 820 Pls
3174 890 Pls
3215 809 Pls
3256 849 Pls
3297 844 Pls
3338 838 Pls
3379 849 Pls
3420 797 Pls
3461 814 Pls
3502 826 Pls
3543 826 Pls
3584 820 Pls
3625 791 Pls
3666 849 Pls
3707 809 Pls
3747 826 Pls
3788 838 Pls
3829 745 Pls
3870 797 Pls
3911 780 Pls
3953 814 Pls
3994 803 Pls
4035 797 Pls
4075 809 Pls
4116 756 Pls
4157 867 Pls
4198 832 Pls
4239 785 Pls
4280 756 Pls
4321 791 Pls
4362 785 Pls
4403 780 Pls
4443 797 Pls
4484 756 Pls
4525 768 Pls
4566 768 Pls
4607 803 Pls
4648 768 Pls
4690 774 Pls
4731 791 Pls
4771 751 Pls
4812 803 Pls
4853 751 Pls
4894 751 Pls
4935 727 Pls
4976 774 Pls
5017 797 Pls
5058 768 Pls
5099 762 Pls
5139 751 Pls
5180 791 Pls
5222 780 Pls
5263 721 Pls
5304 774 Pls
5345 739 Pls
5386 756 Pls
5427 751 Pls
5467 733 Pls
5508 739 Pls
5549 721 Pls
5590 727 Pls
5631 762 Pls
5672 727 Pls
5713 768 Pls
5754 733 Pls
5795 756 Pls
5836 739 Pls
5877 768 Pls
5918 745 Pls
5959 739 Pls
6000 745 Pls
6041 751 Pls
6082 768 Pls
6123 751 Pls
6243 3722 Pls
1.000 UL
LTb
LCb setrgbcolor
1078 4775 N
0 -4071 V
5725 0 V
0 4071 V
-5725 0 V
Z stroke
1.000 UP
1.000 UL
LTb
stroke
grestore
end
showpage
%%Trailer
