%!PS-Adobe-2.0 EPSF-2.0
%%Title: 8minLog.tex
%%Creator: gnuplot 4.4 patchlevel 3
%%CreationDate: Mon Apr  1 14:39:57 2013
%%DocumentFonts: 
%%BoundingBox: 50 50 410 302
%%EndComments
%%BeginProlog
/gnudict 256 dict def
gnudict begin
%
% The following true/false flags may be edited by hand if desired.
% The unit line width and grayscale image gamma correction may also be changed.
%
/Color true def
/Blacktext false def
/Solid false def
/Dashlength 1 def
/Landscape false def
/Level1 false def
/Rounded false def
/ClipToBoundingBox false def
/TransparentPatterns false def
/gnulinewidth 5.000 def
/userlinewidth gnulinewidth def
/Gamma 1.0 def
%
/vshift -73 def
/dl1 {
  10.0 Dashlength mul mul
  Rounded { currentlinewidth 0.75 mul sub dup 0 le { pop 0.01 } if } if
} def
/dl2 {
  10.0 Dashlength mul mul
  Rounded { currentlinewidth 0.75 mul add } if
} def
/hpt_ 31.5 def
/vpt_ 31.5 def
/hpt hpt_ def
/vpt vpt_ def
Level1 {} {
/SDict 10 dict def
systemdict /pdfmark known not {
  userdict /pdfmark systemdict /cleartomark get put
} if
SDict begin [
  /Title (8minLog.tex)
  /Subject (gnuplot plot)
  /Creator (gnuplot 4.4 patchlevel 3)
  /Author (julius)
%  /Producer (gnuplot)
%  /Keywords ()
  /CreationDate (Mon Apr  1 14:39:57 2013)
  /DOCINFO pdfmark
end
} ifelse
/doclip {
  ClipToBoundingBox {
    newpath 50 50 moveto 410 50 lineto 410 302 lineto 50 302 lineto closepath
    clip
  } if
} def
%
% Gnuplot Prolog Version 4.4 (August 2010)
%
%/SuppressPDFMark true def
%
/M {moveto} bind def
/L {lineto} bind def
/R {rmoveto} bind def
/V {rlineto} bind def
/N {newpath moveto} bind def
/Z {closepath} bind def
/C {setrgbcolor} bind def
/f {rlineto fill} bind def
/g {setgray} bind def
/Gshow {show} def   % May be redefined later in the file to support UTF-8
/vpt2 vpt 2 mul def
/hpt2 hpt 2 mul def
/Lshow {currentpoint stroke M 0 vshift R 
	Blacktext {gsave 0 setgray show grestore} {show} ifelse} def
/Rshow {currentpoint stroke M dup stringwidth pop neg vshift R
	Blacktext {gsave 0 setgray show grestore} {show} ifelse} def
/Cshow {currentpoint stroke M dup stringwidth pop -2 div vshift R 
	Blacktext {gsave 0 setgray show grestore} {show} ifelse} def
/UP {dup vpt_ mul /vpt exch def hpt_ mul /hpt exch def
  /hpt2 hpt 2 mul def /vpt2 vpt 2 mul def} def
/DL {Color {setrgbcolor Solid {pop []} if 0 setdash}
 {pop pop pop 0 setgray Solid {pop []} if 0 setdash} ifelse} def
/BL {stroke userlinewidth 2 mul setlinewidth
	Rounded {1 setlinejoin 1 setlinecap} if} def
/AL {stroke userlinewidth 2 div setlinewidth
	Rounded {1 setlinejoin 1 setlinecap} if} def
/UL {dup gnulinewidth mul /userlinewidth exch def
	dup 1 lt {pop 1} if 10 mul /udl exch def} def
/PL {stroke userlinewidth setlinewidth
	Rounded {1 setlinejoin 1 setlinecap} if} def
3.8 setmiterlimit
% Default Line colors
/LCw {1 1 1} def
/LCb {0 0 0} def
/LCa {0 0 0} def
/LC0 {1 0 0} def
/LC1 {0 1 0} def
/LC2 {0 0 1} def
/LC3 {1 0 1} def
/LC4 {0 1 1} def
/LC5 {1 1 0} def
/LC6 {0 0 0} def
/LC7 {1 0.3 0} def
/LC8 {0.5 0.5 0.5} def
% Default Line Types
/LTw {PL [] 1 setgray} def
/LTb {BL [] LCb DL} def
/LTa {AL [1 udl mul 2 udl mul] 0 setdash LCa setrgbcolor} def
/LT0 {PL [] LC0 DL} def
/LT1 {PL [4 dl1 2 dl2] LC1 DL} def
/LT2 {PL [2 dl1 3 dl2] LC2 DL} def
/LT3 {PL [1 dl1 1.5 dl2] LC3 DL} def
/LT4 {PL [6 dl1 2 dl2 1 dl1 2 dl2] LC4 DL} def
/LT5 {PL [3 dl1 3 dl2 1 dl1 3 dl2] LC5 DL} def
/LT6 {PL [2 dl1 2 dl2 2 dl1 6 dl2] LC6 DL} def
/LT7 {PL [1 dl1 2 dl2 6 dl1 2 dl2 1 dl1 2 dl2] LC7 DL} def
/LT8 {PL [2 dl1 2 dl2 2 dl1 2 dl2 2 dl1 2 dl2 2 dl1 4 dl2] LC8 DL} def
/Pnt {stroke [] 0 setdash gsave 1 setlinecap M 0 0 V stroke grestore} def
/Dia {stroke [] 0 setdash 2 copy vpt add M
  hpt neg vpt neg V hpt vpt neg V
  hpt vpt V hpt neg vpt V closepath stroke
  Pnt} def
/Pls {stroke [] 0 setdash vpt sub M 0 vpt2 V
  currentpoint stroke M
  hpt neg vpt neg R hpt2 0 V stroke
 } def
/Box {stroke [] 0 setdash 2 copy exch hpt sub exch vpt add M
  0 vpt2 neg V hpt2 0 V 0 vpt2 V
  hpt2 neg 0 V closepath stroke
  Pnt} def
/Crs {stroke [] 0 setdash exch hpt sub exch vpt add M
  hpt2 vpt2 neg V currentpoint stroke M
  hpt2 neg 0 R hpt2 vpt2 V stroke} def
/TriU {stroke [] 0 setdash 2 copy vpt 1.12 mul add M
  hpt neg vpt -1.62 mul V
  hpt 2 mul 0 V
  hpt neg vpt 1.62 mul V closepath stroke
  Pnt} def
/Star {2 copy Pls Crs} def
/BoxF {stroke [] 0 setdash exch hpt sub exch vpt add M
  0 vpt2 neg V hpt2 0 V 0 vpt2 V
  hpt2 neg 0 V closepath fill} def
/TriUF {stroke [] 0 setdash vpt 1.12 mul add M
  hpt neg vpt -1.62 mul V
  hpt 2 mul 0 V
  hpt neg vpt 1.62 mul V closepath fill} def
/TriD {stroke [] 0 setdash 2 copy vpt 1.12 mul sub M
  hpt neg vpt 1.62 mul V
  hpt 2 mul 0 V
  hpt neg vpt -1.62 mul V closepath stroke
  Pnt} def
/TriDF {stroke [] 0 setdash vpt 1.12 mul sub M
  hpt neg vpt 1.62 mul V
  hpt 2 mul 0 V
  hpt neg vpt -1.62 mul V closepath fill} def
/DiaF {stroke [] 0 setdash vpt add M
  hpt neg vpt neg V hpt vpt neg V
  hpt vpt V hpt neg vpt V closepath fill} def
/Pent {stroke [] 0 setdash 2 copy gsave
  translate 0 hpt M 4 {72 rotate 0 hpt L} repeat
  closepath stroke grestore Pnt} def
/PentF {stroke [] 0 setdash gsave
  translate 0 hpt M 4 {72 rotate 0 hpt L} repeat
  closepath fill grestore} def
/Circle {stroke [] 0 setdash 2 copy
  hpt 0 360 arc stroke Pnt} def
/CircleF {stroke [] 0 setdash hpt 0 360 arc fill} def
/C0 {BL [] 0 setdash 2 copy moveto vpt 90 450 arc} bind def
/C1 {BL [] 0 setdash 2 copy moveto
	2 copy vpt 0 90 arc closepath fill
	vpt 0 360 arc closepath} bind def
/C2 {BL [] 0 setdash 2 copy moveto
	2 copy vpt 90 180 arc closepath fill
	vpt 0 360 arc closepath} bind def
/C3 {BL [] 0 setdash 2 copy moveto
	2 copy vpt 0 180 arc closepath fill
	vpt 0 360 arc closepath} bind def
/C4 {BL [] 0 setdash 2 copy moveto
	2 copy vpt 180 270 arc closepath fill
	vpt 0 360 arc closepath} bind def
/C5 {BL [] 0 setdash 2 copy moveto
	2 copy vpt 0 90 arc
	2 copy moveto
	2 copy vpt 180 270 arc closepath fill
	vpt 0 360 arc} bind def
/C6 {BL [] 0 setdash 2 copy moveto
	2 copy vpt 90 270 arc closepath fill
	vpt 0 360 arc closepath} bind def
/C7 {BL [] 0 setdash 2 copy moveto
	2 copy vpt 0 270 arc closepath fill
	vpt 0 360 arc closepath} bind def
/C8 {BL [] 0 setdash 2 copy moveto
	2 copy vpt 270 360 arc closepath fill
	vpt 0 360 arc closepath} bind def
/C9 {BL [] 0 setdash 2 copy moveto
	2 copy vpt 270 450 arc closepath fill
	vpt 0 360 arc closepath} bind def
/C10 {BL [] 0 setdash 2 copy 2 copy moveto vpt 270 360 arc closepath fill
	2 copy moveto
	2 copy vpt 90 180 arc closepath fill
	vpt 0 360 arc closepath} bind def
/C11 {BL [] 0 setdash 2 copy moveto
	2 copy vpt 0 180 arc closepath fill
	2 copy moveto
	2 copy vpt 270 360 arc closepath fill
	vpt 0 360 arc closepath} bind def
/C12 {BL [] 0 setdash 2 copy moveto
	2 copy vpt 180 360 arc closepath fill
	vpt 0 360 arc closepath} bind def
/C13 {BL [] 0 setdash 2 copy moveto
	2 copy vpt 0 90 arc closepath fill
	2 copy moveto
	2 copy vpt 180 360 arc closepath fill
	vpt 0 360 arc closepath} bind def
/C14 {BL [] 0 setdash 2 copy moveto
	2 copy vpt 90 360 arc closepath fill
	vpt 0 360 arc} bind def
/C15 {BL [] 0 setdash 2 copy vpt 0 360 arc closepath fill
	vpt 0 360 arc closepath} bind def
/Rec {newpath 4 2 roll moveto 1 index 0 rlineto 0 exch rlineto
	neg 0 rlineto closepath} bind def
/Square {dup Rec} bind def
/Bsquare {vpt sub exch vpt sub exch vpt2 Square} bind def
/S0 {BL [] 0 setdash 2 copy moveto 0 vpt rlineto BL Bsquare} bind def
/S1 {BL [] 0 setdash 2 copy vpt Square fill Bsquare} bind def
/S2 {BL [] 0 setdash 2 copy exch vpt sub exch vpt Square fill Bsquare} bind def
/S3 {BL [] 0 setdash 2 copy exch vpt sub exch vpt2 vpt Rec fill Bsquare} bind def
/S4 {BL [] 0 setdash 2 copy exch vpt sub exch vpt sub vpt Square fill Bsquare} bind def
/S5 {BL [] 0 setdash 2 copy 2 copy vpt Square fill
	exch vpt sub exch vpt sub vpt Square fill Bsquare} bind def
/S6 {BL [] 0 setdash 2 copy exch vpt sub exch vpt sub vpt vpt2 Rec fill Bsquare} bind def
/S7 {BL [] 0 setdash 2 copy exch vpt sub exch vpt sub vpt vpt2 Rec fill
	2 copy vpt Square fill Bsquare} bind def
/S8 {BL [] 0 setdash 2 copy vpt sub vpt Square fill Bsquare} bind def
/S9 {BL [] 0 setdash 2 copy vpt sub vpt vpt2 Rec fill Bsquare} bind def
/S10 {BL [] 0 setdash 2 copy vpt sub vpt Square fill 2 copy exch vpt sub exch vpt Square fill
	Bsquare} bind def
/S11 {BL [] 0 setdash 2 copy vpt sub vpt Square fill 2 copy exch vpt sub exch vpt2 vpt Rec fill
	Bsquare} bind def
/S12 {BL [] 0 setdash 2 copy exch vpt sub exch vpt sub vpt2 vpt Rec fill Bsquare} bind def
/S13 {BL [] 0 setdash 2 copy exch vpt sub exch vpt sub vpt2 vpt Rec fill
	2 copy vpt Square fill Bsquare} bind def
/S14 {BL [] 0 setdash 2 copy exch vpt sub exch vpt sub vpt2 vpt Rec fill
	2 copy exch vpt sub exch vpt Square fill Bsquare} bind def
/S15 {BL [] 0 setdash 2 copy Bsquare fill Bsquare} bind def
/D0 {gsave translate 45 rotate 0 0 S0 stroke grestore} bind def
/D1 {gsave translate 45 rotate 0 0 S1 stroke grestore} bind def
/D2 {gsave translate 45 rotate 0 0 S2 stroke grestore} bind def
/D3 {gsave translate 45 rotate 0 0 S3 stroke grestore} bind def
/D4 {gsave translate 45 rotate 0 0 S4 stroke grestore} bind def
/D5 {gsave translate 45 rotate 0 0 S5 stroke grestore} bind def
/D6 {gsave translate 45 rotate 0 0 S6 stroke grestore} bind def
/D7 {gsave translate 45 rotate 0 0 S7 stroke grestore} bind def
/D8 {gsave translate 45 rotate 0 0 S8 stroke grestore} bind def
/D9 {gsave translate 45 rotate 0 0 S9 stroke grestore} bind def
/D10 {gsave translate 45 rotate 0 0 S10 stroke grestore} bind def
/D11 {gsave translate 45 rotate 0 0 S11 stroke grestore} bind def
/D12 {gsave translate 45 rotate 0 0 S12 stroke grestore} bind def
/D13 {gsave translate 45 rotate 0 0 S13 stroke grestore} bind def
/D14 {gsave translate 45 rotate 0 0 S14 stroke grestore} bind def
/D15 {gsave translate 45 rotate 0 0 S15 stroke grestore} bind def
/DiaE {stroke [] 0 setdash vpt add M
  hpt neg vpt neg V hpt vpt neg V
  hpt vpt V hpt neg vpt V closepath stroke} def
/BoxE {stroke [] 0 setdash exch hpt sub exch vpt add M
  0 vpt2 neg V hpt2 0 V 0 vpt2 V
  hpt2 neg 0 V closepath stroke} def
/TriUE {stroke [] 0 setdash vpt 1.12 mul add M
  hpt neg vpt -1.62 mul V
  hpt 2 mul 0 V
  hpt neg vpt 1.62 mul V closepath stroke} def
/TriDE {stroke [] 0 setdash vpt 1.12 mul sub M
  hpt neg vpt 1.62 mul V
  hpt 2 mul 0 V
  hpt neg vpt -1.62 mul V closepath stroke} def
/PentE {stroke [] 0 setdash gsave
  translate 0 hpt M 4 {72 rotate 0 hpt L} repeat
  closepath stroke grestore} def
/CircE {stroke [] 0 setdash 
  hpt 0 360 arc stroke} def
/Opaque {gsave closepath 1 setgray fill grestore 0 setgray closepath} def
/DiaW {stroke [] 0 setdash vpt add M
  hpt neg vpt neg V hpt vpt neg V
  hpt vpt V hpt neg vpt V Opaque stroke} def
/BoxW {stroke [] 0 setdash exch hpt sub exch vpt add M
  0 vpt2 neg V hpt2 0 V 0 vpt2 V
  hpt2 neg 0 V Opaque stroke} def
/TriUW {stroke [] 0 setdash vpt 1.12 mul add M
  hpt neg vpt -1.62 mul V
  hpt 2 mul 0 V
  hpt neg vpt 1.62 mul V Opaque stroke} def
/TriDW {stroke [] 0 setdash vpt 1.12 mul sub M
  hpt neg vpt 1.62 mul V
  hpt 2 mul 0 V
  hpt neg vpt -1.62 mul V Opaque stroke} def
/PentW {stroke [] 0 setdash gsave
  translate 0 hpt M 4 {72 rotate 0 hpt L} repeat
  Opaque stroke grestore} def
/CircW {stroke [] 0 setdash 
  hpt 0 360 arc Opaque stroke} def
/BoxFill {gsave Rec 1 setgray fill grestore} def
/Density {
  /Fillden exch def
  currentrgbcolor
  /ColB exch def /ColG exch def /ColR exch def
  /ColR ColR Fillden mul Fillden sub 1 add def
  /ColG ColG Fillden mul Fillden sub 1 add def
  /ColB ColB Fillden mul Fillden sub 1 add def
  ColR ColG ColB setrgbcolor} def
/BoxColFill {gsave Rec PolyFill} def
/PolyFill {gsave Density fill grestore grestore} def
/h {rlineto rlineto rlineto gsave closepath fill grestore} bind def
%
% PostScript Level 1 Pattern Fill routine for rectangles
% Usage: x y w h s a XX PatternFill
%	x,y = lower left corner of box to be filled
%	w,h = width and height of box
%	  a = angle in degrees between lines and x-axis
%	 XX = 0/1 for no/yes cross-hatch
%
/PatternFill {gsave /PFa [ 9 2 roll ] def
  PFa 0 get PFa 2 get 2 div add PFa 1 get PFa 3 get 2 div add translate
  PFa 2 get -2 div PFa 3 get -2 div PFa 2 get PFa 3 get Rec
  gsave 1 setgray fill grestore clip
  currentlinewidth 0.5 mul setlinewidth
  /PFs PFa 2 get dup mul PFa 3 get dup mul add sqrt def
  0 0 M PFa 5 get rotate PFs -2 div dup translate
  0 1 PFs PFa 4 get div 1 add floor cvi
	{PFa 4 get mul 0 M 0 PFs V} for
  0 PFa 6 get ne {
	0 1 PFs PFa 4 get div 1 add floor cvi
	{PFa 4 get mul 0 2 1 roll M PFs 0 V} for
 } if
  stroke grestore} def
%
/languagelevel where
 {pop languagelevel} {1} ifelse
 2 lt
	{/InterpretLevel1 true def}
	{/InterpretLevel1 Level1 def}
 ifelse
%
% PostScript level 2 pattern fill definitions
%
/Level2PatternFill {
/Tile8x8 {/PaintType 2 /PatternType 1 /TilingType 1 /BBox [0 0 8 8] /XStep 8 /YStep 8}
	bind def
/KeepColor {currentrgbcolor [/Pattern /DeviceRGB] setcolorspace} bind def
<< Tile8x8
 /PaintProc {0.5 setlinewidth pop 0 0 M 8 8 L 0 8 M 8 0 L stroke} 
>> matrix makepattern
/Pat1 exch def
<< Tile8x8
 /PaintProc {0.5 setlinewidth pop 0 0 M 8 8 L 0 8 M 8 0 L stroke
	0 4 M 4 8 L 8 4 L 4 0 L 0 4 L stroke}
>> matrix makepattern
/Pat2 exch def
<< Tile8x8
 /PaintProc {0.5 setlinewidth pop 0 0 M 0 8 L
	8 8 L 8 0 L 0 0 L fill}
>> matrix makepattern
/Pat3 exch def
<< Tile8x8
 /PaintProc {0.5 setlinewidth pop -4 8 M 8 -4 L
	0 12 M 12 0 L stroke}
>> matrix makepattern
/Pat4 exch def
<< Tile8x8
 /PaintProc {0.5 setlinewidth pop -4 0 M 8 12 L
	0 -4 M 12 8 L stroke}
>> matrix makepattern
/Pat5 exch def
<< Tile8x8
 /PaintProc {0.5 setlinewidth pop -2 8 M 4 -4 L
	0 12 M 8 -4 L 4 12 M 10 0 L stroke}
>> matrix makepattern
/Pat6 exch def
<< Tile8x8
 /PaintProc {0.5 setlinewidth pop -2 0 M 4 12 L
	0 -4 M 8 12 L 4 -4 M 10 8 L stroke}
>> matrix makepattern
/Pat7 exch def
<< Tile8x8
 /PaintProc {0.5 setlinewidth pop 8 -2 M -4 4 L
	12 0 M -4 8 L 12 4 M 0 10 L stroke}
>> matrix makepattern
/Pat8 exch def
<< Tile8x8
 /PaintProc {0.5 setlinewidth pop 0 -2 M 12 4 L
	-4 0 M 12 8 L -4 4 M 8 10 L stroke}
>> matrix makepattern
/Pat9 exch def
/Pattern1 {PatternBgnd KeepColor Pat1 setpattern} bind def
/Pattern2 {PatternBgnd KeepColor Pat2 setpattern} bind def
/Pattern3 {PatternBgnd KeepColor Pat3 setpattern} bind def
/Pattern4 {PatternBgnd KeepColor Landscape {Pat5} {Pat4} ifelse setpattern} bind def
/Pattern5 {PatternBgnd KeepColor Landscape {Pat4} {Pat5} ifelse setpattern} bind def
/Pattern6 {PatternBgnd KeepColor Landscape {Pat9} {Pat6} ifelse setpattern} bind def
/Pattern7 {PatternBgnd KeepColor Landscape {Pat8} {Pat7} ifelse setpattern} bind def
} def
%
%
%End of PostScript Level 2 code
%
/PatternBgnd {
  TransparentPatterns {} {gsave 1 setgray fill grestore} ifelse
} def
%
% Substitute for Level 2 pattern fill codes with
% grayscale if Level 2 support is not selected.
%
/Level1PatternFill {
/Pattern1 {0.250 Density} bind def
/Pattern2 {0.500 Density} bind def
/Pattern3 {0.750 Density} bind def
/Pattern4 {0.125 Density} bind def
/Pattern5 {0.375 Density} bind def
/Pattern6 {0.625 Density} bind def
/Pattern7 {0.875 Density} bind def
} def
%
% Now test for support of Level 2 code
%
Level1 {Level1PatternFill} {Level2PatternFill} ifelse
%
/Symbol-Oblique /Symbol findfont [1 0 .167 1 0 0] makefont
dup length dict begin {1 index /FID eq {pop pop} {def} ifelse} forall
currentdict end definefont pop
end
%%EndProlog
gnudict begin
gsave
doclip
50 50 translate
0.050 0.050 scale
0 setgray
newpath
1.000 UL
LTb
LCb setrgbcolor
1210 704 M
63 0 V
5530 0 R
-63 0 V
stroke
LTb
1210 1112 M
31 0 V
5562 0 R
-31 0 V
1210 1351 M
31 0 V
5562 0 R
-31 0 V
1210 1521 M
31 0 V
5562 0 R
-31 0 V
1210 1653 M
31 0 V
5562 0 R
-31 0 V
1210 1760 M
31 0 V
5562 0 R
-31 0 V
-5562 91 R
31 0 V
5562 0 R
-31 0 V
-5562 78 R
31 0 V
5562 0 R
-31 0 V
-5562 70 R
31 0 V
5562 0 R
-31 0 V
-5562 62 R
63 0 V
5530 0 R
-63 0 V
1210 2469 M
31 0 V
5562 0 R
-31 0 V
1210 2708 M
31 0 V
5562 0 R
-31 0 V
1210 2878 M
31 0 V
5562 0 R
-31 0 V
1210 3010 M
31 0 V
5562 0 R
-31 0 V
1210 3117 M
31 0 V
5562 0 R
-31 0 V
-5562 91 R
31 0 V
5562 0 R
-31 0 V
-5562 78 R
31 0 V
5562 0 R
-31 0 V
-5562 70 R
31 0 V
5562 0 R
-31 0 V
-5562 62 R
63 0 V
5530 0 R
-63 0 V
1210 3826 M
31 0 V
5562 0 R
-31 0 V
1210 4065 M
31 0 V
5562 0 R
-31 0 V
1210 4235 M
31 0 V
5562 0 R
-31 0 V
1210 4367 M
31 0 V
5562 0 R
-31 0 V
1210 4474 M
31 0 V
5562 0 R
-31 0 V
-5562 91 R
31 0 V
5562 0 R
-31 0 V
-5562 78 R
31 0 V
5562 0 R
-31 0 V
-5562 70 R
31 0 V
5562 0 R
-31 0 V
-5562 62 R
63 0 V
stroke 1273 4775 M
5530 0 R
-63 0 V
1210 704 M
0 63 V
0 4008 R
0 -63 V
2009 704 M
0 63 V
0 4008 R
0 -63 V
2808 704 M
0 63 V
0 4008 R
0 -63 V
3607 704 M
0 63 V
0 4008 R
0 -63 V
4406 704 M
0 63 V
0 4008 R
0 -63 V
5205 704 M
0 63 V
0 4008 R
0 -63 V
6004 704 M
0 63 V
0 4008 R
0 -63 V
6803 704 M
0 63 V
0 4008 R
0 -63 V
stroke
1210 4775 N
0 -4071 V
5593 0 V
0 4071 V
-5593 0 V
Z stroke
1.000 UP
1.000 UL
LTb
2.000 UL
LT0
LC0 setrgbcolor
LCb setrgbcolor
LT0
LC0 setrgbcolor
5948 4602 M
591 0 V
1378 1252 M
50 0 V
50 0 V
50 0 V
50 0 V
50 0 V
50 0 V
51 0 V
50 0 V
50 0 V
50 0 V
50 0 V
50 0 V
50 0 V
50 0 V
50 0 V
50 0 V
51 0 V
50 0 V
50 0 V
50 0 V
50 0 V
50 0 V
50 0 V
50 0 V
50 0 V
50 0 V
51 0 V
50 0 V
50 0 V
50 0 V
50 0 V
50 0 V
50 0 V
50 0 V
50 0 V
50 0 V
51 0 V
50 0 V
50 0 V
50 0 V
50 0 V
50 0 V
50 0 V
50 0 V
50 0 V
51 0 V
50 0 V
50 0 V
50 0 V
50 0 V
50 0 V
50 0 V
50 0 V
50 0 V
50 0 V
51 0 V
50 0 V
50 0 V
50 0 V
50 0 V
50 0 V
50 0 V
50 0 V
50 0 V
50 0 V
51 0 V
50 0 V
50 0 V
50 0 V
50 0 V
50 0 V
50 0 V
50 0 V
50 0 V
51 0 V
50 0 V
50 0 V
50 0 V
50 0 V
50 0 V
50 0 V
50 0 V
50 0 V
50 0 V
51 0 V
50 0 V
50 0 V
50 0 V
50 0 V
50 0 V
50 0 V
50 0 V
50 0 V
50 0 V
51 0 V
50 0 V
50 0 V
50 0 V
50 0 V
stroke
LT0
LC2 setrgbcolor
LCb setrgbcolor
LT0
LC0 setrgbcolor
LC2 setrgbcolor
5948 4382 M
591 0 V
1378 3777 M
50 -21 V
50 -22 V
50 -22 V
50 -22 V
50 -21 V
50 -22 V
51 -22 V
50 -21 V
50 -22 V
50 -21 V
50 -22 V
50 -22 V
50 -21 V
50 -22 V
50 -21 V
50 -22 V
51 -21 V
50 -22 V
50 -21 V
50 -22 V
50 -21 V
50 -21 V
50 -22 V
50 -21 V
50 -21 V
50 -22 V
51 -21 V
50 -21 V
50 -21 V
50 -21 V
50 -21 V
50 -22 V
50 -21 V
50 -21 V
50 -21 V
50 -21 V
51 -20 V
50 -21 V
50 -21 V
50 -21 V
50 -21 V
50 -20 V
50 -21 V
50 -20 V
50 -21 V
51 -20 V
50 -21 V
50 -20 V
50 -21 V
50 -20 V
50 -20 V
50 -20 V
50 -20 V
50 -20 V
50 -20 V
51 -20 V
50 -20 V
50 -19 V
50 -20 V
50 -19 V
50 -20 V
50 -19 V
50 -19 V
50 -20 V
50 -19 V
51 -19 V
50 -19 V
50 -18 V
50 -19 V
50 -18 V
50 -19 V
50 -18 V
50 -18 V
50 -19 V
51 -18 V
50 -17 V
50 -18 V
50 -18 V
50 -17 V
50 -17 V
50 -18 V
50 -17 V
50 -17 V
50 -16 V
51 -17 V
50 -16 V
50 -17 V
50 -16 V
50 -16 V
50 -15 V
50 -16 V
50 -15 V
50 -16 V
50 -15 V
51 -15 V
50 -14 V
50 -15 V
50 -14 V
50 -14 V
stroke
LT0
LC0 setrgbcolor
LC3 setrgbcolor
LCb setrgbcolor
LT0
LC0 setrgbcolor
LC3 setrgbcolor
5948 4162 M
591 0 V
1378 4422 M
50 -106 V
50 -105 V
50 -106 V
50 -105 V
50 -106 V
50 -105 V
51 -104 V
50 -105 V
50 -104 V
50 -104 V
50 -103 V
50 -102 V
50 -102 V
50 -101 V
50 -100 V
50 -99 V
51 -97 V
50 -96 V
50 -94 V
50 -92 V
50 -90 V
50 -86 V
50 -84 V
50 -81 V
50 -76 V
50 -73 V
51 -69 V
50 -64 V
50 -59 V
50 -55 V
50 -49 V
50 -45 V
50 -41 V
50 -36 V
50 -32 V
50 -28 V
51 -24 V
50 -21 V
50 -19 V
50 -15 V
50 -14 V
50 -11 V
50 -10 V
50 -8 V
50 -7 V
51 -6 V
50 -5 V
50 -4 V
50 -4 V
50 -3 V
50 -2 V
50 -2 V
50 -2 V
50 -2 V
50 -1 V
51 -1 V
50 -1 V
50 0 V
50 -1 V
50 -1 V
50 0 V
50 0 V
50 -1 V
50 0 V
50 0 V
51 0 V
50 0 V
50 -1 V
50 0 V
50 0 V
50 0 V
50 0 V
50 0 V
50 0 V
51 0 V
50 0 V
50 0 V
50 0 V
50 0 V
50 0 V
50 0 V
50 0 V
50 0 V
50 0 V
51 0 V
50 0 V
50 0 V
50 0 V
50 0 V
50 0 V
50 0 V
50 0 V
50 0 V
50 0 V
51 0 V
50 0 V
50 0 V
50 0 V
50 0 V
stroke
LT0
LC0 setrgbcolor
LCa setrgbcolor
LCb setrgbcolor
LT0
LC0 setrgbcolor
LCa setrgbcolor
5948 3942 M
591 0 V
1378 4590 M
50 -84 V
50 -81 V
50 -79 V
50 -76 V
50 -73 V
50 -70 V
51 -68 V
50 -64 V
50 -61 V
50 -58 V
50 -56 V
50 -52 V
50 -49 V
50 -47 V
50 -45 V
50 -42 V
51 -40 V
50 -38 V
50 -36 V
50 -34 V
50 -33 V
50 -32 V
50 -30 V
50 -29 V
50 -28 V
50 -27 V
51 -27 V
50 -26 V
50 -25 V
50 -24 V
50 -25 V
50 -23 V
50 -24 V
50 -23 V
50 -22 V
50 -23 V
51 -22 V
50 -22 V
50 -22 V
50 -21 V
50 -22 V
50 -21 V
50 -21 V
50 -21 V
50 -21 V
51 -21 V
50 -21 V
50 -21 V
50 -20 V
50 -21 V
50 -20 V
50 -20 V
50 -20 V
50 -20 V
50 -20 V
51 -20 V
50 -20 V
50 -20 V
50 -20 V
50 -19 V
50 -20 V
50 -19 V
50 -19 V
50 -19 V
50 -20 V
51 -19 V
50 -18 V
50 -19 V
50 -19 V
50 -18 V
50 -19 V
50 -18 V
50 -18 V
50 -19 V
51 -18 V
50 -17 V
50 -18 V
50 -18 V
50 -17 V
50 -17 V
50 -18 V
50 -17 V
50 -17 V
50 -16 V
51 -17 V
50 -16 V
50 -17 V
50 -16 V
50 -16 V
50 -15 V
50 -16 V
50 -15 V
50 -16 V
50 -15 V
51 -15 V
50 -14 V
50 -15 V
50 -14 V
50 -14 V
1.000 UP
stroke
1.000 UL
LT4
LC4 setrgbcolor
LC1 setrgbcolor
LCb setrgbcolor
LT4
LC4 setrgbcolor
LC1 setrgbcolor
5948 3722 M
591 0 V
-591 31 R
0 -62 V
591 62 R
0 -62 V
1378 4600 M
0 43 V
-31 -43 R
62 0 V
-62 43 R
62 0 V
9 -135 R
0 46 V
-31 -46 R
62 0 V
-62 46 R
62 0 V
9 -139 R
0 50 V
-31 -50 R
62 0 V
-62 50 R
62 0 V
9 -176 R
0 55 V
-31 -55 R
62 0 V
-62 55 R
62 0 V
9 13 R
0 52 V
-31 -52 R
62 0 V
-62 52 R
62 0 V
9 -154 R
0 57 V
-31 -57 R
62 0 V
-62 57 R
62 0 V
9 -126 R
0 60 V
-31 -60 R
62 0 V
-62 60 R
62 0 V
9 -127 R
0 63 V
-31 -63 R
62 0 V
-62 63 R
62 0 V
9 -156 R
0 69 V
-31 -69 R
62 0 V
-62 69 R
62 0 V
9 -94 R
0 70 V
-31 -70 R
62 0 V
-62 70 R
62 0 V
9 -72 R
0 70 V
-31 -70 R
62 0 V
-62 70 R
62 0 V
9 -142 R
0 74 V
-31 -74 R
62 0 V
-62 74 R
62 0 V
9 -132 R
0 77 V
-31 -77 R
62 0 V
-62 77 R
62 0 V
9 -142 R
0 82 V
-31 -82 R
62 0 V
-62 82 R
62 0 V
9 -112 R
0 84 V
-31 -84 R
62 0 V
-62 84 R
62 0 V
9 -116 R
0 86 V
-31 -86 R
62 0 V
-62 86 R
62 0 V
9 -246 R
0 98 V
-31 -98 R
62 0 V
stroke 2049 3582 M
-62 98 R
62 0 V
9 78 R
0 86 V
-31 -86 R
62 0 V
-62 86 R
62 0 V
9 -250 R
0 98 V
-31 -98 R
62 0 V
-62 98 R
62 0 V
9 -85 R
0 96 V
-31 -96 R
62 0 V
-62 96 R
62 0 V
9 -126 R
0 99 V
-31 -99 R
62 0 V
-62 99 R
62 0 V
9 -372 R
0 123 V
-31 -123 R
62 0 V
-62 123 R
62 0 V
9 -23 R
0 113 V
-31 -113 R
62 0 V
-62 113 R
62 0 V
9 -18 R
0 105 V
-31 -105 R
62 0 V
-62 105 R
62 0 V
9 -189 R
0 113 V
-31 -113 R
62 0 V
-62 113 R
62 0 V
9 -281 R
0 129 V
-31 -129 R
62 0 V
-62 129 R
62 0 V
9 16 R
0 115 V
-31 -115 R
62 0 V
-62 115 R
62 0 V
9 -151 R
0 118 V
-31 -118 R
62 0 V
-62 118 R
62 0 V
9 -212 R
0 127 V
-31 -127 R
62 0 V
-62 127 R
62 0 V
9 -113 R
0 126 V
-31 -126 R
62 0 V
-62 126 R
62 0 V
9 -112 R
0 125 V
-31 -125 R
62 0 V
-62 125 R
62 0 V
9 -35 R
0 116 V
-31 -116 R
62 0 V
-62 116 R
62 0 V
9 -220 R
0 126 V
-31 -126 R
62 0 V
-62 126 R
62 0 V
9 -287 R
0 143 V
-31 -143 R
62 0 V
-62 143 R
62 0 V
stroke 2729 3258 M
9 -90 R
0 137 V
-31 -137 R
62 0 V
-62 137 R
62 0 V
9 -172 R
0 141 V
-31 -141 R
62 0 V
-62 141 R
62 0 V
9 -65 R
0 133 V
-31 -133 R
62 0 V
-62 133 R
62 0 V
9 -422 R
0 167 V
-31 -167 R
62 0 V
-62 167 R
62 0 V
9 137 R
0 132 V
-31 -132 R
62 0 V
-62 132 R
62 0 V
9 -223 R
0 141 V
-31 -141 R
62 0 V
-62 141 R
62 0 V
9 -169 R
0 145 V
-31 -145 R
62 0 V
-62 145 R
62 0 V
9 -215 R
0 154 V
-31 -154 R
62 0 V
-62 154 R
62 0 V
9 -143 R
0 152 V
-31 -152 R
62 0 V
-62 152 R
62 0 V
9 -241 R
0 163 V
-31 -163 R
62 0 V
-62 163 R
62 0 V
9 -268 R
0 177 V
-31 -177 R
62 0 V
-62 177 R
62 0 V
9 -206 R
0 181 V
-31 -181 R
62 0 V
-62 181 R
62 0 V
9 -196 R
0 183 V
-31 -183 R
62 0 V
-62 183 R
62 0 V
9 -46 R
0 164 V
-31 -164 R
62 0 V
-62 164 R
62 0 V
9 -215 R
0 171 V
-31 -171 R
62 0 V
-62 171 R
62 0 V
9 -305 R
0 191 V
-31 -191 R
62 0 V
-62 191 R
62 0 V
9 -225 R
0 196 V
-31 -196 R
62 0 V
-62 196 R
62 0 V
9 -162 R
0 191 V
stroke 3418 2951 M
-31 -191 R
62 0 V
-62 191 R
62 0 V
9 41 R
0 158 V
-31 -158 R
62 0 V
-62 158 R
62 0 V
9 -583 R
0 222 V
-31 -222 R
62 0 V
-62 222 R
62 0 V
9 214 R
0 157 V
-31 -157 R
62 0 V
-62 157 R
62 0 V
9 -308 R
0 177 V
-31 -177 R
62 0 V
-62 177 R
62 0 V
9 -534 R
0 235 V
-31 -235 R
62 0 V
-62 235 R
62 0 V
9 -163 R
0 222 V
-31 -222 R
62 0 V
-62 222 R
62 0 V
9 -199 R
0 217 V
-31 -217 R
62 0 V
-62 217 R
62 0 V
9 -240 R
0 222 V
-31 -222 R
62 0 V
-62 222 R
62 0 V
9 -29 R
0 191 V
-31 -191 R
62 0 V
-62 191 R
62 0 V
9 -143 R
0 183 V
-31 -183 R
62 0 V
-62 183 R
62 0 V
9 -248 R
0 193 V
-31 -193 R
62 0 V
-62 193 R
62 0 V
9 -84 R
0 177 V
-31 -177 R
62 0 V
-62 177 R
62 0 V
9 -377 R
0 207 V
-31 -207 R
62 0 V
-62 207 R
62 0 V
9 -248 R
0 214 V
-31 -214 R
62 0 V
-62 214 R
62 0 V
9 -214 R
0 214 V
-31 -214 R
62 0 V
-62 214 R
62 0 V
9 -193 R
0 210 V
-31 -210 R
62 0 V
-62 210 R
62 0 V
9 -458 R
0 256 V
-31 -256 R
62 0 V
stroke 4129 2384 M
-62 256 R
62 0 V
9 -287 R
0 262 V
-31 -262 R
62 0 V
-62 262 R
62 0 V
9 -120 R
0 235 V
-31 -235 R
62 0 V
-62 235 R
62 0 V
9 -346 R
0 256 V
-31 -256 R
62 0 V
-62 256 R
62 0 V
9 -198 R
0 244 V
-31 -244 R
62 0 V
-62 244 R
62 0 V
9 -54 R
0 210 V
-31 -210 R
62 0 V
-62 210 R
62 0 V
9 -252 R
0 217 V
-31 -217 R
62 0 V
-62 217 R
62 0 V
9 31 R
0 179 V
-31 -179 R
62 0 V
-62 179 R
62 0 V
9 -603 R
0 249 V
-31 -249 R
62 0 V
-62 249 R
62 0 V
9 -168 R
0 235 V
-31 -235 R
62 0 V
-62 235 R
62 0 V
9 -210 R
0 230 V
-31 -230 R
62 0 V
-62 230 R
62 0 V
9 -98 R
0 207 V
-31 -207 R
62 0 V
-62 207 R
62 0 V
9 -539 R
0 268 V
-31 -268 R
62 0 V
-62 268 R
62 0 V
9 64 R
0 207 V
-31 -207 R
62 0 V
-62 207 R
62 0 V
9 -691 R
0 301 V
-31 -301 R
62 0 V
-62 301 R
62 0 V
9 -501 R
0 350 V
-31 -350 R
62 0 V
-62 350 R
62 0 V
9 -194 R
0 311 V
-31 -311 R
62 0 V
-62 311 R
62 0 V
9 -149 R
0 275 V
-31 -275 R
62 0 V
-62 275 R
62 0 V
stroke 4809 2561 M
9 -119 R
0 244 V
-31 -244 R
62 0 V
-62 244 R
62 0 V
9 -610 R
0 323 V
-31 -323 R
62 0 V
-62 323 R
62 0 V
9 -639 R
0 408 V
-31 -408 R
62 0 V
-62 408 R
62 0 V
9 81 R
0 283 V
-31 -283 R
62 0 V
-62 283 R
62 0 V
9 -179 R
0 262 V
-31 -262 R
62 0 V
-62 262 R
62 0 V
9 -295 R
0 268 V
-31 -268 R
62 0 V
-62 268 R
62 0 V
9 -93 R
0 235 V
-31 -235 R
62 0 V
-62 235 R
62 0 V
9 -706 R
0 336 V
-31 -336 R
62 0 V
-62 336 R
62 0 V
9 -236 R
0 311 V
-31 -311 R
62 0 V
-62 311 R
62 0 V
9 -225 R
0 292 V
-31 -292 R
62 0 V
-62 292 R
62 0 V
9 -292 R
0 292 V
-31 -292 R
62 0 V
-62 292 R
62 0 V
10 -665 R
0 386 V
-31 -386 R
62 0 V
-62 386 R
62 0 V
8 -463 R
0 408 V
-31 -408 R
62 0 V
-62 408 R
62 0 V
9 -44 R
0 311 V
-31 -311 R
62 0 V
-62 311 R
62 0 V
9 -529 R
0 366 V
-31 -366 R
62 0 V
-62 366 R
62 0 V
9 -304 R
0 350 V
-31 -350 R
62 0 V
-62 350 R
62 0 V
9 -294 R
0 336 V
-31 -336 R
62 0 V
-62 336 R
62 0 V
9 -192 R
0 301 V
stroke 5498 2469 M
-31 -301 R
62 0 V
-62 301 R
62 0 V
9 -632 R
0 386 V
-31 -386 R
62 0 V
-62 386 R
62 0 V
9 -551 R
0 436 V
-31 -436 R
62 0 V
-62 436 R
62 0 V
9 16 R
0 311 V
-31 -311 R
62 0 V
-62 311 R
62 0 V
9 -311 R
0 311 V
-31 -311 R
62 0 V
-62 311 R
62 0 V
9 -467 R
0 350 V
-31 -350 R
62 0 V
-62 350 R
62 0 V
9 -108 R
0 292 V
-31 -292 R
62 0 V
-62 292 R
62 0 V
10 -830 R
0 436 V
-31 -436 R
62 0 V
-62 436 R
62 0 V
9 -805 R
0 567 V
-31 -567 R
62 0 V
-62 567 R
62 0 V
9 254 R
0 311 V
-31 -311 R
62 0 V
-62 311 R
62 0 V
9 -225 R
0 292 V
-31 -292 R
62 0 V
-62 292 R
62 0 V
8 -830 R
0 436 V
-31 -436 R
62 0 V
-62 436 R
62 0 V
9 -657 R
0 511 V
-31 -511 R
62 0 V
-62 511 R
62 0 V
9 -202 R
0 408 V
-31 -408 R
62 0 V
-62 408 R
62 0 V
9 -92 R
0 323 V
-31 -323 R
62 0 V
-62 323 R
62 0 V
9 -639 R
0 408 V
-31 -408 R
62 0 V
-62 408 R
62 0 V
9 -1464 R
0 408 V
6107 704 M
62 0 V
-62 408 R
62 0 V
9 560 R
0 436 V
-31 -436 R
62 0 V
stroke 6209 1672 M
-62 436 R
62 0 V
9 -436 R
0 436 V
-31 -436 R
62 0 V
-62 436 R
62 0 V
9 -1264 R
0 776 V
6227 844 M
62 0 V
-62 776 R
62 0 V
9 404 R
0 336 V
-31 -336 R
62 0 V
-62 336 R
62 0 V
9 -688 R
0 436 V
-31 -436 R
62 0 V
-62 436 R
62 0 V
1378 4622 Pls
1418 4531 Pls
1458 4441 Pls
1498 4317 Pls
1538 4384 Pls
1578 4284 Pls
1618 4217 Pls
1658 4151 Pls
1698 4062 Pls
1738 4037 Pls
1778 4035 Pls
1818 3965 Pls
1858 3909 Pls
1898 3847 Pls
1938 3818 Pls
1978 3787 Pls
2018 3633 Pls
2058 3802 Pls
2098 3645 Pls
2138 3657 Pls
2178 3629 Pls
2218 3369 Pls
2258 3463 Pls
2298 3554 Pls
2338 3474 Pls
2378 3315 Pls
2418 3452 Pls
2458 3418 Pls
2498 3329 Pls
2538 3343 Pls
2578 3356 Pls
2618 3441 Pls
2658 3343 Pls
2698 3191 Pls
2738 3241 Pls
2778 3208 Pls
2818 3279 Pls
2858 3010 Pls
2898 3294 Pls
2938 3208 Pls
2978 3182 Pls
3018 3117 Pls
3058 3127 Pls
3098 3044 Pls
3138 2947 Pls
3178 2921 Pls
3218 2907 Pls
3258 3033 Pls
3298 2985 Pls
3338 2863 Pls
3378 2832 Pls
3418 2863 Pls
3458 3076 Pls
3498 2688 Pls
3538 3087 Pls
3578 2947 Pls
3618 2624 Pls
3658 2688 Pls
3698 2708 Pls
3738 2688 Pls
3778 2863 Pls
3818 2907 Pls
3858 2848 Pls
3898 2947 Pls
3938 2765 Pls
3978 2728 Pls
4018 2728 Pls
4058 2746 Pls
4098 2526 Pls
4138 2498 Pls
4178 2624 Pls
4218 2526 Pls
4258 2577 Pls
4298 2746 Pls
4338 2708 Pls
4378 2934 Pls
4418 2552 Pls
4458 2624 Pls
4498 2646 Pls
4538 2765 Pls
4578 2469 Pls
4618 2765 Pls
4658 2338 Pls
4698 2168 Pls
4738 2300 Pls
4778 2439 Pls
4818 2577 Pls
4858 2259 Pls
4898 1999 Pls
4938 2407 Pls
4978 2498 Pls
5018 2469 Pls
5058 2624 Pls
5098 2216 Pls
5138 2300 Pls
5178 2374 Pls
5218 2374 Pls
5259 2061 Pls
5298 1999 Pls
5338 2300 Pls
5378 2117 Pls
5418 2168 Pls
5458 2216 Pls
5498 2338 Pls
5538 2061 Pls
5578 1929 Pls
5618 2300 Pls
5658 2300 Pls
5698 2168 Pls
5738 2374 Pls
5779 1929 Pls
5819 1653 Pls
5859 2300 Pls
5899 2374 Pls
5938 1929 Pls
5978 1760 Pls
6018 1999 Pls
6058 2259 Pls
6098 1999 Pls
6138 704 Pls
6178 1929 Pls
6218 1929 Pls
6258 1351 Pls
6298 2216 Pls
6338 1929 Pls
6243 3722 Pls
1.000 UL
LTb
LCb setrgbcolor
1210 4775 N
0 -4071 V
5593 0 V
0 4071 V
-5593 0 V
Z stroke
1.000 UP
1.000 UL
LTb
stroke
grestore
end
showpage
%%Trailer
