%!PS-Adobe-2.0 EPSF-2.0
%%Title: 8min.tex
%%Creator: gnuplot 4.4 patchlevel 3
%%CreationDate: Mon Apr  1 14:39:57 2013
%%DocumentFonts: 
%%BoundingBox: 50 50 410 302
%%EndComments
%%BeginProlog
/gnudict 256 dict def
gnudict begin
%
% The following true/false flags may be edited by hand if desired.
% The unit line width and grayscale image gamma correction may also be changed.
%
/Color true def
/Blacktext false def
/Solid false def
/Dashlength 1 def
/Landscape false def
/Level1 false def
/Rounded false def
/ClipToBoundingBox false def
/TransparentPatterns false def
/gnulinewidth 5.000 def
/userlinewidth gnulinewidth def
/Gamma 1.0 def
%
/vshift -73 def
/dl1 {
  10.0 Dashlength mul mul
  Rounded { currentlinewidth 0.75 mul sub dup 0 le { pop 0.01 } if } if
} def
/dl2 {
  10.0 Dashlength mul mul
  Rounded { currentlinewidth 0.75 mul add } if
} def
/hpt_ 31.5 def
/vpt_ 31.5 def
/hpt hpt_ def
/vpt vpt_ def
Level1 {} {
/SDict 10 dict def
systemdict /pdfmark known not {
  userdict /pdfmark systemdict /cleartomark get put
} if
SDict begin [
  /Title (8min.tex)
  /Subject (gnuplot plot)
  /Creator (gnuplot 4.4 patchlevel 3)
  /Author (julius)
%  /Producer (gnuplot)
%  /Keywords ()
  /CreationDate (Mon Apr  1 14:39:57 2013)
  /DOCINFO pdfmark
end
} ifelse
/doclip {
  ClipToBoundingBox {
    newpath 50 50 moveto 410 50 lineto 410 302 lineto 50 302 lineto closepath
    clip
  } if
} def
%
% Gnuplot Prolog Version 4.4 (August 2010)
%
%/SuppressPDFMark true def
%
/M {moveto} bind def
/L {lineto} bind def
/R {rmoveto} bind def
/V {rlineto} bind def
/N {newpath moveto} bind def
/Z {closepath} bind def
/C {setrgbcolor} bind def
/f {rlineto fill} bind def
/g {setgray} bind def
/Gshow {show} def   % May be redefined later in the file to support UTF-8
/vpt2 vpt 2 mul def
/hpt2 hpt 2 mul def
/Lshow {currentpoint stroke M 0 vshift R 
	Blacktext {gsave 0 setgray show grestore} {show} ifelse} def
/Rshow {currentpoint stroke M dup stringwidth pop neg vshift R
	Blacktext {gsave 0 setgray show grestore} {show} ifelse} def
/Cshow {currentpoint stroke M dup stringwidth pop -2 div vshift R 
	Blacktext {gsave 0 setgray show grestore} {show} ifelse} def
/UP {dup vpt_ mul /vpt exch def hpt_ mul /hpt exch def
  /hpt2 hpt 2 mul def /vpt2 vpt 2 mul def} def
/DL {Color {setrgbcolor Solid {pop []} if 0 setdash}
 {pop pop pop 0 setgray Solid {pop []} if 0 setdash} ifelse} def
/BL {stroke userlinewidth 2 mul setlinewidth
	Rounded {1 setlinejoin 1 setlinecap} if} def
/AL {stroke userlinewidth 2 div setlinewidth
	Rounded {1 setlinejoin 1 setlinecap} if} def
/UL {dup gnulinewidth mul /userlinewidth exch def
	dup 1 lt {pop 1} if 10 mul /udl exch def} def
/PL {stroke userlinewidth setlinewidth
	Rounded {1 setlinejoin 1 setlinecap} if} def
3.8 setmiterlimit
% Default Line colors
/LCw {1 1 1} def
/LCb {0 0 0} def
/LCa {0 0 0} def
/LC0 {1 0 0} def
/LC1 {0 1 0} def
/LC2 {0 0 1} def
/LC3 {1 0 1} def
/LC4 {0 1 1} def
/LC5 {1 1 0} def
/LC6 {0 0 0} def
/LC7 {1 0.3 0} def
/LC8 {0.5 0.5 0.5} def
% Default Line Types
/LTw {PL [] 1 setgray} def
/LTb {BL [] LCb DL} def
/LTa {AL [1 udl mul 2 udl mul] 0 setdash LCa setrgbcolor} def
/LT0 {PL [] LC0 DL} def
/LT1 {PL [4 dl1 2 dl2] LC1 DL} def
/LT2 {PL [2 dl1 3 dl2] LC2 DL} def
/LT3 {PL [1 dl1 1.5 dl2] LC3 DL} def
/LT4 {PL [6 dl1 2 dl2 1 dl1 2 dl2] LC4 DL} def
/LT5 {PL [3 dl1 3 dl2 1 dl1 3 dl2] LC5 DL} def
/LT6 {PL [2 dl1 2 dl2 2 dl1 6 dl2] LC6 DL} def
/LT7 {PL [1 dl1 2 dl2 6 dl1 2 dl2 1 dl1 2 dl2] LC7 DL} def
/LT8 {PL [2 dl1 2 dl2 2 dl1 2 dl2 2 dl1 2 dl2 2 dl1 4 dl2] LC8 DL} def
/Pnt {stroke [] 0 setdash gsave 1 setlinecap M 0 0 V stroke grestore} def
/Dia {stroke [] 0 setdash 2 copy vpt add M
  hpt neg vpt neg V hpt vpt neg V
  hpt vpt V hpt neg vpt V closepath stroke
  Pnt} def
/Pls {stroke [] 0 setdash vpt sub M 0 vpt2 V
  currentpoint stroke M
  hpt neg vpt neg R hpt2 0 V stroke
 } def
/Box {stroke [] 0 setdash 2 copy exch hpt sub exch vpt add M
  0 vpt2 neg V hpt2 0 V 0 vpt2 V
  hpt2 neg 0 V closepath stroke
  Pnt} def
/Crs {stroke [] 0 setdash exch hpt sub exch vpt add M
  hpt2 vpt2 neg V currentpoint stroke M
  hpt2 neg 0 R hpt2 vpt2 V stroke} def
/TriU {stroke [] 0 setdash 2 copy vpt 1.12 mul add M
  hpt neg vpt -1.62 mul V
  hpt 2 mul 0 V
  hpt neg vpt 1.62 mul V closepath stroke
  Pnt} def
/Star {2 copy Pls Crs} def
/BoxF {stroke [] 0 setdash exch hpt sub exch vpt add M
  0 vpt2 neg V hpt2 0 V 0 vpt2 V
  hpt2 neg 0 V closepath fill} def
/TriUF {stroke [] 0 setdash vpt 1.12 mul add M
  hpt neg vpt -1.62 mul V
  hpt 2 mul 0 V
  hpt neg vpt 1.62 mul V closepath fill} def
/TriD {stroke [] 0 setdash 2 copy vpt 1.12 mul sub M
  hpt neg vpt 1.62 mul V
  hpt 2 mul 0 V
  hpt neg vpt -1.62 mul V closepath stroke
  Pnt} def
/TriDF {stroke [] 0 setdash vpt 1.12 mul sub M
  hpt neg vpt 1.62 mul V
  hpt 2 mul 0 V
  hpt neg vpt -1.62 mul V closepath fill} def
/DiaF {stroke [] 0 setdash vpt add M
  hpt neg vpt neg V hpt vpt neg V
  hpt vpt V hpt neg vpt V closepath fill} def
/Pent {stroke [] 0 setdash 2 copy gsave
  translate 0 hpt M 4 {72 rotate 0 hpt L} repeat
  closepath stroke grestore Pnt} def
/PentF {stroke [] 0 setdash gsave
  translate 0 hpt M 4 {72 rotate 0 hpt L} repeat
  closepath fill grestore} def
/Circle {stroke [] 0 setdash 2 copy
  hpt 0 360 arc stroke Pnt} def
/CircleF {stroke [] 0 setdash hpt 0 360 arc fill} def
/C0 {BL [] 0 setdash 2 copy moveto vpt 90 450 arc} bind def
/C1 {BL [] 0 setdash 2 copy moveto
	2 copy vpt 0 90 arc closepath fill
	vpt 0 360 arc closepath} bind def
/C2 {BL [] 0 setdash 2 copy moveto
	2 copy vpt 90 180 arc closepath fill
	vpt 0 360 arc closepath} bind def
/C3 {BL [] 0 setdash 2 copy moveto
	2 copy vpt 0 180 arc closepath fill
	vpt 0 360 arc closepath} bind def
/C4 {BL [] 0 setdash 2 copy moveto
	2 copy vpt 180 270 arc closepath fill
	vpt 0 360 arc closepath} bind def
/C5 {BL [] 0 setdash 2 copy moveto
	2 copy vpt 0 90 arc
	2 copy moveto
	2 copy vpt 180 270 arc closepath fill
	vpt 0 360 arc} bind def
/C6 {BL [] 0 setdash 2 copy moveto
	2 copy vpt 90 270 arc closepath fill
	vpt 0 360 arc closepath} bind def
/C7 {BL [] 0 setdash 2 copy moveto
	2 copy vpt 0 270 arc closepath fill
	vpt 0 360 arc closepath} bind def
/C8 {BL [] 0 setdash 2 copy moveto
	2 copy vpt 270 360 arc closepath fill
	vpt 0 360 arc closepath} bind def
/C9 {BL [] 0 setdash 2 copy moveto
	2 copy vpt 270 450 arc closepath fill
	vpt 0 360 arc closepath} bind def
/C10 {BL [] 0 setdash 2 copy 2 copy moveto vpt 270 360 arc closepath fill
	2 copy moveto
	2 copy vpt 90 180 arc closepath fill
	vpt 0 360 arc closepath} bind def
/C11 {BL [] 0 setdash 2 copy moveto
	2 copy vpt 0 180 arc closepath fill
	2 copy moveto
	2 copy vpt 270 360 arc closepath fill
	vpt 0 360 arc closepath} bind def
/C12 {BL [] 0 setdash 2 copy moveto
	2 copy vpt 180 360 arc closepath fill
	vpt 0 360 arc closepath} bind def
/C13 {BL [] 0 setdash 2 copy moveto
	2 copy vpt 0 90 arc closepath fill
	2 copy moveto
	2 copy vpt 180 360 arc closepath fill
	vpt 0 360 arc closepath} bind def
/C14 {BL [] 0 setdash 2 copy moveto
	2 copy vpt 90 360 arc closepath fill
	vpt 0 360 arc} bind def
/C15 {BL [] 0 setdash 2 copy vpt 0 360 arc closepath fill
	vpt 0 360 arc closepath} bind def
/Rec {newpath 4 2 roll moveto 1 index 0 rlineto 0 exch rlineto
	neg 0 rlineto closepath} bind def
/Square {dup Rec} bind def
/Bsquare {vpt sub exch vpt sub exch vpt2 Square} bind def
/S0 {BL [] 0 setdash 2 copy moveto 0 vpt rlineto BL Bsquare} bind def
/S1 {BL [] 0 setdash 2 copy vpt Square fill Bsquare} bind def
/S2 {BL [] 0 setdash 2 copy exch vpt sub exch vpt Square fill Bsquare} bind def
/S3 {BL [] 0 setdash 2 copy exch vpt sub exch vpt2 vpt Rec fill Bsquare} bind def
/S4 {BL [] 0 setdash 2 copy exch vpt sub exch vpt sub vpt Square fill Bsquare} bind def
/S5 {BL [] 0 setdash 2 copy 2 copy vpt Square fill
	exch vpt sub exch vpt sub vpt Square fill Bsquare} bind def
/S6 {BL [] 0 setdash 2 copy exch vpt sub exch vpt sub vpt vpt2 Rec fill Bsquare} bind def
/S7 {BL [] 0 setdash 2 copy exch vpt sub exch vpt sub vpt vpt2 Rec fill
	2 copy vpt Square fill Bsquare} bind def
/S8 {BL [] 0 setdash 2 copy vpt sub vpt Square fill Bsquare} bind def
/S9 {BL [] 0 setdash 2 copy vpt sub vpt vpt2 Rec fill Bsquare} bind def
/S10 {BL [] 0 setdash 2 copy vpt sub vpt Square fill 2 copy exch vpt sub exch vpt Square fill
	Bsquare} bind def
/S11 {BL [] 0 setdash 2 copy vpt sub vpt Square fill 2 copy exch vpt sub exch vpt2 vpt Rec fill
	Bsquare} bind def
/S12 {BL [] 0 setdash 2 copy exch vpt sub exch vpt sub vpt2 vpt Rec fill Bsquare} bind def
/S13 {BL [] 0 setdash 2 copy exch vpt sub exch vpt sub vpt2 vpt Rec fill
	2 copy vpt Square fill Bsquare} bind def
/S14 {BL [] 0 setdash 2 copy exch vpt sub exch vpt sub vpt2 vpt Rec fill
	2 copy exch vpt sub exch vpt Square fill Bsquare} bind def
/S15 {BL [] 0 setdash 2 copy Bsquare fill Bsquare} bind def
/D0 {gsave translate 45 rotate 0 0 S0 stroke grestore} bind def
/D1 {gsave translate 45 rotate 0 0 S1 stroke grestore} bind def
/D2 {gsave translate 45 rotate 0 0 S2 stroke grestore} bind def
/D3 {gsave translate 45 rotate 0 0 S3 stroke grestore} bind def
/D4 {gsave translate 45 rotate 0 0 S4 stroke grestore} bind def
/D5 {gsave translate 45 rotate 0 0 S5 stroke grestore} bind def
/D6 {gsave translate 45 rotate 0 0 S6 stroke grestore} bind def
/D7 {gsave translate 45 rotate 0 0 S7 stroke grestore} bind def
/D8 {gsave translate 45 rotate 0 0 S8 stroke grestore} bind def
/D9 {gsave translate 45 rotate 0 0 S9 stroke grestore} bind def
/D10 {gsave translate 45 rotate 0 0 S10 stroke grestore} bind def
/D11 {gsave translate 45 rotate 0 0 S11 stroke grestore} bind def
/D12 {gsave translate 45 rotate 0 0 S12 stroke grestore} bind def
/D13 {gsave translate 45 rotate 0 0 S13 stroke grestore} bind def
/D14 {gsave translate 45 rotate 0 0 S14 stroke grestore} bind def
/D15 {gsave translate 45 rotate 0 0 S15 stroke grestore} bind def
/DiaE {stroke [] 0 setdash vpt add M
  hpt neg vpt neg V hpt vpt neg V
  hpt vpt V hpt neg vpt V closepath stroke} def
/BoxE {stroke [] 0 setdash exch hpt sub exch vpt add M
  0 vpt2 neg V hpt2 0 V 0 vpt2 V
  hpt2 neg 0 V closepath stroke} def
/TriUE {stroke [] 0 setdash vpt 1.12 mul add M
  hpt neg vpt -1.62 mul V
  hpt 2 mul 0 V
  hpt neg vpt 1.62 mul V closepath stroke} def
/TriDE {stroke [] 0 setdash vpt 1.12 mul sub M
  hpt neg vpt 1.62 mul V
  hpt 2 mul 0 V
  hpt neg vpt -1.62 mul V closepath stroke} def
/PentE {stroke [] 0 setdash gsave
  translate 0 hpt M 4 {72 rotate 0 hpt L} repeat
  closepath stroke grestore} def
/CircE {stroke [] 0 setdash 
  hpt 0 360 arc stroke} def
/Opaque {gsave closepath 1 setgray fill grestore 0 setgray closepath} def
/DiaW {stroke [] 0 setdash vpt add M
  hpt neg vpt neg V hpt vpt neg V
  hpt vpt V hpt neg vpt V Opaque stroke} def
/BoxW {stroke [] 0 setdash exch hpt sub exch vpt add M
  0 vpt2 neg V hpt2 0 V 0 vpt2 V
  hpt2 neg 0 V Opaque stroke} def
/TriUW {stroke [] 0 setdash vpt 1.12 mul add M
  hpt neg vpt -1.62 mul V
  hpt 2 mul 0 V
  hpt neg vpt 1.62 mul V Opaque stroke} def
/TriDW {stroke [] 0 setdash vpt 1.12 mul sub M
  hpt neg vpt 1.62 mul V
  hpt 2 mul 0 V
  hpt neg vpt -1.62 mul V Opaque stroke} def
/PentW {stroke [] 0 setdash gsave
  translate 0 hpt M 4 {72 rotate 0 hpt L} repeat
  Opaque stroke grestore} def
/CircW {stroke [] 0 setdash 
  hpt 0 360 arc Opaque stroke} def
/BoxFill {gsave Rec 1 setgray fill grestore} def
/Density {
  /Fillden exch def
  currentrgbcolor
  /ColB exch def /ColG exch def /ColR exch def
  /ColR ColR Fillden mul Fillden sub 1 add def
  /ColG ColG Fillden mul Fillden sub 1 add def
  /ColB ColB Fillden mul Fillden sub 1 add def
  ColR ColG ColB setrgbcolor} def
/BoxColFill {gsave Rec PolyFill} def
/PolyFill {gsave Density fill grestore grestore} def
/h {rlineto rlineto rlineto gsave closepath fill grestore} bind def
%
% PostScript Level 1 Pattern Fill routine for rectangles
% Usage: x y w h s a XX PatternFill
%	x,y = lower left corner of box to be filled
%	w,h = width and height of box
%	  a = angle in degrees between lines and x-axis
%	 XX = 0/1 for no/yes cross-hatch
%
/PatternFill {gsave /PFa [ 9 2 roll ] def
  PFa 0 get PFa 2 get 2 div add PFa 1 get PFa 3 get 2 div add translate
  PFa 2 get -2 div PFa 3 get -2 div PFa 2 get PFa 3 get Rec
  gsave 1 setgray fill grestore clip
  currentlinewidth 0.5 mul setlinewidth
  /PFs PFa 2 get dup mul PFa 3 get dup mul add sqrt def
  0 0 M PFa 5 get rotate PFs -2 div dup translate
  0 1 PFs PFa 4 get div 1 add floor cvi
	{PFa 4 get mul 0 M 0 PFs V} for
  0 PFa 6 get ne {
	0 1 PFs PFa 4 get div 1 add floor cvi
	{PFa 4 get mul 0 2 1 roll M PFs 0 V} for
 } if
  stroke grestore} def
%
/languagelevel where
 {pop languagelevel} {1} ifelse
 2 lt
	{/InterpretLevel1 true def}
	{/InterpretLevel1 Level1 def}
 ifelse
%
% PostScript level 2 pattern fill definitions
%
/Level2PatternFill {
/Tile8x8 {/PaintType 2 /PatternType 1 /TilingType 1 /BBox [0 0 8 8] /XStep 8 /YStep 8}
	bind def
/KeepColor {currentrgbcolor [/Pattern /DeviceRGB] setcolorspace} bind def
<< Tile8x8
 /PaintProc {0.5 setlinewidth pop 0 0 M 8 8 L 0 8 M 8 0 L stroke} 
>> matrix makepattern
/Pat1 exch def
<< Tile8x8
 /PaintProc {0.5 setlinewidth pop 0 0 M 8 8 L 0 8 M 8 0 L stroke
	0 4 M 4 8 L 8 4 L 4 0 L 0 4 L stroke}
>> matrix makepattern
/Pat2 exch def
<< Tile8x8
 /PaintProc {0.5 setlinewidth pop 0 0 M 0 8 L
	8 8 L 8 0 L 0 0 L fill}
>> matrix makepattern
/Pat3 exch def
<< Tile8x8
 /PaintProc {0.5 setlinewidth pop -4 8 M 8 -4 L
	0 12 M 12 0 L stroke}
>> matrix makepattern
/Pat4 exch def
<< Tile8x8
 /PaintProc {0.5 setlinewidth pop -4 0 M 8 12 L
	0 -4 M 12 8 L stroke}
>> matrix makepattern
/Pat5 exch def
<< Tile8x8
 /PaintProc {0.5 setlinewidth pop -2 8 M 4 -4 L
	0 12 M 8 -4 L 4 12 M 10 0 L stroke}
>> matrix makepattern
/Pat6 exch def
<< Tile8x8
 /PaintProc {0.5 setlinewidth pop -2 0 M 4 12 L
	0 -4 M 8 12 L 4 -4 M 10 8 L stroke}
>> matrix makepattern
/Pat7 exch def
<< Tile8x8
 /PaintProc {0.5 setlinewidth pop 8 -2 M -4 4 L
	12 0 M -4 8 L 12 4 M 0 10 L stroke}
>> matrix makepattern
/Pat8 exch def
<< Tile8x8
 /PaintProc {0.5 setlinewidth pop 0 -2 M 12 4 L
	-4 0 M 12 8 L -4 4 M 8 10 L stroke}
>> matrix makepattern
/Pat9 exch def
/Pattern1 {PatternBgnd KeepColor Pat1 setpattern} bind def
/Pattern2 {PatternBgnd KeepColor Pat2 setpattern} bind def
/Pattern3 {PatternBgnd KeepColor Pat3 setpattern} bind def
/Pattern4 {PatternBgnd KeepColor Landscape {Pat5} {Pat4} ifelse setpattern} bind def
/Pattern5 {PatternBgnd KeepColor Landscape {Pat4} {Pat5} ifelse setpattern} bind def
/Pattern6 {PatternBgnd KeepColor Landscape {Pat9} {Pat6} ifelse setpattern} bind def
/Pattern7 {PatternBgnd KeepColor Landscape {Pat8} {Pat7} ifelse setpattern} bind def
} def
%
%
%End of PostScript Level 2 code
%
/PatternBgnd {
  TransparentPatterns {} {gsave 1 setgray fill grestore} ifelse
} def
%
% Substitute for Level 2 pattern fill codes with
% grayscale if Level 2 support is not selected.
%
/Level1PatternFill {
/Pattern1 {0.250 Density} bind def
/Pattern2 {0.500 Density} bind def
/Pattern3 {0.750 Density} bind def
/Pattern4 {0.125 Density} bind def
/Pattern5 {0.375 Density} bind def
/Pattern6 {0.625 Density} bind def
/Pattern7 {0.875 Density} bind def
} def
%
% Now test for support of Level 2 code
%
Level1 {Level1PatternFill} {Level2PatternFill} ifelse
%
/Symbol-Oblique /Symbol findfont [1 0 .167 1 0 0] makefont
dup length dict begin {1 index /FID eq {pop pop} {def} ifelse} forall
currentdict end definefont pop
end
%%EndProlog
gnudict begin
gsave
doclip
50 50 translate
0.050 0.050 scale
0 setgray
newpath
1.000 UL
LTb
LCb setrgbcolor
1078 704 M
63 0 V
5662 0 R
-63 0 V
stroke
LTb
1078 1213 M
63 0 V
5662 0 R
-63 0 V
1078 1722 M
63 0 V
5662 0 R
-63 0 V
1078 2231 M
63 0 V
5662 0 R
-63 0 V
1078 2740 M
63 0 V
5662 0 R
-63 0 V
1078 3248 M
63 0 V
5662 0 R
-63 0 V
1078 3757 M
63 0 V
5662 0 R
-63 0 V
1078 4266 M
63 0 V
5662 0 R
-63 0 V
1078 4775 M
63 0 V
5662 0 R
-63 0 V
1078 704 M
0 63 V
0 4008 R
0 -63 V
1896 704 M
0 63 V
0 4008 R
0 -63 V
2714 704 M
0 63 V
0 4008 R
0 -63 V
3532 704 M
0 63 V
0 4008 R
0 -63 V
4349 704 M
0 63 V
0 4008 R
0 -63 V
5167 704 M
0 63 V
0 4008 R
0 -63 V
5985 704 M
0 63 V
0 4008 R
0 -63 V
6803 704 M
0 63 V
0 4008 R
0 -63 V
stroke
1078 4775 N
0 -4071 V
5725 0 V
0 4071 V
-5725 0 V
Z stroke
1.000 UP
1.000 UL
LTb
2.000 UL
LT0
LC0 setrgbcolor
LCb setrgbcolor
LT0
LC0 setrgbcolor
5948 4602 M
591 0 V
1250 717 M
51 0 V
51 0 V
52 0 V
51 0 V
51 0 V
51 0 V
52 0 V
51 0 V
51 0 V
52 0 V
51 0 V
51 0 V
51 0 V
52 0 V
51 0 V
51 0 V
52 0 V
51 0 V
51 0 V
51 0 V
52 0 V
51 0 V
51 0 V
52 0 V
51 0 V
51 0 V
51 0 V
52 0 V
51 0 V
51 0 V
52 0 V
51 0 V
51 0 V
51 0 V
52 0 V
51 0 V
51 0 V
52 0 V
51 0 V
51 0 V
51 0 V
52 0 V
51 0 V
51 0 V
52 0 V
51 0 V
51 0 V
51 0 V
52 0 V
51 0 V
51 0 V
52 0 V
51 0 V
51 0 V
51 0 V
52 0 V
51 0 V
51 0 V
52 0 V
51 0 V
51 0 V
51 0 V
52 0 V
51 0 V
51 0 V
52 0 V
51 0 V
51 0 V
51 0 V
52 0 V
51 0 V
51 0 V
52 0 V
51 0 V
51 0 V
51 0 V
52 0 V
51 0 V
51 0 V
52 0 V
51 0 V
51 0 V
51 0 V
52 0 V
51 0 V
51 0 V
52 0 V
51 0 V
51 0 V
51 0 V
52 0 V
51 0 V
51 0 V
52 0 V
51 0 V
51 0 V
51 0 V
52 0 V
51 0 V
stroke
LT0
LC2 setrgbcolor
LCb setrgbcolor
LT0
LC0 setrgbcolor
LC2 setrgbcolor
5948 4382 M
591 0 V
1250 1640 M
51 -34 V
51 -32 V
52 -32 V
51 -30 V
51 -29 V
51 -28 V
52 -27 V
51 -27 V
51 -25 V
52 -24 V
51 -23 V
51 -23 V
51 -21 V
52 -21 V
51 -20 V
51 -20 V
52 -18 V
51 -18 V
51 -17 V
51 -17 V
52 -16 V
51 -16 V
51 -14 V
52 -15 V
51 -14 V
51 -13 V
51 -13 V
52 -12 V
51 -12 V
51 -11 V
52 -11 V
51 -11 V
51 -10 V
51 -10 V
52 -10 V
51 -9 V
51 -9 V
52 -8 V
51 -8 V
51 -8 V
51 -8 V
52 -7 V
51 -7 V
51 -7 V
52 -7 V
51 -6 V
51 -6 V
51 -6 V
52 -5 V
51 -6 V
51 -5 V
52 -5 V
51 -5 V
51 -5 V
51 -4 V
52 -4 V
51 -5 V
51 -4 V
52 -3 V
51 -4 V
51 -4 V
51 -3 V
52 -4 V
51 -3 V
51 -3 V
52 -3 V
51 -3 V
51 -3 V
51 -2 V
52 -3 V
51 -2 V
51 -3 V
52 -2 V
51 -2 V
51 -2 V
51 -2 V
52 -2 V
51 -2 V
51 -2 V
52 -2 V
51 -1 V
51 -2 V
51 -2 V
52 -1 V
51 -2 V
51 -1 V
52 -1 V
51 -2 V
51 -1 V
51 -1 V
52 -1 V
51 -2 V
51 -1 V
52 -1 V
51 -1 V
51 -1 V
51 -1 V
52 0 V
51 -1 V
stroke
LT0
LC0 setrgbcolor
LC3 setrgbcolor
LCb setrgbcolor
LT0
LC0 setrgbcolor
LC3 setrgbcolor
5948 4162 M
591 0 V
1250 3499 M
51 -459 V
51 -383 V
52 -320 V
51 -268 V
51 -223 V
51 -186 V
52 -156 V
51 -130 V
51 -108 V
52 -91 V
51 -76 V
51 -63 V
51 -52 V
52 -44 V
51 -37 V
51 -31 V
52 -26 V
51 -21 V
51 -18 V
51 -15 V
52 -12 V
51 -11 V
51 -8 V
52 -7 V
51 -6 V
51 -6 V
51 -4 V
52 -3 V
51 -3 V
51 -3 V
52 -2 V
51 -1 V
51 -2 V
51 -1 V
52 -1 V
51 -1 V
51 -1 V
52 0 V
51 -1 V
51 0 V
51 0 V
52 -1 V
51 0 V
51 0 V
52 0 V
51 0 V
51 -1 V
51 0 V
52 0 V
51 0 V
51 0 V
52 0 V
51 0 V
51 0 V
51 0 V
52 0 V
51 0 V
51 0 V
52 0 V
51 0 V
51 0 V
51 0 V
52 0 V
51 0 V
51 0 V
52 0 V
51 0 V
51 0 V
51 0 V
52 0 V
51 0 V
51 0 V
52 0 V
51 0 V
51 0 V
51 0 V
52 0 V
51 0 V
51 0 V
52 0 V
51 0 V
51 0 V
51 0 V
52 0 V
51 0 V
51 0 V
52 0 V
51 0 V
51 0 V
51 0 V
52 0 V
51 0 V
51 0 V
52 0 V
51 0 V
51 0 V
51 0 V
52 0 V
51 0 V
stroke
LT0
LC0 setrgbcolor
LCa setrgbcolor
LCb setrgbcolor
LT0
LC0 setrgbcolor
LCa setrgbcolor
5948 3942 M
591 0 V
1250 4423 M
51 -493 V
51 -417 V
52 -351 V
51 -298 V
51 -252 V
51 -215 V
52 -182 V
51 -156 V
51 -134 V
52 -115 V
51 -99 V
51 -85 V
51 -75 V
52 -64 V
51 -57 V
51 -50 V
52 -45 V
51 -39 V
51 -35 V
51 -32 V
52 -28 V
51 -26 V
51 -24 V
52 -21 V
51 -20 V
51 -18 V
51 -17 V
52 -16 V
51 -15 V
51 -14 V
52 -13 V
51 -12 V
51 -12 V
51 -11 V
52 -11 V
51 -10 V
51 -9 V
52 -9 V
51 -9 V
51 -8 V
51 -8 V
52 -8 V
51 -7 V
51 -7 V
52 -7 V
51 -6 V
51 -6 V
51 -6 V
52 -6 V
51 -5 V
51 -6 V
52 -5 V
51 -5 V
51 -4 V
51 -5 V
52 -4 V
51 -4 V
51 -5 V
52 -3 V
51 -4 V
51 -4 V
51 -3 V
52 -4 V
51 -3 V
51 -3 V
52 -3 V
51 -3 V
51 -2 V
51 -3 V
52 -3 V
51 -2 V
51 -3 V
52 -2 V
51 -2 V
51 -2 V
51 -2 V
52 -2 V
51 -2 V
51 -2 V
52 -2 V
51 -1 V
51 -2 V
51 -2 V
52 -1 V
51 -2 V
51 -1 V
52 -1 V
51 -2 V
51 -1 V
51 -1 V
52 -1 V
51 -2 V
51 -1 V
52 -1 V
51 -1 V
51 -1 V
51 -1 V
52 0 V
51 -1 V
1.000 UP
stroke
1.000 UL
LT4
LC4 setrgbcolor
LC1 setrgbcolor
LCb setrgbcolor
LT4
LC4 setrgbcolor
LC1 setrgbcolor
5948 3722 M
591 0 V
-591 31 R
0 -62 V
591 62 R
0 -62 V
1250 4486 M
0 283 V
-31 -283 R
62 0 V
-62 283 R
62 0 V
10 -832 R
0 261 V
-31 -261 R
62 0 V
-62 261 R
62 0 V
10 -730 R
0 242 V
-31 -242 R
62 0 V
-62 242 R
62 0 V
9 -774 R
0 218 V
-31 -218 R
62 0 V
-62 218 R
62 0 V
10 55 R
0 231 V
-31 -231 R
62 0 V
-62 231 R
62 0 V
10 -629 R
0 213 V
-31 -213 R
62 0 V
-62 213 R
62 0 V
11 -446 R
0 201 V
-31 -201 R
62 0 V
-62 201 R
62 0 V
10 -404 R
0 190 V
-31 -190 R
62 0 V
-62 190 R
62 0 V
10 -432 R
0 175 V
-31 -175 R
62 0 V
-62 175 R
62 0 V
10 -235 R
0 172 V
-31 -172 R
62 0 V
-62 172 R
62 0 V
9 -177 R
0 172 V
-31 -172 R
62 0 V
-62 172 R
62 0 V
10 -329 R
0 161 V
-31 -161 R
62 0 V
-62 161 R
62 0 V
10 -275 R
0 155 V
-31 -155 R
62 0 V
-62 155 R
62 0 V
10 -268 R
0 147 V
-31 -147 R
62 0 V
-62 147 R
62 0 V
10 -196 R
0 143 V
-31 -143 R
62 0 V
-62 143 R
62 0 V
10 -192 R
0 139 V
-31 -139 R
62 0 V
-62 139 R
62 0 V
10 -349 R
0 122 V
-31 -122 R
62 0 V
stroke 1936 1376 M
-62 122 R
62 0 V
10 113 R
0 141 V
-31 -141 R
62 0 V
-62 141 R
62 0 V
10 -362 R
0 124 V
-31 -124 R
62 0 V
-62 124 R
62 0 V
10 -109 R
0 125 V
-31 -125 R
62 0 V
-62 125 R
62 0 V
9 -159 R
0 122 V
-31 -122 R
62 0 V
-62 122 R
62 0 V
11 -370 R
0 98 V
-31 -98 R
62 0 V
-62 98 R
62 0 V
10 -20 R
0 105 V
-31 -105 R
62 0 V
-62 105 R
62 0 V
10 -18 R
0 114 V
-31 -114 R
62 0 V
-62 114 R
62 0 V
10 -192 R
0 107 V
-31 -107 R
62 0 V
-62 107 R
62 0 V
10 -232 R
0 93 V
-31 -93 R
62 0 V
-62 93 R
62 0 V
10 13 R
0 105 V
-31 -105 R
62 0 V
-62 105 R
62 0 V
9 -134 R
0 102 V
-31 -102 R
62 0 V
-62 102 R
62 0 V
10 -170 R
0 95 V
-31 -95 R
62 0 V
-62 95 R
62 0 V
10 -85 R
0 96 V
-31 -96 R
62 0 V
-62 96 R
62 0 V
10 -86 R
0 96 V
-31 -96 R
62 0 V
-62 96 R
62 0 V
10 -29 R
0 104 V
-31 -104 R
62 0 V
-62 104 R
62 0 V
10 -181 R
0 96 V
-31 -96 R
62 0 V
-62 96 R
62 0 V
10 -192 R
0 84 V
-31 -84 R
62 0 V
-62 84 R
62 0 V
stroke 2632 1092 M
10 -55 R
0 87 V
-31 -87 R
62 0 V
-62 87 R
62 0 V
10 -106 R
0 85 V
-31 -85 R
62 0 V
-62 85 R
62 0 V
10 -42 R
0 90 V
-31 -90 R
62 0 V
-62 90 R
62 0 V
10 -229 R
0 72 V
-31 -72 R
62 0 V
-62 72 R
62 0 V
10 76 R
0 92 V
-31 -92 R
62 0 V
-62 92 R
62 0 V
10 -144 R
0 85 V
-31 -85 R
62 0 V
-62 85 R
62 0 V
10 -100 R
0 84 V
-31 -84 R
62 0 V
-62 84 R
62 0 V
10 -117 R
0 79 V
-31 -79 R
62 0 V
-62 79 R
62 0 V
10 -74 R
0 79 V
-31 -79 R
62 0 V
-62 79 R
62 0 V
10 -117 R
0 74 V
-31 -74 R
62 0 V
-62 74 R
62 0 V
9 -112 R
0 68 V
-31 -68 R
62 0 V
-62 68 R
62 0 V
10 -78 R
0 67 V
-31 -67 R
62 0 V
-62 67 R
62 0 V
10 -71 R
0 66 V
-31 -66 R
62 0 V
-62 66 R
62 0 V
10 -19 R
0 73 V
-31 -73 R
62 0 V
-62 73 R
62 0 V
10 -92 R
0 71 V
-31 -71 R
62 0 V
-62 71 R
62 0 V
10 -113 R
0 63 V
-31 -63 R
62 0 V
-62 63 R
62 0 V
10 -73 R
0 62 V
-31 -62 R
62 0 V
-62 62 R
62 0 V
11 -52 R
0 63 V
stroke 3339 934 M
-31 -63 R
62 0 V
-62 63 R
62 0 V
9 17 R
0 76 V
-31 -76 R
62 0 V
-62 76 R
62 0 V
10 -203 R
0 55 V
-31 -55 R
62 0 V
-62 55 R
62 0 V
10 77 R
0 76 V
-31 -76 R
62 0 V
-62 76 R
62 0 V
10 -133 R
0 68 V
-31 -68 R
62 0 V
-62 68 R
62 0 V
10 -157 R
0 52 V
-31 -52 R
62 0 V
-62 52 R
62 0 V
10 -38 R
0 55 V
-31 -55 R
62 0 V
-62 55 R
62 0 V
10 -50 R
0 56 V
-31 -56 R
62 0 V
-62 56 R
62 0 V
10 -61 R
0 55 V
-31 -55 R
62 0 V
-62 55 R
62 0 V
10 -8 R
0 63 V
-31 -63 R
62 0 V
-62 63 R
62 0 V
9 -49 R
0 66 V
-31 -66 R
62 0 V
-62 66 R
62 0 V
10 -85 R
0 63 V
-31 -63 R
62 0 V
-62 63 R
62 0 V
10 -30 R
0 68 V
-31 -68 R
62 0 V
-62 68 R
62 0 V
10 -124 R
0 58 V
-31 -58 R
62 0 V
-62 58 R
62 0 V
10 -68 R
0 57 V
-31 -57 R
62 0 V
-62 57 R
62 0 V
11 -57 R
0 57 V
-31 -57 R
62 0 V
-62 57 R
62 0 V
10 -52 R
0 58 V
-31 -58 R
62 0 V
-62 58 R
62 0 V
10 -104 R
0 48 V
-31 -48 R
62 0 V
stroke 4066 792 M
-62 48 R
62 0 V
9 -52 R
0 46 V
-31 -46 R
62 0 V
-62 46 R
62 0 V
10 -24 R
0 52 V
-31 -52 R
62 0 V
-62 52 R
62 0 V
10 -70 R
0 48 V
-31 -48 R
62 0 V
-62 48 R
62 0 V
10 -39 R
0 50 V
-31 -50 R
62 0 V
-62 50 R
62 0 V
10 -13 R
0 58 V
-31 -58 R
62 0 V
-62 58 R
62 0 V
10 -67 R
0 56 V
-31 -56 R
62 0 V
-62 56 R
62 0 V
10 9 R
0 68 V
-31 -68 R
62 0 V
-62 68 R
62 0 V
10 -165 R
0 48 V
-31 -48 R
62 0 V
-62 48 R
62 0 V
10 -35 R
0 52 V
-31 -52 R
62 0 V
-62 52 R
62 0 V
9 -47 R
0 53 V
-31 -53 R
62 0 V
-62 53 R
62 0 V
10 -25 R
0 58 V
-31 -58 R
62 0 V
-62 58 R
62 0 V
10 -118 R
0 46 V
-31 -46 R
62 0 V
-62 46 R
62 0 V
10 14 R
0 58 V
-31 -58 R
62 0 V
-62 58 R
62 0 V
11 -136 R
0 41 V
-31 -41 R
62 0 V
-62 41 R
62 0 V
10 -59 R
0 36 V
-31 -36 R
62 0 V
-62 36 R
62 0 V
10 -22 R
0 39 V
-31 -39 R
62 0 V
-62 39 R
62 0 V
10 -21 R
0 44 V
-31 -44 R
62 0 V
-62 44 R
62 0 V
stroke 4762 823 M
9 -22 R
0 50 V
-31 -50 R
62 0 V
-62 50 R
62 0 V
10 -95 R
0 38 V
-31 -38 R
62 0 V
-62 38 R
62 0 V
10 -59 R
0 30 V
-31 -30 R
62 0 V
-62 30 R
62 0 V
10 9 R
0 43 V
-31 -43 R
62 0 V
-62 43 R
62 0 V
10 -29 R
0 46 V
-31 -46 R
62 0 V
-62 46 R
62 0 V
10 -51 R
0 46 V
-31 -46 R
62 0 V
-62 46 R
62 0 V
10 -19 R
0 52 V
-31 -52 R
62 0 V
-62 52 R
62 0 V
10 -110 R
0 37 V
-31 -37 R
62 0 V
-62 37 R
62 0 V
10 -28 R
0 39 V
-31 -39 R
62 0 V
-62 39 R
62 0 V
9 -30 R
0 41 V
-31 -41 R
62 0 V
-62 41 R
62 0 V
10 -41 R
0 41 V
-31 -41 R
62 0 V
-62 41 R
62 0 V
11 -72 R
0 32 V
-31 -32 R
62 0 V
-62 32 R
62 0 V
10 -36 R
0 30 V
-31 -30 R
62 0 V
-62 30 R
62 0 V
10 -4 R
0 39 V
-31 -39 R
62 0 V
-62 39 R
62 0 V
10 -57 R
0 34 V
-31 -34 R
62 0 V
-62 34 R
62 0 V
10 -30 R
0 36 V
-31 -36 R
62 0 V
-62 36 R
62 0 V
10 -31 R
0 37 V
-31 -37 R
62 0 V
-62 37 R
62 0 V
9 -24 R
0 41 V
stroke 5467 806 M
-31 -41 R
62 0 V
-62 41 R
62 0 V
10 -67 R
0 32 V
-31 -32 R
62 0 V
-62 32 R
62 0 V
10 -41 R
0 29 V
-31 -29 R
62 0 V
-62 29 R
62 0 V
10 2 R
0 39 V
-31 -39 R
62 0 V
-62 39 R
62 0 V
10 -39 R
0 39 V
-31 -39 R
62 0 V
-62 39 R
62 0 V
10 -53 R
0 36 V
-31 -36 R
62 0 V
-62 36 R
62 0 V
10 -13 R
0 41 V
-31 -41 R
62 0 V
-62 41 R
62 0 V
11 -81 R
0 29 V
-31 -29 R
62 0 V
-62 29 R
62 0 V
9 -41 R
0 23 V
-31 -23 R
62 0 V
-62 23 R
62 0 V
10 20 R
0 39 V
-31 -39 R
62 0 V
-62 39 R
62 0 V
10 -30 R
0 41 V
-31 -41 R
62 0 V
-62 41 R
62 0 V
10 -81 R
0 29 V
-31 -29 R
62 0 V
-62 29 R
62 0 V
10 -37 R
0 25 V
-31 -25 R
62 0 V
-62 25 R
62 0 V
10 -12 R
0 30 V
-31 -30 R
62 0 V
-62 30 R
62 0 V
10 -9 R
0 38 V
-31 -38 R
62 0 V
-62 38 R
62 0 V
10 -59 R
0 30 V
-31 -30 R
62 0 V
-62 30 R
62 0 V
10 -61 R
0 10 V
-31 -10 R
62 0 V
-62 10 R
62 0 V
9 16 R
0 29 V
-31 -29 R
62 0 V
stroke 6194 730 M
-62 29 R
62 0 V
10 -29 R
0 29 V
-31 -29 R
62 0 V
-62 29 R
62 0 V
10 -49 R
0 18 V
-31 -18 R
62 0 V
-62 18 R
62 0 V
10 24 R
0 37 V
-31 -37 R
62 0 V
-62 37 R
62 0 V
10 -59 R
0 29 V
-31 -29 R
62 0 V
-62 29 R
62 0 V
1250 4627 Pls
1291 4068 Pls
1332 3589 Pls
1372 3045 Pls
1413 3325 Pls
1454 2918 Pls
1496 2678 Pls
1537 2470 Pls
1578 2220 Pls
1619 2159 Pls
1659 2154 Pls
1700 1991 Pls
1741 1874 Pls
1782 1757 Pls
1823 1706 Pls
1864 1656 Pls
1905 1437 Pls
1946 1681 Pls
1987 1452 Pls
2028 1467 Pls
2068 1432 Pls
2110 1172 Pls
2151 1254 Pls
2192 1345 Pls
2233 1264 Pls
2274 1131 Pls
2315 1243 Pls
2355 1213 Pls
2396 1142 Pls
2437 1152 Pls
2478 1162 Pls
2519 1233 Pls
2560 1152 Pls
2601 1050 Pls
2642 1081 Pls
2683 1060 Pls
2724 1106 Pls
2765 958 Pls
2806 1116 Pls
2847 1060 Pls
2888 1045 Pls
2929 1009 Pls
2970 1014 Pls
3011 974 Pls
3051 933 Pls
3092 923 Pls
3133 918 Pls
3174 969 Pls
3215 948 Pls
3256 902 Pls
3297 892 Pls
3339 902 Pls
3379 989 Pls
3420 852 Pls
3461 994 Pls
3502 933 Pls
3543 836 Pls
3584 852 Pls
3625 857 Pls
3666 852 Pls
3707 902 Pls
3747 918 Pls
3788 897 Pls
3829 933 Pls
3870 872 Pls
3911 862 Pls
3953 862 Pls
3994 867 Pls
4035 816 Pls
4075 811 Pls
4116 836 Pls
4157 816 Pls
4198 826 Pls
4239 867 Pls
4280 857 Pls
4321 928 Pls
4362 821 Pls
4403 836 Pls
4443 841 Pls
4484 872 Pls
4525 806 Pls
4566 872 Pls
4608 785 Pls
4649 765 Pls
4690 780 Pls
4731 801 Pls
4771 826 Pls
4812 775 Pls
4853 750 Pls
4894 796 Pls
4935 811 Pls
4976 806 Pls
5017 836 Pls
5058 770 Pls
5099 780 Pls
5139 791 Pls
5180 791 Pls
5222 755 Pls
5263 750 Pls
5304 780 Pls
5345 760 Pls
5386 765 Pls
5427 770 Pls
5467 785 Pls
5508 755 Pls
5549 745 Pls
5590 780 Pls
5631 780 Pls
5672 765 Pls
5713 791 Pls
5755 745 Pls
5795 729 Pls
5836 780 Pls
5877 791 Pls
5918 745 Pls
5959 735 Pls
6000 750 Pls
6041 775 Pls
6082 750 Pls
6123 709 Pls
6163 745 Pls
6204 745 Pls
6245 719 Pls
6286 770 Pls
6327 745 Pls
6243 3722 Pls
1.000 UL
LTb
LCb setrgbcolor
1078 4775 N
0 -4071 V
5725 0 V
0 4071 V
-5725 0 V
Z stroke
1.000 UP
1.000 UL
LTb
stroke
grestore
end
showpage
%%Trailer
