19.0
21.3
42.5
48.7
2d*sin theta = n lambda

>>> 2* 201 * 10**(-12) *sin(pi/180.0 * 48.7)/2
1.5100409083420572e-10
>>> 2* 201 * 10**(-12) *sin(pi/180.0 * 21.3)
1.460269946501373e-10
>>> 2* 201 * 10**(-12) *sin(pi/180.0 * 19.0)
1.30878398091777e-10
>>> 2* 201 * 10**(-12) *sin(pi/180.0 * 42.5)/2.0
1.357936317307477e-10

