#Anodenspannung [kV], Winkel [°], \lambda_min,gemessen [m] pm Fehler [m], h [J*s] pm Fehler [J*s], \lambda_min,theoretisch [m]
23  6.5  4.55076919346985e-11 \pm 3.4855611475779797e-13  5.593740532109415e-34 \pm 4.2844020075398544e-36  5.390617083480088e-11
26  6.0  4.202044223359669e-11 \pm 3.4888939930275343e-13  5.838800530257924e-34 \pm 4.8478680884076044e-36  4.768622804617002e-11 
29  5.2  3.643429723950762e-11 \pm 3.4936738067435606e-13  5.646743584130178e-34 \pm 5.414645443436982e-36  4.2753169972428295e-11
32  4.8  3.3638493019590825e-11 \pm 3.495808354669773e-13  5.752759018150297e-34 \pm 5.9784316218742164e-36  3.874506028751314e-11
35  4.2  2.944175524530794e-11 \pm 3.498690682379932e-13  5.5070803683374756e-34 \pm 6.544300980455435e-36  3.542405512001201e-11
