<?xml version="1.0" encoding="UTF-8" standalone="no"?>
<svg
   xmlns:dc="http://purl.org/dc/elements/1.1/"
   xmlns:cc="http://creativecommons.org/ns#"
   xmlns:rdf="http://www.w3.org/1999/02/22-rdf-syntax-ns#"
   xmlns:svg="http://www.w3.org/2000/svg"
   xmlns="http://www.w3.org/2000/svg"
   xmlns:sodipodi="http://sodipodi.sourceforge.net/DTD/sodipodi-0.dtd"
   xmlns:inkscape="http://www.inkscape.org/namespaces/inkscape"
   version="1.1"
   id="Roentgen_x5F_GMZaehler"
   x="0px"
   y="0px"
   width="400px"
   height="180px"
   viewBox="0 0 400 180"
   enable-background="new 0 0 400 180"
   xml:space="preserve"
   inkscape:version="0.48.4 r9939"
   sodipodi:docname="zaehlrohr.pdf"><metadata
   id="metadata176"><rdf:RDF><cc:Work
       rdf:about=""><dc:format>image/svg+xml</dc:format><dc:type
         rdf:resource="http://purl.org/dc/dcmitype/StillImage" /><dc:title></dc:title></cc:Work></rdf:RDF></metadata><defs
   id="defs174" /><sodipodi:namedview
   pagecolor="#ffffff"
   bordercolor="#666666"
   borderopacity="1"
   objecttolerance="10"
   gridtolerance="10"
   guidetolerance="10"
   inkscape:pageopacity="0"
   inkscape:pageshadow="2"
   inkscape:window-width="640"
   inkscape:window-height="480"
   id="namedview172"
   showgrid="false"
   inkscape:zoom="1.0725"
   inkscape:cx="200"
   inkscape:cy="90"
   inkscape:window-x="110"
   inkscape:window-y="81"
   inkscape:window-maximized="0"
   inkscape:current-layer="Roentgen_x5F_GMZaehler" />
<rect
   id="Hintergrund"
   fill="#FFFFFF"
   width="400"
   height="180" />
<g
   id="Zaehlrohr">
	<linearGradient
   id="Rohr_1_"
   gradientUnits="userSpaceOnUse"
   x1="83.7593"
   y1="65.1953"
   x2="83.7593"
   y2="11.9546">
		<stop
   offset="0"
   style="stop-color:#808184"
   id="stop6" />
		<stop
   offset="0.3455"
   style="stop-color:#E6E7E8"
   id="stop8" />
		<stop
   offset="1"
   style="stop-color:#58595B"
   id="stop10" />
	</linearGradient>
	<rect
   id="Rohr"
   x="18.759"
   y="11.955"
   fill="url(#Rohr_1_)"
   stroke="#231F20"
   stroke-width="0.5"
   width="130"
   height="53.241" />
	<ellipse
   id="KappeVorne"
   fill="#D0D2D3"
   stroke="#231F20"
   stroke-width="0.5"
   cx="18.759"
   cy="38.575"
   rx="5.556"
   ry="26.62" />
	<ellipse
   id="KappeHinten"
   fill="#929497"
   stroke="#231F20"
   stroke-width="0.5"
   cx="148.759"
   cy="38.575"
   rx="5.556"
   ry="26.62" />
	<path
   id="Anode"
   fill="#231F20"
   d="M149.447,38.575c0,0.938-0.938,0.938-0.938,0.938H27.322c0,0-0.938,0-0.938-0.938   s0.938-0.938,0.938-0.938h121.188C148.509,37.637,149.447,37.637,149.447,38.575z" />
</g>
<g
   id="Schaltung">
	<line
   fill="none"
   stroke="#1A171B"
   x1="154.315"
   y1="38.575"
   x2="213"
   y2="38.575"
   id="line17" />
	<line
   fill="none"
   stroke="#1A171B"
   x1="258"
   y1="38.575"
   x2="330.516"
   y2="38.575"
   id="line19" />
	<line
   fill="none"
   stroke="#1A171B"
   stroke-dasharray="1"
   x1="154.315"
   y1="38.575"
   x2="148.688"
   y2="38.575"
   id="line21" />
	<polyline
   fill="none"
   stroke="#1A171B"
   points="187.013,155.574 105.5,155.574 105.5,65.195  "
   id="polyline23" />
	<circle
   id="Weiche"
   fill="#1A171B"
   stroke="#1A171B"
   cx="187.013"
   cy="155.574"
   r="2.101" />
</g>
<g
   id="Schaltelemente">
	<g
   id="Kondensator">
		<line
   fill="none"
   stroke="#1A171B"
   x1="213"
   y1="38.575"
   x2="232"
   y2="38.575"
   id="line28" />
		<line
   fill="none"
   stroke="#1A171B"
   stroke-width="2"
   x1="232"
   y1="29.575"
   x2="232"
   y2="47.575"
   id="line30" />
		<line
   fill="none"
   stroke="#1A171B"
   stroke-width="2"
   x1="239"
   y1="29.575"
   x2="239"
   y2="47.575"
   id="line32" />
		<line
   fill="none"
   stroke="#1A171B"
   x1="258"
   y1="38.575"
   x2="239"
   y2="38.575"
   id="line34" />
	</g>
	<g
   id="Erdung">
		<line
   fill="none"
   stroke="#1A171B"
   x1="178.013"
   y1="164.574"
   x2="196.013"
   y2="164.574"
   id="line37" />
		<line
   fill="none"
   stroke="#1A171B"
   x1="184.763"
   y1="173.574"
   x2="189.263"
   y2="173.574"
   id="line39" />
		<line
   fill="none"
   stroke="#1A171B"
   x1="182.513"
   y1="168.574"
   x2="191.513"
   y2="168.574"
   id="line41" />
		<line
   fill="none"
   stroke="#1A171B"
   x1="187.013"
   y1="155.574"
   x2="187.013"
   y2="164.242"
   id="line43" />
	</g>
	<g
   id="Spule_1_">
		<line
   fill="none"
   stroke="#1A171B"
   x1="187.013"
   y1="38.575"
   x2="187.013"
   y2="110.574"
   id="line46" />
		<rect
   x="180.713"
   y="56.575"
   fill="#1A171B"
   stroke="#1A171B"
   width="12.6"
   height="36"
   id="rect48" />
	</g>
	<g
   id="Akku_1_">
		<line
   fill="none"
   stroke="#1A171B"
   x1="187.013"
   y1="155.574"
   x2="187.013"
   y2="135.574"
   id="line51" />
		<line
   fill="none"
   stroke="#1A171B"
   x1="178.013"
   y1="135.574"
   x2="196.013"
   y2="135.574"
   id="line53" />
		<line
   fill="none"
   stroke="#1A171B"
   x1="169.013"
   y1="130.574"
   x2="205.013"
   y2="130.574"
   id="line55" />
		<line
   fill="none"
   stroke="#1A171B"
   x1="187.013"
   y1="130.324"
   x2="187.013"
   y2="110.574"
   id="line57" />
	</g>
	<g
   id="Zaehler">
		<rect
   x="330.516"
   y="23.075"
   fill="none"
   stroke="#1A171B"
   width="58.013"
   height="31"
   id="rect60" />
		<g
   id="g62">
			<path
   d="M337.055,43.325v-1.406l5.867-7.336c0.417-0.521,0.813-0.974,1.188-1.359h-6.391v-1.352h8.203v1.352l-6.43,7.945     l-0.695,0.805h7.313v1.352H337.055z"
   id="path64" />
			<path
   d="M352.977,42.302c-0.521,0.443-1.022,0.755-1.504,0.938s-0.999,0.273-1.551,0.273c-0.911,0-1.612-0.223-2.102-0.668     s-0.734-1.014-0.734-1.707c0-0.406,0.093-0.777,0.277-1.113s0.427-0.605,0.727-0.809s0.637-0.356,1.012-0.461     c0.276-0.073,0.692-0.143,1.25-0.211c1.136-0.135,1.972-0.297,2.508-0.484c0.005-0.192,0.008-0.315,0.008-0.367     c0-0.573-0.133-0.977-0.398-1.211c-0.359-0.317-0.894-0.477-1.602-0.477c-0.661,0-1.149,0.116-1.465,0.348     c-0.315,0.232-0.548,0.642-0.699,1.23l-1.375-0.188c0.125-0.588,0.331-1.063,0.617-1.426c0.286-0.362,0.7-0.641,1.242-0.836     s1.169-0.293,1.883-0.293c0.708,0,1.284,0.083,1.727,0.25c0.442,0.167,0.769,0.376,0.977,0.629     c0.208,0.253,0.354,0.572,0.438,0.957c0.047,0.24,0.07,0.672,0.07,1.297v1.875c0,1.308,0.03,2.134,0.09,2.48     c0.06,0.347,0.179,0.679,0.355,0.996h-1.469C353.112,43.034,353.019,42.692,352.977,42.302z M352.859,39.161     c-0.511,0.208-1.276,0.386-2.297,0.531c-0.578,0.083-0.987,0.177-1.227,0.281c-0.239,0.104-0.425,0.257-0.555,0.457     c-0.13,0.201-0.195,0.423-0.195,0.668c0,0.375,0.142,0.688,0.426,0.938s0.699,0.375,1.246,0.375c0.542,0,1.023-0.118,1.445-0.355     c0.422-0.237,0.731-0.561,0.93-0.973c0.151-0.317,0.227-0.786,0.227-1.406V39.161z M348.719,33.403v-1.602h1.469v1.602H348.719z      M351.633,33.403v-1.602h1.469v1.602H351.633z"
   id="path66" />
			<path
   d="M356.461,43.325V31.872h1.406v4.109c0.656-0.76,1.484-1.141,2.484-1.141c0.614,0,1.148,0.121,1.602,0.363     s0.777,0.577,0.973,1.004c0.195,0.427,0.293,1.047,0.293,1.859v5.258h-1.406v-5.258c0-0.703-0.152-1.215-0.457-1.535     s-0.735-0.48-1.293-0.48c-0.417,0-0.809,0.108-1.176,0.324c-0.367,0.216-0.629,0.509-0.785,0.879     c-0.156,0.37-0.234,0.88-0.234,1.531v4.539H356.461z"
   id="path68" />
			<path
   d="M365.328,43.325V31.872h1.406v11.453H365.328z"
   id="path70" />
			<path
   d="M374.594,40.653l1.453,0.18c-0.229,0.849-0.653,1.508-1.273,1.977s-1.411,0.703-2.375,0.703     c-1.214,0-2.176-0.374-2.887-1.121c-0.711-0.747-1.066-1.795-1.066-3.145c0-1.396,0.359-2.479,1.078-3.25     c0.719-0.771,1.651-1.156,2.797-1.156c1.109,0,2.016,0.378,2.719,1.133c0.703,0.755,1.055,1.818,1.055,3.188     c0,0.083-0.003,0.208-0.008,0.375h-6.188c0.052,0.912,0.31,1.609,0.773,2.094s1.042,0.727,1.734,0.727     c0.516,0,0.956-0.135,1.32-0.406C374.091,41.68,374.38,41.247,374.594,40.653z M369.977,38.38h4.633     c-0.063-0.698-0.239-1.221-0.531-1.57c-0.448-0.542-1.028-0.813-1.742-0.813c-0.646,0-1.188,0.216-1.629,0.648     C370.267,37.078,370.023,37.656,369.977,38.38z"
   id="path72" />
			<path
   d="M377.797,43.325v-8.297h1.266v1.258c0.323-0.588,0.621-0.977,0.895-1.164s0.574-0.281,0.902-0.281     c0.474,0,0.956,0.151,1.445,0.453l-0.484,1.305c-0.344-0.203-0.688-0.305-1.031-0.305c-0.308,0-0.583,0.093-0.828,0.277     c-0.245,0.185-0.419,0.441-0.523,0.77c-0.156,0.5-0.234,1.047-0.234,1.641v4.344H377.797z"
   id="path74" />
		</g>
	</g>
	<g
   id="Verstaerker">
		<rect
   x="286.977"
   y="23.075"
   fill="#FFFFFF"
   stroke="#1A171B"
   width="35.092"
   height="31"
   id="rect77" />
		<g
   id="g79">
			<path
   d="M303.639,38.317l-7.586,3.242v-1.398l6.008-2.492l-6.008-2.469v-1.398l7.586,3.203V38.317z"
   id="path81" />
			<path
   d="M312.982,38.317l-7.586,3.242v-1.398l6.008-2.492l-6.008-2.469v-1.398l7.586,3.203V38.317z"
   id="path83" />
		</g>
	</g>
</g>
<g
   id="Beschriftung">
	<g
   id="g86">
		<path
   d="M192.545,127.713v-2.748h-2.728v-1.148h2.728v-2.728h1.162v2.728h2.728v1.148h-2.728v2.748H192.545z"
   id="path88" />
	</g>
	<g
   id="g90">
		<path
   d="M208.588,138.575l2.099-10.021h1.333l-0.868,4.163h5.195l0.868-4.163h1.34l-2.092,10.021h-1.34l0.984-4.724h-5.188    l-0.991,4.724H208.588z"
   id="path92" />
		<path
   d="M218.794,135.82c0-1.417,0.417-2.591,1.251-3.521c0.688-0.766,1.591-1.148,2.707-1.148c0.875,0,1.58,0.273,2.115,0.82    c0.536,0.547,0.804,1.285,0.804,2.215c0,0.834-0.169,1.61-0.506,2.327c-0.337,0.719-0.817,1.269-1.438,1.651    c-0.623,0.383-1.277,0.574-1.966,0.574c-0.565,0-1.079-0.121-1.542-0.362c-0.462-0.241-0.815-0.583-1.059-1.025    C218.916,136.909,218.794,136.399,218.794,135.82z M220.031,135.697c0,0.684,0.164,1.202,0.492,1.555    c0.328,0.354,0.745,0.53,1.251,0.53c0.265,0,0.526-0.054,0.786-0.161c0.26-0.106,0.501-0.27,0.725-0.488s0.414-0.469,0.57-0.748    c0.158-0.281,0.284-0.583,0.38-0.906c0.142-0.451,0.212-0.884,0.212-1.299c0-0.656-0.165-1.166-0.496-1.527    c-0.33-0.363-0.746-0.544-1.247-0.544c-0.388,0-0.74,0.093-1.06,0.276c-0.319,0.186-0.607,0.455-0.865,0.811    c-0.257,0.355-0.446,0.77-0.566,1.24C220.092,134.908,220.031,135.328,220.031,135.697z"
   id="path94" />
		<path
   d="M231.372,135.93l1.237,0.13c-0.31,0.907-0.751,1.58-1.322,2.021c-0.572,0.439-1.223,0.659-1.952,0.659    c-0.788,0-1.428-0.255-1.917-0.766c-0.49-0.511-0.735-1.224-0.735-2.14c0-0.793,0.157-1.572,0.472-2.338s0.765-1.348,1.35-1.746    c0.586-0.399,1.255-0.599,2.007-0.599c0.779,0,1.396,0.22,1.853,0.659c0.456,0.44,0.684,1.022,0.684,1.747l-1.217,0.082    c-0.005-0.46-0.138-0.82-0.4-1.08c-0.262-0.26-0.606-0.39-1.035-0.39c-0.497,0-0.928,0.157-1.292,0.472s-0.65,0.792-0.858,1.433    c-0.207,0.64-0.311,1.256-0.311,1.849c0,0.62,0.137,1.085,0.41,1.395s0.61,0.465,1.012,0.465s0.785-0.152,1.152-0.458    C230.874,137.019,231.162,136.554,231.372,135.93z"
   id="path96" />
		<path
   d="M233.361,138.575l2.092-10.021h1.237l-0.8,3.849c0.46-0.446,0.889-0.767,1.285-0.961c0.396-0.193,0.805-0.29,1.224-0.29    c0.602,0,1.068,0.158,1.401,0.476c0.333,0.316,0.499,0.734,0.499,1.254c0,0.255-0.073,0.725-0.219,1.408l-0.896,4.286h-1.237    l0.923-4.396c0.132-0.638,0.198-1.039,0.198-1.203c0-0.237-0.082-0.431-0.246-0.581s-0.401-0.226-0.711-0.226    c-0.446,0-0.873,0.117-1.278,0.352c-0.405,0.235-0.724,0.557-0.953,0.965c-0.23,0.407-0.441,1.064-0.633,1.972l-0.649,3.117    H233.361z"
   id="path98" />
		<path
   d="M241.264,136.094l1.237-0.075c0,0.355,0.055,0.658,0.164,0.909s0.312,0.456,0.604,0.615    c0.295,0.159,0.638,0.239,1.029,0.239c0.547,0,0.957-0.109,1.23-0.328s0.41-0.477,0.41-0.772c0-0.214-0.082-0.417-0.246-0.608    c-0.169-0.191-0.58-0.427-1.234-0.708c-0.653-0.279-1.071-0.477-1.254-0.591c-0.306-0.187-0.535-0.407-0.69-0.659    c-0.155-0.254-0.232-0.544-0.232-0.872c0-0.574,0.228-1.066,0.684-1.477s1.094-0.615,1.914-0.615c0.911,0,1.605,0.211,2.081,0.632    c0.477,0.422,0.724,0.977,0.742,1.665l-1.21,0.082c-0.019-0.438-0.173-0.784-0.465-1.039s-0.704-0.383-1.237-0.383    c-0.429,0-0.761,0.098-0.998,0.294s-0.355,0.408-0.355,0.636s0.103,0.429,0.308,0.602c0.137,0.118,0.49,0.301,1.06,0.547    c0.948,0.41,1.545,0.733,1.791,0.971c0.392,0.378,0.588,0.839,0.588,1.381c0,0.36-0.11,0.713-0.332,1.06    c-0.221,0.347-0.558,0.623-1.012,0.83c-0.453,0.208-0.987,0.312-1.603,0.312c-0.839,0-1.552-0.207-2.14-0.622    S241.231,137.028,241.264,136.094z"
   id="path100" />
		<path
   d="M247.539,141.357l2.099-10.042h1.142l-0.212,1.012c0.424-0.442,0.804-0.749,1.138-0.919    c0.336-0.172,0.689-0.257,1.063-0.257c0.692,0,1.267,0.252,1.723,0.755c0.456,0.504,0.684,1.226,0.684,2.164    c0,0.757-0.125,1.445-0.376,2.068c-0.251,0.621-0.559,1.122-0.923,1.5s-0.733,0.656-1.107,0.834s-0.757,0.267-1.148,0.267    c-0.87,0-1.545-0.442-2.023-1.326l-0.82,3.944H247.539z M249.986,135.608c0,0.542,0.039,0.918,0.116,1.128    c0.114,0.296,0.301,0.535,0.561,0.718s0.561,0.273,0.902,0.273c0.711,0,1.285-0.399,1.723-1.2c0.438-0.799,0.656-1.616,0.656-2.45    c0-0.615-0.147-1.091-0.44-1.425c-0.295-0.336-0.66-0.503-1.098-0.503c-0.314,0-0.606,0.083-0.875,0.249    c-0.269,0.167-0.519,0.415-0.748,0.746c-0.23,0.33-0.421,0.734-0.571,1.213S249.986,135.253,249.986,135.608z"
   id="path102" />
		<path
   d="M260.828,137.673c-0.429,0.369-0.841,0.64-1.237,0.81c-0.396,0.172-0.82,0.257-1.271,0.257c-0.67,0-1.21-0.197-1.62-0.591    c-0.41-0.395-0.615-0.899-0.615-1.515c0-0.405,0.092-0.765,0.277-1.077c0.184-0.312,0.429-0.563,0.734-0.752    c0.306-0.188,0.679-0.324,1.121-0.406c0.278-0.055,0.806-0.098,1.582-0.13c0.777-0.032,1.335-0.114,1.672-0.246    c0.096-0.337,0.144-0.617,0.144-0.841c0-0.287-0.104-0.513-0.314-0.677c-0.287-0.228-0.706-0.342-1.258-0.342    c-0.52,0-0.944,0.115-1.274,0.345c-0.331,0.23-0.571,0.558-0.722,0.981l-1.251-0.109c0.255-0.72,0.66-1.271,1.213-1.654    c0.555-0.383,1.253-0.574,2.096-0.574c0.897,0,1.608,0.214,2.133,0.643c0.401,0.319,0.602,0.733,0.602,1.244    c0,0.388-0.057,0.836-0.171,1.347l-0.403,1.805c-0.128,0.574-0.191,1.041-0.191,1.401c0,0.228,0.05,0.556,0.15,0.984h-1.251    C260.903,138.338,260.855,138.037,260.828,137.673z M261.286,134.897c-0.173,0.068-0.358,0.121-0.558,0.157    c-0.197,0.036-0.529,0.075-0.994,0.116c-0.72,0.063-1.229,0.145-1.524,0.243c-0.296,0.098-0.52,0.254-0.67,0.468    s-0.226,0.451-0.226,0.711c0,0.347,0.119,0.631,0.359,0.854c0.238,0.224,0.579,0.335,1.021,0.335c0.41,0,0.805-0.108,1.183-0.325    c0.378-0.216,0.677-0.518,0.896-0.905S261.163,135.613,261.286,134.897z"
   id="path104" />
		<path
   d="M263.72,138.575l1.518-7.26h1.121l-0.267,1.265c0.487-0.497,0.943-0.859,1.367-1.087s0.856-0.342,1.299-0.342    c0.588,0,1.049,0.159,1.385,0.479c0.334,0.319,0.502,0.745,0.502,1.278c0,0.269-0.06,0.692-0.178,1.271l-0.923,4.396h-1.237    l0.964-4.601c0.096-0.446,0.144-0.777,0.144-0.991c0-0.241-0.083-0.438-0.25-0.588c-0.166-0.15-0.406-0.226-0.721-0.226    c-0.634,0-1.197,0.228-1.691,0.684c-0.495,0.456-0.858,1.237-1.091,2.345l-0.704,3.377H263.72z"
   id="path106" />
		<path
   d="M271.506,138.575l1.518-7.26h1.121l-0.267,1.265c0.487-0.497,0.943-0.859,1.367-1.087s0.856-0.342,1.299-0.342    c0.588,0,1.05,0.159,1.384,0.479c0.336,0.319,0.503,0.745,0.503,1.278c0,0.269-0.06,0.692-0.178,1.271l-0.923,4.396h-1.237    l0.964-4.601c0.096-0.446,0.144-0.777,0.144-0.991c0-0.241-0.083-0.438-0.249-0.588c-0.167-0.15-0.407-0.226-0.722-0.226    c-0.634,0-1.197,0.228-1.692,0.684c-0.494,0.456-0.857,1.237-1.09,2.345l-0.704,3.377H271.506z"
   id="path108" />
		<path
   d="M284.248,137.263c-0.87,0.984-1.762,1.477-2.673,1.477c-0.561,0-1.013-0.161-1.356-0.481    c-0.345-0.322-0.517-0.715-0.517-1.18c0-0.306,0.077-0.829,0.232-1.572l0.875-4.19h1.237l-0.971,4.642    c-0.082,0.388-0.123,0.688-0.123,0.902c0,0.273,0.083,0.486,0.25,0.639c0.166,0.153,0.411,0.229,0.734,0.229    c0.347,0,0.685-0.084,1.016-0.253c0.33-0.169,0.615-0.396,0.854-0.684c0.24-0.287,0.435-0.627,0.585-1.019    c0.101-0.251,0.217-0.69,0.349-1.319l0.656-3.138h1.237l-1.518,7.26h-1.142L284.248,137.263z"
   id="path110" />
		<path
   d="M287.078,138.575l1.518-7.26h1.121l-0.267,1.265c0.487-0.497,0.943-0.859,1.367-1.087s0.856-0.342,1.299-0.342    c0.588,0,1.05,0.159,1.384,0.479c0.336,0.319,0.503,0.745,0.503,1.278c0,0.269-0.06,0.692-0.178,1.271l-0.923,4.396h-1.237    l0.964-4.601c0.096-0.446,0.144-0.777,0.144-0.991c0-0.241-0.083-0.438-0.249-0.588c-0.167-0.15-0.407-0.226-0.722-0.226    c-0.634,0-1.197,0.228-1.692,0.684c-0.494,0.456-0.857,1.237-1.09,2.345l-0.704,3.377H287.078z"
   id="path112" />
		<path
   d="M294.796,139.231l1.251,0.116c-0.009,0.282,0.025,0.494,0.103,0.636s0.2,0.251,0.369,0.328    c0.224,0.101,0.513,0.15,0.868,0.15c0.747,0,1.285-0.193,1.613-0.581c0.214-0.26,0.412-0.825,0.595-1.695l0.123-0.588    c-0.643,0.651-1.326,0.978-2.051,0.978c-0.733,0-1.348-0.271-1.843-0.81c-0.494-0.541-0.741-1.305-0.741-2.294    c0-0.815,0.194-1.565,0.585-2.249c0.389-0.684,0.853-1.199,1.391-1.549c0.538-0.348,1.092-0.522,1.661-0.522    c0.952,0,1.687,0.451,2.201,1.354l0.246-1.189h1.135l-1.463,7.007c-0.159,0.771-0.369,1.371-0.629,1.801    c-0.26,0.432-0.621,0.765-1.083,1.002c-0.463,0.237-0.997,0.355-1.604,0.355c-0.583,0-1.086-0.075-1.508-0.226    c-0.421-0.15-0.735-0.37-0.943-0.659c-0.207-0.29-0.311-0.621-0.311-0.995C294.762,139.486,294.773,139.363,294.796,139.231z     M296.341,135.362c0,0.497,0.048,0.87,0.144,1.121c0.137,0.351,0.332,0.618,0.584,0.804c0.254,0.184,0.535,0.276,0.845,0.276    c0.405,0,0.809-0.143,1.21-0.427c0.401-0.285,0.726-0.727,0.975-1.323c0.248-0.597,0.372-1.167,0.372-1.709    c0-0.597-0.165-1.072-0.495-1.425c-0.331-0.354-0.74-0.53-1.228-0.53c-0.301,0-0.593,0.081-0.875,0.243    c-0.282,0.161-0.546,0.407-0.79,0.738c-0.243,0.33-0.428,0.726-0.553,1.186C296.403,134.776,296.341,135.125,296.341,135.362z"
   id="path114" />
	</g>
	<g
   id="g116">
		<path
   d="M276.189,73.333l-1.928-10.021h1.292l1.162,5.975c0.214,1.084,0.354,1.959,0.417,2.625    c0.419-0.857,0.764-1.536,1.032-2.037l3.575-6.563h1.381l-5.496,10.021H276.189z"
   id="path118" />
		<path
   d="M287.141,70.866l1.203,0.123c-0.173,0.597-0.57,1.165-1.193,1.702c-0.621,0.538-1.363,0.807-2.225,0.807    c-0.538,0-1.031-0.124-1.48-0.373c-0.448-0.249-0.79-0.609-1.025-1.083c-0.234-0.474-0.352-1.014-0.352-1.62    c0-0.793,0.184-1.562,0.551-2.307c0.366-0.745,0.842-1.299,1.425-1.661s1.215-0.543,1.894-0.543c0.866,0,1.558,0.269,2.074,0.807    c0.518,0.538,0.776,1.271,0.776,2.201c0,0.355-0.032,0.72-0.096,1.094h-5.346c-0.019,0.141-0.027,0.269-0.027,0.383    c0,0.679,0.156,1.197,0.468,1.555c0.313,0.358,0.694,0.537,1.146,0.537c0.424,0,0.841-0.139,1.251-0.417    S286.913,71.39,287.141,70.866z M283.545,69.068h4.074c0.005-0.127,0.007-0.219,0.007-0.273c0-0.62-0.155-1.095-0.465-1.425    s-0.709-0.496-1.196-0.496c-0.528,0-1.011,0.182-1.445,0.547C284.084,67.785,283.759,68.334,283.545,69.068z"
   id="path120" />
		<path
   d="M289.595,73.333l1.518-7.26h1.094l-0.308,1.483c0.374-0.561,0.739-0.975,1.098-1.244c0.357-0.269,0.723-0.403,1.097-0.403    c0.246,0,0.549,0.089,0.909,0.267l-0.506,1.148c-0.214-0.155-0.449-0.232-0.704-0.232c-0.433,0-0.877,0.242-1.333,0.725    s-0.813,1.351-1.073,2.604l-0.615,2.912H289.595z"
   id="path122" />
		<path
   d="M294.373,70.852l1.237-0.075c0,0.355,0.055,0.659,0.164,0.909s0.312,0.456,0.604,0.615    c0.295,0.16,0.638,0.239,1.029,0.239c0.547,0,0.957-0.109,1.23-0.328s0.41-0.476,0.41-0.772c0-0.214-0.082-0.417-0.246-0.608    c-0.169-0.191-0.58-0.427-1.234-0.708c-0.653-0.28-1.071-0.478-1.254-0.591c-0.306-0.187-0.535-0.407-0.69-0.66    s-0.232-0.543-0.232-0.872c0-0.574,0.228-1.066,0.684-1.477s1.094-0.615,1.914-0.615c0.911,0,1.605,0.211,2.081,0.632    c0.477,0.421,0.724,0.977,0.742,1.665l-1.21,0.082c-0.019-0.438-0.173-0.784-0.465-1.039s-0.704-0.383-1.237-0.383    c-0.429,0-0.761,0.098-0.998,0.294s-0.355,0.408-0.355,0.636s0.103,0.428,0.308,0.602c0.137,0.119,0.49,0.301,1.06,0.547    c0.948,0.41,1.545,0.734,1.791,0.971c0.392,0.378,0.588,0.838,0.588,1.381c0,0.36-0.11,0.713-0.332,1.06    c-0.221,0.346-0.558,0.623-1.012,0.831c-0.453,0.208-0.987,0.311-1.603,0.311c-0.839,0-1.552-0.208-2.14-0.622    S294.341,71.786,294.373,70.852z"
   id="path124" />
		<path
   d="M304.148,72.329l-0.205,1.012c-0.296,0.078-0.583,0.116-0.861,0.116c-0.492,0-0.884-0.121-1.176-0.362    c-0.219-0.182-0.328-0.431-0.328-0.745c0-0.16,0.06-0.526,0.178-1.101l0.882-4.218h-0.978l0.198-0.957h0.978l0.376-1.784    l1.415-0.854l-0.554,2.639h1.217l-0.205,0.957h-1.21l-0.841,4.013c-0.104,0.51-0.157,0.816-0.157,0.916    c0,0.146,0.042,0.257,0.127,0.335c0.084,0.078,0.222,0.116,0.413,0.116C303.69,72.411,303.935,72.383,304.148,72.329z"
   id="path126" />
		<path
   d="M310.041,72.431c-0.429,0.369-0.841,0.639-1.237,0.81s-0.82,0.256-1.271,0.256c-0.67,0-1.21-0.197-1.62-0.591    s-0.615-0.899-0.615-1.514c0-0.406,0.092-0.765,0.277-1.077c0.184-0.312,0.429-0.563,0.734-0.752s0.679-0.325,1.121-0.407    c0.278-0.055,0.806-0.098,1.582-0.13c0.777-0.032,1.335-0.114,1.672-0.246c0.096-0.337,0.144-0.618,0.144-0.841    c0-0.287-0.104-0.513-0.314-0.677c-0.287-0.228-0.706-0.342-1.258-0.342c-0.52,0-0.944,0.115-1.274,0.345    c-0.331,0.23-0.571,0.557-0.722,0.981l-1.251-0.109c0.255-0.72,0.66-1.271,1.213-1.654c0.555-0.383,1.253-0.574,2.096-0.574    c0.897,0,1.608,0.214,2.133,0.643c0.401,0.319,0.602,0.734,0.602,1.244c0,0.387-0.057,0.836-0.171,1.347l-0.403,1.805    c-0.128,0.574-0.191,1.042-0.191,1.401c0,0.228,0.05,0.556,0.15,0.984h-1.251C310.116,73.097,310.068,72.796,310.041,72.431z     M310.499,69.656c-0.173,0.068-0.358,0.121-0.558,0.157c-0.197,0.037-0.529,0.075-0.994,0.116    c-0.72,0.064-1.229,0.145-1.524,0.243s-0.52,0.254-0.67,0.468s-0.226,0.451-0.226,0.711c0,0.346,0.119,0.631,0.359,0.854    c0.238,0.223,0.579,0.335,1.021,0.335c0.41,0,0.805-0.108,1.183-0.325s0.677-0.519,0.896-0.906S310.376,70.371,310.499,69.656z     M307.73,64.946l0.294-1.401h1.292l-0.294,1.401H307.73z M310.253,64.946l0.294-1.401h1.285l-0.287,1.401H310.253z"
   id="path128" />
		<path
   d="M312.933,73.333l1.518-7.26h1.094l-0.308,1.483c0.374-0.561,0.739-0.975,1.098-1.244c0.357-0.269,0.723-0.403,1.097-0.403    c0.246,0,0.549,0.089,0.909,0.267l-0.506,1.148c-0.214-0.155-0.449-0.232-0.704-0.232c-0.433,0-0.877,0.242-1.333,0.725    s-0.813,1.351-1.073,2.604l-0.615,2.912H312.933z"
   id="path130" />
		<path
   d="M317.608,73.333l2.099-10.021h1.23l-1.299,6.214l3.609-3.452h1.634l-3.097,2.707l1.873,4.553h-1.354l-1.449-3.726    l-1.504,1.299l-0.506,2.427H317.608z"
   id="path132" />
		<path
   d="M329.927,70.866l1.203,0.123c-0.173,0.597-0.571,1.165-1.192,1.702c-0.623,0.538-1.364,0.807-2.226,0.807    c-0.538,0-1.031-0.124-1.479-0.373c-0.449-0.249-0.791-0.609-1.025-1.083c-0.235-0.474-0.353-1.014-0.353-1.62    c0-0.793,0.184-1.562,0.55-2.307c0.367-0.745,0.843-1.299,1.426-1.661s1.215-0.543,1.894-0.543c0.866,0,1.558,0.269,2.075,0.807    c0.517,0.538,0.775,1.271,0.775,2.201c0,0.355-0.032,0.72-0.096,1.094h-5.346c-0.019,0.141-0.027,0.269-0.027,0.383    c0,0.679,0.156,1.197,0.469,1.555c0.312,0.358,0.693,0.537,1.145,0.537c0.424,0,0.841-0.139,1.251-0.417    S329.699,71.39,329.927,70.866z M326.331,69.068h4.074c0.005-0.127,0.007-0.219,0.007-0.273c0-0.62-0.155-1.095-0.465-1.425    s-0.709-0.496-1.196-0.496c-0.528,0-1.011,0.182-1.446,0.547C326.87,67.785,326.545,68.334,326.331,69.068z"
   id="path134" />
		<path
   d="M332.381,73.333l1.518-7.26h1.094l-0.308,1.483c0.374-0.561,0.739-0.975,1.097-1.244c0.358-0.269,0.724-0.403,1.098-0.403    c0.246,0,0.549,0.089,0.909,0.267l-0.506,1.148c-0.214-0.155-0.449-0.232-0.704-0.232c-0.433,0-0.877,0.242-1.333,0.725    s-0.813,1.351-1.073,2.604l-0.615,2.912H332.381z"
   id="path136" />
	</g>
	<g
   id="g138">
		<path
   d="M191.24,142.075v-1.237h3.78v1.237H191.24z"
   id="path140" />
	</g>
	<g
   id="g142">
		<path
   d="M26.726,79.75l0.13-1.005l5.018-5.995l1.039-1.258c0.209-0.255,0.413-0.49,0.608-0.704    c-0.424,0.05-0.72,0.075-0.889,0.075l-0.328-0.007l-0.396,0.007l-0.39,0.007h-3.37l0.239-1.142h6.911l-0.116,1.046l-5.38,6.392    c-0.661,0.789-1.08,1.283-1.258,1.483c0.201-0.027,0.331-0.041,0.39-0.041h5.462l-0.239,1.142H26.726z"
   id="path144" />
		<path
   d="M40.295,78.848c-0.428,0.369-0.841,0.639-1.237,0.81s-0.82,0.256-1.271,0.256c-0.67,0-1.21-0.197-1.62-0.591    s-0.615-0.899-0.615-1.514c0-0.406,0.092-0.765,0.277-1.077s0.43-0.563,0.735-0.752s0.679-0.325,1.121-0.407    c0.278-0.055,0.806-0.098,1.583-0.13s1.334-0.114,1.671-0.246c0.096-0.337,0.144-0.618,0.144-0.841    c0-0.287-0.105-0.513-0.314-0.677c-0.287-0.228-0.707-0.342-1.258-0.342c-0.52,0-0.944,0.115-1.275,0.345    s-0.571,0.557-0.721,0.981l-1.251-0.109c0.255-0.72,0.66-1.271,1.213-1.654s1.252-0.574,2.095-0.574    c0.898,0,1.609,0.214,2.133,0.643c0.401,0.319,0.602,0.734,0.602,1.244c0,0.387-0.057,0.836-0.171,1.347l-0.403,1.805    c-0.127,0.574-0.191,1.042-0.191,1.401c0,0.228,0.05,0.556,0.15,0.984h-1.251C40.371,79.513,40.323,79.212,40.295,78.848z     M40.753,76.072c-0.173,0.068-0.359,0.121-0.557,0.157s-0.53,0.075-0.995,0.116c-0.72,0.064-1.228,0.145-1.524,0.243    s-0.52,0.254-0.67,0.468s-0.226,0.451-0.226,0.711c0,0.346,0.12,0.631,0.359,0.854s0.58,0.335,1.022,0.335    c0.41,0,0.804-0.108,1.183-0.325s0.677-0.519,0.896-0.906S40.63,76.788,40.753,76.072z M37.985,71.362l0.294-1.401h1.292    l-0.294,1.401H37.985z M40.507,71.362l0.294-1.401h1.285l-0.287,1.401H40.507z"
   id="path146" />
		<path
   d="M43.187,79.75l2.092-10.021h1.237l-0.8,3.849c0.46-0.447,0.889-0.767,1.285-0.96s0.804-0.291,1.224-0.291    c0.602,0,1.069,0.158,1.401,0.475s0.499,0.735,0.499,1.254c0,0.255-0.073,0.725-0.219,1.408l-0.896,4.286h-1.237l0.923-4.396    c0.132-0.638,0.198-1.039,0.198-1.203c0-0.237-0.082-0.431-0.246-0.581s-0.401-0.226-0.711-0.226    c-0.447,0-0.873,0.117-1.278,0.352s-0.724,0.556-0.954,0.964s-0.441,1.065-0.632,1.972l-0.649,3.117H43.187z"
   id="path148" />
		<path
   d="M50.877,79.75l2.092-10.021h1.237L52.115,79.75H50.877z"
   id="path150" />
		<path
   d="M54.083,79.75l1.518-7.26h1.094l-0.308,1.483c0.374-0.561,0.739-0.975,1.097-1.244s0.724-0.403,1.097-0.403    c0.246,0,0.549,0.089,0.909,0.267l-0.506,1.148c-0.214-0.155-0.449-0.232-0.704-0.232c-0.433,0-0.877,0.242-1.333,0.725    s-0.813,1.351-1.073,2.604l-0.615,2.912H54.083z"
   id="path152" />
		<path
   d="M58.964,76.995c0-1.417,0.417-2.591,1.251-3.521c0.688-0.766,1.59-1.148,2.707-1.148c0.875,0,1.58,0.273,2.116,0.82    s0.803,1.285,0.803,2.215c0,0.834-0.168,1.61-0.506,2.328s-0.817,1.268-1.439,1.651s-1.277,0.574-1.965,0.574    c-0.565,0-1.079-0.121-1.542-0.362s-0.816-0.583-1.06-1.025S58.964,77.574,58.964,76.995z M60.202,76.872    c0,0.684,0.164,1.202,0.492,1.555s0.745,0.53,1.251,0.53c0.264,0,0.526-0.054,0.786-0.161s0.501-0.27,0.725-0.489    s0.414-0.468,0.571-0.749s0.284-0.582,0.379-0.906c0.141-0.451,0.212-0.884,0.212-1.299c0-0.656-0.165-1.166-0.496-1.528    s-0.746-0.543-1.248-0.543c-0.387,0-0.741,0.092-1.06,0.277s-0.607,0.455-0.865,0.81s-0.447,0.769-0.567,1.241    S60.202,76.503,60.202,76.872z"
   id="path154" />
		<path
   d="M66.532,79.75l2.092-10.021h1.237l-0.8,3.849c0.46-0.447,0.889-0.767,1.285-0.96s0.804-0.291,1.224-0.291    c0.602,0,1.069,0.158,1.401,0.475s0.499,0.735,0.499,1.254c0,0.255-0.073,0.725-0.219,1.408l-0.896,4.286h-1.237l0.923-4.396    c0.132-0.638,0.198-1.039,0.198-1.203c0-0.237-0.082-0.431-0.246-0.581s-0.401-0.226-0.711-0.226    c-0.447,0-0.873,0.117-1.278,0.352s-0.724,0.556-0.954,0.964s-0.441,1.065-0.632,1.972l-0.649,3.117H66.532z"
   id="path156" />
		<path
   d="M74.318,79.75l1.518-7.26h1.094l-0.308,1.483c0.374-0.561,0.739-0.975,1.097-1.244s0.724-0.403,1.097-0.403    c0.246,0,0.549,0.089,0.909,0.267l-0.506,1.148c-0.214-0.155-0.449-0.232-0.704-0.232c-0.433,0-0.877,0.242-1.333,0.725    s-0.813,1.351-1.073,2.604l-0.615,2.912H74.318z"
   id="path158" />
	</g>
	<g
   id="g160">
		<path
   d="M96.22,35.5l5.681-10.021h1.579l1.654,10.021h-1.299l-0.485-2.885h-4.054L97.689,35.5H96.22z M99.87,31.583h3.315    l-0.39-2.516c-0.15-0.998-0.244-1.83-0.28-2.495c-0.228,0.574-0.561,1.255-0.998,2.044L99.87,31.583z"
   id="path162" />
		<path
   d="M106.303,35.5l1.518-7.26h1.121l-0.267,1.265c0.488-0.497,0.943-0.859,1.367-1.087s0.857-0.342,1.299-0.342    c0.588,0,1.049,0.16,1.384,0.479s0.502,0.745,0.502,1.278c0,0.269-0.059,0.693-0.178,1.271l-0.923,4.396h-1.237l0.964-4.601    c0.096-0.447,0.144-0.777,0.144-0.991c0-0.242-0.083-0.438-0.25-0.588s-0.407-0.226-0.721-0.226c-0.633,0-1.197,0.228-1.692,0.684    s-0.858,1.237-1.09,2.345L107.54,35.5H106.303z"
   id="path164" />
		<path
   d="M114.308,32.745c0-1.417,0.417-2.591,1.251-3.521c0.688-0.766,1.59-1.148,2.707-1.148c0.875,0,1.58,0.273,2.116,0.82    s0.803,1.285,0.803,2.215c0,0.834-0.168,1.61-0.506,2.328s-0.817,1.268-1.439,1.651s-1.277,0.574-1.965,0.574    c-0.565,0-1.079-0.121-1.542-0.362s-0.816-0.583-1.06-1.025S114.308,33.324,114.308,32.745z M115.545,32.622    c0,0.684,0.164,1.202,0.492,1.555s0.745,0.53,1.251,0.53c0.264,0,0.526-0.054,0.786-0.161s0.501-0.27,0.725-0.489    s0.414-0.468,0.571-0.749s0.284-0.582,0.379-0.906c0.141-0.451,0.212-0.884,0.212-1.299c0-0.656-0.165-1.166-0.496-1.528    s-0.746-0.543-1.248-0.543c-0.387,0-0.741,0.092-1.06,0.277s-0.607,0.455-0.865,0.81s-0.447,0.769-0.567,1.241    S115.545,32.253,115.545,32.622z"
   id="path166" />
		<path
   d="M126.77,34.447c-0.707,0.811-1.445,1.217-2.215,1.217c-0.688,0-1.261-0.254-1.719-0.762s-0.687-1.245-0.687-2.211    c0-0.884,0.181-1.692,0.543-2.423s0.816-1.279,1.36-1.644s1.09-0.547,1.637-0.547c0.902,0,1.583,0.435,2.044,1.306l0.82-3.903    h1.23L127.692,35.5h-1.142L126.77,34.447z M123.379,32.458c0,0.506,0.05,0.905,0.15,1.196s0.271,0.534,0.513,0.728    s0.531,0.291,0.868,0.291c0.561,0,1.069-0.292,1.524-0.875c0.611-0.775,0.916-1.732,0.916-2.871c0-0.574-0.15-1.023-0.451-1.347    s-0.679-0.485-1.135-0.485c-0.296,0-0.566,0.066-0.81,0.198s-0.485,0.356-0.725,0.673s-0.441,0.719-0.605,1.207    S123.379,32.089,123.379,32.458z"
   id="path168" />
		<path
   d="M134.993,33.032l1.203,0.123c-0.173,0.597-0.571,1.165-1.193,1.702s-1.364,0.807-2.225,0.807    c-0.538,0-1.031-0.124-1.48-0.373s-0.791-0.609-1.025-1.083s-0.352-1.014-0.352-1.62c0-0.793,0.184-1.562,0.55-2.307    s0.842-1.299,1.425-1.661s1.214-0.543,1.894-0.543c0.866,0,1.558,0.269,2.075,0.807s0.776,1.271,0.776,2.201    c0,0.355-0.032,0.72-0.096,1.094h-5.346c-0.018,0.141-0.027,0.269-0.027,0.383c0,0.679,0.156,1.197,0.468,1.555    s0.694,0.537,1.145,0.537c0.424,0,0.841-0.139,1.251-0.417S134.765,33.556,134.993,33.032z M131.397,31.234h4.074    c0.004-0.127,0.007-0.219,0.007-0.273c0-0.62-0.155-1.095-0.465-1.425s-0.708-0.496-1.196-0.496c-0.529,0-1.011,0.182-1.446,0.547    S131.612,30.5,131.397,31.234z"
   id="path170" />
	</g>
</g>
</svg>