%!PS-Adobe-2.0 EPSF-2.0
%%Title: time_yukawa_lambda_0_0_a_0_5_Ntherm_500_s_12_dat.tex
%%Creator: gnuplot 4.6 patchlevel 1
%%CreationDate: Sun Dec  8 19:27:49 2013
%%DocumentFonts: 
%%BoundingBox: 50 50 410 302
%%EndComments
%%BeginProlog
/gnudict 256 dict def
gnudict begin
%
% The following true/false flags may be edited by hand if desired.
% The unit line width and grayscale image gamma correction may also be changed.
%
/Color true def
/Blacktext false def
/Solid false def
/Dashlength 1 def
/Landscape false def
/Level1 false def
/Rounded false def
/ClipToBoundingBox false def
/SuppressPDFMark false def
/TransparentPatterns false def
/gnulinewidth 5.000 def
/userlinewidth gnulinewidth def
/Gamma 1.0 def
/BackgroundColor {-1.000 -1.000 -1.000} def
%
/vshift -73 def
/dl1 {
  10.0 Dashlength mul mul
  Rounded { currentlinewidth 0.75 mul sub dup 0 le { pop 0.01 } if } if
} def
/dl2 {
  10.0 Dashlength mul mul
  Rounded { currentlinewidth 0.75 mul add } if
} def
/hpt_ 31.5 def
/vpt_ 31.5 def
/hpt hpt_ def
/vpt vpt_ def
/doclip {
  ClipToBoundingBox {
    newpath 50 50 moveto 410 50 lineto 410 302 lineto 50 302 lineto closepath
    clip
  } if
} def
%
% Gnuplot Prolog Version 4.6 (September 2012)
%
%/SuppressPDFMark true def
%
/M {moveto} bind def
/L {lineto} bind def
/R {rmoveto} bind def
/V {rlineto} bind def
/N {newpath moveto} bind def
/Z {closepath} bind def
/C {setrgbcolor} bind def
/f {rlineto fill} bind def
/g {setgray} bind def
/Gshow {show} def   % May be redefined later in the file to support UTF-8
/vpt2 vpt 2 mul def
/hpt2 hpt 2 mul def
/Lshow {currentpoint stroke M 0 vshift R 
	Blacktext {gsave 0 setgray show grestore} {show} ifelse} def
/Rshow {currentpoint stroke M dup stringwidth pop neg vshift R
	Blacktext {gsave 0 setgray show grestore} {show} ifelse} def
/Cshow {currentpoint stroke M dup stringwidth pop -2 div vshift R 
	Blacktext {gsave 0 setgray show grestore} {show} ifelse} def
/UP {dup vpt_ mul /vpt exch def hpt_ mul /hpt exch def
  /hpt2 hpt 2 mul def /vpt2 vpt 2 mul def} def
/DL {Color {setrgbcolor Solid {pop []} if 0 setdash}
 {pop pop pop 0 setgray Solid {pop []} if 0 setdash} ifelse} def
/BL {stroke userlinewidth 2 mul setlinewidth
	Rounded {1 setlinejoin 1 setlinecap} if} def
/AL {stroke userlinewidth 2 div setlinewidth
	Rounded {1 setlinejoin 1 setlinecap} if} def
/UL {dup gnulinewidth mul /userlinewidth exch def
	dup 1 lt {pop 1} if 10 mul /udl exch def} def
/PL {stroke userlinewidth setlinewidth
	Rounded {1 setlinejoin 1 setlinecap} if} def
3.8 setmiterlimit
% Default Line colors
/LCw {1 1 1} def
/LCb {0 0 0} def
/LCa {0 0 0} def
/LC0 {1 0 0} def
/LC1 {0 1 0} def
/LC2 {0 0 1} def
/LC3 {1 0 1} def
/LC4 {0 1 1} def
/LC5 {1 1 0} def
/LC6 {0 0 0} def
/LC7 {1 0.3 0} def
/LC8 {0.5 0.5 0.5} def
% Default Line Types
/LTw {PL [] 1 setgray} def
/LTb {BL [] LCb DL} def
/LTa {AL [1 udl mul 2 udl mul] 0 setdash LCa setrgbcolor} def
/LT0 {PL [] LC0 DL} def
/LT1 {PL [4 dl1 2 dl2] LC1 DL} def
/LT2 {PL [2 dl1 3 dl2] LC2 DL} def
/LT3 {PL [1 dl1 1.5 dl2] LC3 DL} def
/LT4 {PL [6 dl1 2 dl2 1 dl1 2 dl2] LC4 DL} def
/LT5 {PL [3 dl1 3 dl2 1 dl1 3 dl2] LC5 DL} def
/LT6 {PL [2 dl1 2 dl2 2 dl1 6 dl2] LC6 DL} def
/LT7 {PL [1 dl1 2 dl2 6 dl1 2 dl2 1 dl1 2 dl2] LC7 DL} def
/LT8 {PL [2 dl1 2 dl2 2 dl1 2 dl2 2 dl1 2 dl2 2 dl1 4 dl2] LC8 DL} def
/Pnt {stroke [] 0 setdash gsave 1 setlinecap M 0 0 V stroke grestore} def
/Dia {stroke [] 0 setdash 2 copy vpt add M
  hpt neg vpt neg V hpt vpt neg V
  hpt vpt V hpt neg vpt V closepath stroke
  Pnt} def
/Pls {stroke [] 0 setdash vpt sub M 0 vpt2 V
  currentpoint stroke M
  hpt neg vpt neg R hpt2 0 V stroke
 } def
/Box {stroke [] 0 setdash 2 copy exch hpt sub exch vpt add M
  0 vpt2 neg V hpt2 0 V 0 vpt2 V
  hpt2 neg 0 V closepath stroke
  Pnt} def
/Crs {stroke [] 0 setdash exch hpt sub exch vpt add M
  hpt2 vpt2 neg V currentpoint stroke M
  hpt2 neg 0 R hpt2 vpt2 V stroke} def
/TriU {stroke [] 0 setdash 2 copy vpt 1.12 mul add M
  hpt neg vpt -1.62 mul V
  hpt 2 mul 0 V
  hpt neg vpt 1.62 mul V closepath stroke
  Pnt} def
/Star {2 copy Pls Crs} def
/BoxF {stroke [] 0 setdash exch hpt sub exch vpt add M
  0 vpt2 neg V hpt2 0 V 0 vpt2 V
  hpt2 neg 0 V closepath fill} def
/TriUF {stroke [] 0 setdash vpt 1.12 mul add M
  hpt neg vpt -1.62 mul V
  hpt 2 mul 0 V
  hpt neg vpt 1.62 mul V closepath fill} def
/TriD {stroke [] 0 setdash 2 copy vpt 1.12 mul sub M
  hpt neg vpt 1.62 mul V
  hpt 2 mul 0 V
  hpt neg vpt -1.62 mul V closepath stroke
  Pnt} def
/TriDF {stroke [] 0 setdash vpt 1.12 mul sub M
  hpt neg vpt 1.62 mul V
  hpt 2 mul 0 V
  hpt neg vpt -1.62 mul V closepath fill} def
/DiaF {stroke [] 0 setdash vpt add M
  hpt neg vpt neg V hpt vpt neg V
  hpt vpt V hpt neg vpt V closepath fill} def
/Pent {stroke [] 0 setdash 2 copy gsave
  translate 0 hpt M 4 {72 rotate 0 hpt L} repeat
  closepath stroke grestore Pnt} def
/PentF {stroke [] 0 setdash gsave
  translate 0 hpt M 4 {72 rotate 0 hpt L} repeat
  closepath fill grestore} def
/Circle {stroke [] 0 setdash 2 copy
  hpt 0 360 arc stroke Pnt} def
/CircleF {stroke [] 0 setdash hpt 0 360 arc fill} def
/C0 {BL [] 0 setdash 2 copy moveto vpt 90 450 arc} bind def
/C1 {BL [] 0 setdash 2 copy moveto
	2 copy vpt 0 90 arc closepath fill
	vpt 0 360 arc closepath} bind def
/C2 {BL [] 0 setdash 2 copy moveto
	2 copy vpt 90 180 arc closepath fill
	vpt 0 360 arc closepath} bind def
/C3 {BL [] 0 setdash 2 copy moveto
	2 copy vpt 0 180 arc closepath fill
	vpt 0 360 arc closepath} bind def
/C4 {BL [] 0 setdash 2 copy moveto
	2 copy vpt 180 270 arc closepath fill
	vpt 0 360 arc closepath} bind def
/C5 {BL [] 0 setdash 2 copy moveto
	2 copy vpt 0 90 arc
	2 copy moveto
	2 copy vpt 180 270 arc closepath fill
	vpt 0 360 arc} bind def
/C6 {BL [] 0 setdash 2 copy moveto
	2 copy vpt 90 270 arc closepath fill
	vpt 0 360 arc closepath} bind def
/C7 {BL [] 0 setdash 2 copy moveto
	2 copy vpt 0 270 arc closepath fill
	vpt 0 360 arc closepath} bind def
/C8 {BL [] 0 setdash 2 copy moveto
	2 copy vpt 270 360 arc closepath fill
	vpt 0 360 arc closepath} bind def
/C9 {BL [] 0 setdash 2 copy moveto
	2 copy vpt 270 450 arc closepath fill
	vpt 0 360 arc closepath} bind def
/C10 {BL [] 0 setdash 2 copy 2 copy moveto vpt 270 360 arc closepath fill
	2 copy moveto
	2 copy vpt 90 180 arc closepath fill
	vpt 0 360 arc closepath} bind def
/C11 {BL [] 0 setdash 2 copy moveto
	2 copy vpt 0 180 arc closepath fill
	2 copy moveto
	2 copy vpt 270 360 arc closepath fill
	vpt 0 360 arc closepath} bind def
/C12 {BL [] 0 setdash 2 copy moveto
	2 copy vpt 180 360 arc closepath fill
	vpt 0 360 arc closepath} bind def
/C13 {BL [] 0 setdash 2 copy moveto
	2 copy vpt 0 90 arc closepath fill
	2 copy moveto
	2 copy vpt 180 360 arc closepath fill
	vpt 0 360 arc closepath} bind def
/C14 {BL [] 0 setdash 2 copy moveto
	2 copy vpt 90 360 arc closepath fill
	vpt 0 360 arc} bind def
/C15 {BL [] 0 setdash 2 copy vpt 0 360 arc closepath fill
	vpt 0 360 arc closepath} bind def
/Rec {newpath 4 2 roll moveto 1 index 0 rlineto 0 exch rlineto
	neg 0 rlineto closepath} bind def
/Square {dup Rec} bind def
/Bsquare {vpt sub exch vpt sub exch vpt2 Square} bind def
/S0 {BL [] 0 setdash 2 copy moveto 0 vpt rlineto BL Bsquare} bind def
/S1 {BL [] 0 setdash 2 copy vpt Square fill Bsquare} bind def
/S2 {BL [] 0 setdash 2 copy exch vpt sub exch vpt Square fill Bsquare} bind def
/S3 {BL [] 0 setdash 2 copy exch vpt sub exch vpt2 vpt Rec fill Bsquare} bind def
/S4 {BL [] 0 setdash 2 copy exch vpt sub exch vpt sub vpt Square fill Bsquare} bind def
/S5 {BL [] 0 setdash 2 copy 2 copy vpt Square fill
	exch vpt sub exch vpt sub vpt Square fill Bsquare} bind def
/S6 {BL [] 0 setdash 2 copy exch vpt sub exch vpt sub vpt vpt2 Rec fill Bsquare} bind def
/S7 {BL [] 0 setdash 2 copy exch vpt sub exch vpt sub vpt vpt2 Rec fill
	2 copy vpt Square fill Bsquare} bind def
/S8 {BL [] 0 setdash 2 copy vpt sub vpt Square fill Bsquare} bind def
/S9 {BL [] 0 setdash 2 copy vpt sub vpt vpt2 Rec fill Bsquare} bind def
/S10 {BL [] 0 setdash 2 copy vpt sub vpt Square fill 2 copy exch vpt sub exch vpt Square fill
	Bsquare} bind def
/S11 {BL [] 0 setdash 2 copy vpt sub vpt Square fill 2 copy exch vpt sub exch vpt2 vpt Rec fill
	Bsquare} bind def
/S12 {BL [] 0 setdash 2 copy exch vpt sub exch vpt sub vpt2 vpt Rec fill Bsquare} bind def
/S13 {BL [] 0 setdash 2 copy exch vpt sub exch vpt sub vpt2 vpt Rec fill
	2 copy vpt Square fill Bsquare} bind def
/S14 {BL [] 0 setdash 2 copy exch vpt sub exch vpt sub vpt2 vpt Rec fill
	2 copy exch vpt sub exch vpt Square fill Bsquare} bind def
/S15 {BL [] 0 setdash 2 copy Bsquare fill Bsquare} bind def
/D0 {gsave translate 45 rotate 0 0 S0 stroke grestore} bind def
/D1 {gsave translate 45 rotate 0 0 S1 stroke grestore} bind def
/D2 {gsave translate 45 rotate 0 0 S2 stroke grestore} bind def
/D3 {gsave translate 45 rotate 0 0 S3 stroke grestore} bind def
/D4 {gsave translate 45 rotate 0 0 S4 stroke grestore} bind def
/D5 {gsave translate 45 rotate 0 0 S5 stroke grestore} bind def
/D6 {gsave translate 45 rotate 0 0 S6 stroke grestore} bind def
/D7 {gsave translate 45 rotate 0 0 S7 stroke grestore} bind def
/D8 {gsave translate 45 rotate 0 0 S8 stroke grestore} bind def
/D9 {gsave translate 45 rotate 0 0 S9 stroke grestore} bind def
/D10 {gsave translate 45 rotate 0 0 S10 stroke grestore} bind def
/D11 {gsave translate 45 rotate 0 0 S11 stroke grestore} bind def
/D12 {gsave translate 45 rotate 0 0 S12 stroke grestore} bind def
/D13 {gsave translate 45 rotate 0 0 S13 stroke grestore} bind def
/D14 {gsave translate 45 rotate 0 0 S14 stroke grestore} bind def
/D15 {gsave translate 45 rotate 0 0 S15 stroke grestore} bind def
/DiaE {stroke [] 0 setdash vpt add M
  hpt neg vpt neg V hpt vpt neg V
  hpt vpt V hpt neg vpt V closepath stroke} def
/BoxE {stroke [] 0 setdash exch hpt sub exch vpt add M
  0 vpt2 neg V hpt2 0 V 0 vpt2 V
  hpt2 neg 0 V closepath stroke} def
/TriUE {stroke [] 0 setdash vpt 1.12 mul add M
  hpt neg vpt -1.62 mul V
  hpt 2 mul 0 V
  hpt neg vpt 1.62 mul V closepath stroke} def
/TriDE {stroke [] 0 setdash vpt 1.12 mul sub M
  hpt neg vpt 1.62 mul V
  hpt 2 mul 0 V
  hpt neg vpt -1.62 mul V closepath stroke} def
/PentE {stroke [] 0 setdash gsave
  translate 0 hpt M 4 {72 rotate 0 hpt L} repeat
  closepath stroke grestore} def
/CircE {stroke [] 0 setdash 
  hpt 0 360 arc stroke} def
/Opaque {gsave closepath 1 setgray fill grestore 0 setgray closepath} def
/DiaW {stroke [] 0 setdash vpt add M
  hpt neg vpt neg V hpt vpt neg V
  hpt vpt V hpt neg vpt V Opaque stroke} def
/BoxW {stroke [] 0 setdash exch hpt sub exch vpt add M
  0 vpt2 neg V hpt2 0 V 0 vpt2 V
  hpt2 neg 0 V Opaque stroke} def
/TriUW {stroke [] 0 setdash vpt 1.12 mul add M
  hpt neg vpt -1.62 mul V
  hpt 2 mul 0 V
  hpt neg vpt 1.62 mul V Opaque stroke} def
/TriDW {stroke [] 0 setdash vpt 1.12 mul sub M
  hpt neg vpt 1.62 mul V
  hpt 2 mul 0 V
  hpt neg vpt -1.62 mul V Opaque stroke} def
/PentW {stroke [] 0 setdash gsave
  translate 0 hpt M 4 {72 rotate 0 hpt L} repeat
  Opaque stroke grestore} def
/CircW {stroke [] 0 setdash 
  hpt 0 360 arc Opaque stroke} def
/BoxFill {gsave Rec 1 setgray fill grestore} def
/Density {
  /Fillden exch def
  currentrgbcolor
  /ColB exch def /ColG exch def /ColR exch def
  /ColR ColR Fillden mul Fillden sub 1 add def
  /ColG ColG Fillden mul Fillden sub 1 add def
  /ColB ColB Fillden mul Fillden sub 1 add def
  ColR ColG ColB setrgbcolor} def
/BoxColFill {gsave Rec PolyFill} def
/PolyFill {gsave Density fill grestore grestore} def
/h {rlineto rlineto rlineto gsave closepath fill grestore} bind def
%
% PostScript Level 1 Pattern Fill routine for rectangles
% Usage: x y w h s a XX PatternFill
%	x,y = lower left corner of box to be filled
%	w,h = width and height of box
%	  a = angle in degrees between lines and x-axis
%	 XX = 0/1 for no/yes cross-hatch
%
/PatternFill {gsave /PFa [ 9 2 roll ] def
  PFa 0 get PFa 2 get 2 div add PFa 1 get PFa 3 get 2 div add translate
  PFa 2 get -2 div PFa 3 get -2 div PFa 2 get PFa 3 get Rec
  TransparentPatterns {} {gsave 1 setgray fill grestore} ifelse
  clip
  currentlinewidth 0.5 mul setlinewidth
  /PFs PFa 2 get dup mul PFa 3 get dup mul add sqrt def
  0 0 M PFa 5 get rotate PFs -2 div dup translate
  0 1 PFs PFa 4 get div 1 add floor cvi
	{PFa 4 get mul 0 M 0 PFs V} for
  0 PFa 6 get ne {
	0 1 PFs PFa 4 get div 1 add floor cvi
	{PFa 4 get mul 0 2 1 roll M PFs 0 V} for
 } if
  stroke grestore} def
%
/languagelevel where
 {pop languagelevel} {1} ifelse
 2 lt
	{/InterpretLevel1 true def}
	{/InterpretLevel1 Level1 def}
 ifelse
%
% PostScript level 2 pattern fill definitions
%
/Level2PatternFill {
/Tile8x8 {/PaintType 2 /PatternType 1 /TilingType 1 /BBox [0 0 8 8] /XStep 8 /YStep 8}
	bind def
/KeepColor {currentrgbcolor [/Pattern /DeviceRGB] setcolorspace} bind def
<< Tile8x8
 /PaintProc {0.5 setlinewidth pop 0 0 M 8 8 L 0 8 M 8 0 L stroke} 
>> matrix makepattern
/Pat1 exch def
<< Tile8x8
 /PaintProc {0.5 setlinewidth pop 0 0 M 8 8 L 0 8 M 8 0 L stroke
	0 4 M 4 8 L 8 4 L 4 0 L 0 4 L stroke}
>> matrix makepattern
/Pat2 exch def
<< Tile8x8
 /PaintProc {0.5 setlinewidth pop 0 0 M 0 8 L
	8 8 L 8 0 L 0 0 L fill}
>> matrix makepattern
/Pat3 exch def
<< Tile8x8
 /PaintProc {0.5 setlinewidth pop -4 8 M 8 -4 L
	0 12 M 12 0 L stroke}
>> matrix makepattern
/Pat4 exch def
<< Tile8x8
 /PaintProc {0.5 setlinewidth pop -4 0 M 8 12 L
	0 -4 M 12 8 L stroke}
>> matrix makepattern
/Pat5 exch def
<< Tile8x8
 /PaintProc {0.5 setlinewidth pop -2 8 M 4 -4 L
	0 12 M 8 -4 L 4 12 M 10 0 L stroke}
>> matrix makepattern
/Pat6 exch def
<< Tile8x8
 /PaintProc {0.5 setlinewidth pop -2 0 M 4 12 L
	0 -4 M 8 12 L 4 -4 M 10 8 L stroke}
>> matrix makepattern
/Pat7 exch def
<< Tile8x8
 /PaintProc {0.5 setlinewidth pop 8 -2 M -4 4 L
	12 0 M -4 8 L 12 4 M 0 10 L stroke}
>> matrix makepattern
/Pat8 exch def
<< Tile8x8
 /PaintProc {0.5 setlinewidth pop 0 -2 M 12 4 L
	-4 0 M 12 8 L -4 4 M 8 10 L stroke}
>> matrix makepattern
/Pat9 exch def
/Pattern1 {PatternBgnd KeepColor Pat1 setpattern} bind def
/Pattern2 {PatternBgnd KeepColor Pat2 setpattern} bind def
/Pattern3 {PatternBgnd KeepColor Pat3 setpattern} bind def
/Pattern4 {PatternBgnd KeepColor Landscape {Pat5} {Pat4} ifelse setpattern} bind def
/Pattern5 {PatternBgnd KeepColor Landscape {Pat4} {Pat5} ifelse setpattern} bind def
/Pattern6 {PatternBgnd KeepColor Landscape {Pat9} {Pat6} ifelse setpattern} bind def
/Pattern7 {PatternBgnd KeepColor Landscape {Pat8} {Pat7} ifelse setpattern} bind def
} def
%
%
%End of PostScript Level 2 code
%
/PatternBgnd {
  TransparentPatterns {} {gsave 1 setgray fill grestore} ifelse
} def
%
% Substitute for Level 2 pattern fill codes with
% grayscale if Level 2 support is not selected.
%
/Level1PatternFill {
/Pattern1 {0.250 Density} bind def
/Pattern2 {0.500 Density} bind def
/Pattern3 {0.750 Density} bind def
/Pattern4 {0.125 Density} bind def
/Pattern5 {0.375 Density} bind def
/Pattern6 {0.625 Density} bind def
/Pattern7 {0.875 Density} bind def
} def
%
% Now test for support of Level 2 code
%
Level1 {Level1PatternFill} {Level2PatternFill} ifelse
%
/Symbol-Oblique /Symbol findfont [1 0 .167 1 0 0] makefont
dup length dict begin {1 index /FID eq {pop pop} {def} ifelse} forall
currentdict end definefont pop
Level1 SuppressPDFMark or 
{} {
/SDict 10 dict def
systemdict /pdfmark known not {
  userdict /pdfmark systemdict /cleartomark get put
} if
SDict begin [
  /Title (time_yukawa_lambda_0_0_a_0_5_Ntherm_500_s_12_dat.tex)
  /Subject (gnuplot plot)
  /Creator (gnuplot 4.6 patchlevel 1)
  /Author (malte_b)
%  /Producer (gnuplot)
%  /Keywords ()
  /CreationDate (Sun Dec  8 19:27:49 2013)
  /DOCINFO pdfmark
end
} ifelse
end
%%EndProlog
%%Page: 1 1
gnudict begin
gsave
doclip
50 50 translate
0.050 0.050 scale
0 setgray
newpath
1.000 UL
LTb
LCb setrgbcolor
1210 704 M
63 0 V
5530 0 R
-63 0 V
stroke
LTb
1210 1111 M
63 0 V
5530 0 R
-63 0 V
1210 1518 M
63 0 V
5530 0 R
-63 0 V
1210 1925 M
63 0 V
5530 0 R
-63 0 V
1210 2332 M
63 0 V
5530 0 R
-63 0 V
1210 2740 M
63 0 V
5530 0 R
-63 0 V
1210 3147 M
63 0 V
5530 0 R
-63 0 V
1210 3554 M
63 0 V
5530 0 R
-63 0 V
1210 3961 M
63 0 V
5530 0 R
-63 0 V
1210 4368 M
63 0 V
5530 0 R
-63 0 V
1210 4775 M
63 0 V
5530 0 R
-63 0 V
1210 704 M
0 63 V
0 4008 R
0 -63 V
1831 704 M
0 63 V
0 4008 R
0 -63 V
2453 704 M
0 63 V
0 4008 R
0 -63 V
3074 704 M
0 63 V
0 4008 R
0 -63 V
3696 704 M
0 63 V
0 4008 R
0 -63 V
4317 704 M
0 63 V
0 4008 R
0 -63 V
4939 704 M
0 63 V
0 4008 R
0 -63 V
5560 704 M
0 63 V
0 4008 R
0 -63 V
6182 704 M
0 63 V
0 4008 R
0 -63 V
6803 704 M
0 63 V
0 4008 R
0 -63 V
stroke
1210 4775 N
0 -4071 V
5593 0 V
0 4071 V
-5593 0 V
Z stroke
1.000 UP
1.000 UL
LTb
1.000 UL
LT0
LC0 setrgbcolor
LCb setrgbcolor
LT0
LC0 setrgbcolor
5948 4602 M
591 0 V
1210 3302 M
1 27 V
1 119 V
2 -159 V
1 30 V
1 -34 V
1 103 V
2 -289 V
1 40 V
1 77 V
1 118 V
2 -30 V
1 -162 V
1 -106 V
1 223 V
2 56 V
1 0 V
1 106 V
1 -140 V
2 104 V
1 19 V
1 -167 V
1 -70 V
2 -165 V
1 103 V
1 235 V
1 10 V
2 -9 V
1 35 V
1 -19 V
1 -67 V
2 20 V
1 71 V
1 -202 V
1 93 V
2 -32 V
1 36 V
1 -4 V
1 -162 V
1 72 V
2 30 V
1 -39 V
1 -135 V
1 203 V
2 -204 V
1 288 V
1 -61 V
1 -10 V
2 67 V
1 -65 V
1 -57 V
1 10 V
2 -191 V
1 44 V
1 71 V
1 -224 V
2 -188 V
1 -105 V
1 216 V
1 138 V
2 -68 V
1 157 V
1 1 V
1 -3 V
2 -74 V
1 32 V
1 -146 V
1 -75 V
2 -95 V
1 72 V
1 -308 V
1 328 V
1 112 V
2 -108 V
1 365 V
1 -118 V
1 122 V
2 -29 V
1 37 V
1 114 V
1 -89 V
2 -46 V
1 -103 V
1 77 V
1 -121 V
2 3 V
1 233 V
1 -139 V
1 -65 V
2 61 V
1 12 V
1 65 V
1 -65 V
2 133 V
1 -771 V
1 637 V
1 -240 V
2 -5 V
1 -55 V
1 17 V
1 200 V
2 71 V
1 27 V
stroke 1337 3123 M
1 -130 V
1 45 V
2 -144 V
1 210 V
1 -130 V
1 80 V
1 110 V
2 40 V
1 -181 V
1 -98 V
1 209 V
2 38 V
1 -85 V
1 134 V
1 -143 V
2 176 V
1 2 V
1 40 V
1 9 V
2 -11 V
1 106 V
1 10 V
1 17 V
2 -292 V
1 47 V
1 86 V
1 76 V
2 -43 V
1 -20 V
1 -52 V
1 -150 V
2 -62 V
1 -158 V
1 138 V
1 196 V
2 -316 V
1 373 V
1 -26 V
1 31 V
1 -11 V
2 11 V
1 -35 V
1 -9 V
1 -130 V
2 68 V
1 -16 V
1 -38 V
1 69 V
2 -3 V
1 -42 V
1 35 V
1 -6 V
2 -7 V
1 -7 V
1 50 V
1 68 V
2 40 V
1 -77 V
1 -60 V
1 -35 V
2 3 V
1 -10 V
1 3 V
1 162 V
2 -30 V
1 14 V
1 -38 V
1 75 V
2 -89 V
1 2 V
1 -37 V
1 -3 V
2 62 V
1 -84 V
1 92 V
1 -34 V
1 -18 V
2 -44 V
1 -138 V
1 73 V
1 90 V
2 25 V
1 -176 V
1 -76 V
1 78 V
2 -67 V
1 109 V
1 -53 V
1 -9 V
2 -47 V
1 72 V
1 -46 V
1 98 V
2 -87 V
1 -8 V
1 10 V
1 64 V
2 -3 V
1 -133 V
1 48 V
1 -10 V
2 -139 V
1 47 V
1 8 V
stroke 1466 2876 M
1 179 V
2 -52 V
1 10 V
1 69 V
1 -45 V
1 30 V
2 -5 V
1 -26 V
1 51 V
1 -48 V
2 10 V
1 37 V
1 -4 V
1 -9 V
2 26 V
1 78 V
1 -60 V
1 -97 V
2 68 V
1 1 V
1 -196 V
1 101 V
2 -20 V
1 138 V
1 -7 V
1 39 V
2 -172 V
1 129 V
1 -5 V
1 8 V
2 -29 V
1 15 V
1 -83 V
1 -225 V
2 139 V
1 85 V
1 10 V
1 146 V
2 2 V
1 -50 V
1 -20 V
1 85 V
1 -50 V
2 55 V
1 -83 V
1 20 V
1 93 V
2 -91 V
1 -143 V
1 -49 V
1 -214 V
2 206 V
1 45 V
1 36 V
1 79 V
2 -103 V
1 19 V
1 17 V
1 82 V
2 -84 V
1 112 V
1 -21 V
1 -76 V
2 84 V
1 -132 V
1 -109 V
1 158 V
2 -57 V
1 -21 V
1 21 V
1 3 V
2 -411 V
1 305 V
1 -2 V
1 20 V
1 77 V
2 140 V
1 -18 V
1 20 V
1 -36 V
2 -63 V
1 -100 V
1 -2 V
1 -141 V
2 46 V
1 118 V
1 15 V
1 81 V
2 69 V
1 -114 V
1 26 V
1 -133 V
2 -70 V
1 27 V
1 94 V
1 147 V
2 -32 V
1 -67 V
1 -32 V
1 45 V
2 19 V
1 102 V
1 -8 V
1 -15 V
stroke 1595 3083 M
2 -69 V
1 -182 V
1 40 V
1 197 V
2 -98 V
1 2 V
1 -62 V
1 127 V
1 38 V
2 -83 V
1 -306 V
1 70 V
1 27 V
2 65 V
1 111 V
1 28 V
1 -105 V
2 -238 V
1 266 V
1 -226 V
1 -160 V
2 189 V
1 40 V
1 170 V
1 -60 V
2 -147 V
1 -38 V
1 102 V
1 184 V
2 22 V
1 6 V
1 -315 V
1 -142 V
2 165 V
1 101 V
1 -102 V
1 -46 V
2 217 V
1 88 V
1 89 V
1 77 V
1 -59 V
2 11 V
1 -62 V
1 49 V
1 -144 V
2 -53 V
1 126 V
1 -97 V
1 14 V
2 -329 V
1 264 V
1 -377 V
1 505 V
2 -66 V
1 -144 V
1 20 V
1 27 V
2 63 V
1 -61 V
1 -189 V
1 40 V
2 -259 V
1 393 V
1 -4 V
1 -151 V
2 80 V
1 146 V
1 67 V
1 153 V
2 -91 V
1 28 V
1 -21 V
1 28 V
2 -35 V
1 -20 V
1 19 V
1 -26 V
1 77 V
2 -61 V
1 -4 V
1 -71 V
1 -45 V
2 145 V
1 -96 V
1 -62 V
1 109 V
2 -25 V
1 -123 V
1 198 V
1 24 V
2 23 V
1 -40 V
1 109 V
1 -94 V
2 122 V
1 -13 V
1 -35 V
1 -13 V
2 101 V
1 -5 V
1 -23 V
1 -43 V
2 101 V
stroke 1725 3226 M
1 -172 V
1 151 V
1 -24 V
2 -118 V
1 -379 V
1 -2 V
1 -22 V
1 77 V
2 -40 V
1 -71 V
1 -324 V
1 743 V
2 38 V
1 81 V
1 90 V
1 -31 V
2 40 V
1 -59 V
1 -153 V
1 101 V
2 19 V
1 28 V
1 73 V
1 28 V
2 15 V
1 -60 V
1 -13 V
1 -61 V
2 18 V
1 35 V
1 -34 V
1 -55 V
2 78 V
1 67 V
1 -54 V
1 -46 V
2 45 V
1 85 V
1 -29 V
1 67 V
2 -16 V
1 43 V
1 -83 V
1 111 V
1 45 V
2 -48 V
1 60 V
1 41 V
1 -12 V
2 9 V
1 -30 V
1 74 V
1 -1 V
2 28 V
1 31 V
1 -92 V
1 17 V
2 29 V
1 7 V
1 -34 V
1 -94 V
2 -142 V
1 206 V
1 25 V
1 -93 V
2 -77 V
1 72 V
1 -86 V
1 -122 V
2 -18 V
1 45 V
1 -85 V
1 -177 V
2 189 V
1 142 V
1 124 V
1 -38 V
2 -45 V
1 -9 V
1 -26 V
1 3 V
1 28 V
2 71 V
1 -144 V
1 75 V
1 128 V
2 -44 V
1 -12 V
1 -61 V
1 -114 V
2 -96 V
1 -32 V
1 -108 V
1 57 V
2 -21 V
1 -80 V
1 -38 V
1 35 V
2 113 V
1 -121 V
1 -245 V
1 25 V
2 46 V
1 93 V
stroke 1854 2886 M
1 56 V
1 -35 V
2 -23 V
1 -137 V
1 56 V
1 -88 V
2 102 V
1 -82 V
1 -29 V
1 99 V
1 -90 V
2 -99 V
1 151 V
1 -116 V
1 -23 V
2 177 V
1 12 V
1 -274 V
1 290 V
2 4 V
1 -143 V
1 61 V
1 132 V
2 95 V
1 -36 V
1 -93 V
1 35 V
2 98 V
1 -99 V
1 -64 V
1 5 V
2 -110 V
1 97 V
1 -21 V
1 13 V
2 66 V
1 61 V
1 60 V
1 -11 V
2 -27 V
1 -97 V
1 -54 V
1 -265 V
2 198 V
1 -279 V
1 32 V
1 30 V
1 -81 V
2 202 V
1 7 V
1 48 V
1 -11 V
2 -1 V
1 135 V
1 75 V
1 -41 V
2 13 V
1 -109 V
1 101 V
1 111 V
2 -39 V
1 19 V
1 22 V
1 37 V
2 24 V
1 -82 V
1 20 V
1 65 V
2 -35 V
1 -11 V
1 137 V
1 -176 V
2 -14 V
1 30 V
1 -33 V
1 -28 V
2 27 V
1 136 V
1 45 V
1 -16 V
1 -73 V
2 3 V
1 21 V
1 70 V
1 -164 V
2 9 V
1 -92 V
1 -139 V
1 38 V
2 66 V
1 -53 V
1 -91 V
1 -22 V
2 -79 V
1 -27 V
1 -35 V
1 -28 V
2 98 V
1 21 V
1 171 V
1 211 V
2 23 V
1 -97 V
1 86 V
stroke 1983 3015 M
1 -152 V
2 160 V
1 89 V
1 -15 V
1 -112 V
2 92 V
1 1 V
1 -137 V
1 -59 V
2 96 V
1 -62 V
1 184 V
1 53 V
1 -67 V
2 -170 V
1 -32 V
1 -290 V
1 455 V
2 -20 V
1 63 V
1 -43 V
1 -70 V
2 25 V
1 2 V
1 94 V
1 -82 V
2 -47 V
1 -13 V
1 117 V
1 -20 V
2 -141 V
1 -51 V
1 174 V
1 140 V
2 -54 V
1 15 V
1 -33 V
1 -7 V
2 20 V
1 -231 V
1 172 V
1 -6 V
2 -94 V
1 86 V
1 41 V
1 74 V
1 54 V
2 -55 V
1 32 V
1 -53 V
1 8 V
2 39 V
1 -164 V
1 130 V
1 -133 V
2 17 V
1 -107 V
1 26 V
1 -130 V
2 9 V
1 -9 V
1 31 V
1 -165 V
2 91 V
1 121 V
1 13 V
1 -101 V
2 -181 V
1 207 V
1 23 V
1 121 V
2 32 V
1 77 V
1 -46 V
1 -69 V
2 -14 V
1 159 V
1 95 V
1 -75 V
2 158 V
1 2 V
1 45 V
1 58 V
1 48 V
2 11 V
1 26 V
1 9 V
1 -85 V
2 -56 V
1 0 V
1 125 V
1 66 V
2 -748 V
1 580 V
1 100 V
1 78 V
2 -62 V
1 -16 V
1 -20 V
1 26 V
2 -231 V
1 103 V
1 -72 V
1 32 V
stroke 2112 3320 M
2 -60 V
1 -68 V
1 -211 V
1 26 V
2 104 V
1 -15 V
1 -47 V
1 33 V
2 -43 V
1 192 V
1 -54 V
1 40 V
1 -54 V
2 1 V
1 -1 V
1 -173 V
1 174 V
2 -19 V
1 -26 V
1 56 V
1 -73 V
2 -22 V
1 73 V
1 -128 V
1 3 V
2 21 V
1 3 V
1 28 V
1 -223 V
2 25 V
1 7 V
1 -45 V
1 105 V
2 -130 V
1 91 V
1 -121 V
1 311 V
2 20 V
1 -36 V
1 43 V
1 -135 V
2 144 V
1 10 V
1 -50 V
1 102 V
2 -7 V
1 -46 V
1 -43 V
1 -195 V
1 88 V
2 193 V
1 40 V
1 -126 V
1 71 V
2 -21 V
1 -65 V
1 24 V
1 -1 V
2 25 V
1 59 V
1 -126 V
1 32 V
2 -26 V
1 -238 V
1 94 V
1 -87 V
2 165 V
1 -12 V
1 6 V
1 -13 V
2 87 V
1 -59 V
1 -99 V
1 176 V
2 -31 V
1 -70 V
1 -135 V
1 -198 V
2 260 V
1 -109 V
1 -209 V
1 74 V
1 7 V
2 -34 V
1 -140 V
1 67 V
1 -103 V
2 -38 V
1 81 V
1 -7 V
1 -45 V
2 23 V
1 144 V
1 -143 V
1 89 V
2 -285 V
1 133 V
1 -93 V
1 190 V
2 85 V
1 -36 V
1 2 V
1 -338 V
2 145 V
stroke 2242 2380 M
1 232 V
1 -1 V
1 -293 V
2 281 V
1 -251 V
1 98 V
1 -17 V
2 -132 V
1 9 V
1 118 V
1 23 V
2 68 V
1 -12 V
1 -1 V
1 -60 V
1 93 V
2 66 V
1 -79 V
1 -123 V
1 127 V
2 -150 V
1 15 V
1 82 V
1 -73 V
2 -74 V
1 -119 V
1 294 V
1 7 V
2 64 V
1 -231 V
1 223 V
1 86 V
2 -132 V
1 -8 V
1 -90 V
1 -32 V
2 -113 V
1 11 V
1 121 V
1 140 V
2 -22 V
1 -1 V
1 2 V
1 -144 V
2 -142 V
1 246 V
1 -292 V
1 132 V
1 -108 V
2 -21 V
1 136 V
1 50 V
1 -244 V
2 261 V
1 80 V
1 14 V
1 11 V
2 -6 V
1 -19 V
1 9 V
1 168 V
2 -84 V
1 100 V
1 -169 V
1 35 V
2 8 V
1 58 V
1 -57 V
1 6 V
2 -26 V
1 -42 V
1 115 V
1 -299 V
2 236 V
1 -38 V
1 -128 V
1 46 V
2 -537 V
1 699 V
1 -61 V
1 -24 V
2 -231 V
1 362 V
1 73 V
1 47 V
1 -174 V
2 109 V
1 8 V
1 38 V
1 12 V
2 -411 V
1 338 V
1 -4 V
1 18 V
2 117 V
1 23 V
1 -55 V
1 119 V
2 -178 V
1 -102 V
1 191 V
1 -52 V
2 -119 V
1 -40 V
stroke 2371 2584 M
1 -8 V
1 -194 V
2 71 V
1 182 V
1 -227 V
1 197 V
2 -85 V
1 -451 V
1 218 V
1 91 V
2 -72 V
1 155 V
1 -327 V
1 140 V
2 -247 V
1 170 V
1 148 V
1 71 V
1 -189 V
2 45 V
1 13 V
1 -90 V
1 2 V
2 125 V
1 -175 V
1 -86 V
1 29 V
2 13 V
1 45 V
1 -340 V
1 144 V
2 100 V
1 -65 V
1 33 V
1 206 V
2 51 V
1 -219 V
1 218 V
1 -114 V
2 -124 V
1 59 V
1 20 V
1 26 V
2 -88 V
1 -107 V
1 109 V
1 -58 V
2 -130 V
1 -127 V
1 205 V
1 175 V
1 30 V
2 6 V
1 -73 V
1 -196 V
1 117 V
2 -467 V
1 386 V
1 168 V
1 -132 V
2 -180 V
1 371 V
1 49 V
1 34 V
2 -245 V
1 213 V
1 44 V
1 158 V
2 -143 V
1 100 V
1 -132 V
1 48 V
2 -10 V
1 21 V
1 -171 V
1 -69 V
2 -73 V
1 7 V
1 26 V
1 36 V
2 238 V
1 11 V
1 -13 V
1 -110 V
2 83 V
1 34 V
1 36 V
1 134 V
1 -10 V
2 -38 V
1 -17 V
1 -108 V
1 -265 V
2 18 V
1 -51 V
1 247 V
1 115 V
2 -40 V
1 55 V
1 -286 V
1 -71 V
2 -46 V
1 137 V
1 149 V
stroke 2500 2247 M
1 -155 V
2 197 V
1 -162 V
1 70 V
1 -269 V
2 334 V
1 120 V
1 210 V
1 -58 V
2 -12 V
1 -40 V
1 10 V
1 -16 V
2 96 V
1 -231 V
1 106 V
1 -131 V
1 152 V
2 156 V
1 51 V
1 -33 V
1 -158 V
2 124 V
1 68 V
1 9 V
1 -85 V
2 -200 V
1 61 V
1 -116 V
1 23 V
2 86 V
1 101 V
1 -222 V
1 203 V
2 -69 V
1 71 V
1 28 V
1 -48 V
2 -159 V
1 -200 V
1 -171 V
1 164 V
2 220 V
1 -209 V
1 263 V
1 -25 V
2 39 V
1 -133 V
1 101 V
1 46 V
2 -2 V
1 14 V
1 -39 V
1 29 V
1 181 V
2 -17 V
1 14 V
1 -506 V
1 464 V
2 -236 V
1 207 V
1 -4 V
1 31 V
2 32 V
1 -44 V
1 -180 V
1 29 V
2 26 V
1 210 V
1 -132 V
1 5 V
2 -63 V
1 52 V
1 93 V
1 -85 V
2 -168 V
1 12 V
1 -144 V
1 284 V
2 -31 V
1 -73 V
1 -31 V
1 116 V
2 -52 V
1 69 V
1 -30 V
1 -110 V
1 -41 V
2 7 V
1 10 V
1 46 V
1 -90 V
2 27 V
1 -47 V
1 135 V
1 -164 V
2 68 V
1 -102 V
1 133 V
1 150 V
2 -130 V
1 -31 V
1 -284 V
1 404 V
stroke 2629 2466 M
2 -248 V
1 244 V
1 -74 V
1 78 V
2 -147 V
1 92 V
1 32 V
1 31 V
2 28 V
1 -670 V
1 820 V
1 -180 V
2 64 V
1 -108 V
1 -9 V
1 106 V
2 81 V
1 -130 V
1 13 V
1 71 V
1 -21 V
2 -225 V
1 277 V
1 62 V
1 -83 V
2 209 V
1 -22 V
1 25 V
1 -18 V
2 -35 V
1 -287 V
1 213 V
1 -20 V
2 -11 V
1 -40 V
1 122 V
1 136 V
2 51 V
1 -65 V
1 -100 V
1 93 V
2 -74 V
1 -20 V
1 -211 V
1 184 V
2 64 V
1 -44 V
1 3 V
1 -162 V
2 -132 V
1 391 V
1 -103 V
1 -177 V
1 206 V
2 -30 V
1 -107 V
1 110 V
1 -13 V
2 -130 V
1 296 V
1 30 V
1 52 V
2 74 V
1 36 V
1 -7 V
1 -101 V
2 -45 V
1 -242 V
1 134 V
1 121 V
2 -70 V
1 177 V
1 -245 V
1 208 V
2 88 V
1 70 V
1 -116 V
1 43 V
2 -274 V
1 133 V
1 103 V
1 -82 V
2 -90 V
1 72 V
1 42 V
1 48 V
2 -84 V
1 152 V
1 -112 V
1 33 V
1 23 V
2 99 V
1 -41 V
1 -27 V
1 31 V
2 -75 V
1 -95 V
1 134 V
1 -112 V
2 99 V
1 -34 V
1 -49 V
1 118 V
2 -63 V
stroke 2759 3028 M
1 53 V
1 30 V
1 -37 V
2 -124 V
1 54 V
1 79 V
1 -46 V
2 -83 V
1 10 V
1 -14 V
1 -35 V
2 48 V
1 -76 V
1 31 V
1 39 V
2 -177 V
1 45 V
1 -107 V
1 -11 V
1 -108 V
2 48 V
1 -627 V
1 480 V
1 131 V
2 69 V
1 9 V
1 110 V
1 89 V
2 -6 V
1 -64 V
1 30 V
1 -30 V
2 131 V
1 -121 V
1 -135 V
1 162 V
2 -347 V
1 296 V
1 46 V
1 14 V
2 39 V
1 -86 V
1 123 V
1 110 V
2 60 V
1 132 V
1 -40 V
1 -62 V
2 49 V
1 -107 V
1 70 V
1 17 V
2 -69 V
1 -31 V
1 53 V
1 -41 V
1 19 V
2 -15 V
1 -27 V
1 -31 V
1 6 V
2 18 V
1 -92 V
1 -37 V
1 74 V
2 -191 V
1 -45 V
1 76 V
1 -173 V
2 -84 V
1 93 V
1 100 V
1 -44 V
2 -274 V
1 154 V
1 48 V
1 -118 V
2 127 V
1 -75 V
1 -157 V
1 -258 V
2 435 V
1 34 V
1 147 V
1 -57 V
2 -26 V
1 -371 V
1 180 V
1 174 V
1 169 V
2 26 V
1 56 V
1 -4 V
1 8 V
2 -34 V
1 37 V
1 -256 V
1 187 V
2 42 V
1 186 V
1 32 V
1 -24 V
2 -53 V
1 -43 V
stroke 2888 3040 M
1 -219 V
1 -420 V
2 236 V
1 228 V
1 54 V
1 49 V
2 -381 V
1 18 V
1 44 V
1 -4 V
2 144 V
1 7 V
1 37 V
1 -107 V
2 -88 V
1 99 V
1 51 V
1 67 V
2 -457 V
1 214 V
1 232 V
1 -34 V
1 58 V
2 131 V
1 94 V
1 -50 V
1 -178 V
2 306 V
1 -84 V
1 -29 V
1 -6 V
2 -24 V
1 169 V
1 43 V
1 -160 V
2 56 V
1 -38 V
1 -328 V
1 174 V
2 -184 V
1 75 V
1 111 V
1 -44 V
2 77 V
1 52 V
1 -29 V
1 -103 V
2 -99 V
1 -38 V
1 19 V
1 -101 V
2 -65 V
1 -249 V
1 97 V
1 93 V
2 84 V
1 -58 V
1 12 V
1 156 V
1 42 V
2 -178 V
1 137 V
1 25 V
1 141 V
2 0 V
1 8 V
1 50 V
1 12 V
2 -172 V
1 119 V
1 -33 V
1 9 V
2 -8 V
1 25 V
1 -27 V
1 -150 V
2 88 V
1 104 V
1 -41 V
1 102 V
2 -404 V
1 325 V
1 -91 V
1 95 V
2 8 V
1 -31 V
1 56 V
1 22 V
2 -100 V
1 -177 V
1 170 V
1 -84 V
1 74 V
2 -53 V
1 271 V
1 92 V
1 -51 V
2 -67 V
1 -137 V
1 -72 V
1 3 V
2 -73 V
1 -10 V
1 134 V
stroke 3017 2903 M
1 -115 V
2 131 V
1 -199 V
1 46 V
1 26 V
2 56 V
1 91 V
1 -84 V
1 152 V
2 28 V
1 25 V
1 -44 V
1 100 V
2 173 V
1 -78 V
1 -2 V
1 30 V
2 -102 V
1 -259 V
1 201 V
1 -205 V
2 3 V
1 -400 V
1 410 V
1 -9 V
1 -43 V
2 163 V
1 68 V
1 -131 V
1 -131 V
2 112 V
1 80 V
1 -59 V
1 50 V
2 41 V
1 134 V
1 64 V
1 49 V
2 -193 V
1 182 V
1 10 V
1 -16 V
2 -16 V
1 23 V
1 -180 V
1 69 V
2 1 V
1 24 V
1 -4 V
1 -19 V
2 -53 V
1 8 V
1 38 V
1 -41 V
2 47 V
1 89 V
1 -187 V
1 -8 V
1 54 V
2 -9 V
1 -210 V
1 166 V
1 111 V
2 -69 V
1 -6 V
1 -151 V
1 70 V
2 -58 V
1 21 V
1 6 V
1 19 V
2 -18 V
1 -46 V
1 -10 V
1 4 V
2 9 V
1 -22 V
1 117 V
1 77 V
2 -27 V
1 102 V
1 34 V
1 -74 V
2 -173 V
1 174 V
1 -66 V
1 -22 V
2 -44 V
1 10 V
1 52 V
1 -87 V
2 -21 V
1 -38 V
1 -15 V
1 70 V
1 66 V
2 -116 V
1 71 V
1 -163 V
1 -91 V
2 10 V
1 57 V
1 -332 V
1 428 V
stroke 3146 2909 M
2 -93 V
1 109 V
1 46 V
1 48 V
2 3 V
1 -64 V
1 134 V
1 -82 V
2 50 V
1 -45 V
1 45 V
1 -24 V
2 -4 V
1 -72 V
1 43 V
1 84 V
2 43 V
1 31 V
1 -162 V
1 -124 V
2 -231 V
1 269 V
1 -187 V
1 -262 V
1 216 V
2 193 V
1 -76 V
1 -13 V
1 -26 V
2 -225 V
1 198 V
1 -126 V
1 11 V
2 201 V
1 45 V
1 -41 V
1 36 V
2 30 V
1 85 V
1 63 V
1 -44 V
2 57 V
1 -39 V
1 -106 V
1 19 V
2 -80 V
1 36 V
1 -50 V
1 -52 V
2 42 V
1 72 V
1 63 V
1 18 V
2 -53 V
1 39 V
1 -5 V
1 -29 V
2 -57 V
1 -149 V
1 173 V
1 102 V
1 3 V
2 -48 V
1 53 V
1 90 V
1 27 V
2 18 V
1 -53 V
1 -15 V
1 -13 V
2 -14 V
1 -9 V
1 119 V
1 -74 V
2 80 V
1 50 V
1 -24 V
1 -90 V
2 -53 V
1 90 V
1 82 V
1 54 V
2 -15 V
1 -370 V
1 353 V
1 -45 V
2 -26 V
1 -2 V
1 15 V
1 35 V
2 62 V
1 -25 V
1 -182 V
1 43 V
1 45 V
2 -14 V
1 -379 V
1 215 V
1 -54 V
2 44 V
1 -105 V
1 203 V
1 118 V
2 -67 V
stroke 3276 3114 M
1 11 V
1 198 V
1 -24 V
2 -207 V
1 29 V
1 -306 V
1 260 V
2 32 V
1 12 V
1 -40 V
1 167 V
2 -61 V
1 -110 V
1 81 V
1 77 V
2 -9 V
1 -82 V
1 -15 V
1 -666 V
2 631 V
1 60 V
1 9 V
1 -218 V
2 135 V
1 -91 V
1 46 V
1 44 V
1 85 V
2 167 V
1 -57 V
1 -29 V
1 -151 V
2 -686 V
1 -21 V
1 685 V
1 150 V
2 22 V
1 48 V
1 -29 V
1 17 V
2 -97 V
1 110 V
1 77 V
1 -108 V
2 -36 V
1 35 V
1 -26 V
1 5 V
2 -148 V
1 -147 V
1 -105 V
1 211 V
2 -54 V
1 36 V
1 39 V
1 66 V
2 81 V
1 -7 V
1 -177 V
1 1 V
1 -18 V
2 -8 V
1 -272 V
1 6 V
1 -14 V
2 95 V
1 -172 V
1 -199 V
1 170 V
2 -7 V
1 49 V
1 -242 V
1 272 V
2 154 V
1 -280 V
1 193 V
1 -12 V
2 70 V
1 104 V
1 -10 V
1 73 V
2 -105 V
1 14 V
1 -225 V
1 -213 V
2 285 V
1 29 V
1 103 V
1 106 V
2 -11 V
1 -6 V
1 -178 V
1 -47 V
2 9 V
1 38 V
1 51 V
1 138 V
1 70 V
2 -39 V
1 -204 V
1 97 V
1 -55 V
2 -25 V
1 96 V
stroke 3405 2914 M
1 -8 V
1 -16 V
2 16 V
1 -52 V
1 145 V
1 -71 V
2 44 V
1 -66 V
1 -76 V
1 108 V
2 -62 V
1 179 V
1 -72 V
1 -176 V
2 128 V
1 84 V
1 39 V
1 -102 V
2 -42 V
1 -133 V
1 46 V
1 22 V
2 -53 V
1 62 V
1 34 V
1 88 V
1 -8 V
2 129 V
1 107 V
1 -16 V
1 -207 V
2 2 V
1 49 V
1 -217 V
1 89 V
2 -310 V
1 319 V
1 -67 V
1 125 V
2 86 V
1 -34 V
1 12 V
1 3 V
2 -47 V
1 48 V
1 -126 V
1 49 V
2 6 V
1 -77 V
1 -87 V
1 -46 V
2 13 V
1 -135 V
1 -135 V
1 -8 V
2 126 V
1 117 V
1 -16 V
1 54 V
2 110 V
1 7 V
1 -27 V
1 -96 V
1 -68 V
2 120 V
1 105 V
1 -3 V
1 -151 V
2 -10 V
1 -62 V
1 70 V
1 -219 V
2 185 V
1 12 V
1 -131 V
1 -112 V
2 -160 V
1 38 V
1 130 V
1 -83 V
2 -12 V
1 -22 V
1 147 V
1 34 V
2 28 V
1 238 V
1 -43 V
1 -83 V
2 114 V
1 97 V
1 -48 V
1 81 V
2 6 V
1 68 V
1 -137 V
1 136 V
2 -17 V
1 -179 V
1 55 V
1 -177 V
1 274 V
2 -49 V
1 41 V
1 -9 V
stroke 3534 2976 M
1 -123 V
2 84 V
1 -1 V
1 -159 V
1 42 V
2 -46 V
1 85 V
1 -352 V
1 111 V
2 -3 V
1 131 V
1 203 V
1 125 V
2 -76 V
1 -148 V
1 -25 V
1 60 V
2 -82 V
1 -136 V
1 -363 V
1 254 V
2 39 V
1 -59 V
1 172 V
1 -23 V
2 215 V
1 53 V
1 75 V
1 -132 V
1 50 V
2 19 V
1 -10 V
1 131 V
1 -78 V
2 138 V
1 -112 V
1 78 V
1 -106 V
2 7 V
1 32 V
1 125 V
1 -130 V
2 39 V
1 -9 V
1 -23 V
1 -111 V
2 11 V
1 -100 V
1 -46 V
1 -80 V
2 50 V
1 -169 V
1 136 V
1 91 V
2 176 V
1 -288 V
1 313 V
1 7 V
2 -78 V
1 -75 V
1 70 V
1 44 V
2 28 V
1 -65 V
1 -9 V
1 -30 V
1 -32 V
2 22 V
1 11 V
1 20 V
1 -58 V
2 -142 V
1 43 V
1 156 V
1 -23 V
2 -114 V
1 175 V
1 21 V
1 -123 V
2 -20 V
1 -15 V
1 43 V
1 -73 V
2 31 V
1 -52 V
1 -32 V
1 42 V
2 -95 V
1 -28 V
1 38 V
1 -20 V
2 8 V
1 -96 V
1 173 V
1 -12 V
2 -34 V
1 -83 V
1 50 V
1 -29 V
1 -58 V
2 74 V
1 -116 V
1 -108 V
1 227 V
stroke 3663 2694 M
2 12 V
1 -76 V
1 6 V
1 46 V
2 37 V
1 54 V
1 48 V
1 -138 V
2 -13 V
1 46 V
1 -183 V
1 158 V
2 -2 V
1 -52 V
1 -193 V
1 -27 V
2 36 V
1 168 V
1 -84 V
1 73 V
2 126 V
1 -48 V
1 -127 V
1 57 V
2 80 V
1 160 V
1 -87 V
1 21 V
2 21 V
1 9 V
1 62 V
1 62 V
1 -223 V
2 -36 V
1 -27 V
1 0 V
1 -77 V
2 183 V
1 -200 V
1 90 V
1 -159 V
2 73 V
1 -265 V
1 230 V
1 -289 V
2 244 V
1 31 V
1 19 V
1 -238 V
2 129 V
1 -1 V
1 -194 V
1 139 V
2 156 V
1 -26 V
1 207 V
1 137 V
2 -123 V
1 21 V
1 -28 V
1 -165 V
2 63 V
1 91 V
1 -30 V
1 6 V
1 -9 V
2 -46 V
1 -84 V
1 90 V
1 79 V
2 41 V
1 -127 V
1 -287 V
1 364 V
2 38 V
1 -404 V
1 243 V
1 -4 V
2 -196 V
1 140 V
1 62 V
1 -504 V
2 103 V
1 -19 V
1 -14 V
1 -42 V
2 -9 V
1 27 V
1 72 V
1 151 V
2 -808 V
1 445 V
1 34 V
1 -285 V
2 333 V
1 -440 V
1 327 V
1 -81 V
2 404 V
1 46 V
1 164 V
1 17 V
1 -1 V
2 -3 V
stroke 3793 2501 M
1 -50 V
1 195 V
1 -214 V
2 -25 V
1 28 V
1 -215 V
1 288 V
2 65 V
1 -52 V
1 16 V
1 12 V
2 16 V
1 -100 V
1 68 V
1 -34 V
2 -123 V
1 -96 V
1 -29 V
1 -74 V
2 232 V
1 -4 V
1 122 V
1 114 V
2 -362 V
1 314 V
1 73 V
1 -220 V
2 151 V
1 20 V
1 99 V
1 -24 V
1 43 V
2 -69 V
1 160 V
1 -137 V
1 15 V
2 60 V
1 15 V
1 -35 V
1 6 V
2 71 V
1 13 V
1 -3 V
1 -185 V
2 -121 V
1 133 V
1 106 V
1 -45 V
2 -28 V
1 -24 V
1 -224 V
1 238 V
2 -289 V
1 84 V
1 -301 V
1 308 V
2 -261 V
1 187 V
1 -115 V
1 135 V
2 78 V
1 87 V
1 -115 V
1 25 V
2 48 V
1 -22 V
1 -7 V
1 73 V
1 -11 V
2 250 V
1 -90 V
1 91 V
1 44 V
2 29 V
1 -51 V
1 -177 V
1 -374 V
2 371 V
1 -98 V
1 -65 V
1 48 V
2 203 V
1 109 V
1 -1 V
1 -61 V
2 91 V
1 -56 V
1 142 V
1 -89 V
2 2 V
1 -252 V
1 32 V
1 -37 V
2 -100 V
1 261 V
1 16 V
1 97 V
2 33 V
1 1 V
1 41 V
1 -33 V
1 21 V
2 -66 V
1 36 V
stroke 3922 2953 M
1 98 V
1 -10 V
2 -8 V
1 -44 V
1 -23 V
1 179 V
2 -240 V
1 -174 V
1 96 V
1 -142 V
2 82 V
1 20 V
1 119 V
1 -24 V
2 59 V
1 31 V
1 8 V
1 -97 V
2 -186 V
1 33 V
1 31 V
1 -218 V
2 291 V
1 -8 V
1 38 V
1 -45 V
2 -319 V
1 281 V
1 -46 V
1 17 V
2 -9 V
1 151 V
1 -42 V
1 50 V
1 -69 V
2 24 V
1 -102 V
1 -261 V
1 76 V
2 24 V
1 104 V
1 -109 V
1 54 V
2 -159 V
1 94 V
1 56 V
1 45 V
2 -31 V
1 -50 V
1 201 V
1 48 V
2 -39 V
1 -11 V
1 9 V
1 84 V
2 -29 V
1 43 V
1 -78 V
1 21 V
2 -143 V
1 74 V
1 -12 V
1 68 V
2 46 V
1 -113 V
1 -198 V
1 64 V
2 58 V
1 -61 V
1 -128 V
1 -156 V
1 -67 V
2 167 V
1 -126 V
1 91 V
1 249 V
2 94 V
1 42 V
1 -17 V
1 -146 V
2 -171 V
1 163 V
1 6 V
1 -25 V
2 -69 V
1 -62 V
1 53 V
1 167 V
2 -120 V
1 -154 V
1 -38 V
1 -37 V
2 20 V
1 -260 V
1 201 V
1 -102 V
2 123 V
1 -74 V
1 147 V
1 42 V
2 -20 V
1 -84 V
1 128 V
1 -39 V
stroke 4051 2428 M
1 -59 V
2 -228 V
1 115 V
1 1 V
1 46 V
2 215 V
1 -93 V
1 63 V
1 -32 V
2 -76 V
1 65 V
1 15 V
1 148 V
2 4 V
1 38 V
1 -42 V
1 173 V
2 -36 V
1 -49 V
1 -55 V
1 51 V
2 19 V
1 -71 V
1 -40 V
1 77 V
2 -142 V
1 230 V
1 -11 V
1 -48 V
2 -108 V
1 -5 V
1 67 V
1 -56 V
2 139 V
1 -101 V
1 -158 V
1 212 V
1 -10 V
2 -118 V
1 62 V
1 -75 V
1 234 V
2 -81 V
1 -134 V
1 119 V
1 -29 V
2 46 V
1 40 V
1 -21 V
1 -199 V
2 80 V
1 136 V
1 -190 V
1 19 V
2 -196 V
1 56 V
1 282 V
1 -49 V
2 -333 V
1 -202 V
1 248 V
1 237 V
2 -64 V
1 131 V
1 -75 V
1 87 V
2 -68 V
1 -94 V
1 -25 V
1 220 V
1 25 V
2 -132 V
1 25 V
1 -5 V
1 103 V
2 -101 V
1 -170 V
1 303 V
1 -2 V
2 46 V
1 33 V
1 101 V
1 68 V
2 -185 V
1 -22 V
1 19 V
1 81 V
2 -47 V
1 -79 V
1 -29 V
1 -68 V
2 148 V
1 -107 V
1 -139 V
1 -186 V
2 204 V
1 -121 V
1 -72 V
1 61 V
2 -95 V
1 41 V
1 -78 V
1 87 V
2 -3 V
stroke 4181 2434 M
1 -146 V
1 333 V
1 43 V
1 -33 V
2 -32 V
1 -24 V
1 55 V
1 96 V
2 7 V
1 7 V
1 90 V
1 -21 V
2 48 V
1 -51 V
1 -46 V
1 -14 V
2 58 V
1 79 V
1 -178 V
1 84 V
2 -1 V
1 34 V
1 114 V
1 52 V
2 -22 V
1 -29 V
1 186 V
1 -45 V
2 -229 V
1 163 V
1 -117 V
1 105 V
2 83 V
1 -44 V
1 -144 V
1 -200 V
1 214 V
2 50 V
1 114 V
1 18 V
1 -35 V
2 -124 V
1 31 V
1 -55 V
1 -48 V
2 -143 V
1 -60 V
1 105 V
1 228 V
2 -131 V
1 103 V
1 29 V
1 -86 V
2 83 V
1 -63 V
1 22 V
1 13 V
2 -223 V
1 162 V
1 -140 V
1 213 V
2 -65 V
1 15 V
1 32 V
1 103 V
2 57 V
1 -172 V
1 84 V
1 -35 V
2 -79 V
1 78 V
1 -3 V
1 -13 V
1 28 V
2 32 V
1 -40 V
1 78 V
1 -32 V
2 -27 V
1 76 V
1 101 V
1 10 V
2 -134 V
1 -1 V
1 -20 V
1 -24 V
2 -14 V
1 -40 V
1 28 V
1 -120 V
2 28 V
1 69 V
1 76 V
1 -30 V
2 66 V
1 -4 V
1 -38 V
1 31 V
2 -158 V
1 189 V
1 143 V
1 -31 V
2 -38 V
1 32 V
stroke 4310 3210 M
1 -48 V
1 -51 V
1 -42 V
2 -82 V
1 146 V
1 -42 V
1 79 V
2 -29 V
1 29 V
1 14 V
1 -74 V
2 -20 V
1 103 V
1 5 V
1 32 V
2 -70 V
1 -27 V
1 56 V
1 20 V
2 90 V
1 2 V
1 -84 V
1 32 V
2 101 V
1 -150 V
1 187 V
1 -63 V
2 -60 V
1 133 V
1 -88 V
1 4 V
2 -64 V
1 47 V
1 -65 V
1 -97 V
2 15 V
1 -59 V
1 7 V
1 -60 V
1 159 V
2 -5 V
1 -47 V
1 -47 V
1 126 V
2 38 V
1 -141 V
1 101 V
1 27 V
2 42 V
1 -69 V
1 88 V
1 -61 V
2 -63 V
1 35 V
1 -15 V
1 -126 V
2 7 V
1 99 V
1 -80 V
1 -37 V
2 165 V
1 37 V
1 -151 V
1 -64 V
2 -212 V
1 17 V
1 112 V
1 -44 V
2 -80 V
1 146 V
1 30 V
1 -26 V
1 -102 V
2 -332 V
1 -699 V
1 22 V
1 837 V
2 55 V
1 2 V
1 -83 V
1 -161 V
2 -232 V
1 -10 V
1 410 V
1 5 V
2 186 V
1 -47 V
1 -26 V
1 -51 V
2 125 V
1 31 V
1 263 V
1 -29 V
2 -90 V
1 29 V
1 64 V
1 -97 V
2 -88 V
1 156 V
1 -46 V
1 -94 V
2 223 V
1 17 V
1 -148 V
stroke 4439 3088 M
1 141 V
2 25 V
1 39 V
1 -126 V
1 20 V
1 37 V
2 -74 V
1 40 V
1 54 V
1 -1 V
2 -13 V
1 -38 V
1 -44 V
1 -36 V
2 46 V
1 -96 V
1 164 V
1 22 V
2 -122 V
1 -55 V
1 39 V
1 3 V
2 26 V
1 -37 V
1 35 V
1 50 V
2 -177 V
1 -48 V
1 104 V
1 -31 V
2 71 V
1 44 V
1 107 V
1 40 V
2 -176 V
1 0 V
1 -9 V
1 22 V
1 -94 V
2 -203 V
1 146 V
1 -35 V
1 -186 V
2 97 V
1 -135 V
1 150 V
1 -11 V
2 -141 V
1 3 V
1 -29 V
1 -47 V
2 83 V
1 70 V
1 68 V
1 9 V
2 43 V
1 26 V
1 73 V
1 -39 V
2 57 V
1 -19 V
1 112 V
1 60 V
2 34 V
1 -400 V
1 285 V
1 -6 V
2 72 V
1 77 V
1 -13 V
1 2 V
2 -112 V
1 129 V
1 110 V
1 42 V
1 25 V
2 -66 V
1 61 V
1 3 V
1 -50 V
2 -102 V
1 136 V
1 -31 V
1 19 V
2 -59 V
1 -11 V
1 -11 V
1 41 V
2 36 V
1 -148 V
1 27 V
1 -90 V
2 58 V
1 -39 V
1 -107 V
1 139 V
2 -115 V
1 121 V
1 -37 V
1 -54 V
2 -23 V
1 71 V
1 -97 V
1 -47 V
stroke 4568 3062 M
2 -52 V
1 151 V
1 -39 V
1 -142 V
2 4 V
1 -48 V
1 255 V
1 -150 V
1 194 V
2 -31 V
1 7 V
1 -23 V
1 72 V
2 -88 V
1 -142 V
1 66 V
1 19 V
2 -136 V
1 99 V
1 67 V
1 141 V
2 -110 V
1 -157 V
1 -3 V
1 51 V
2 88 V
1 193 V
1 -171 V
1 109 V
2 -68 V
1 23 V
1 141 V
1 -25 V
2 -120 V
1 -42 V
1 84 V
1 30 V
2 -84 V
1 30 V
1 -185 V
1 156 V
1 37 V
2 -69 V
1 10 V
1 -187 V
1 -103 V
2 177 V
1 -13 V
1 -4 V
1 -124 V
2 96 V
1 -102 V
1 99 V
1 -16 V
2 115 V
1 -129 V
1 59 V
1 -68 V
2 -35 V
1 9 V
1 17 V
1 -99 V
2 29 V
1 56 V
1 17 V
1 -29 V
2 16 V
1 8 V
1 -43 V
1 -32 V
2 -83 V
1 85 V
1 -64 V
1 -84 V
2 -101 V
1 -180 V
1 131 V
1 -4 V
1 169 V
2 -60 V
1 -103 V
1 79 V
1 -44 V
2 194 V
1 64 V
1 -188 V
1 179 V
2 -13 V
1 54 V
1 -22 V
1 4 V
2 -59 V
1 144 V
1 80 V
1 -6 V
2 -8 V
1 89 V
1 35 V
1 25 V
2 48 V
1 -161 V
1 162 V
1 -61 V
2 94 V
stroke 4698 3313 M
1 -4 V
1 -11 V
1 -326 V
2 71 V
1 6 V
1 14 V
1 -200 V
1 72 V
2 68 V
1 54 V
1 150 V
1 -7 V
2 -143 V
1 54 V
1 160 V
1 -47 V
2 4 V
1 -5 V
1 -313 V
1 96 V
2 -151 V
1 39 V
1 170 V
1 -56 V
2 3 V
1 99 V
1 49 V
1 -173 V
2 171 V
1 -207 V
1 170 V
1 -19 V
2 17 V
1 -240 V
1 180 V
1 -24 V
2 41 V
1 -46 V
1 -128 V
1 13 V
2 88 V
1 50 V
1 115 V
1 -14 V
1 -76 V
2 -18 V
1 67 V
1 -123 V
1 -42 V
2 84 V
1 233 V
1 -45 V
1 3 V
2 14 V
1 115 V
1 21 V
1 -46 V
2 72 V
1 -27 V
1 -40 V
1 58 V
2 4 V
1 -27 V
1 -64 V
1 -6 V
2 -156 V
1 -70 V
1 60 V
1 19 V
2 17 V
1 55 V
1 -3 V
1 -30 V
2 -229 V
1 294 V
1 41 V
1 -260 V
1 56 V
2 21 V
1 -18 V
1 129 V
1 22 V
2 -15 V
1 -61 V
1 -2478 V
1 2215 V
2 80 V
1 153 V
1 75 V
1 12 V
2 -212 V
1 -3 V
1 74 V
1 82 V
2 14 V
1 25 V
1 -17 V
1 19 V
2 179 V
1 -139 V
1 38 V
1 -1 V
2 -14 V
1 -62 V
stroke 4827 3222 M
1 20 V
1 -2074 V
2 1703 V
1 141 V
1 -54 V
1 113 V
2 3 V
1 -92 V
1 54 V
1 -121 V
1 199 V
2 -128 V
1 47 V
1 -391 V
1 182 V
2 64 V
1 1 V
1 41 V
1 -17 V
2 128 V
1 51 V
1 -104 V
1 69 V
2 -123 V
1 244 V
1 79 V
1 -187 V
2 0 V
1 -104 V
1 -238 V
1 423 V
2 51 V
1 -1 V
1 -35 V
1 -135 V
2 1 V
1 0 V
1 -125 V
1 155 V
2 137 V
1 -134 V
1 76 V
1 -33 V
1 -18 V
2 -96 V
1 -36 V
1 4 V
1 83 V
2 101 V
1 -93 V
1 -135 V
1 101 V
2 222 V
1 21 V
1 -68 V
1 -140 V
2 -73 V
1 93 V
1 34 V
1 65 V
2 -1 V
1 -61 V
1 -95 V
1 54 V
2 -13 V
1 124 V
1 17 V
1 -3 V
2 2 V
1 -305 V
1 136 V
1 17 V
2 -234 V
1 -4 V
1 -423 V
1 337 V
2 252 V
1 -39 V
1 -44 V
1 -63 V
1 215 V
2 -110 V
1 -44 V
1 -189 V
1 120 V
2 63 V
1 -38 V
1 131 V
1 45 V
2 -96 V
1 78 V
1 95 V
1 -193 V
2 -157 V
1 -49 V
1 144 V
1 56 V
2 64 V
1 -239 V
1 -30 V
1 -141 V
2 151 V
1 -464 V
1 596 V
stroke 4956 2835 M
1 31 V
2 90 V
1 -68 V
1 -71 V
1 62 V
2 102 V
1 -18 V
1 150 V
1 11 V
1 -1 V
2 -161 V
1 148 V
1 20 V
1 -26 V
2 31 V
1 6 V
1 -398 V
1 270 V
2 -287 V
1 156 V
1 123 V
1 117 V
2 -125 V
1 64 V
1 -146 V
1 -78 V
2 221 V
1 -283 V
1 134 V
1 39 V
2 -89 V
1 -148 V
1 207 V
1 -101 V
2 135 V
1 48 V
1 95 V
1 40 V
2 -6 V
1 -45 V
1 -63 V
1 -34 V
2 -176 V
1 28 V
1 31 V
1 -87 V
1 -132 V
2 60 V
1 -235 V
1 341 V
1 161 V
2 86 V
1 5 V
1 6 V
1 9 V
2 -54 V
1 -188 V
1 -122 V
1 253 V
2 -2 V
1 78 V
1 -43 V
1 176 V
2 -77 V
1 -20 V
1 -195 V
1 -199 V
2 283 V
1 70 V
1 -89 V
1 96 V
2 33 V
1 -67 V
1 -86 V
1 89 V
2 -2 V
1 -55 V
1 -87 V
1 -69 V
1 -43 V
2 61 V
1 44 V
1 12 V
1 -34 V
2 78 V
1 -86 V
1 -86 V
1 238 V
2 -24 V
1 -75 V
1 -76 V
1 78 V
2 51 V
1 43 V
1 -18 V
1 -67 V
2 -198 V
1 103 V
1 9 V
1 -54 V
2 103 V
1 -22 V
1 55 V
1 6 V
stroke 5085 2905 M
2 -145 V
1 -211 V
1 219 V
1 1 V
2 101 V
1 42 V
1 -31 V
1 -67 V
2 58 V
1 56 V
1 -138 V
1 145 V
1 -42 V
2 43 V
1 -135 V
1 -4 V
1 -74 V
2 -103 V
1 -110 V
1 144 V
1 -72 V
2 -3 V
1 76 V
1 196 V
1 120 V
2 35 V
1 -13 V
1 74 V
1 -43 V
2 33 V
1 18 V
1 -49 V
1 -84 V
2 16 V
1 -111 V
1 -172 V
1 325 V
2 -119 V
1 191 V
1 -104 V
1 -11 V
2 92 V
1 -353 V
1 42 V
1 -7 V
2 149 V
1 -1 V
1 7 V
1 -3 V
1 111 V
2 -229 V
1 -173 V
1 -245 V
1 -82 V
2 182 V
1 -143 V
1 -178 V
1 70 V
2 -35 V
1 -29 V
1 85 V
1 83 V
2 -253 V
1 224 V
1 189 V
1 -2 V
2 -161 V
1 242 V
1 42 V
1 36 V
2 -17 V
1 -23 V
1 6 V
1 36 V
2 -177 V
1 -80 V
1 38 V
1 115 V
2 177 V
1 34 V
1 155 V
1 22 V
1 -163 V
2 59 V
1 -37 V
1 31 V
1 -123 V
2 -48 V
1 189 V
1 107 V
1 23 V
2 -4 V
1 81 V
1 -26 V
1 -18 V
2 92 V
1 33 V
1 51 V
1 -92 V
2 -29 V
1 -81 V
1 100 V
1 76 V
2 -39 V
stroke 5215 3085 M
1 -112 V
1 41 V
1 -42 V
2 -176 V
1 -47 V
1 -16 V
1 178 V
2 -19 V
1 -60 V
1 -5 V
1 -139 V
2 133 V
1 -127 V
1 0 V
1 -43 V
1 92 V
2 126 V
1 -77 V
1 -169 V
1 -46 V
2 -133 V
1 36 V
1 103 V
1 166 V
2 2 V
1 91 V
1 -178 V
1 137 V
2 -272 V
1 222 V
1 -169 V
1 205 V
2 -234 V
1 -54 V
1 -163 V
1 331 V
2 98 V
1 -125 V
1 -5 V
1 43 V
2 41 V
1 161 V
1 -110 V
1 -33 V
2 137 V
1 60 V
1 -27 V
1 73 V
1 -46 V
2 -230 V
1 -6 V
1 32 V
1 28 V
2 71 V
1 -58 V
1 62 V
1 39 V
2 -44 V
1 24 V
1 -153 V
1 100 V
2 -118 V
1 39 V
1 26 V
1 -84 V
2 -93 V
1 -153 V
1 19 V
1 68 V
2 -36 V
1 116 V
1 27 V
1 -232 V
2 70 V
1 122 V
1 28 V
1 -632 V
2 568 V
1 53 V
1 -157 V
1 41 V
2 -22 V
1 -40 V
1 281 V
1 26 V
1 -68 V
2 -34 V
1 41 V
1 131 V
1 -31 V
2 19 V
1 6 V
1 -77 V
1 181 V
2 -12 V
1 -131 V
1 -176 V
1 -233 V
2 393 V
1 73 V
1 -172 V
1 -403 V
2 504 V
1 -46 V
stroke 5344 2681 M
1 84 V
1 -102 V
2 -8 V
1 27 V
1 28 V
1 115 V
2 65 V
1 27 V
1 -225 V
1 17 V
2 135 V
1 -87 V
1 59 V
1 28 V
1 -79 V
2 102 V
1 31 V
1 -38 V
1 6 V
2 -35 V
1 -102 V
1 136 V
1 -62 V
2 -37 V
1 -69 V
1 99 V
1 132 V
2 -7 V
1 -60 V
1 51 V
1 47 V
2 -50 V
1 93 V
1 -64 V
1 93 V
2 -306 V
1 75 V
1 32 V
1 28 V
2 2 V
1 -5 V
1 92 V
1 87 V
2 -67 V
1 20 V
1 26 V
1 -35 V
2 -89 V
1 -33 V
1 56 V
1 81 V
1 -104 V
2 151 V
1 8 V
1 -16 V
1 -143 V
2 -152 V
1 17 V
1 91 V
1 79 V
2 103 V
1 36 V
1 7 V
1 -170 V
2 -32 V
1 -10 V
1 37 V
1 -130 V
2 163 V
1 -22 V
1 -64 V
1 100 V
2 34 V
1 136 V
1 5 V
1 -121 V
2 100 V
1 12 V
1 -55 V
1 97 V
2 60 V
1 140 V
1 -66 V
1 72 V
1 -144 V
2 -32 V
1 6 V
1 52 V
1 -26 V
2 -11 V
1 -109 V
1 75 V
1 61 V
2 -18 V
1 -138 V
1 173 V
1 -25 V
2 -57 V
1 22 V
1 8 V
1 -69 V
2 54 V
1 -53 V
1 -94 V
stroke 5473 3033 M
1 38 V
2 -26 V
1 13 V
1 2 V
1 -12 V
2 -71 V
1 -26 V
1 60 V
1 -29 V
2 2 V
1 -195 V
1 228 V
1 -31 V
2 -12 V
1 84 V
1 40 V
1 36 V
1 88 V
2 -14 V
1 -72 V
1 -218 V
1 365 V
2 -96 V
1 6 V
1 -17 V
1 -80 V
2 -165 V
1 205 V
1 -271 V
1 260 V
2 -45 V
1 -2 V
1 8 V
1 -262 V
2 179 V
1 118 V
1 -130 V
1 -183 V
2 61 V
1 110 V
1 -142 V
1 -24 V
2 170 V
1 58 V
1 88 V
1 -101 V
2 91 V
1 43 V
1 -21 V
1 -71 V
1 -124 V
2 53 V
1 -26 V
1 80 V
1 -37 V
2 27 V
1 21 V
1 21 V
1 77 V
2 -28 V
1 10 V
1 -63 V
1 64 V
2 5 V
1 53 V
1 -51 V
1 -112 V
2 135 V
1 4 V
1 96 V
1 -20 V
2 -125 V
1 -66 V
1 -201 V
1 0 V
2 135 V
1 -285 V
1 298 V
1 4 V
2 -442 V
1 102 V
1 106 V
1 55 V
2 57 V
1 -3 V
1 -23 V
1 -182 V
1 -16 V
2 154 V
1 -217 V
1 -125 V
1 -83 V
2 -3 V
1 -139 V
1 83 V
1 37 V
2 17 V
1 -60 V
1 139 V
1 25 V
2 77 V
1 -30 V
1 168 V
1 98 V
stroke 5602 2810 M
2 -180 V
1 187 V
1 -249 V
1 161 V
2 94 V
1 41 V
1 -34 V
1 -199 V
2 -178 V
1 -67 V
1 331 V
1 55 V
2 102 V
1 102 V
1 11 V
1 -59 V
1 -13 V
2 -46 V
1 -79 V
1 -145 V
1 -236 V
2 59 V
1 7 V
1 252 V
1 -38 V
2 -288 V
1 238 V
1 -123 V
1 117 V
2 77 V
1 181 V
1 95 V
1 -54 V
2 61 V
1 -6 V
1 -90 V
1 40 V
2 79 V
1 39 V
1 -9 V
1 -7 V
2 -154 V
1 156 V
1 26 V
1 -42 V
2 -54 V
1 54 V
1 -3 V
1 75 V
2 -14 V
1 -67 V
1 -276 V
1 77 V
1 115 V
2 -7 V
1 -160 V
1 190 V
1 -7 V
2 19 V
1 -298 V
1 464 V
1 22 V
2 30 V
1 57 V
1 20 V
1 2 V
2 -54 V
1 -104 V
1 146 V
1 2 V
2 -93 V
1 46 V
1 -9 V
1 -54 V
2 -13 V
1 70 V
1 16 V
1 -266 V
2 95 V
1 15 V
1 8 V
1 -150 V
2 -104 V
1 153 V
1 -34 V
1 -35 V
2 110 V
1 -200 V
1 275 V
1 -33 V
1 43 V
2 -142 V
1 0 V
1 57 V
1 -3 V
2 -22 V
1 17 V
1 -4 V
1 -59 V
2 75 V
1 -115 V
1 -54 V
1 176 V
2 -180 V
stroke 5732 2840 M
1 40 V
1 -62 V
1 -7 V
2 -337 V
1 415 V
1 -15 V
1 -463 V
2 638 V
1 67 V
1 -127 V
1 70 V
2 -103 V
1 2 V
1 81 V
1 -27 V
2 49 V
1 -40 V
1 -4 V
1 68 V
1 -246 V
2 60 V
1 -80 V
1 -92 V
1 -102 V
2 175 V
1 50 V
1 -60 V
1 140 V
2 9 V
1 9 V
1 -56 V
1 -101 V
2 31 V
1 -82 V
1 -61 V
1 22 V
2 32 V
1 -8 V
1 -57 V
1 -161 V
2 -28 V
1 -87 V
1 -433 V
1 324 V
2 -360 V
1 294 V
1 99 V
1 18 V
2 228 V
1 -54 V
1 48 V
1 -43 V
2 102 V
1 -53 V
1 112 V
1 200 V
1 34 V
2 -155 V
1 6 V
1 -118 V
1 -148 V
2 74 V
1 -145 V
1 -93 V
1 -184 V
2 97 V
1 -295 V
1 155 V
1 -37 V
2 310 V
1 -70 V
1 -71 V
1 182 V
2 -91 V
1 -169 V
1 108 V
1 88 V
2 -69 V
1 0 V
1 119 V
1 -96 V
2 9 V
1 -107 V
1 -62 V
1 85 V
2 114 V
1 -6 V
1 -137 V
1 -95 V
1 -91 V
2 91 V
1 159 V
1 68 V
1 50 V
2 -8 V
1 112 V
1 158 V
1 4 V
2 128 V
1 -53 V
1 -64 V
1 54 V
2 58 V
1 -92 V
stroke 5861 2681 M
1 -64 V
1 -76 V
2 -50 V
1 -53 V
1 -41 V
1 28 V
2 -77 V
1 -338 V
1 372 V
1 113 V
2 11 V
1 -218 V
1 76 V
1 110 V
2 49 V
1 46 V
1 83 V
1 -76 V
2 -129 V
1 141 V
1 -46 V
1 -106 V
1 152 V
2 -244 V
1 -227 V
1 420 V
1 -38 V
2 122 V
1 22 V
1 -242 V
1 71 V
2 88 V
1 54 V
1 -176 V
1 -113 V
2 50 V
1 -22 V
1 103 V
1 48 V
2 8 V
1 19 V
1 37 V
1 -6 V
2 121 V
1 16 V
1 70 V
1 -121 V
2 -26 V
1 29 V
1 -133 V
1 57 V
2 21 V
1 -9 V
1 45 V
1 -47 V
1 120 V
2 -137 V
1 -32 V
1 72 V
1 66 V
2 -155 V
1 128 V
1 39 V
1 35 V
2 -83 V
1 -211 V
1 292 V
1 -121 V
2 -10 V
1 -42 V
1 -9 V
1 96 V
2 -122 V
1 -150 V
1 -191 V
1 49 V
2 -28 V
1 209 V
1 4 V
1 -26 V
2 73 V
1 10 V
1 -241 V
1 24 V
2 126 V
1 -69 V
1 205 V
1 43 V
2 -9 V
1 86 V
1 -183 V
1 170 V
1 54 V
2 -232 V
1 163 V
1 -66 V
1 297 V
2 35 V
1 60 V
1 -22 V
1 -165 V
2 15 V
1 148 V
1 -34 V
stroke 5990 2866 M
1 31 V
2 32 V
1 -229 V
1 36 V
1 79 V
2 -30 V
1 147 V
1 -2 V
1 -73 V
2 -204 V
1 192 V
1 35 V
1 -2 V
2 -26 V
1 61 V
1 -26 V
1 -136 V
2 -9 V
1 -944 V
1 851 V
1 68 V
1 -126 V
2 216 V
1 -173 V
1 99 V
1 -114 V
2 216 V
1 -96 V
1 -9 V
1 151 V
2 -52 V
1 -83 V
1 -227 V
1 303 V
2 -56 V
1 109 V
1 9 V
1 111 V
2 -39 V
1 -138 V
1 -144 V
1 -247 V
2 360 V
1 48 V
1 -6 V
1 1 V
2 -174 V
1 40 V
1 -370 V
1 234 V
2 -138 V
1 -199 V
1 176 V
1 -16 V
2 376 V
1 58 V
1 13 V
1 73 V
1 -84 V
2 -45 V
1 75 V
1 111 V
1 4 V
2 16 V
1 -31 V
1 69 V
1 91 V
2 -22 V
1 -177 V
1 112 V
1 -166 V
2 27 V
1 -55 V
1 36 V
1 120 V
2 -134 V
1 -136 V
1 117 V
1 -115 V
2 -17 V
1 22 V
1 183 V
1 -1 V
2 -53 V
1 26 V
1 -280 V
1 -453 V
2 226 V
1 51 V
1 56 V
1 86 V
1 211 V
2 -6 V
1 -259 V
1 243 V
1 -100 V
2 125 V
1 146 V
1 -89 V
1 67 V
2 43 V
1 -12 V
1 -410 V
1 344 V
stroke 6119 2865 M
2 127 V
1 49 V
1 -174 V
1 -109 V
2 -25 V
1 -21 V
1 114 V
1 26 V
2 -251 V
1 28 V
1 -8 V
1 69 V
2 98 V
1 -79 V
1 119 V
1 -88 V
2 -28 V
1 -29 V
1 84 V
1 74 V
2 60 V
1 -91 V
1 -288 V
1 149 V
1 131 V
2 110 V
1 -164 V
1 103 V
1 -69 V
2 -120 V
1 54 V
1 -103 V
1 -150 V
2 93 V
1 -5 V
1 29 V
1 41 V
2 -40 V
1 -347 V
1 284 V
1 52 V
2 -68 V
1 -3 V
1 -55 V
1 89 V
2 -59 V
1 165 V
1 -82 V
1 117 V
2 -38 V
1 -73 V
1 -105 V
1 -54 V
2 87 V
1 31 V
1 -125 V
1 161 V
1 59 V
2 46 V
1 105 V
1 62 V
1 -70 V
2 -119 V
1 -246 V
1 101 V
1 134 V
2 52 V
1 -12 V
1 -76 V
1 72 V
2 -207 V
1 118 V
1 66 V
1 38 V
2 -226 V
1 145 V
1 -54 V
1 86 V
2 40 V
1 3 V
1 -36 V
1 -521 V
2 408 V
1 -136 V
1 -20 V
1 -35 V
2 -81 V
1 133 V
1 -371 V
1 181 V
2 213 V
1 -692 V
1 459 V
1 27 V
1 -48 V
2 178 V
1 -791 V
1 584 V
1 216 V
2 8 V
1 95 V
1 -322 V
1 248 V
2 157 V
stroke 6249 2529 M
1 -27 V
1 25 V
1 -2 V
2 -12 V
1 36 V
1 -108 V
1 -176 V
2 -265 V
1 286 V
1 30 V
1 43 V
2 -52 V
1 131 V
1 -83 V
1 -325 V
2 209 V
1 -25 V
1 126 V
1 140 V
2 -109 V
1 1 V
1 -73 V
1 -108 V
2 268 V
1 -37 V
1 -145 V
1 -14 V
1 13 V
2 113 V
1 60 V
1 -109 V
1 -107 V
2 253 V
1 20 V
1 -111 V
1 36 V
2 -267 V
1 295 V
1 103 V
1 87 V
2 -227 V
stroke
LTb
LCb setrgbcolor
1210 4775 N
0 -4071 V
5593 0 V
0 4071 V
-5593 0 V
Z stroke
1.000 UP
1.000 UL
LTb
stroke
grestore
end
showpage
%%Trailer
