Binsize chosen = 499
MC time = 0, E = -0.325214, Nwalker = 999, acc = 0.999
MC time = 0, E = -0.325214, Nwalker = 999, acc = 0.999
MC time = 1000, E = -0.463156, Nwalker = 1004, acc = 0.999833
MC time = 1000, E = -0.462186, Nwalker = 1000, acc = 0.999833
MC time = 2000, E = -0.479614, Nwalker = 998, acc = 0.999813
MC time = 2000, E = -0.47947, Nwalker = 1000, acc = 0.999813
MC time = 3000, E = -0.482745, Nwalker = 1004, acc = 0.99981
MC time = 3000, E = -0.48208, Nwalker = 1000, acc = 0.99981
MC time = 4000, E = -0.473702, Nwalker = 998, acc = 0.999816
MC time = 4000, E = -0.473598, Nwalker = 1000, acc = 0.999816
