Binsize chosen = 499
MC time = 0, E = -0.401589, Nwalker = 999, acc = 1
MC time = 0, E = -0.401589, Nwalker = 999, acc = 1
MC time = 1000, E = -0.557782, Nwalker = 993, acc = 1
MC time = 1000, E = -0.557802, Nwalker = 1000, acc = 1
MC time = 2000, E = -0.52552, Nwalker = 1003, acc = 1
MC time = 2000, E = -0.525896, Nwalker = 1000, acc = 1
MC time = 3000, E = -0.512478, Nwalker = 995, acc = 1
MC time = 3000, E = -0.511941, Nwalker = 1000, acc = 1
MC time = 4000, E = -0.494904, Nwalker = 1007, acc = 1
MC time = 4000, E = -0.495201, Nwalker = 1000, acc = 1
