<?xml version="1.0" encoding="UTF-8" standalone="no"?>
<svg
   xmlns:dc="http://purl.org/dc/elements/1.1/"
   xmlns:cc="http://creativecommons.org/ns#"
   xmlns:rdf="http://www.w3.org/1999/02/22-rdf-syntax-ns#"
   xmlns:svg="http://www.w3.org/2000/svg"
   xmlns="http://www.w3.org/2000/svg"
   xmlns:sodipodi="http://sodipodi.sourceforge.net/DTD/sodipodi-0.dtd"
   xmlns:inkscape="http://www.inkscape.org/namespaces/inkscape"
   version="1.0"
   x="0px"
   y="0px"
   width="461.77866"
   height="239.24475"
   viewBox="0 0 461.77866 239.24475"
   enable-background="new 0 0 400 260"
   xml:space="preserve"
   id="svg3188"
   inkscape:version="0.48.3.1 r9886"
   sodipodi:docname="Vektordiagramm.pdf"><metadata
   id="metadata3335"><rdf:RDF><cc:Work
       rdf:about=""><dc:format>image/svg+xml</dc:format><dc:type
         rdf:resource="http://purl.org/dc/dcmitype/StillImage" /><dc:title></dc:title></cc:Work></rdf:RDF></metadata><defs
   id="defs3333">
	
	
	
	
	
	

	
	
	

		
		
		
		
	
			
			
			
		
				
				
				
				
				
				
				
				
			
			
			
			
		
				
				
				
				
				
				
				
				
				
				
				
				
			</defs><sodipodi:namedview
   pagecolor="#ffffff"
   bordercolor="#666666"
   borderopacity="1"
   objecttolerance="10"
   gridtolerance="10"
   guidetolerance="10"
   inkscape:pageopacity="0"
   inkscape:pageshadow="2"
   inkscape:window-width="1301"
   inkscape:window-height="744"
   id="namedview3331"
   showgrid="false"
   inkscape:zoom="2"
   inkscape:cx="218.73889"
   inkscape:cy="92.719611"
   inkscape:window-x="65"
   inkscape:window-y="24"
   inkscape:window-maximized="1"
   inkscape:current-layer="svg3188"
   fit-margin-top="0"
   fit-margin-left="0"
   fit-margin-right="0"
   fit-margin-bottom="0" />











<g
   id="g3135"
   transform="translate(-5.8679327,-12.057)"><path
   style="fill:none;stroke:#231f20;stroke-width:1.06159282"
   inkscape:connector-curvature="0"
   d="M 145.15601,61.247 C 196.3558,99.744 229.6479,162.226 229.6479,232.762"
   id="Winkel" /><path
   style="fill:none;stroke:#231f20;stroke-width:1.06159282"
   inkscape:connector-curvature="0"
   d="m 74.134909,163.391 c 20.709369,15.568 34.174521,40.842 34.174521,69.371"
   id="Winkel_1_" /><line
   id="Linie_1_"
   x1="25.116947"
   y1="20.275999"
   x2="25.116947"
   y2="250.27499"
   style="fill:none;stroke:#231f20;stroke-width:1.06159282" /><polygon
   transform="matrix(1.1269792,0,0,1,-0.76187514,0)"
   id="Spitze_1_"
   points="22.961,22.106 18.913,23.069 22.881,12.057 27.014,23.049 "
   style="fill:#231f20" /><line
   id="Linie"
   x1="434.25211"
   y1="232.67999"
   x2="6"
   y2="232.67999"
   style="fill:none;stroke:#231f20;stroke-width:1.06159282" /><polygon
   transform="matrix(1.1269792,0,0,1,-0.76187514,0)"
   id="Spitze"
   points="384.17,232.678 383.207,228.629 394.219,232.598 383.227,236.73 "
   style="fill:#231f20" /><g
   transform="matrix(1.1269792,0,0,1,-0.76187514,0)"
   id="Vektoren">
		<g
   id="PfeilGerade_10_">
			<polygon
   id="PfeilGerade_20_"
   points="194.416,232.68 193.465,228.631 204.465,232.625 193.463,236.73 "
   style="fill:#231f20" />
			<line
   x1="22.962999"
   y1="232.67999"
   x2="198.965"
   y2="232.67999"
   id="line3248"
   style="fill:none;stroke:#231f20;stroke-width:2" />
		</g>
		<g
   id="PfeilGerade_8_"
   style="opacity:0.5">
			<polygon
   id="PfeilGerade_9_"
   points="300.756,61.521 299.805,57.471 310.805,61.465 299.803,65.571 "
   style="fill:#231f20" />
			
				<line
   x1="129.30299"
   y1="61.521"
   x2="305.30499"
   y2="61.521"
   id="line3252"
   style="fill:none;stroke:#231f20;stroke-width:2;stroke-dasharray:4, 2" />
		</g>
		<g
   id="PfeilGerade_6_"
   style="opacity:0.5">
			<polygon
   id="PfeilGerade_7_"
   points="305.546,70.084 301.604,68.754 310.805,61.521 308.482,73.033 "
   style="fill:#231f20" />
			
				<line
   x1="204.465"
   y1="232.67999"
   x2="307.948"
   y2="66.221001"
   id="line3256"
   style="fill:none;stroke:#231f20;stroke-width:2;stroke-dasharray:4, 2" />
		</g>
		<g
   id="PfeilGerade_4_">
			<polygon
   id="PfeilGerade_5_"
   points="124.044,70.084 120.103,68.754 129.303,61.521 126.98,73.033 "
   style="fill:#231f20" />
			<line
   x1="22.962999"
   y1="232.67999"
   x2="126.446"
   y2="66.221001"
   id="line3260"
   style="fill:none;stroke:#231f20;stroke-width:2" />
		</g>
		<g
   id="PfeilGerade_2_">
			<polygon
   id="PfeilGerade_3_"
   points="302.196,66.705 299.31,63.709 310.805,61.521 303.445,70.673 "
   style="fill:#ec1c24" />
			<line
   x1="22.933001"
   y1="232.76199"
   x2="306.10501"
   y2="64.378998"
   id="line3264"
   style="fill:none;stroke:#ec1c24;stroke-width:2" />
		</g>
		<g
   id="PfeilKrumm_2_">
			<path
   id="Winkel_2_"
   d="m 307.045,21.835 c 18.376,15.569 30.324,40.842 30.324,69.372"
   inkscape:connector-curvature="0"
   style="fill:none;stroke:#231f20" />
			<polygon
   id="PfeilGerade_1_"
   points="310.357,24.951 308.274,28.553 303,18.106 313.826,22.655 "
   style="fill:#231f20" />
		</g>
	</g><path
   inkscape:connector-curvature="0"
   id="path3337"
   d="M 144.91718,61.65201 229.09786,232.1875"
   style="fill:#0056cf;fill-opacity:1;stroke:#0056cf;stroke-width:1.80470777;stroke-linecap:butt;stroke-linejoin:miter;stroke-miterlimit:4;stroke-opacity:1;stroke-dasharray:none;marker-end:none" /><path
   inkscape:connector-curvature="0"
   id="path4287"
   d="M 25.229083,232.8125 187.02103,147.375"
   style="fill:#00be40;fill-opacity:1;stroke:#00be40;stroke-width:2.12318563;stroke-linecap:butt;stroke-linejoin:miter;stroke-miterlimit:4;stroke-opacity:1;stroke-dasharray:8.49274212, 8.49274212;stroke-dashoffset:0" /><text
   transform="scale(1.0615928,0.9419808)"
   sodipodi:linespacing="125%"
   id="text5727"
   y="202.23343"
   x="134.10461"
   style="font-size:14.86229897px;font-style:normal;font-weight:normal;line-height:125%;letter-spacing:0px;word-spacing:0px;fill:#00be40;fill-opacity:1;stroke:#00be40;stroke-width:1.06159282;stroke-opacity:1;font-family:Sans"
   xml:space="preserve"><tspan
     style="stroke-width:1.06159282"
     y="202.23343"
     x="134.10461"
     id="tspan5729"
     sodipodi:role="line">$\frac{I_1}{2}$</tspan></text>

<text
   transform="scale(1.0615928,0.9419808)"
   sodipodi:linespacing="125%"
   id="text5801"
   y="56.795212"
   x="355.97751"
   style="font-size:14.86229897px;font-style:normal;font-weight:normal;line-height:125%;letter-spacing:0px;word-spacing:0px;fill:#000000;fill-opacity:1;stroke:none;font-family:Sans"
   xml:space="preserve"><tspan
     y="56.795212"
     x="355.97751"
     id="tspan5803"
     sodipodi:role="line">$\omega t$</tspan></text>

<text
   transform="scale(1.0615928,0.9419808)"
   sodipodi:linespacing="125%"
   id="text5805"
   y="126.86034"
   x="62.977894"
   style="font-size:14.86229897px;font-style:normal;font-weight:normal;line-height:125%;letter-spacing:0px;word-spacing:0px;fill:#000000;fill-opacity:1;stroke:none;font-family:Sans"
   xml:space="preserve"><tspan
     y="126.86034"
     x="62.977894"
     id="tspan5807"
     sodipodi:role="line">$I_\mathrm{1,T}$</tspan></text>

<text
   transform="scale(1.0615928,0.9419808)"
   sodipodi:linespacing="125%"
   id="text5809"
   y="263.27499"
   x="108.09559"
   style="font-size:14.86229897px;font-style:normal;font-weight:normal;line-height:125%;letter-spacing:0px;word-spacing:0px;fill:#000000;fill-opacity:1;stroke:none;font-family:Sans"
   xml:space="preserve"><tspan
     y="263.27499"
     x="108.09559"
     id="tspan5811"
     sodipodi:role="line">$I_\mathrm{1,R}$</tspan></text>

<text
   transform="scale(1.0615928,0.9419808)"
   sodipodi:linespacing="125%"
   id="text5813"
   y="113.05963"
   x="212.66248"
   style="font-size:14.86229897px;font-style:normal;font-weight:normal;line-height:125%;letter-spacing:0px;word-spacing:0px;fill:#ec1c24;fill-opacity:1;stroke:none;font-family:Sans"
   xml:space="preserve"><tspan
     y="113.05963"
     x="212.66248"
     id="tspan5815"
     sodipodi:role="line">$I_1$</tspan></text>

<text
   transform="scale(1.0615928,0.9419808)"
   sodipodi:linespacing="125%"
   id="text5817"
   y="205.4182"
   x="60.85471"
   style="font-size:14.86229897px;font-style:normal;font-weight:normal;line-height:125%;letter-spacing:0px;word-spacing:0px;fill:#000000;fill-opacity:1;stroke:none;font-family:Sans"
   xml:space="preserve"><tspan
     y="205.4182"
     x="60.85471"
     id="tspan5819"
     sodipodi:role="line">$\frac{\varphi}{2}$</tspan></text>

<text
   transform="scale(1.0615928,0.9419808)"
   sodipodi:linespacing="125%"
   id="text5821"
   y="236.20439"
   x="69.87825"
   style="font-size:14.86229897px;font-style:normal;font-weight:normal;line-height:125%;letter-spacing:0px;word-spacing:0px;fill:#000000;fill-opacity:1;stroke:none;font-family:Sans"
   xml:space="preserve"><tspan
     y="236.20439"
     x="69.87825"
     id="tspan5823"
     sodipodi:role="line">$\frac{\varphi}{2}$</tspan></text>

<text
   transform="scale(1.0615928,0.9419808)"
   sodipodi:linespacing="125%"
   id="text5963"
   y="264.8674"
   x="342.17679"
   style="font-size:14.86229897px;font-style:normal;font-weight:normal;line-height:125%;letter-spacing:0px;word-spacing:0px;fill:#000000;fill-opacity:1;stroke:none;font-family:Sans"
   xml:space="preserve"><tspan
     y="264.8674"
     x="342.17679"
     id="tspan5965"
     sodipodi:role="line">Realteil</tspan></text>

<text
   transform="matrix(0,-0.9419808,1.0615928,0,0,0)"
   sodipodi:linespacing="125%"
   id="text5967"
   y="16.819344"
   x="-133.54298"
   style="font-size:14.86229897px;font-style:normal;font-weight:normal;line-height:125%;letter-spacing:0px;word-spacing:0px;fill:#000000;fill-opacity:1;stroke:none;font-family:Sans"
   xml:space="preserve"><tspan
     y="16.819344"
     x="-133.54298"
     id="tspan5969"
     sodipodi:role="line">Imaginärteil</tspan><tspan
     id="tspan5971"
     y="35.397217"
     x="-133.54298"
     sodipodi:role="line" /></text>

<path
   sodipodi:open="true"
   transform="matrix(2.211578,0,0,1.9623947,-81.777026,-156.64076)"
   sodipodi:end="2.599015"
   sodipodi:start="1.1857208"
   d="m 124.62752,163.22885 c -3.71856,1.57776 -7.98104,0.0913 -10.05282,-3.5058"
   sodipodi:ry="8.541873"
   sodipodi:rx="8.159687"
   sodipodi:cy="155.3125"
   sodipodi:cx="121.5625"
   id="path6052"
   style="fill:none;stroke:#000000;stroke-width:0.50958151;stroke-miterlimit:4;stroke-opacity:1;stroke-dasharray:none;stroke-dashoffset:0"
   sodipodi:type="arc" /><path
   transform="matrix(1.1269792,0,0,1,-1.3025457,-0.46875)"
   d="m 165.4375,157.34375 c 0,0.44873 -0.36377,0.8125 -0.8125,0.8125 -0.44873,0 -0.8125,-0.36377 -0.8125,-0.8125 0,-0.44873 0.36377,-0.8125 0.8125,-0.8125 0.44873,0 0.8125,0.36377 0.8125,0.8125 z"
   sodipodi:ry="0.8125"
   sodipodi:rx="0.8125"
   sodipodi:cy="157.34375"
   sodipodi:cx="164.625"
   id="path6061"
   style="fill:#000000;fill-opacity:1;stroke:#000000;stroke-width:0.5;stroke-miterlimit:4;stroke-opacity:1;stroke-dasharray:none;stroke-dashoffset:0"
   sodipodi:type="arc" /></g></svg>