<?xml version="1.0" encoding="UTF-8" standalone="no"?>
<!-- Created with Inkscape (http://www.inkscape.org/) -->

<svg
   xmlns:dc="http://purl.org/dc/elements/1.1/"
   xmlns:cc="http://creativecommons.org/ns#"
   xmlns:rdf="http://www.w3.org/1999/02/22-rdf-syntax-ns#"
   xmlns:svg="http://www.w3.org/2000/svg"
   xmlns="http://www.w3.org/2000/svg"
   xmlns:sodipodi="http://sodipodi.sourceforge.net/DTD/sodipodi-0.dtd"
   xmlns:inkscape="http://www.inkscape.org/namespaces/inkscape"
   width="495.59564"
   height="385.18915"
   id="svg2"
   version="1.1"
   inkscape:version="0.48.2 r9819"
   sodipodi:docname="Vektorphasen.pdf">
  <defs
     id="defs4">
    <marker
       inkscape:stockid="StopL"
       orient="auto"
       refY="0"
       refX="0"
       id="StopL"
       style="overflow:visible">
      <path
         id="path4530"
         d="M 0,5.65 0,-5.65"
         style="fill:none;stroke:#000000;stroke-width:1pt"
         transform="scale(0.8,0.8)"
         inkscape:connector-curvature="0" />
    </marker>
    <marker
       style="overflow:visible"
       id="DistanceStart"
       refX="0"
       refY="0"
       orient="auto"
       inkscape:stockid="DistanceStart">
      <g
         id="g2300">
        <path
           style="fill:none;stroke:#ffffff;stroke-width:1.14999998;stroke-linecap:square"
           d="M 0,0 2,0"
           id="path2306"
           inkscape:connector-curvature="0" />
        <path
           style="fill:#000000;fill-rule:evenodd;stroke:none"
           d="M 0,0 13,4 9,0 13,-4 0,0 z"
           id="path2302"
           inkscape:connector-curvature="0" />
        <path
           style="fill:none;stroke:#000000;stroke-width:1;stroke-linecap:square"
           d="M 0,-4 0,40"
           id="path2304"
           inkscape:connector-curvature="0" />
      </g>
    </marker>
    <marker
       inkscape:stockid="Arrow1Lstart"
       orient="auto"
       refY="0"
       refX="0"
       id="Arrow1Lstart"
       style="overflow:visible">
      <path
         id="path3763"
         d="M 0,0 5,-5 -12.5,0 5,5 0,0 z"
         style="fill-rule:evenodd;stroke:#000000;stroke-width:1pt"
         transform="matrix(0.8,0,0,0.8,10,0)"
         inkscape:connector-curvature="0" />
    </marker>
    <marker
       inkscape:stockid="Arrow1Lend"
       orient="auto"
       refY="0"
       refX="0"
       id="Arrow1Lend"
       style="overflow:visible">
      <path
         id="path3766"
         d="M 0,0 5,-5 -12.5,0 5,5 0,0 z"
         style="fill-rule:evenodd;stroke:#000000;stroke-width:1pt"
         transform="matrix(-0.8,0,0,-0.8,-10,0)"
         inkscape:connector-curvature="0" />
    </marker>
    <marker
       inkscape:stockid="Arrow1Lend"
       orient="auto"
       refY="0"
       refX="0"
       id="Arrow1Lend-3"
       style="overflow:visible">
      <path
         inkscape:connector-curvature="0"
         id="path3766-1"
         d="M 0,0 5,-5 -12.5,0 5,5 0,0 z"
         style="fill-rule:evenodd;stroke:#000000;stroke-width:1pt"
         transform="matrix(-0.8,0,0,-0.8,-10,0)" />
    </marker>
  </defs>
  <sodipodi:namedview
     id="base"
     pagecolor="#ffffff"
     bordercolor="#666666"
     borderopacity="1.0"
     inkscape:pageopacity="0.0"
     inkscape:pageshadow="2"
     inkscape:zoom="0.90509668"
     inkscape:cx="216.53231"
     inkscape:cy="187.15221"
     inkscape:document-units="px"
     inkscape:current-layer="layer1"
     showgrid="true"
     inkscape:snap-global="true"
     inkscape:window-width="1280"
     inkscape:window-height="752"
     inkscape:window-x="0"
     inkscape:window-y="0"
     inkscape:window-maximized="1"
     fit-margin-top="0"
     fit-margin-left="0"
     fit-margin-right="0"
     fit-margin-bottom="0">
    <inkscape:grid
       type="xygrid"
       id="grid2985"
       empspacing="5"
       visible="true"
       enabled="true"
       snapvisiblegridlinesonly="true"
       originx="-29.282554px"
       originy="-379.30505px" />
  </sodipodi:namedview>
  <metadata
     id="metadata7">
    <rdf:RDF>
      <cc:Work
         rdf:about="">
        <dc:format>image/svg+xml</dc:format>
        <dc:type
           rdf:resource="http://purl.org/dc/dcmitype/StillImage" />
        <dc:title></dc:title>
      </cc:Work>
    </rdf:RDF>
  </metadata>
  <g
     inkscape:label="Layer 1"
     inkscape:groupmode="layer"
     id="layer1"
     transform="translate(-28.054357,-287.73716)">
    <path
       style="fill:#000000;stroke:#000000;stroke-width:2;stroke-linecap:butt;stroke-linejoin:miter;stroke-miterlimit:4;stroke-opacity:1;stroke-dasharray:none;marker-end:url(#Arrow1Lend)"
       d="m 60,632.36218 460,0"
       id="path2989"
       inkscape:connector-curvature="0" />
    <path
       style="fill:#000000;stroke:#000000;stroke-width:2;stroke-linecap:butt;stroke-linejoin:miter;stroke-miterlimit:4;stroke-opacity:1;stroke-dasharray:none;marker-end:url(#Arrow1Lend)"
       d="M 80,652.36218 80,292.36214"
       id="path2989-9"
       inkscape:connector-curvature="0" />
    <text
       xml:space="preserve"
       style="font-size:38.01679611px;font-style:normal;font-weight:normal;line-height:125%;letter-spacing:0px;word-spacing:0px;fill:#000000;fill-opacity:1;stroke:none;font-family:Sans"
       x="398.24673"
       y="641.55609"
       id="text4227"
       sodipodi:linespacing="125%"
       transform="scale(0.95418236,1.0480177)"><tspan
         sodipodi:role="line"
         id="tspan4229"
         x="398.24673"
         y="641.55609">Realteil</tspan></text>
    <text
       xml:space="preserve"
       style="font-size:36.19862747px;font-style:normal;font-weight:normal;line-height:125%;letter-spacing:0px;word-spacing:0px;fill:#000000;fill-opacity:1;stroke:none;font-family:Sans"
       x="-548.67474"
       y="51.654881"
       id="text4231"
       sodipodi:linespacing="125%"
       transform="matrix(0,-0.86091468,1.1615553,0,0,0)"
       inkscape:transform-center-x="-57.964649"
       inkscape:transform-center-y="-2.0847028e-05"><tspan
         sodipodi:role="line"
         id="tspan4233"
         x="-548.67474"
         y="51.654881">Imaginärteil</tspan></text>
    <path
       style="fill:none;stroke:#000000;stroke-width:2.5;stroke-linecap:butt;stroke-linejoin:miter;stroke-miterlimit:4;stroke-opacity:1;stroke-dasharray:none;marker-start:url(#Arrow1Lstart);marker-mid:none;marker-end:url(#Arrow1Lend-3)"
       d="m 120,352.36218 -40,280 240,0"
       id="path4235"
       inkscape:connector-curvature="0" />
    <path
       style="fill:#9d9d9d;fill-opacity:1;stroke:#696969;stroke-width:2.5;stroke-linecap:butt;stroke-linejoin:miter;stroke-miterlimit:4;stroke-opacity:1;stroke-dasharray:5, 2.5;stroke-dashoffset:0;marker-end:none"
       d="m 120,352.36218 220.71429,0 19.28571,0"
       id="path5539"
       inkscape:connector-curvature="0"
       sodipodi:nodetypes="ccc" />
    <path
       style="fill:#696969;fill-opacity:1;stroke:#737373;stroke-width:2.5;stroke-linecap:butt;stroke-linejoin:miter;stroke-miterlimit:4;stroke-opacity:1;stroke-dasharray:5, 2.5;stroke-dashoffset:0;marker-end:none"
       d="m 320,632.36218 36.59286,-256.15 3.40714,-23.85"
       id="path5743"
       inkscape:connector-curvature="0"
       sodipodi:nodetypes="ccc" />
    <path
       style="fill:none;stroke:#000000;stroke-width:2.5;stroke-linecap:butt;stroke-linejoin:miter;stroke-miterlimit:4;stroke-opacity:1;stroke-dasharray:none;marker-end:url(#Arrow1Lend-3)"
       d="m 80,632.36218 280,-280"
       id="path6117"
       inkscape:connector-curvature="0" />
    <path
       sodipodi:type="arc"
       style="fill:none;stroke:#298511;stroke-width:3.5;stroke-miterlimit:4;stroke-opacity:1;stroke-dasharray:none;stroke-dashoffset:0"
       id="path6689"
       sodipodi:cx="107.5"
       sodipodi:cy="604.86218"
       sodipodi:rx="100"
       sodipodi:ry="100"
       d="m 178.43928,534.38085 c 18.59229,18.71309 29.03751,44.01447 29.06068,70.39348"
       sodipodi:start="5.5010253"
       sodipodi:end="6.2823068"
       transform="translate(-27.5,27.5)"
       sodipodi:open="true" />
    <path
       sodipodi:type="arc"
       style="fill:none;stroke:#298511;stroke-width:3.5;stroke-miterlimit:4;stroke-opacity:1;stroke-dasharray:none;stroke-dashoffset:0"
       id="path6693"
       sodipodi:cx="76.375694"
       sodipodi:cy="590.98651"
       sodipodi:rx="120"
       sodipodi:ry="120"
       d="M 93.873885,472.26914 C 152.86018,480.96335 196.51666,531.64748 196.37536,591.2709"
       transform="translate(3.6243057,41.375671)"
       sodipodi:start="4.858729"
       sodipodi:end="6.2855552"
       sodipodi:open="true" />
    <text
       xml:space="preserve"
       style="font-size:14px;font-style:normal;font-weight:normal;line-height:125%;letter-spacing:0px;word-spacing:0px;fill:#000000;fill-opacity:1;stroke:none;font-family:Sans"
       x="310"
       y="662.36212"
       id="text6713"
       sodipodi:linespacing="125%"><tspan
         sodipodi:role="line"
         id="tspan6715"
         x="310"
         y="662.36212">$I_1'$</tspan></text>
    <path
       style="fill:none;stroke:#ff0000;stroke-width:2;stroke-linecap:butt;stroke-linejoin:miter;stroke-miterlimit:4;stroke-opacity:1;stroke-dasharray:none;marker-start:url(#StopL);marker-end:url(#StopL)"
       d="m 50.717446,283.64996 0,280 280.000004,0"
       id="path3011"
       inkscape:connector-curvature="0"
       transform="translate(29.282554,68.712183)" />
    <text
       xml:space="preserve"
       style="font-size:12px;font-style:normal;font-variant:normal;font-weight:normal;font-stretch:normal;line-height:125%;letter-spacing:0px;word-spacing:0px;fill:#000000;fill-opacity:1;stroke:none;font-family:Arial;-inkscape-font-specification:Arial"
       x="79.549515"
       y="586.66724"
       id="text5234"
       sodipodi:linespacing="125%"
       transform="translate(29.282554,68.712183)"><tspan
         sodipodi:role="line"
         id="tspan5236"
         x="79.549515"
         y="586.66724"></tspan></text>
    <g
       id="g5251">
      <text
         sodipodi:linespacing="125%"
         id="text6697"
         y="512.36218"
         x="130"
         style="font-size:14px;font-style:normal;font-weight:normal;line-height:125%;letter-spacing:0px;word-spacing:0px;fill:#000000;fill-opacity:1;stroke:none;font-family:Sans"
         xml:space="preserve"><tspan
           y="512.36218"
           x="130"
           id="tspan6699"
           sodipodi:role="line">$\varphi_0$</tspan></text>
      <text
         sodipodi:linespacing="125%"
         id="text6701"
         y="612.36218"
         x="130"
         style="font-size:14px;font-style:normal;font-weight:normal;line-height:125%;letter-spacing:0px;word-spacing:0px;fill:#000000;fill-opacity:1;stroke:none;font-family:Sans"
         xml:space="preserve"><tspan
           y="612.36218"
           x="130"
           id="tspan6703"
           sodipodi:role="line">$\varphi$</tspan></text>
      <text
         sodipodi:linespacing="125%"
         id="text6705"
         y="362.36218"
         x="370"
         style="font-size:14px;font-style:normal;font-weight:normal;line-height:125%;letter-spacing:0px;word-spacing:0px;fill:#000000;fill-opacity:1;stroke:none;font-family:Sans"
         xml:space="preserve"><tspan
           y="362.36218"
           x="370"
           id="tspan6707"
           sodipodi:role="line">$I_1$</tspan></text>
      <text
         sodipodi:linespacing="125%"
         id="text6709"
         y="392.36215"
         x="140"
         style="font-size:14px;font-style:normal;font-weight:normal;line-height:125%;letter-spacing:0px;word-spacing:0px;fill:#000000;fill-opacity:1;stroke:none;font-family:Sans"
         xml:space="preserve"><tspan
           y="392.36215"
           x="140"
           id="tspan6711"
           sodipodi:role="line">$I_0$</tspan></text>
      <text
         transform="matrix(0,-1,1,0,0,0)"
         xml:space="preserve"
         style="font-size:14px;font-style:normal;font-weight:normal;line-height:125%;letter-spacing:0px;word-spacing:0px;fill:#ff0000;fill-opacity:1;stroke:none;font-family:Sans;stroke-opacity:1"
         x="-612.36212"
         y="60"
         id="text5201"
         sodipodi:linespacing="125%"><tspan
           sodipodi:role="line"
           id="tspan5203"
           x="-612.36212"
           y="60">$I_0 \sin(\varphi_0)$</tspan></text>
      <text
         sodipodi:linespacing="125%"
         id="text5245"
         y="664.08087"
         x="124.0625"
         style="font-size:14px;font-style:normal;font-weight:normal;line-height:125%;letter-spacing:0px;word-spacing:0px;fill:#ff0000;fill-opacity:1;stroke:none;font-family:Sans"
         xml:space="preserve"><tspan
           y="664.08087"
           x="124.0625"
           id="tspan5247"
           sodipodi:role="line">$I_1' + I_0 \cos(\varphi_0)$</tspan></text>
    </g>
    <path
       style="fill:none;stroke:#f97171;stroke-width:2.50000000000000000;stroke-linecap:butt;stroke-linejoin:miter;stroke-opacity:1;stroke-miterlimit:4;stroke-dasharray:5, 2.50000000000000000;stroke-dashoffset:0;fill-opacity:1"
       d="m 330.71745,64.494198 0,280.000002"
       id="path5249"
       inkscape:connector-curvature="0"
       transform="translate(28.054357,287.73716)" />
    <path
       inkscape:connector-curvature="0"
       id="path5265"
       d="m 80,632.36218 280,-280"
       style="fill:none;stroke:#000000;stroke-width:2.5;stroke-linecap:butt;stroke-linejoin:miter;stroke-miterlimit:4;stroke-opacity:1;stroke-dasharray:none;marker-end:url(#Arrow1Lend-3)" />
  </g>
</svg>
