#1: U [kV], d [mm], Fehler U, Fehler d
# m = 3g
2       2.67    0.05    0.005
3       3.41    0.05    0.005
4       4.36    0.05    0.005
4.35    4.66    0.05    0.005


# m = 4g
2       2.42    0.05    0.005
3       3.04    0.05    0.005
4       3.83    0.05    0.005
4.35    4.08    0.05    0.005


#2: m [g], U [kV]
# d = 2mm
1   0.75
2   1.1
3   1.4
4   1.6


# d = 2.5mm
1   1.05
2   1.6
3   1.85
4   2.45


# d = 3mm
1   1.45
2   2.0
3   2.7
4   3.1


# d = 4mm
1   1.95
2   3.05
3   3.8
4   4.35
