21.0	771
26.0	661
31.0	567
36.0	460
41.0	515
46.0	435
51.1	388
56.1	347
61.1	298
66.1	286
71.1	285
76.1	253
81.1	230
86.1	207
91.1	197
96.1	187
101.1	144
106.1	192
111.1	147
116.1	150
121.1	143
126.2	92
131.2	108
136.2	126
141.2	110
146.2	84
151.2	106
156.2	100
161.2	86
166.2	88
171.2	90
176.2	104
181.2	88
186.2	68
191.2	74
196.2	70
201.2	79
206.3	50
211.3	81
216.3	70
221.3	67
226.3	60
231.3	61
236.3	53
241.3	45
246.3	43
251.3	42
256.3	52
261.3	48
266.3	39
271.3	37
276.4	39
281.4	56
286.4	29
291.4	57
296.4	45
301.4	26
306.4	29
311.4	30
316.4	29
321.4	39
326.4	42
331.4	38
336.4	45
341.4	33
346.4	31
351.5	31
356.5	32
361.5	22
366.5	21
371.5	26
376.5	22
381.5	24
386.5	32
391.5	30
396.5	44
401.5	23
406.5	26
411.5	27
416.5	33
421.5	20
426.5	33
431.6	16
436.6	12
441.6	15
446.6	19
451.6	24
456.6	14
461.6	9
466.6	18
471.6	21
476.6	20
481.6	26
486.6	13
491.6	15
496.6	17
501.6	17
506.7	10
511.7	9
516.7	15
521.7	11
526.7	12
531.7	13
536.7	16
541.7	10
546.7	8
551.7	15
556.7	15
561.7	12
566.7	17
571.8	8
576.8	5
581.8	15
586.8	17
591.8	8
596.8	6
601.8	9
606.8	14
611.8	9
616.8	1
621.8	8
626.8	8
631.8	3
636.8	13
641.8	8
