29.0	517
34.0	502
39.0	440
44.0	442
49.0	386
54.1	358
59.1	262
64.1	277
69.1	241
74.1	216
79.1	190
84.1	213
89.1	156
94.1	160
99.1	140
104.1	149
109.1	100
114.1	107
119.1	133
124.2	118
129.2	82
134.2	98
139.2	98
144.2	100
149.2	87
154.2	92
159.2	51
164.2	82
169.2	79
174.2	53
179.2	82
184.2	69
189.2	48
194.2	71
199.2	50
204.2	40
209.2	39
214.3	53
219.3	55
224.3	33
229.3	48
234.3	34
239.3	41
244.3	44
249.3	42
254.3	48
259.3	45
264.3	30
269.3	33
274.3	37
279.4	44
284.4	38
289.4	40
294.4	21
299.4	45
304.4	52
309.4	28
314.4	21
319.4	16
324.4	21
329.4	21
334.4	33
339.4	38
344.4	33
349.4	17
354.4	24
359.5	30
364.5	25
369.5	27
374.5	12
379.5	8
384.5	23
389.5	17
394.5	20
399.5	31
404.5	13
409.5	14
414.5	15
419.5	12
424.5	21
429.5	18
434.6	12
439.6	15
444.6	16
449.6	13
454.6	6
459.6	19
464.6	9
469.6	10
474.6	29
479.6	12
484.6	13
489.6	16
494.6	8
499.6	20
504.7	18
509.7	14
514.7	14
519.7	14
524.7	7
529.7	17
534.7	9
539.7	7
544.7	3
549.7	12
554.7	13
559.7	7
564.7	9
569.7	8
574.7	11
579.7	9
584.7	10
589.8	9
594.8	7
599.8	3
604.8	12
609.8	8
614.8	4
619.8	8
624.8	6
629.8	6
634.8	6
639.8	16
644.8	4
649.8	7
654.8	8
659.8	8
664.9	7
669.9	7
