21.0	619
26.0	564
31.0	486
36.0	427
41.0	376
46.0	380
51.0	321
56.1	237
61.1	266
66.1	236
71.1	189
76.1	160
81.1	172
86.1	127
91.1	147
96.1	128
101.1	112
106.1	131
111.1	80
116.1	76
121.2	83
126.2	88
131.2	72
136.2	79
141.2	63
146.2	57
151.2	66
156.2	42
161.2	40
166.2	54
171.2	46
176.2	42
181.2	41
186.2	36
191.2	28
196.2	55
201.2	34
206.2	41
211.2	45
216.3	52
221.3	25
226.3	27
231.3	32
236.3	21
241.3	27
246.3	27
251.3	20
256.3	32
261.3	18
266.3	25
271.3	24
276.3	23
281.3	25
286.4	16
291.4	19
296.4	21
301.4	21
306.4	20
311.4	15
316.4	25
321.4	18
326.4	21
331.4	23
336.4	7
341.4	16
346.4	13
351.5	19
356.5	17
361.5	16
366.5	18
371.5	9
376.5	28
381.5	22
386.5	14
391.5	9
396.5	15
401.5	14
406.5	13
411.5	16
416.5	9
421.5	11
426.5	11
431.5	17
436.5	11
441.6	12
446.6	15
451.6	8
456.6	17
461.6	8
466.6	8
471.6	4
476.6	12
481.6	16
486.6	11
491.6	10
496.6	8
501.6	15
506.7	13
511.7	3
516.7	12
521.7	6
526.7	9
531.7	8
536.7	5
541.7	6
546.7	3
551.7	4
556.7	10
561.7	4
566.7	11
571.7	5
576.8	9
581.8	6
586.8	11
591.8	7
596.8	6
601.8	7
606.8	8
611.8	11
616.8	8
