0	0.816146
1	0.779144
2	0.747837
3	0.717348
4	0.691341
5	0.665491
6	0.639886
7	0.616057
8	0.592996
9	0.57193
10	0.549969
11	0.528071
12	0.507396
13	0.488993
14	0.470881
15	0.451926
16	0.435859
17	0.420352
18	0.405105
19	0.390424
20	0.376857
21	0.362216
22	0.348077
23	0.334508
24	0.317983
25	0.301416
26	0.289101
27	0.275233
28	0.263185
29	0.24956
30	0.235034
31	0.222577
32	0.211603
33	0.202035
34	0.19171
35	0.182989
36	0.175321
37	0.168374
38	0.162746
39	0.1604
40	0.154219
41	0.147988
42	0.13977
43	0.131473
44	0.122924
45	0.112752
46	0.104848
47	0.0965129
48	0.0905549
49	0.0870455
50	0.0872683
51	0.0875336
52	0.0884439
53	0.0848216
54	0.0823127
55	0.0779411
56	0.0721353
57	0.0696761
58	0.0677274
59	0.0648389
60	0.0593982
61	0.0548174
62	0.0504776
63	0.0469478
64	0.0434125
65	0.0390135
66	0.0349202
67	0.0331723
68	0.0326103
69	0.0320344
70	0.0335337
71	0.0367109
72	0.0399916
73	0.0470175
74	0.0561383
75	0.0650581
76	0.0696932
77	0.0762516
78	0.0853972
79	0.0946573
80	0.102594
81	0.109393
82	0.113878
83	0.116417
84	0.119595
85	0.122148
86	0.122069
87	0.123662
88	0.122285
89	0.122237
90	0.124338
91	0.126493
92	0.130655
93	0.135594
94	0.142397
95	0.147532
96	0.152048
97	0.156747
98	0.164088
99	0.171547
100	0.178888
101	0.185837
102	0.194103
103	0.201111
104	0.207868
105	0.213787
106	0.214444
107	0.215446
108	0.215968
109	0.218082
110	0.218188
111	0.215655
112	0.213403
113	0.211818
114	0.212673
115	0.213587
116	0.214012
117	0.215784
118	0.216832
119	0.215875
120	0.214266
121	0.210771
122	0.210903
123	0.206946
124	0.201788
125	0.194673
126	0.190028
127	0.185638
128	0.181367
129	0.176017
130	0.1702
131	0.166868
132	0.166139
133	0.163829
134	0.157441
135	0.15213
136	0.144355
137	0.138151
138	0.1318
139	0.125419
140	0.117362
141	0.11488
142	0.111622
143	0.10956
144	0.106281
145	0.101367
146	0.0957111
147	0.0895011
148	0.0856171
149	0.0790226
150	0.0738971
151	0.0710038
152	0.0688481
153	0.067418
154	0.0660403
155	0.0673017
156	0.0707977
157	0.0741253
158	0.0765825
159	0.0788632
160	0.0833008
161	0.085056
162	0.082651
163	0.075123
164	0.0674586
165	0.0586508
166	0.0505535
167	0.0440587
168	0.0385215
169	0.0330587
170	0.0279424
171	0.020199
172	0.0136963
173	0.0105198
174	0.00996502
175	0.0059469
176	0.00338687
177	0.000305724
178	-0.00146454
179	-0.00166837
180	-0.000132555
181	0.00229853
182	0.00546107
183	0.00738916
184	0.0125789
185	0.0135143
186	0.0132681
187	0.011585
188	0.00985141
189	0.0102511
190	0.00756806
191	0.00344306
192	0.00104991
193	0.00284216
194	0.00312274
195	0.000440792
196	-0.00110813
197	-0.00257897
198	-0.00502556
199	-0.0060241
200	-0.00304559
201	-0.00368591
202	-0.00385228
203	-0.00591857
204	-0.00716585
205	-0.00949748
206	-0.00972784
207	-0.00964813
208	-0.0101815
209	-0.00636171
210	0.000197163
211	0.00434538
212	0.0110865
213	0.0188394
214	0.0281461
215	0.036262
216	0.0411709
217	0.0454989
218	0.0490943
219	0.0533678
220	0.0603427
221	0.0627828
222	0.0653083
223	0.0669546
224	0.0680701
225	0.0689501
226	0.0695244
227	0.0686266
228	0.0728239
229	0.0767073
230	0.0805586
231	0.084212
232	0.0875621
233	0.0950787
234	0.104428
235	0.115242
236	0.124172
237	0.133054
238	0.140397
239	0.14742
240	0.154955
241	0.161951
242	0.169881
243	0.178909
244	0.188577
245	0.194924
246	0.198889
247	0.199722
248	0.20324
249	0.203383
250	0.203313
251	0.204224
252	0.205547
253	0.206688
254	0.205075
255	0.20587
256	0.205961
257	0.20782
258	0.209316
259	0.212485
260	0.213368
261	0.219447
262	0.227996
263	0.234987
264	0.239295
265	0.242782
266	0.245541
267	0.245358
268	0.242236
269	0.239137
270	0.235762
271	0.233015
272	0.227516
273	0.222095
274	0.214167
275	0.206036
276	0.198444
277	0.189643
278	0.183986
279	0.17985
280	0.175146
281	0.16953
282	0.16743
283	0.167915
284	0.169289
285	0.167842
286	0.16031
287	0.156408
288	0.155458
289	0.154085
290	0.150994
291	0.14688
292	0.144014
293	0.140687
294	0.137212
295	0.136472
296	0.13556
297	0.134637
298	0.13578
299	0.135755
300	0.131073
301	0.127445
302	0.123429
303	0.12219
304	0.119011
305	0.119451
306	0.115488
307	0.110767
308	0.105563
309	0.0993441
310	0.091908
311	0.0839576
312	0.0796933
313	0.0743693
314	0.0679607
315	0.0652666
316	0.0633858
317	0.0625168
318	0.0618653
319	0.0606903
320	0.0576087
321	0.0595471
322	0.0628752
323	0.0645709
324	0.0627261
325	0.0566674
326	0.0509758
327	0.0459346
328	0.0381594
329	0.0328991
330	0.027348
331	0.0235518
332	0.0189107
333	0.0132005
334	0.00959937
335	0.00648864
336	0.00313915
337	0.000700062
338	-0.00140612
339	-0.00199605
340	-0.00589737
341	-0.00828565
342	-0.00829696
343	-0.00938868
344	-0.0074272
345	-0.00864813
346	-0.0111361
347	-0.0160702
348	-0.0187821
349	-0.0269374
350	-0.0359322
351	-0.0433408
352	-0.0506258
353	-0.0594304
354	-0.0687446
355	-0.0753887
356	-0.0825689
357	-0.0853797
358	-0.0880938
359	-0.0917464
360	-0.0966216
361	-0.102463
362	-0.102764
363	-0.101954
364	-0.101699
365	-0.101125
366	-0.100045
367	-0.095802
368	-0.0931066
369	-0.0923491
370	-0.0911977
371	-0.0904165
372	-0.0914851
373	-0.0930908
374	-0.0911002
375	-0.0870013
376	-0.0808064
377	-0.0719101
378	-0.0639914
379	-0.0561857
380	-0.0484965
381	-0.0386574
382	-0.0325019
383	-0.0260324
384	-0.0219527
385	-0.0145226
386	-0.00617555
387	0.0045643
388	0.0133086
389	0.0183485
390	0.0257278
391	0.0291693
392	0.0322106
393	0.0330295
394	0.0378568
395	0.0429342
396	0.0528351
397	0.060221
398	0.0683901
399	0.0715574
