0	0.876736
1	0.858767
2	0.840473
3	0.822302
4	0.803935
5	0.78571
6	0.7675
7	0.747842
8	0.727042
9	0.707921
10	0.690178
11	0.672935
12	0.656172
13	0.639134
14	0.622756
15	0.607111
16	0.591219
17	0.576869
18	0.565838
19	0.555554
20	0.546078
21	0.537032
22	0.527994
23	0.518012
24	0.509174
25	0.502394
26	0.49473
27	0.488732
28	0.482978
29	0.47511
30	0.465711
31	0.455655
32	0.445039
33	0.435177
34	0.425639
35	0.415067
36	0.40273
37	0.390075
38	0.375772
39	0.362659
40	0.350492
41	0.338925
42	0.328369
43	0.317995
44	0.307417
45	0.29695
46	0.287652
47	0.279891
48	0.273503
49	0.269233
50	0.263588
51	0.257032
52	0.251245
53	0.246645
54	0.242784
55	0.237987
56	0.234059
57	0.229979
58	0.224369
59	0.218463
60	0.211769
61	0.204954
62	0.198042
63	0.190079
64	0.182028
65	0.172574
66	0.16116
67	0.149275
68	0.137951
69	0.125578
70	0.113519
71	0.10035
72	0.0866322
73	0.0731479
74	0.0620701
75	0.0519826
76	0.0418893
77	0.0327066
78	0.0228981
79	0.0120195
80	-0.000459835
81	-0.0115283
82	-0.0217713
83	-0.0307155
84	-0.0391263
85	-0.0478436
86	-0.0550186
87	-0.0604743
88	-0.0649434
89	-0.0677056
90	-0.0701409
91	-0.072394
92	-0.0757978
93	-0.079259
94	-0.0851474
95	-0.0910919
96	-0.0955652
97	-0.0996856
98	-0.103199
99	-0.107022
100	-0.111935
101	-0.117582
102	-0.121599
103	-0.123826
104	-0.126803
105	-0.130746
106	-0.137098
107	-0.143431
108	-0.149375
109	-0.154537
110	-0.160535
111	-0.164787
112	-0.169443
113	-0.174651
114	-0.179441
115	-0.1845
116	-0.189256
117	-0.19352
118	-0.196581
119	-0.199316
120	-0.203599
121	-0.207922
122	-0.212747
123	-0.21457
124	-0.216394
125	-0.218294
126	-0.221203
127	-0.223133
128	-0.225592
129	-0.229113
130	-0.233859
131	-0.238444
132	-0.243012
133	-0.248803
134	-0.256466
135	-0.263693
136	-0.269526
137	-0.274988
138	-0.278743
139	-0.279888
140	-0.280599
141	-0.28091
142	-0.281497
143	-0.283485
144	-0.285346
145	-0.285192
146	-0.284013
147	-0.281933
148	-0.279525
149	-0.276607
150	-0.272929
151	-0.268933
152	-0.265034
153	-0.260994
154	-0.256034
155	-0.252571
156	-0.249498
157	-0.246864
158	-0.246263
159	-0.244664
160	-0.243062
161	-0.241455
162	-0.240032
163	-0.239479
164	-0.238066
165	-0.237901
166	-0.237025
167	-0.234523
168	-0.230297
169	-0.226236
170	-0.22253
171	-0.219604
172	-0.216777
173	-0.214022
174	-0.210328
175	-0.205787
176	-0.200121
177	-0.194625
178	-0.188358
179	-0.181803
180	-0.176095
181	-0.170029
182	-0.162169
183	-0.157138
184	-0.152376
185	-0.147612
186	-0.141751
187	-0.137301
188	-0.133039
189	-0.128453
190	-0.125347
191	-0.121694
192	-0.118422
193	-0.115822
194	-0.112541
195	-0.108916
196	-0.104359
197	-0.100303
198	-0.0955562
199	-0.0923709
200	-0.0890476
201	-0.085224
202	-0.0806535
203	-0.0743715
204	-0.0670124
205	-0.0595857
206	-0.0522155
207	-0.0446665
208	-0.0387384
209	-0.0318999
210	-0.0248922
211	-0.0180096
212	-0.0133214
213	-0.00992205
214	-0.00846284
215	-0.00746772
216	-0.00490037
217	-0.00320669
218	-0.00319339
219	-0.00415137
220	-0.00626824
221	-0.00867854
222	-0.0100456
223	-0.0120698
224	-0.016125
225	-0.0218283
226	-0.0262849
227	-0.0289819
228	-0.0323065
229	-0.0347465
230	-0.0365124
231	-0.0392318
232	-0.0399879
233	-0.041651
234	-0.0426927
235	-0.0438151
236	-0.0445126
237	-0.0452413
238	-0.0450402
239	-0.0461898
240	-0.0474927
241	-0.0482324
242	-0.0486459
243	-0.0489838
244	-0.0487115
245	-0.0475452
246	-0.0468566
247	-0.0471226
248	-0.0473738
249	-0.0489946
250	-0.0494946
251	-0.0504921
252	-0.0503118
253	-0.0509067
254	-0.0514371
255	-0.0512765
256	-0.0488118
257	-0.0461365
258	-0.0447163
259	-0.0413728
260	-0.0363209
261	-0.0300016
262	-0.0251005
263	-0.0197809
264	-0.0142955
265	-0.00868211
266	-0.00249934
267	0.00302776
268	0.00791263
269	0.0133921
270	0.0183566
271	0.0228714
272	0.0289914
273	0.0342517
274	0.0385509
275	0.0421021
276	0.0438117
277	0.0457932
278	0.0469933
279	0.0474354
280	0.0469353
281	0.0463011
282	0.0436092
283	0.0386017
284	0.032426
285	0.026635
286	0.0220839
287	0.0190458
288	0.0173486
289	0.0158683
290	0.0141979
291	0.0125259
292	0.0124832
293	0.010895
294	0.0113911
295	0.0113725
296	0.0120255
297	0.0124346
298	0.0118404
299	0.0105661
300	0.00996507
301	0.0113707
302	0.011673
303	0.0121433
304	0.0109022
305	0.00969737
306	0.00851433
307	0.00707054
308	0.00484993
309	0.00445207
310	0.00521441
311	0.00646555
312	0.00578042
313	0.00436284
314	0.00267736
315	0.00139108
316	0.00031571
317	-9.25076e-06
318	-0.00125676
319	-0.00346213
320	-0.00428049
321	-0.00321566
322	-0.00131952
323	0.00133719
324	0.00308723
325	0.00739693
326	0.0101974
327	0.0119452
328	0.0154344
329	0.0172847
330	0.0186474
331	0.0211427
332	0.0236189
333	0.0248389
334	0.0255083
335	0.0264433
336	0.0280314
337	0.0301298
338	0.030702
339	0.0313307
340	0.0332706
341	0.0335974
342	0.032505
343	0.0309258
344	0.0284253
345	0.0252475
346	0.0246684
347	0.0249305
348	0.0249227
349	0.024434
350	0.0265821
351	0.0273898
352	0.0287045
353	0.030586
354	0.0316301
355	0.0330288
356	0.0328841
357	0.0348143
358	0.0367798
359	0.0418234
360	0.0466066
361	0.0517609
362	0.0560446
363	0.059728
364	0.0645462
365	0.0708031
366	0.077546
367	0.0839478
368	0.0924152
369	0.100807
370	0.107529
371	0.114751
372	0.121779
373	0.128629
374	0.135633
375	0.141623
376	0.145711
377	0.148824
378	0.15191
379	0.155171
380	0.159874
381	0.163739
382	0.166366
383	0.166655
384	0.1676
385	0.17028
386	0.17414
387	0.175677
388	0.177616
389	0.178562
390	0.17888
391	0.178279
392	0.178225
393	0.177522
394	0.176351
395	0.174823
396	0.171321
397	0.169272
398	0.167296
399	0.164976
