0	0.840392
1	0.819245
2	0.797948
3	0.777063
4	0.756138
5	0.736649
6	0.71817
7	0.700315
8	0.680957
9	0.663328
10	0.645824
11	0.628095
12	0.609952
13	0.590397
14	0.571305
15	0.553594
16	0.537387
17	0.521604
18	0.507756
19	0.4937
20	0.479974
21	0.466975
22	0.454736
23	0.442139
24	0.43129
25	0.421062
26	0.412981
27	0.406103
28	0.400574
29	0.393274
30	0.387074
31	0.380154
32	0.373919
33	0.369933
34	0.366272
35	0.364607
36	0.362608
37	0.359619
38	0.357153
39	0.352301
40	0.346881
41	0.341693
42	0.337941
43	0.334579
44	0.330779
45	0.327715
46	0.325306
47	0.322502
48	0.319544
49	0.316117
50	0.311334
51	0.304833
52	0.298007
53	0.291587
54	0.286486
55	0.279706
56	0.273315
57	0.26977
58	0.265708
59	0.262862
60	0.259415
61	0.255632
62	0.25243
63	0.250743
64	0.248665
65	0.245533
66	0.242733
67	0.238088
68	0.232277
69	0.225582
70	0.218688
71	0.211915
72	0.205926
73	0.200068
74	0.195243
75	0.189775
76	0.184418
77	0.178966
78	0.173405
79	0.165408
80	0.157307
81	0.151362
82	0.145446
83	0.141561
84	0.137622
85	0.134497
86	0.132074
87	0.129309
88	0.126175
89	0.121273
90	0.115844
91	0.110944
92	0.106925
93	0.102355
94	0.0993749
95	0.0967501
96	0.0937776
97	0.0903307
98	0.0887839
99	0.0860901
100	0.0822126
101	0.0785178
102	0.0748038
103	0.071083
104	0.0703561
105	0.0684042
106	0.0635102
107	0.0590063
108	0.0569136
109	0.0560377
110	0.0558931
111	0.0555419
112	0.055563
113	0.0555299
114	0.0576143
115	0.0591349
116	0.060824
117	0.0616979
118	0.0610623
119	0.0614243
120	0.0620986
121	0.0640433
122	0.0637814
123	0.0610015
124	0.0598111
125	0.0576701
126	0.0563321
127	0.052886
128	0.0487935
129	0.0450768
130	0.0401227
131	0.0348109
132	0.0284951
133	0.0209813
134	0.0138079
135	0.00777227
136	0.00360942
137	0.000808498
138	-0.00408695
139	-0.0104327
140	-0.0147286
141	-0.0178292
142	-0.0203343
143	-0.0234997
144	-0.0290595
145	-0.034741
146	-0.039854
147	-0.0443201
148	-0.0476385
149	-0.0490667
150	-0.0505747
151	-0.0524702
152	-0.0528866
153	-0.0517587
154	-0.0512929
155	-0.0510157
156	-0.0525637
157	-0.0541513
158	-0.055681
159	-0.0550182
160	-0.0551157
161	-0.0560938
162	-0.0557706
163	-0.0541932
164	-0.0518018
165	-0.0494267
166	-0.0487418
167	-0.047277
168	-0.044658
169	-0.0428629
170	-0.0404401
171	-0.0377264
172	-0.0366484
173	-0.0354129
174	-0.0349764
175	-0.0325579
176	-0.0305571
177	-0.0290646
178	-0.0267054
179	-0.0239723
180	-0.0220796
181	-0.0211109
182	-0.0198416
183	-0.0184095
184	-0.0176242
185	-0.0153685
186	-0.0110225
187	-0.00715406
188	-0.00492288
189	-0.00240305
190	-0.000306034
191	0.00153224
192	0.0026595
193	0.00340359
194	0.00209671
195	0.000500515
196	-0.000123479
197	-0.00114284
198	-0.00210649
199	-0.00150059
200	-0.00221502
201	-0.00349468
202	-0.00364257
203	-0.00370242
204	-0.00371757
205	-0.0026521
206	-0.00122163
207	-0.00090822
208	-0.00018842
209	0.00168863
210	0.003422
211	0.00453102
212	0.00406845
213	0.00391054
214	0.00398518
215	0.0028041
216	0.000726138
217	-0.00232781
218	-0.0052313
219	-0.00587575
220	-0.00519756
221	-0.0055039
222	-0.00626319
223	-0.00721265
224	-0.00804139
225	-0.00881151
226	-0.00901462
227	-0.00947776
228	-0.00997397
229	-0.00961002
230	-0.0108676
231	-0.00989165
232	-0.0100823
233	-0.00849489
234	-0.00778242
235	-0.00564053
236	-0.00310416
237	-0.00395594
238	-0.00483274
239	-0.00676771
240	-0.00810029
241	-0.00817765
242	-0.00934288
243	-0.00949717
244	-0.0107366
245	-0.0111148
246	-0.0117556
247	-0.012736
248	-0.0134711
249	-0.016037
250	-0.0176047
251	-0.018905
252	-0.0204829
253	-0.0208341
254	-0.0199806
255	-0.0194721
256	-0.0192195
257	-0.0181705
258	-0.0186538
259	-0.0204099
260	-0.0222208
261	-0.0242927
262	-0.0247852
263	-0.0227958
264	-0.0199361
265	-0.0191155
266	-0.0188416
267	-0.0181169
268	-0.0192716
269	-0.0213253
270	-0.0252638
271	-0.0298981
272	-0.0347813
273	-0.038413
274	-0.0406559
275	-0.0462255
276	-0.0534675
277	-0.0606586
278	-0.0661164
279	-0.0697712
280	-0.0741642
281	-0.0773683
282	-0.0807251
283	-0.083648
284	-0.0855991
285	-0.0874641
286	-0.0892665
287	-0.092529
288	-0.0964112
289	-0.0999502
290	-0.102056
291	-0.103741
292	-0.105313
293	-0.107939
294	-0.111224
295	-0.113045
296	-0.11425
297	-0.113316
298	-0.113185
299	-0.114638
300	-0.116391
301	-0.116409
302	-0.116888
303	-0.117844
304	-0.11933
305	-0.11964
306	-0.119489
307	-0.118113
308	-0.115801
309	-0.111543
310	-0.107215
311	-0.103622
312	-0.100472
313	-0.0968647
314	-0.0939521
315	-0.0919578
316	-0.0890341
317	-0.0850906
318	-0.0807113
319	-0.0768075
320	-0.0731584
321	-0.0678503
322	-0.0634872
323	-0.0578552
324	-0.0535602
325	-0.0505053
326	-0.0483839
327	-0.0456694
328	-0.0424725
329	-0.0395309
330	-0.0352386
331	-0.0280302
332	-0.0212913
333	-0.0147369
334	-0.00906368
335	-0.00218253
336	0.00587905
337	0.012759
338	0.0198137
339	0.025608
340	0.031021
341	0.0366201
342	0.0427932
343	0.0501732
344	0.0557698
345	0.0632548
346	0.0707369
347	0.0787534
348	0.0881215
349	0.0972586
350	0.107357
351	0.116521
352	0.125991
353	0.133481
354	0.140656
355	0.148099
356	0.153916
357	0.159129
358	0.164818
359	0.170418
360	0.176481
361	0.183215
362	0.190366
363	0.19617
364	0.199908
365	0.20367
366	0.206391
367	0.207418
368	0.207601
369	0.206258
370	0.204365
371	0.200779
372	0.196205
373	0.192301
374	0.187653
375	0.181224
376	0.174168
377	0.168444
378	0.164058
379	0.159597
380	0.155739
381	0.150266
382	0.144567
383	0.139131
384	0.135186
385	0.131313
386	0.126432
387	0.121665
388	0.117461
389	0.112548
390	0.109577
391	0.106231
392	0.102565
393	0.0985898
394	0.0958603
395	0.0944796
396	0.0937654
397	0.0919277
398	0.0910183
399	0.0909709
