Binsize chosen = 10000
MC time = 0, E = -2.42716, Nwalker = 1002, acc = 1
MC time = 0, E = -2.42716, Nwalker = 1002, acc = 1
MC time = 1000, E = 0.515557, Nwalker = 1000, acc = 0.999405
MC time = 1000, E = 0.515557, Nwalker = 1000, acc = 0.999405
MC time = 2000, E = 0.48296, Nwalker = 999, acc = 0.99947
MC time = 2000, E = 0.483178, Nwalker = 1000, acc = 0.99947
