Binsize chosen = 10000
MC time = 0, E = 1.62391, Nwalker = 993, acc = 1
MC time = 0, E = 1.62391, Nwalker = 993, acc = 1
MC time = 1000, E = 0.488875, Nwalker = 1003, acc = 0.999909
MC time = 1000, E = 0.489333, Nwalker = 1000, acc = 0.999909
MC time = 2000, E = 0.496022, Nwalker = 994, acc = 0.999914
MC time = 2000, E = 0.495643, Nwalker = 1000, acc = 0.999914
