Binsize chosen = 10000
MC time = 0, E = 2.06339, Nwalker = 1004, acc = 1
MC time = 0, E = 2.06339, Nwalker = 1004, acc = 1
MC time = 1000, E = 0.534096, Nwalker = 1001, acc = 1
MC time = 1000, E = 0.534308, Nwalker = 1000, acc = 1
MC time = 2000, E = 0.481975, Nwalker = 1011, acc = 1
MC time = 2000, E = 0.481235, Nwalker = 1000, acc = 1
