Binsize chosen = 10000
MC time = 0, E = -3.96409, Nwalker = 1007, acc = 0.999
MC time = 0, E = -3.96409, Nwalker = 1007, acc = 0.999
MC time = 1000, E = 0.528823, Nwalker = 996, acc = 0.999284
MC time = 1000, E = 0.528548, Nwalker = 1000, acc = 0.999284
MC time = 2000, E = 0.491281, Nwalker = 997, acc = 0.999352
MC time = 2000, E = 0.491331, Nwalker = 1000, acc = 0.999352
