Binsize chosen = 10000
MC time = 0, E = 1.94784, Nwalker = 1004, acc = 1
MC time = 0, E = 1.94784, Nwalker = 1004, acc = 1
MC time = 1000, E = 0.491017, Nwalker = 1008, acc = 1
MC time = 1000, E = 0.4884, Nwalker = 1000, acc = 1
MC time = 2000, E = 0.471736, Nwalker = 996, acc = 1
MC time = 2000, E = 0.471255, Nwalker = 1000, acc = 1
