Binsize chosen = 10000
MC time = 0, E = -6.20691, Nwalker = 1005, acc = 0.999
MC time = 0, E = -6.20691, Nwalker = 1005, acc = 0.999
MC time = 1000, E = 0.425089, Nwalker = 1005, acc = 0.999155
MC time = 1000, E = 0.424188, Nwalker = 1000, acc = 0.999155
MC time = 2000, E = 0.522506, Nwalker = 1008, acc = 0.999241
MC time = 2000, E = 0.520576, Nwalker = 1000, acc = 0.999241
