Binsize chosen = 10000
MC time = 0, E = 1.87294, Nwalker = 998, acc = 1
MC time = 0, E = 1.87294, Nwalker = 998, acc = 1
MC time = 1000, E = 0.500334, Nwalker = 999, acc = 0.999863
MC time = 1000, E = 0.500204, Nwalker = 1000, acc = 0.999863
MC time = 2000, E = 0.500429, Nwalker = 1002, acc = 0.999872
MC time = 2000, E = 0.495094, Nwalker = 1000, acc = 0.999872
