Binsize chosen = 10000
MC time = 0, E = 2.08517, Nwalker = 1005, acc = 1
MC time = 0, E = 2.08517, Nwalker = 1005, acc = 1
MC time = 1000, E = 0.558012, Nwalker = 1004, acc = 0.99999
MC time = 1000, E = 0.558012, Nwalker = 1004, acc = 0.99999
MC time = 2000, E = 0.510708, Nwalker = 1005, acc = 0.999987
MC time = 2000, E = 0.510708, Nwalker = 1005, acc = 0.999987
MC time = 3000, E = 0.510104, Nwalker = 996, acc = 0.999986
MC time = 3000, E = 0.510104, Nwalker = 996, acc = 0.999986
MC time = 4000, E = 0.502568, Nwalker = 997, acc = 0.999986
MC time = 4000, E = 0.502568, Nwalker = 997, acc = 0.999986
MC time = 5000, E = 0.481029, Nwalker = 993, acc = 0.999988
MC time = 5000, E = 0.481029, Nwalker = 993, acc = 0.999988
MC time = 6000, E = 0.510086, Nwalker = 1005, acc = 0.999988
MC time = 6000, E = 0.510086, Nwalker = 1005, acc = 0.999988
MC time = 7000, E = 0.477762, Nwalker = 1009, acc = 0.999989
MC time = 7000, E = 0.477762, Nwalker = 1009, acc = 0.999989
MC time = 8000, E = 0.499586, Nwalker = 1005, acc = 0.999988
MC time = 8000, E = 0.499586, Nwalker = 1005, acc = 0.999988
MC time = 9000, E = 0.530231, Nwalker = 994, acc = 0.999989
MC time = 9000, E = 0.530231, Nwalker = 994, acc = 0.999989
MC time = 10000, E = 0.516921, Nwalker = 1011, acc = 0.999989
MC time = 10000, E = 0.516921, Nwalker = 1011, acc = 0.999989
MC time = 11000, E = 0.483251, Nwalker = 1007, acc = 0.999989
MC time = 11000, E = 0.483251, Nwalker = 1007, acc = 0.999989
MC time = 12000, E = 0.473471, Nwalker = 999, acc = 0.999989
MC time = 12000, E = 0.473471, Nwalker = 999, acc = 0.999989
MC time = 13000, E = 0.480545, Nwalker = 997, acc = 0.999989
MC time = 13000, E = 0.480545, Nwalker = 997, acc = 0.999989
MC time = 14000, E = 0.524922, Nwalker = 991, acc = 0.999989
MC time = 14000, E = 0.524922, Nwalker = 991, acc = 0.999989
MC time = 15000, E = 0.499698, Nwalker = 993, acc = 0.999989
MC time = 15000, E = 0.499698, Nwalker = 993, acc = 0.999989
MC time = 16000, E = 0.489377, Nwalker = 999, acc = 0.999989
MC time = 16000, E = 0.489377, Nwalker = 999, acc = 0.999989
