Binsize chosen = 10000
MC time = 0, E = 1.72554, Nwalker = 997, acc = 1
MC time = 0, E = 1.72554, Nwalker = 997, acc = 1
MC time = 1000, E = 0.503913, Nwalker = 998, acc = 0.999615
MC time = 1000, E = 0.504399, Nwalker = 1000, acc = 0.999615
MC time = 2000, E = 0.51341, Nwalker = 996, acc = 0.999609
MC time = 2000, E = 0.513712, Nwalker = 1000, acc = 0.999609
