Binsize chosen = 10000
MC time = 0, E = 1.73757, Nwalker = 1000, acc = 1
MC time = 0, E = 1.73757, Nwalker = 1000, acc = 1
MC time = 1000, E = 0.515987, Nwalker = 998, acc = 0.999629
MC time = 1000, E = 0.515128, Nwalker = 1000, acc = 0.999629
MC time = 2000, E = 0.490822, Nwalker = 1004, acc = 0.999654
MC time = 2000, E = 0.490523, Nwalker = 1000, acc = 0.999654
