Binsize chosen = 10000
MC time = 0, E = 1.84317, Nwalker = 996, acc = 1
MC time = 0, E = 1.84317, Nwalker = 996, acc = 1
MC time = 1000, E = 0.502596, Nwalker = 1006, acc = 0.999774
MC time = 1000, E = 0.503357, Nwalker = 1000, acc = 0.999774
MC time = 2000, E = 0.516068, Nwalker = 996, acc = 0.999772
MC time = 2000, E = 0.515829, Nwalker = 1000, acc = 0.999772
