0	0.506693
1	0.514431
2	0.516105
3	0.510602
4	0.513897
5	0.512461
6	0.510709
7	0.517907
8	0.51834
9	0.518467
10	0.523022
11	0.524104
12	0.525374
13	0.525974
14	0.523681
15	0.520802
16	0.520124
17	0.521241
18	0.513594
19	0.514266
20	0.518692
21	0.528395
22	0.523328
23	0.52751
24	0.529893
25	0.528203
26	0.528517
27	0.516831
28	0.517695
29	0.513944
30	0.511677
31	0.510727
32	0.505994
33	0.509084
34	0.503958
35	0.499279
36	0.499281
37	0.509249
38	0.505054
39	0.504634
40	0.507496
41	0.505548
42	0.509354
43	0.511012
44	0.508179
45	0.511093
46	0.510566
47	0.512586
48	0.513462
49	0.5108
50	0.51086
51	0.510132
52	0.507639
53	0.499179
54	0.50663
55	0.507827
56	0.507288
57	0.502216
58	0.505722
59	0.505355
60	0.501431
61	0.502278
62	0.494267
63	0.492497
64	0.491487
65	0.492382
66	0.500662
67	0.495486
68	0.49376
69	0.485662
70	0.480697
71	0.482725
72	0.483432
73	0.481309
74	0.480997
75	0.483907
76	0.487629
77	0.49003
78	0.486673
79	0.483663
80	0.487537
81	0.49029
82	0.483465
83	0.488761
84	0.491906
85	0.48625
86	0.481926
87	0.476605
88	0.470169
89	0.469827
90	0.472234
91	0.474199
92	0.477818
93	0.472488
94	0.473261
95	0.471827
96	0.473374
97	0.478158
98	0.475676
99	0.477774
100	0.480118
101	0.480331
102	0.478154
103	0.470165
104	0.470162
105	0.464975
106	0.464447
107	0.4616
108	0.465686
109	0.468616
110	0.471444
111	0.474842
112	0.481742
113	0.484411
114	0.487504
115	0.482928
116	0.48672
117	0.485709
118	0.491478
119	0.494012
120	0.497664
121	0.499605
122	0.497247
123	0.496487
124	0.499034
125	0.497849
126	0.49607
127	0.498579
128	0.50221
129	0.500127
130	0.504729
131	0.500006
132	0.501493
133	0.50913
134	0.503182
135	0.507484
136	0.503145
137	0.499444
138	0.502106
139	0.51367
140	0.50863
141	0.507165
142	0.516541
143	0.517332
144	0.515648
145	0.520326
146	0.518319
147	0.525777
148	0.522859
149	0.520829
150	0.518698
151	0.515636
152	0.513146
153	0.513217
154	0.503908
155	0.503583
156	0.498209
157	0.498751
158	0.490858
159	0.486047
160	0.481108
161	0.486988
162	0.478078
163	0.479655
164	0.488608
165	0.485586
166	0.4816
167	0.482309
168	0.483698
169	0.481877
170	0.487255
171	0.488194
172	0.492764
173	0.494578
174	0.495089
175	0.491432
176	0.487246
177	0.491505
178	0.487981
179	0.487064
180	0.485366
181	0.487586
182	0.483679
183	0.475733
184	0.476026
185	0.477208
186	0.491486
187	0.492567
188	0.49167
189	0.490027
190	0.490655
191	0.49386
192	0.497717
193	0.507051
194	0.503891
195	0.502501
196	0.50994
197	0.51035
198	0.507178
199	0.501616
200	0.502561
201	0.495696
202	0.500147
203	0.496065
204	0.495334
205	0.501663
206	0.497225
207	0.501179
208	0.508346
209	0.51389
210	0.515456
211	0.515979
212	0.514592
213	0.506467
214	0.501707
215	0.505371
216	0.504582
217	0.502006
218	0.502965
219	0.497236
220	0.496253
221	0.499032
222	0.502686
223	0.495606
224	0.495618
225	0.496181
226	0.489896
227	0.490478
228	0.494995
229	0.493142
230	0.486997
231	0.477443
232	0.472308
233	0.473501
234	0.472002
235	0.471875
236	0.46999
237	0.466026
238	0.468096
239	0.467011
240	0.465408
241	0.465168
242	0.466542
243	0.458937
244	0.467732
245	0.458078
246	0.462115
247	0.464585
248	0.473872
249	0.473844
250	0.47131
251	0.479018
252	0.479534
253	0.472556
254	0.47183
255	0.47205
256	0.475714
257	0.475482
258	0.471977
259	0.465554
260	0.472938
261	0.482766
262	0.482244
263	0.487237
264	0.502689
265	0.499998
266	0.505932
267	0.50987
268	0.507339
269	0.504008
270	0.500656
271	0.500289
272	0.497585
273	0.504744
274	0.499754
275	0.494482
276	0.491301
277	0.491259
278	0.494359
279	0.49767
280	0.495437
281	0.49747
282	0.497112
283	0.4963
284	0.493539
285	0.488009
286	0.494827
287	0.496815
288	0.501461
289	0.495592
290	0.500258
291	0.496844
292	0.50272
293	0.496858
294	0.496026
295	0.497162
296	0.495933
297	0.497145
298	0.492979
299	0.487384
300	0.484385
301	0.487956
302	0.492765
303	0.49683
304	0.496188
305	0.501945
306	0.506141
307	0.502099
308	0.508154
309	0.504342
310	0.505583
311	0.506157
312	0.517104
313	0.516914
314	0.517775
315	0.517312
316	0.518755
317	0.513473
318	0.510186
319	0.515156
320	0.517227
321	0.516146
322	0.511688
323	0.507479
324	0.50735
325	0.511279
326	0.514217
327	0.51716
328	0.510099
329	0.510287
330	0.507522
331	0.504293
332	0.512081
333	0.507323
334	0.505814
335	0.511673
336	0.506989
337	0.505587
338	0.500939
339	0.507895
340	0.512496
341	0.518062
342	0.512343
343	0.51231
344	0.515745
345	0.511479
346	0.515507
347	0.515464
348	0.518903
349	0.515232
350	0.522721
351	0.521447
352	0.519368
353	0.525403
354	0.523544
355	0.525446
356	0.51812
357	0.519147
358	0.527252
359	0.52138
360	0.522021
361	0.515081
362	0.51579
363	0.513224
364	0.517018
365	0.511524
366	0.511779
367	0.50987
368	0.51144
369	0.50685
370	0.504583
371	0.499475
372	0.499923
373	0.497254
374	0.500235
375	0.501191
376	0.495306
377	0.494743
378	0.492579
379	0.496489
380	0.494524
381	0.489347
382	0.487516
383	0.486815
384	0.496474
385	0.493697
386	0.48955
387	0.487447
388	0.489638
389	0.49133
390	0.488338
391	0.486907
392	0.487076
393	0.492739
394	0.497807
395	0.493463
396	0.494879
397	0.498111
398	0.483673
399	0.481398
400	0.487726
401	0.493677
402	0.497828
403	0.500411
404	0.491653
405	0.503147
406	0.50208
407	0.504393
408	0.504467
409	0.507826
410	0.506804
411	0.506544
412	0.5089
413	0.505083
414	0.4953
415	0.499551
416	0.501265
417	0.500862
418	0.498747
419	0.499754
420	0.502859
421	0.505226
422	0.50372
423	0.506697
424	0.507747
425	0.509612
426	0.512726
427	0.518301
428	0.516362
429	0.510104
430	0.509981
431	0.511676
432	0.505255
433	0.507364
434	0.507749
435	0.506732
436	0.50133
437	0.50577
438	0.504283
439	0.503503
440	0.503486
441	0.501316
442	0.499163
443	0.491883
444	0.491751
445	0.497595
446	0.497584
447	0.493535
448	0.492444
449	0.497616
450	0.493377
451	0.492472
452	0.498287
453	0.492398
454	0.495767
455	0.488653
456	0.485315
457	0.495391
458	0.49843
459	0.502021
460	0.500606
461	0.504418
462	0.509975
463	0.510506
464	0.508345
465	0.509688
466	0.508368
467	0.515476
468	0.511232
469	0.516052
470	0.521818
471	0.531094
472	0.528335
473	0.51514
474	0.505902
475	0.512091
476	0.51089
477	0.510304
478	0.51244
479	0.50082
480	0.495193
481	0.488402
482	0.492404
483	0.497774
484	0.496118
485	0.499966
486	0.500115
487	0.500591
488	0.502735
489	0.50341
490	0.511771
491	0.503485
492	0.504754
493	0.494931
494	0.500898
495	0.497973
496	0.499869
497	0.501636
498	0.499045
499	0.500393
500	0.503913
501	0.508927
502	0.505415
503	0.504452
504	0.509225
505	0.507431
506	0.509057
507	0.507721
508	0.506046
509	0.514293
510	0.51603
511	0.507246
512	0.502311
513	0.503715
514	0.505036
515	0.499013
516	0.495292
517	0.486111
518	0.485348
519	0.478208
520	0.483435
521	0.486037
522	0.486486
523	0.480436
524	0.483643
525	0.488971
526	0.490424
527	0.481648
528	0.490426
529	0.492016
530	0.48823
531	0.486174
532	0.48922
533	0.492787
534	0.48926
535	0.486083
536	0.485973
537	0.483533
538	0.48874
539	0.489734
540	0.491462
541	0.491838
542	0.496021
543	0.497198
544	0.503031
545	0.507077
546	0.51117
547	0.507196
548	0.512649
549	0.507273
550	0.512353
551	0.513424
552	0.512038
553	0.513516
554	0.519478
555	0.511609
556	0.515836
557	0.516653
558	0.515299
559	0.505268
560	0.503769
561	0.494645
562	0.510709
563	0.494999
564	0.489065
565	0.49047
566	0.491804
567	0.494696
568	0.489217
569	0.483539
570	0.484251
571	0.488047
572	0.488372
573	0.486447
574	0.480491
575	0.481107
576	0.481772
577	0.485047
578	0.483904
579	0.488447
580	0.492616
581	0.497184
582	0.491368
583	0.493312
584	0.491968
585	0.487755
586	0.485289
587	0.484509
588	0.486654
589	0.486944
590	0.489195
591	0.4963
592	0.490132
593	0.482814
594	0.484054
595	0.484316
596	0.48308
597	0.488018
598	0.491866
599	0.4929
600	0.497895
601	0.498437
602	0.496085
603	0.501173
604	0.49621
605	0.498873
606	0.492457
607	0.501691
608	0.502595
609	0.501362
610	0.499652
611	0.497782
612	0.502788
613	0.506007
614	0.508118
615	0.505644
616	0.503648
617	0.496883
618	0.493492
619	0.491867
620	0.485239
621	0.491535
622	0.48774
623	0.488421
624	0.486827
625	0.497025
626	0.501482
627	0.505044
628	0.505576
629	0.506212
630	0.511177
631	0.506515
632	0.503133
633	0.502774
634	0.514631
635	0.514586
636	0.506883
637	0.50623
638	0.507921
639	0.50486
640	0.509928
641	0.517301
642	0.526851
643	0.523649
644	0.519504
645	0.519658
646	0.516641
647	0.521319
648	0.512272
649	0.519274
650	0.517587
651	0.515321
652	0.508882
653	0.51378
654	0.522525
655	0.519622
656	0.519619
657	0.520541
658	0.518069
659	0.519829
660	0.523699
661	0.520972
662	0.518577
663	0.51431
664	0.52017
665	0.528908
666	0.527676
667	0.535221
668	0.533099
669	0.524675
670	0.517779
671	0.511819
672	0.51346
673	0.518888
674	0.517705
675	0.519469
676	0.525676
677	0.527022
678	0.526481
679	0.530238
680	0.532795
681	0.527606
682	0.521687
683	0.521905
684	0.517027
685	0.517561
686	0.52223
687	0.522324
688	0.525619
689	0.529221
690	0.524614
691	0.532149
692	0.537376
693	0.538977
694	0.537816
695	0.535505
696	0.52725
697	0.533591
698	0.535348
699	0.536379
700	0.530275
701	0.532216
702	0.522343
703	0.513553
704	0.508375
705	0.498178
706	0.494524
707	0.498506
708	0.497728
709	0.49099
710	0.496201
711	0.50556
712	0.503399
713	0.506924
714	0.504919
715	0.49694
716	0.505798
717	0.506514
718	0.510142
719	0.513563
720	0.515351
721	0.514177
722	0.506414
723	0.511949
724	0.514836
725	0.514472
726	0.512705
727	0.513872
728	0.508513
729	0.507986
730	0.509833
731	0.503523
732	0.510688
733	0.512065
734	0.511416
735	0.508061
736	0.509584
737	0.509558
738	0.510457
739	0.50951
740	0.507063
741	0.498549
742	0.500214
743	0.503389
744	0.503283
745	0.50045
746	0.492264
747	0.487263
748	0.494132
749	0.495865
750	0.48559
751	0.485945
752	0.487162
753	0.48107
754	0.489825
755	0.490262
756	0.492018
757	0.495084
758	0.497093
759	0.497038
760	0.497012
761	0.499799
762	0.49106
763	0.494727
764	0.494806
765	0.488934
766	0.483946
767	0.480519
768	0.478011
769	0.474851
770	0.477161
771	0.473231
772	0.475625
773	0.473962
774	0.481019
775	0.476233
776	0.467539
777	0.467212
778	0.467116
779	0.472687
780	0.47482
781	0.477635
782	0.481763
783	0.481183
784	0.498933
785	0.495572
786	0.499129
787	0.496019
788	0.498733
789	0.505155
790	0.511765
791	0.508144
792	0.514798
793	0.513598
794	0.517275
795	0.510464
796	0.517821
797	0.509644
798	0.503989
799	0.506583
800	0.504893
801	0.499536
802	0.50296
803	0.499594
804	0.508655
805	0.506038
806	0.500948
807	0.49766
808	0.491531
809	0.490105
810	0.495441
811	0.492017
812	0.490681
813	0.49373
814	0.493349
815	0.49096
816	0.491976
817	0.48356
818	0.487999
819	0.497386
820	0.50243
821	0.506465
822	0.502605
823	0.4991
824	0.502238
825	0.50388
826	0.507372
827	0.508196
828	0.504998
829	0.507013
830	0.504188
831	0.50331
832	0.504966
833	0.502799
834	0.501051
835	0.493205
836	0.487688
837	0.487758
838	0.491316
839	0.488786
840	0.487138
841	0.488116
842	0.485176
843	0.488778
844	0.493899
845	0.493964
846	0.504986
847	0.508907
848	0.499982
849	0.495279
850	0.496502
851	0.496279
852	0.492571
853	0.501261
854	0.497049
855	0.493008
856	0.494063
857	0.498471
858	0.500653
859	0.500498
860	0.498372
861	0.498289
862	0.49848
863	0.496793
864	0.497934
865	0.500381
866	0.498336
867	0.498206
868	0.49234
869	0.495757
870	0.496506
871	0.498395
872	0.501205
873	0.498595
874	0.504551
875	0.497634
876	0.491677
877	0.492923
878	0.49871
879	0.50132
880	0.503501
881	0.504252
882	0.505117
883	0.504097
884	0.50059
885	0.512781
886	0.502833
887	0.499872
888	0.505206
889	0.497228
890	0.497464
891	0.50425
892	0.508672
893	0.49975
894	0.493856
895	0.482092
896	0.486048
897	0.483976
898	0.487011
899	0.483658
900	0.484514
901	0.489436
902	0.49192
903	0.488207
904	0.485573
905	0.487018
906	0.487505
907	0.491887
908	0.490991
909	0.494848
910	0.501565
911	0.498544
912	0.494602
913	0.497077
914	0.496885
915	0.494376
916	0.4921
917	0.490055
918	0.483825
919	0.488928
920	0.485236
921	0.485267
922	0.487922
923	0.490876
924	0.488841
925	0.491184
926	0.497904
927	0.495435
928	0.493001
929	0.49746
930	0.496613
931	0.499772
932	0.495704
933	0.493887
934	0.501431
935	0.501692
936	0.500687
937	0.503305
938	0.504697
939	0.505755
940	0.500316
941	0.497681
942	0.492233
943	0.495645
944	0.494015
945	0.495462
946	0.496713
947	0.49562
948	0.491461
949	0.493261
950	0.499198
951	0.502884
952	0.500212
953	0.494468
954	0.497905
955	0.502463
956	0.502268
957	0.50571
958	0.507015
959	0.512772
960	0.517994
961	0.517963
962	0.508073
963	0.511877
964	0.515337
965	0.511903
966	0.510261
967	0.507513
968	0.511979
969	0.508474
970	0.504778
971	0.494512
972	0.501421
973	0.50325
974	0.498053
975	0.49918
976	0.498938
977	0.500258
978	0.497339
979	0.504344
980	0.498119
981	0.498801
982	0.503167
983	0.504184
984	0.512877
985	0.506978
986	0.513341
987	0.506655
988	0.503499
989	0.502164
990	0.505474
991	0.503734
992	0.50825
993	0.50615
994	0.503123
995	0.500662
996	0.502221
997	0.490284
998	0.493273
999	0.490694
1000	0.487203
1001	0.483162
1002	0.491797
1003	0.493071
1004	0.490595
1005	0.489523
1006	0.486426
1007	0.492969
1008	0.494985
1009	0.495153
1010	0.495746
1011	0.503805
1012	0.497101
1013	0.494235
1014	0.499666
1015	0.502619
1016	0.500722
1017	0.513732
1018	0.519337
1019	0.517441
1020	0.512551
1021	0.508712
1022	0.512255
1023	0.519668
1024	0.526558
1025	0.523038
1026	0.524247
1027	0.523988
1028	0.52414
1029	0.523835
1030	0.524177
1031	0.527649
1032	0.5206
1033	0.516845
1034	0.516307
1035	0.520761
1036	0.516115
1037	0.510162
1038	0.505851
1039	0.505852
1040	0.510375
1041	0.511996
1042	0.509068
1043	0.500063
1044	0.504099
1045	0.497755
1046	0.483138
1047	0.484435
1048	0.491822
1049	0.48585
1050	0.480438
1051	0.486489
1052	0.487482
1053	0.490023
1054	0.49514
1055	0.49598
1056	0.490788
1057	0.491742
1058	0.4823
1059	0.48422
1060	0.486861
1061	0.487774
1062	0.490316
1063	0.489681
1064	0.495094
1065	0.505874
1066	0.491835
1067	0.488866
1068	0.489405
1069	0.487261
1070	0.490096
1071	0.485726
1072	0.481191
1073	0.489067
1074	0.491261
1075	0.494929
1076	0.500306
1077	0.50378
1078	0.504229
1079	0.50311
1080	0.506638
1081	0.511775
1082	0.511942
1083	0.51535
1084	0.51039
1085	0.504392
1086	0.504914
1087	0.50322
1088	0.503561
1089	0.503422
1090	0.503908
1091	0.505875
1092	0.495444
1093	0.499381
1094	0.495089
1095	0.499343
1096	0.507154
1097	0.505154
1098	0.503696
1099	0.508462
1100	0.501427
1101	0.491494
1102	0.489884
1103	0.490424
1104	0.4892
1105	0.490945
1106	0.492375
1107	0.497408
1108	0.500032
1109	0.508205
1110	0.501907
1111	0.503292
1112	0.507344
1113	0.498954
1114	0.498808
1115	0.501044
1116	0.497894
1117	0.491859
1118	0.487567
1119	0.487411
1120	0.487247
1121	0.487822
1122	0.492598
1123	0.495012
1124	0.495167
1125	0.494306
1126	0.4966
1127	0.50162
1128	0.495544
1129	0.497347
1130	0.503054
1131	0.503568
1132	0.50386
1133	0.508035
1134	0.506575
1135	0.501117
1136	0.505765
1137	0.504518
1138	0.500245
1139	0.49653
1140	0.485773
1141	0.48564
1142	0.493111
1143	0.488194
1144	0.490518
1145	0.490226
1146	0.480398
1147	0.485223
1148	0.490809
1149	0.491442
1150	0.491536
1151	0.498708
1152	0.497963
1153	0.502701
1154	0.503087
1155	0.50734
1156	0.503993
1157	0.498161
1158	0.498265
1159	0.503807
1160	0.503796
1161	0.500042
1162	0.496183
1163	0.496401
1164	0.49926
1165	0.499506
1166	0.497176
1167	0.50121
1168	0.50607
1169	0.515037
1170	0.51045
1171	0.508407
1172	0.516047
1173	0.515469
1174	0.511853
1175	0.509172
1176	0.505701
1177	0.498063
1178	0.490282
1179	0.489024
1180	0.487166
1181	0.485548
1182	0.486656
1183	0.481268
1184	0.473016
1185	0.473599
1186	0.472377
1187	0.468235
1188	0.469067
1189	0.469693
1190	0.477034
1191	0.480425
1192	0.48463
1193	0.483121
1194	0.485782
1195	0.486606
1196	0.491807
1197	0.492415
1198	0.491521
1199	0.489377
1200	0.490445
1201	0.485222
1202	0.488647
1203	0.489392
1204	0.490165
1205	0.486878
1206	0.485644
1207	0.486047
1208	0.480501
1209	0.486099
1210	0.491668
1211	0.497087
1212	0.49869
1213	0.496322
1214	0.498886
1215	0.492328
1216	0.490885
1217	0.487061
1218	0.489519
1219	0.489714
1220	0.480708
1221	0.48421
1222	0.481614
1223	0.47925
1224	0.483042
1225	0.479771
1226	0.484684
1227	0.479145
1228	0.470006
1229	0.470854
1230	0.470544
1231	0.472657
1232	0.474226
1233	0.47567
1234	0.472905
1235	0.473134
1236	0.472748
1237	0.467413
1238	0.477309
1239	0.474987
1240	0.481671
1241	0.474612
1242	0.474506
1243	0.473974
1244	0.480165
1245	0.48344
1246	0.487822
1247	0.492801
1248	0.495951
1249	0.504034
1250	0.493893
1251	0.495481
1252	0.501139
1253	0.503177
1254	0.495133
1255	0.493799
1256	0.492311
1257	0.495909
1258	0.497113
1259	0.492561
1260	0.485023
1261	0.485545
1262	0.491392
1263	0.496521
1264	0.510527
1265	0.508128
1266	0.501369
1267	0.504602
1268	0.512456
1269	0.510621
1270	0.503461
1271	0.504675
1272	0.502352
1273	0.518894
1274	0.514055
1275	0.514637
1276	0.517607
1277	0.513178
1278	0.517882
1279	0.510448
1280	0.501162
1281	0.500276
1282	0.501628
1283	0.501014
1284	0.501703
1285	0.500173
1286	0.511172
1287	0.504805
1288	0.512307
1289	0.517863
1290	0.516021
1291	0.520834
1292	0.519447
1293	0.51998
1294	0.51855
1295	0.512249
1296	0.511144
1297	0.511397
1298	0.505527
1299	0.507662
1300	0.504736
1301	0.5108
1302	0.515401
1303	0.518974
1304	0.515219
1305	0.514873
1306	0.517545
1307	0.509623
1308	0.498594
1309	0.500206
1310	0.501498
1311	0.498072
1312	0.502354
1313	0.500141
1314	0.498118
1315	0.504844
1316	0.508006
1317	0.499144
1318	0.501869
1319	0.506348
1320	0.502047
1321	0.506075
1322	0.507059
1323	0.504834
1324	0.501614
1325	0.496697
1326	0.500177
1327	0.499502
1328	0.494801
1329	0.486412
1330	0.482126
1331	0.479142
1332	0.485768
1333	0.492895
1334	0.491586
1335	0.488652
1336	0.492595
1337	0.48665
1338	0.487841
1339	0.484441
1340	0.487485
1341	0.493418
1342	0.494031
1343	0.490556
1344	0.4962
1345	0.495885
1346	0.49993
1347	0.504899
1348	0.500794
1349	0.495248
1350	0.502565
1351	0.503601
1352	0.505931
1353	0.509064
1354	0.507741
1355	0.510714
1356	0.510619
1357	0.509248
1358	0.512767
1359	0.507349
1360	0.498071
1361	0.498101
1362	0.494341
1363	0.495485
1364	0.4982
1365	0.503475
1366	0.502929
1367	0.511402
1368	0.507432
1369	0.509341
1370	0.50955
1371	0.506578
1372	0.49811
1373	0.500289
1374	0.500615
1375	0.497251
1376	0.497125
1377	0.491881
1378	0.50017
1379	0.492323
1380	0.498211
1381	0.506225
1382	0.503383
1383	0.502489
1384	0.501453
1385	0.506558
1386	0.508382
1387	0.506625
1388	0.500903
1389	0.495446
1390	0.497811
1391	0.495082
1392	0.497423
1393	0.495463
1394	0.495831
1395	0.495041
1396	0.492429
1397	0.496747
1398	0.498702
1399	0.500138
1400	0.502758
1401	0.507388
1402	0.514395
1403	0.512994
1404	0.508924
1405	0.50894
1406	0.508385
1407	0.513127
1408	0.520068
1409	0.519077
1410	0.515842
1411	0.517909
1412	0.516735
1413	0.516903
1414	0.512053
1415	0.510565
1416	0.506052
1417	0.501935
1418	0.500216
1419	0.500317
1420	0.498227
1421	0.497538
1422	0.505525
1423	0.510382
1424	0.504871
1425	0.500604
1426	0.504303
1427	0.508081
1428	0.507487
1429	0.504975
1430	0.503496
1431	0.501444
1432	0.507699
1433	0.507139
1434	0.51051
1435	0.513849
1436	0.511905
1437	0.508552
1438	0.511037
1439	0.513859
1440	0.508128
1441	0.501532
1442	0.498926
1443	0.498663
1444	0.500789
1445	0.500024
1446	0.497958
1447	0.499844
1448	0.494257
1449	0.49659
1450	0.494832
1451	0.494066
1452	0.500691
1453	0.49928
1454	0.495545
1455	0.497681
1456	0.49789
1457	0.491555
1458	0.498649
1459	0.505969
1460	0.510205
1461	0.505954
1462	0.504456
1463	0.502329
1464	0.506793
1465	0.502804
1466	0.505947
1467	0.511759
1468	0.515724
1469	0.517502
1470	0.525695
1471	0.522718
1472	0.518398
1473	0.522101
1474	0.53
1475	0.528987
1476	0.536062
1477	0.532035
1478	0.529737
1479	0.522961
1480	0.525871
1481	0.520808
1482	0.52147
1483	0.52686
1484	0.519636
1485	0.52237
1486	0.521346
1487	0.521282
1488	0.526051
1489	0.514923
1490	0.517265
1491	0.511634
1492	0.507761
1493	0.509824
1494	0.517421
1495	0.515316
1496	0.512638
1497	0.511098
1498	0.509044
1499	0.51186
1500	0.51341
1501	0.518225
1502	0.509768
1503	0.505157
1504	0.504796
1505	0.50797
1506	0.504171
1507	0.501588
1508	0.5012
1509	0.506268
1510	0.5145
1511	0.512219
1512	0.51784
1513	0.515192
1514	0.516508
1515	0.516294
1516	0.521582
1517	0.524892
1518	0.518873
1519	0.513312
1520	0.504833
1521	0.500472
1522	0.499501
1523	0.500363
1524	0.500309
1525	0.50584
1526	0.51164
1527	0.515169
1528	0.505668
1529	0.508103
1530	0.509234
1531	0.507899
1532	0.503408
1533	0.502258
1534	0.506652
1535	0.506783
1536	0.503408
1537	0.504665
1538	0.506767
1539	0.504383
1540	0.504894
1541	0.5048
1542	0.508042
1543	0.504783
1544	0.51339
1545	0.512553
1546	0.511898
1547	0.511288
1548	0.514986
1549	0.512337
1550	0.510322
1551	0.505496
1552	0.5096
1553	0.501497
1554	0.502416
1555	0.506568
1556	0.503904
1557	0.507482
1558	0.511782
1559	0.513193
1560	0.50748
1561	0.508165
1562	0.500927
1563	0.498514
1564	0.496621
1565	0.490543
1566	0.497577
1567	0.493446
1568	0.491847
1569	0.491275
1570	0.497322
1571	0.496152
1572	0.495729
1573	0.489181
1574	0.490677
1575	0.487644
1576	0.492549
1577	0.498667
1578	0.496768
1579	0.502322
1580	0.499102
1581	0.505468
1582	0.503481
1583	0.509743
1584	0.51472
1585	0.51654
1586	0.508523
1587	0.501572
1588	0.499454
1589	0.495559
1590	0.496147
1591	0.496672
1592	0.491427
1593	0.48624
1594	0.488874
1595	0.481565
1596	0.488455
1597	0.491462
1598	0.493425
1599	0.493892
1600	0.485579
1601	0.488448
1602	0.491619
1603	0.488987
1604	0.489189
1605	0.490664
1606	0.491115
1607	0.495024
1608	0.493019
1609	0.497165
1610	0.499466
1611	0.497048
1612	0.500764
1613	0.500061
1614	0.498275
1615	0.495409
1616	0.496479
1617	0.505006
1618	0.510707
1619	0.509868
1620	0.509956
1621	0.50881
1622	0.509207
1623	0.509827
1624	0.510273
1625	0.512616
1626	0.5135
1627	0.51914
1628	0.519052
1629	0.514547
1630	0.511641
1631	0.510075
1632	0.511961
1633	0.506796
1634	0.501806
1635	0.502244
1636	0.505964
1637	0.497953
1638	0.498279
1639	0.498233
1640	0.492947
1641	0.497771
1642	0.497647
1643	0.495771
1644	0.497058
1645	0.502499
1646	0.505217
1647	0.505418
1648	0.515726
1649	0.512551
1650	0.511681
1651	0.510846
1652	0.506452
1653	0.508721
1654	0.510813
1655	0.507613
1656	0.50439
1657	0.506128
1658	0.510783
1659	0.514113
1660	0.511497
1661	0.513217
1662	0.520237
1663	0.521611
1664	0.520238
1665	0.519525
1666	0.517135
1667	0.513962
1668	0.507156
1669	0.513525
1670	0.511503
1671	0.514574
1672	0.511295
1673	0.508581
1674	0.510522
1675	0.515148
1676	0.508366
1677	0.508951
1678	0.507537
1679	0.502373
1680	0.501358
1681	0.505432
1682	0.510248
1683	0.508747
1684	0.505997
1685	0.507406
1686	0.505771
1687	0.510408
1688	0.505687
1689	0.511304
1690	0.514137
1691	0.518749
1692	0.514275
1693	0.514963
1694	0.516401
1695	0.519327
1696	0.512388
1697	0.507277
1698	0.504875
1699	0.505179
1700	0.506599
1701	0.498867
1702	0.492352
1703	0.487016
1704	0.49186
1705	0.485026
1706	0.484939
1707	0.489129
1708	0.491552
1709	0.495991
1710	0.504292
1711	0.504912
1712	0.502533
1713	0.501635
1714	0.494588
1715	0.491669
1716	0.489769
1717	0.49204
1718	0.491562
1719	0.503605
1720	0.504387
1721	0.507163
1722	0.506363
1723	0.499696
1724	0.502945
1725	0.49969
1726	0.50131
1727	0.503414
1728	0.496364
1729	0.502301
1730	0.508101
1731	0.520076
1732	0.515778
1733	0.516462
1734	0.509535
1735	0.516972
1736	0.519684
1737	0.515502
1738	0.51675
1739	0.508528
1740	0.513674
1741	0.516022
1742	0.51536
1743	0.516248
1744	0.511523
1745	0.508034
1746	0.514267
1747	0.514545
1748	0.509758
1749	0.506749
1750	0.50407
1751	0.509141
1752	0.505784
1753	0.501198
1754	0.501332
1755	0.506894
1756	0.512034
1757	0.517232
1758	0.518075
1759	0.52314
1760	0.528312
1761	0.525533
1762	0.521303
1763	0.516138
1764	0.514048
1765	0.511157
1766	0.508168
1767	0.500874
1768	0.500943
1769	0.496148
1770	0.507178
1771	0.505069
1772	0.501278
1773	0.503382
1774	0.505974
1775	0.511146
1776	0.510548
1777	0.516844
1778	0.511606
1779	0.508056
1780	0.505902
1781	0.505835
1782	0.506865
1783	0.505587
1784	0.505283
1785	0.50814
1786	0.510918
1787	0.513559
1788	0.515514
1789	0.512411
1790	0.510535
1791	0.506429
1792	0.506279
1793	0.508689
1794	0.510028
1795	0.515591
1796	0.517928
1797	0.520633
1798	0.51143
1799	0.503482
1800	0.501365
1801	0.500445
1802	0.499381
1803	0.494758
1804	0.499218
1805	0.502834
1806	0.505065
1807	0.498943
1808	0.498203
1809	0.495148
1810	0.497775
1811	0.495028
1812	0.496642
1813	0.497991
1814	0.495063
1815	0.497049
1816	0.49928
1817	0.492794
1818	0.489864
1819	0.496109
1820	0.492618
1821	0.487239
1822	0.485407
1823	0.483496
1824	0.482965
1825	0.483609
1826	0.482533
1827	0.482171
1828	0.485892
1829	0.475611
1830	0.483135
1831	0.481635
1832	0.485043
1833	0.490489
1834	0.489865
1835	0.500126
1836	0.505997
1837	0.505167
1838	0.509876
1839	0.505703
1840	0.504885
1841	0.501597
1842	0.50814
1843	0.512988
1844	0.511853
1845	0.510475
1846	0.50775
1847	0.507831
1848	0.511516
1849	0.51114
1850	0.51724
1851	0.514525
1852	0.512443
1853	0.515689
1854	0.505022
1855	0.503928
1856	0.508965
1857	0.512697
1858	0.505227
1859	0.504129
1860	0.507366
1861	0.500936
1862	0.49958
1863	0.506351
1864	0.508624
1865	0.505859
1866	0.50707
1867	0.504516
1868	0.508011
1869	0.50313
1870	0.507215
1871	0.50445
1872	0.4983
1873	0.499585
1874	0.498434
1875	0.511751
1876	0.508321
1877	0.510398
1878	0.51513
1879	0.526078
1880	0.523466
1881	0.521699
1882	0.518578
1883	0.526057
1884	0.520658
1885	0.517236
1886	0.519475
1887	0.519123
1888	0.512251
1889	0.50672
1890	0.507807
1891	0.50807
1892	0.501688
1893	0.494164
1894	0.49384
1895	0.487836
1896	0.486011
1897	0.48493
1898	0.485599
1899	0.491469
1900	0.494088
1901	0.494345
1902	0.502662
1903	0.50327
1904	0.499118
1905	0.507052
1906	0.506818
1907	0.5075
1908	0.501382
1909	0.50672
1910	0.507513
1911	0.503193
1912	0.493888
1913	0.491925
1914	0.491134
1915	0.494602
1916	0.500646
1917	0.505974
1918	0.513044
1919	0.51594
1920	0.51422
1921	0.510491
1922	0.504945
1923	0.507356
1924	0.497823
1925	0.506951
1926	0.504217
1927	0.506412
1928	0.510488
1929	0.507333
1930	0.504875
1931	0.509263
1932	0.510593
1933	0.506775
1934	0.505178
1935	0.510834
1936	0.510588
1937	0.515693
1938	0.506088
1939	0.508497
1940	0.50969
1941	0.504209
1942	0.509523
1943	0.504637
1944	0.499927
1945	0.504923
1946	0.50035
1947	0.500007
1948	0.501592
1949	0.501542
1950	0.498686
1951	0.495769
1952	0.497971
1953	0.50319
1954	0.500011
1955	0.498192
1956	0.496622
1957	0.494895
1958	0.49294
1959	0.49392
1960	0.488821
1961	0.489723
1962	0.488528
1963	0.492402
1964	0.489851
1965	0.485606
1966	0.486193
1967	0.487846
1968	0.492115
1969	0.484978
1970	0.47616
1971	0.4714
1972	0.48075
1973	0.480408
1974	0.481758
1975	0.485235
1976	0.483395
1977	0.489469
1978	0.477425
1979	0.474089
1980	0.475396
1981	0.486489
1982	0.48325
1983	0.484262
1984	0.486058
1985	0.484399
1986	0.485587
1987	0.484527
1988	0.487163
1989	0.481752
1990	0.479533
1991	0.483293
1992	0.47885
1993	0.482151
1994	0.482162
1995	0.487281
1996	0.488175
1997	0.482826
1998	0.48501
1999	0.495961
2000	0.495386
2001	0.49633
2002	0.494762
2003	0.493232
2004	0.491097
2005	0.489725
2006	0.483989
2007	0.487792
2008	0.489223
2009	0.493291
2010	0.491522
2011	0.487501
2012	0.493804
2013	0.489912
2014	0.485501
2015	0.48343
2016	0.490716
2017	0.490661
2018	0.489855
2019	0.491482
2020	0.488802
2021	0.484899
2022	0.482202
2023	0.48758
2024	0.490974
2025	0.490484
2026	0.490449
2027	0.484307
2028	0.481168
2029	0.481249
2030	0.47779
2031	0.47448
2032	0.474685
2033	0.467827
2034	0.463149
2035	0.46715
2036	0.466774
2037	0.456687
2038	0.458856
2039	0.464925
2040	0.465659
2041	0.46499
2042	0.474245
2043	0.473452
2044	0.471349
2045	0.478685
2046	0.487662
2047	0.483203
