# Messwerte mit T statt p und beruecksichtigtem Offset in h.
# T [K], sigma_T [K], U [\mu V], h [cm]
4.18753608606 0.0107306060366 248.7 54.2
4.09921276196 0.0113687459049 251.1 52.2
3.98098991728 0.0123115337463 254.7 49.9
3.85232020944 0.013472633541 258.6 47.8
3.78329324639 0.0141630174229 260.8 47.0
3.71057826928 0.0149483514118 263.2 45.6
3.63367388574 0.0158516953528 265.7 45.1
3.55189734063 0.0169045229432 268.8 44.4
3.46438730743 0.0181510387678 272.2 43.0
3.37004826924 0.0196555119897 276.0 41.9
3.2673620989 0.0215154573636 280.3 40.8
3.15420252855 0.0238870560844 285.4 39.8
3.02724426212 0.027038844569 291.9 33.7
2.8819913942 0.0314797967 299.9 37.9
2.81683318527 0.0338282688776 303.9 37.2
2.74653128278 0.0366658771367 308.1 36.5
2.6699376847 0.040177863935 313.1 35.7
2.58547359933 0.0446610317457 318.6 35.4
2.49076582169 0.00506252276673 325.1 35.6
2.43840844174 0.00544292947715 330.1 34.8
2.3819067972 0.00590163465963 336.8 34.1
2.32036659444 0.00646652802534 342.2 33.6
2.28731892004 0.00680114621639 345.4 33.2
2.25252387369 0.00717948853502 348.6 33.0
2.21568287713 0.00761018207586 351.7 32.3
2.17342195364 0.00809802601391 360.0 30.8
2.13168704951 0.00861494609289 364.0 29.1
2.08705806774 0.00926248836417 368.8 28.5
2.03876308367 0.0100919773441 374.4 28.1
1.98570330995 0.0111859712852 380.7 27.7
1.92623440701 0.0126870843012 388.4 27.4
1.85772005411 0.0148671804321 398.0 9.7
1.82684815249 0.0160427950146 402.8 9.7
1.7933771826 0.0174796791476 407.7 9.7
1.75669105969 0.0192789560292 413.5 9.7
1.71591517457 0.0216044426349 421.0 9.7
1.66973959959 0.0247420418919 427.4 9.7
1.61605311777 0.0292442740089 437.5 9.7
1.5510700372 0.0363499276765 447.2 9.7
1.4667399928 0.0495892674793 465.3 9.7
1.41148920335 0.0619889407304 475.5 9.7