#Messung von 30 Geschwindigkeiten verschiedener Mikrotubuli mit Kinesin-1
#Anzahl Bilder, zurückgelegte Strecke [pixel]
#Aus Datei Kinesin1-MTAB-1.tif
70.0 393.451
60.0 330.654
55.0 319.061
66.0 387.360
41.0 229.965
80.0 441.543
20.0 131.052
37.0 207.234

#Aus Datei Kinesin1-MTAB-2.tif
75.0 381.958
77.0 378.671
100.0 514.798
60.0 297.436
50.0 247.681
64.0 309.233
57.0 276.346
80.0 406.602

#Aus Datei Kinesin1-MTAB-3.tif
100.0 431.393
82.0 343.651
60.0 255.216
70.0 307.846
100.0 368.576
60.0 245.943
63.0 271.013
75.0 261.840

#Aus Datei Kinesin1-MTAB-4.tif
25.0 95.779
100.0 380.159
47.0 178.142
48.0 187.177
83.0 342.462
70.0 283.979
50.0 181.984
100.0 380.489
