#Kinesin-1-Geschwindigkeiten [microm/s]
1.57624779503
1.54544804348
1.6268327668
1.6458972332
1.57293133616
1.54780019022
1.83757695652
1.57069247944
1.42819078261
1.37912363072
1.44367265217
1.39019
1.38916734783
1.35499514266
1.35959702517
1.42531679348
1.20977602174
1.17526455461
1.1928573913
1.23329608696
1.03361530435
1.14951619565
1.20637256729
0.979053913043
1.07439052174
1.06609806522
1.06291942646
1.09356127717
1.15708742797
1.13767984472
1.02069286957
1.0670235


#Kinesin-14-Geschwindigkeiten [microm/s]
0.400551821387
0.602798814229
0.759225874867
0.540717210145
0.805986061381
0.63472173913
0.584829452055
0.651747961957
0.476189478261
0.631923644106
0.713902826087
0.307370543478
0.469742282609
0.571977586957
0.588040891304
0.436501413043
0.740793016304
0.440069478261
0.583576770186
0.43698048913
0.851700465839
0.351665217391
0.787096304348
0.419883782609
0.29198006689
0.40651125
0.325209
0.245781456522
0.525635970417
0.253154086957
0.321121863354
0.244692094862
