			
			
			
			
			
#	Zeit	Spannung	Temperatur
#	[s]	[V]	[°C]
#aktuell	1603,28	2,200E-02	536,7
			
	0,109	3,303E-02	805,573
	1,016	3,302E-02	805,421
	1,922	3,302E-02	805,279
	2,813	3,301E-02	805,120
	3,719	3,300E-02	804,976
	4,625	3,300E-02	804,804
	5,531	3,299E-02	804,622
	6,438	3,298E-02	804,488
	7,328	3,298E-02	804,353
	8,234	3,297E-02	804,187
	9,141	3,297E-02	804,017
	10,047	3,296E-02	803,845
	10,953	3,295E-02	803,702
	11,859	3,295E-02	803,533
	12,750	3,294E-02	803,377
	13,656	3,293E-02	803,197
	14,563	3,293E-02	803,054
	15,469	3,292E-02	802,877
	16,375	3,291E-02	802,695
	17,281	3,290E-02	802,520
	18,188	3,290E-02	802,355
	19,094	3,289E-02	802,179
	19,984	3,288E-02	802,041
	20,891	3,288E-02	801,884
	21,797	3,287E-02	801,682
	22,703	3,286E-02	801,518
	23,609	3,286E-02	801,349
	24,516	3,285E-02	801,184
	25,422	3,284E-02	800,982
	26,328	3,283E-02	800,843
	27,219	3,283E-02	800,620
	28,109	3,282E-02	800,453
	29,000	3,281E-02	800,293
	29,891	3,280E-02	800,084
	30,781	3,280E-02	799,943
	31,672	3,279E-02	799,755
	32,563	3,278E-02	799,577
	33,453	3,278E-02	799,383
	34,344	3,277E-02	799,226
	35,234	3,276E-02	799,048
	36,125	3,275E-02	798,869
	37,016	3,275E-02	798,678
	37,906	3,274E-02	798,490
	38,797	3,273E-02	798,334
	39,688	3,272E-02	798,136
	40,578	3,272E-02	797,956
	41,469	3,271E-02	797,753
	42,375	3,270E-02	797,557
	43,266	3,269E-02	797,410
	44,156	3,269E-02	797,203
	45,047	3,268E-02	797,028
	45,938	3,267E-02	796,838
	46,828	3,266E-02	796,631
	47,719	3,266E-02	796,456
	48,594	3,265E-02	796,289
	49,500	3,264E-02	796,082
	50,391	3,263E-02	795,901
	51,266	3,262E-02	795,701
	52,172	3,262E-02	795,540
	53,063	3,261E-02	795,317
	53,953	3,260E-02	795,138
	54,844	3,259E-02	794,937
	55,750	3,258E-02	794,742
	56,641	3,258E-02	794,554
	57,531	3,257E-02	794,369
	58,422	3,256E-02	794,160
	59,313	3,255E-02	793,991
	60,203	3,255E-02	793,774
	61,109	3,254E-02	793,593
	62,000	3,253E-02	793,382
	62,891	3,252E-02	793,210
	63,781	3,251E-02	793,003
	64,672	3,251E-02	792,808
	65,563	3,250E-02	792,628
	66,453	3,249E-02	792,410
	67,344	3,248E-02	792,205
	68,234	3,247E-02	792,012
	69,125	3,247E-02	791,834
	70,016	3,246E-02	791,617
	70,906	3,245E-02	791,410
	71,797	3,244E-02	791,215
	72,688	3,243E-02	791,022
	73,578	3,242E-02	790,831
	74,469	3,242E-02	790,633
	75,375	3,241E-02	790,440
	76,250	3,240E-02	790,225
	77,141	3,239E-02	790,032
	78,031	3,238E-02	789,843
	78,922	3,237E-02	789,616
	79,813	3,237E-02	789,445
	80,703	3,236E-02	789,236
	81,594	3,235E-02	789,039
	82,484	3,234E-02	788,843
	83,359	3,233E-02	788,648
	84,250	3,233E-02	788,430
	85,156	3,232E-02	788,223
	86,047	3,231E-02	788,030
	86,938	3,230E-02	787,835
	87,828	3,229E-02	787,638
	88,734	3,228E-02	787,380
	89,625	3,228E-02	787,203
	90,516	3,227E-02	787,020
	91,422	3,226E-02	786,794
	92,313	3,225E-02	786,581
	93,203	3,224E-02	786,398
	94,094	3,223E-02	786,196
	94,984	3,223E-02	785,975
	95,875	3,222E-02	785,763
	96,766	3,221E-02	785,570
	97,656	3,220E-02	785,345
	98,547	3,219E-02	785,162
	99,453	3,218E-02	784,965
	100,344	3,217E-02	784,729
	101,219	3,217E-02	784,541
	102,125	3,216E-02	784,322
	103,016	3,215E-02	784,137
	103,906	3,214E-02	783,914
	104,797	3,213E-02	783,689
	105,688	3,212E-02	783,481
	106,578	3,212E-02	783,295
	107,469	3,211E-02	783,075
	108,359	3,210E-02	782,884
	109,250	3,209E-02	782,670
	110,141	3,208E-02	782,474
	111,031	3,207E-02	782,249
	111,922	3,206E-02	782,055
	112,813	3,206E-02	781,852
	113,703	3,205E-02	781,653
	114,578	3,204E-02	781,434
	115,469	3,203E-02	781,226
	116,359	3,202E-02	781,016
	117,250	3,201E-02	780,805
	118,156	3,200E-02	780,587
	119,047	3,200E-02	780,371
	119,938	3,199E-02	780,189
	120,828	3,198E-02	779,968
	121,734	3,197E-02	779,757
	122,625	3,196E-02	779,540
	123,516	3,195E-02	779,319
	124,406	3,194E-02	779,121
	125,297	3,194E-02	778,925
	126,203	3,193E-02	778,704
	127,078	3,192E-02	778,492
	127,969	3,191E-02	778,282
	128,859	3,190E-02	778,096
	129,766	3,189E-02	777,866
	130,641	3,188E-02	777,645
	131,531	3,188E-02	777,446
	132,422	3,187E-02	777,229
	133,328	3,186E-02	777,038
	134,203	3,185E-02	776,806
	135,094	3,184E-02	776,611
	136,000	3,183E-02	776,390
	136,891	3,182E-02	776,166
	137,781	3,182E-02	775,971
	138,672	3,181E-02	775,753
	139,563	3,180E-02	775,547
	140,469	3,179E-02	775,326
	141,359	3,178E-02	775,109
	142,250	3,177E-02	774,908
	143,141	3,176E-02	774,688
	144,031	3,175E-02	774,491
	144,922	3,175E-02	774,280
	145,813	3,174E-02	774,075
	146,703	3,173E-02	773,858
	147,594	3,172E-02	773,657
	148,500	3,171E-02	773,412
	149,391	3,170E-02	773,230
	150,281	3,169E-02	772,992
	151,172	3,168E-02	772,782
	152,063	3,168E-02	772,587
	152,969	3,167E-02	772,366
	153,859	3,166E-02	772,148
	154,750	3,165E-02	771,946
	155,641	3,164E-02	771,702
	156,531	3,163E-02	771,530
	157,422	3,163E-02	771,338
	158,313	3,161E-02	771,082
	159,203	3,161E-02	770,891
	160,094	3,160E-02	770,676
	160,984	3,159E-02	770,471
	161,891	3,158E-02	770,244
	162,781	3,157E-02	770,033
	163,672	3,156E-02	769,799
	164,563	3,155E-02	769,611
	165,469	3,155E-02	769,405
	166,359	3,154E-02	769,191
	167,250	3,153E-02	768,971
	168,141	3,152E-02	768,745
	169,047	3,151E-02	768,563
	169,938	3,150E-02	768,334
	170,828	3,149E-02	768,112
	171,719	3,148E-02	767,906
	172,609	3,148E-02	767,719
	173,516	3,147E-02	767,462
	174,406	3,146E-02	767,255
	175,297	3,145E-02	767,045
	176,203	3,144E-02	766,848
	177,094	3,143E-02	766,634
	177,984	3,142E-02	766,402
	178,875	3,141E-02	766,191
	179,766	3,141E-02	765,982
	180,656	3,140E-02	765,807
	181,547	3,139E-02	765,565
	182,453	3,138E-02	765,358
	183,344	3,137E-02	765,136
	184,234	3,136E-02	764,900
	185,125	3,135E-02	764,721
	186,016	3,134E-02	764,492
	186,906	3,134E-02	764,291
	187,797	3,133E-02	764,070
	188,703	3,132E-02	763,876
	189,578	3,131E-02	763,655
	190,469	3,130E-02	763,431
	191,375	3,129E-02	763,215
	192,266	3,128E-02	763,009
	193,156	3,128E-02	762,809
	194,047	3,127E-02	762,597
	194,953	3,126E-02	762,379
	195,844	3,125E-02	762,155
	196,734	3,124E-02	761,948
	197,625	3,123E-02	761,721
	198,531	3,122E-02	761,527
	199,422	3,121E-02	761,316
	200,313	3,121E-02	761,093
	201,203	3,120E-02	760,895
	202,109	3,119E-02	760,690
	203,000	3,118E-02	760,463
	203,891	3,117E-02	760,249
	204,781	3,116E-02	760,039
	205,672	3,115E-02	759,822
	206,578	3,114E-02	759,605
	207,469	3,114E-02	759,386
	208,359	3,113E-02	759,193
	209,250	3,112E-02	758,974
	210,141	3,111E-02	758,762
	211,031	3,110E-02	758,563
	211,938	3,109E-02	758,327
	212,828	3,108E-02	758,137
	213,719	3,107E-02	757,904
	214,609	3,107E-02	757,703
	215,500	3,106E-02	757,465
	216,391	3,105E-02	757,292
	217,281	3,104E-02	757,063
	218,188	3,103E-02	756,858
	219,078	3,102E-02	756,646
	219,969	3,102E-02	756,456
	220,859	3,101E-02	756,224
	221,750	3,100E-02	756,011
	222,656	3,099E-02	755,801
	223,547	3,098E-02	755,596
	224,438	3,097E-02	755,392
	225,328	3,096E-02	755,192
	226,219	3,095E-02	754,941
	227,109	3,094E-02	754,743
	228,000	3,094E-02	754,549
	228,906	3,093E-02	754,319
	229,797	3,092E-02	754,123
	230,688	3,091E-02	753,891
	231,578	3,090E-02	753,693
	232,484	3,089E-02	753,464
	233,375	3,088E-02	753,275
	234,250	3,088E-02	753,066
	235,156	3,087E-02	752,840
	236,047	3,086E-02	752,629
	236,938	3,085E-02	752,407
	237,828	3,084E-02	752,205
	238,719	3,083E-02	752,007
	239,609	3,082E-02	751,788
	240,516	3,082E-02	751,587
	241,406	3,081E-02	751,371
	242,297	3,080E-02	751,156
	243,188	3,079E-02	750,965
	244,094	3,078E-02	750,726
	244,984	3,077E-02	750,520
	245,875	3,076E-02	750,299
	246,766	3,075E-02	750,100
	247,672	3,075E-02	749,902
	248,563	3,074E-02	749,705
	249,453	3,073E-02	749,472
	250,344	3,072E-02	749,265
	251,250	3,071E-02	749,063
	252,141	3,070E-02	748,848
	253,031	3,069E-02	748,640
	253,922	3,069E-02	748,414
	254,813	3,068E-02	748,223
	255,719	3,067E-02	748,010
	256,609	3,066E-02	747,796
	257,500	3,065E-02	747,586
	258,391	3,064E-02	747,382
	259,297	3,063E-02	747,178
	260,188	3,062E-02	746,926
	261,078	3,062E-02	746,753
	261,969	3,061E-02	746,542
	262,859	3,060E-02	746,314
	263,766	3,059E-02	746,115
	264,656	3,058E-02	745,909
	265,547	3,057E-02	745,692
	266,438	3,057E-02	745,486
	267,344	3,056E-02	745,269
	268,234	3,055E-02	745,071
	269,125	3,054E-02	744,841
	270,016	3,053E-02	744,639
	270,922	3,052E-02	744,454
	271,813	3,051E-02	744,235
	272,703	3,050E-02	744,015
	273,594	3,050E-02	743,826
	274,500	3,049E-02	743,600
	275,391	3,048E-02	743,382
	276,281	3,047E-02	743,192
	277,172	3,046E-02	743,008
	278,078	3,045E-02	742,769
	278,969	3,045E-02	742,558
	279,859	3,044E-02	742,381
	280,750	3,043E-02	742,151
	281,656	3,042E-02	741,946
	282,547	3,041E-02	741,727
	283,438	3,040E-02	741,547
	284,328	3,039E-02	741,313
	285,219	3,039E-02	741,120
	286,125	3,038E-02	740,902
	287,016	3,037E-02	740,673
	287,906	3,036E-02	740,494
	288,797	3,035E-02	740,264
	289,703	3,034E-02	740,070
	290,594	3,034E-02	739,872
	291,484	3,033E-02	739,647
	292,375	3,032E-02	739,470
	293,281	3,031E-02	739,244
	294,172	3,030E-02	739,043
	295,063	3,029E-02	738,817
	295,953	3,028E-02	738,630
	296,859	3,028E-02	738,416
	297,750	3,027E-02	738,215
	298,641	3,026E-02	738,009
	299,531	3,025E-02	737,789
	300,422	3,024E-02	737,589
	301,313	3,023E-02	737,374
	302,219	3,023E-02	737,192
	303,109	3,021E-02	736,937
	304,000	3,021E-02	736,775
	304,891	3,020E-02	736,553
	305,797	3,019E-02	736,340
	306,688	3,018E-02	736,158
	307,578	3,017E-02	735,896
	308,469	3,017E-02	735,742
	309,375	3,016E-02	735,540
	310,266	3,015E-02	735,314
	311,156	3,014E-02	735,104
	312,047	3,013E-02	734,918
	312,953	3,012E-02	734,687
	313,844	3,011E-02	734,494
	314,734	3,011E-02	734,300
	315,625	3,010E-02	734,102
	316,531	3,009E-02	733,878
	317,422	3,008E-02	733,686
	318,313	3,007E-02	733,471
	319,203	3,006E-02	733,269
	320,109	3,006E-02	733,056
	321,000	3,005E-02	732,869
	321,891	3,004E-02	732,644
	322,781	3,003E-02	732,432
	323,688	3,002E-02	732,232
	324,578	3,001E-02	732,035
	325,469	3,001E-02	731,838
	326,359	3,000E-02	731,635
	327,266	2,999E-02	731,416
	328,156	2,998E-02	731,222
	329,047	2,997E-02	731,017
	329,953	2,996E-02	730,800
	330,844	2,995E-02	730,592
	331,734	2,995E-02	730,380
	332,625	2,994E-02	730,185
	333,531	2,993E-02	730,002
	334,422	2,992E-02	729,796
	335,313	2,991E-02	729,593
	336,203	2,990E-02	729,360
	337,109	2,990E-02	729,186
	338,000	2,989E-02	728,982
	338,891	2,988E-02	728,775
	339,797	2,987E-02	728,559
	340,688	2,986E-02	728,370
	341,578	2,985E-02	728,160
	342,469	2,985E-02	727,968
	343,375	2,984E-02	727,770
	344,266	2,983E-02	727,540
	345,156	2,982E-02	727,347
	346,047	2,981E-02	727,145
	346,953	2,980E-02	726,940
	347,844	2,980E-02	726,715
	348,734	2,979E-02	726,543
	349,641	2,978E-02	726,332
	350,531	2,977E-02	726,140
	351,422	2,976E-02	725,917
	352,313	2,976E-02	725,727
	353,219	2,975E-02	725,522
	354,109	2,974E-02	725,313
	355,016	2,973E-02	725,114
	355,906	2,972E-02	724,904
	356,797	2,971E-02	724,711
	357,688	2,971E-02	724,512
	358,594	2,970E-02	724,316
	359,484	2,969E-02	724,109
	360,375	2,968E-02	723,913
	361,281	2,967E-02	723,715
	362,172	2,966E-02	723,496
	363,063	2,966E-02	723,305
	363,953	2,965E-02	723,115
	364,859	2,964E-02	722,919
	365,750	2,963E-02	722,695
	366,641	2,962E-02	722,497
	367,547	2,961E-02	722,288
	368,438	2,961E-02	722,104
	369,328	2,960E-02	721,918
	370,234	2,959E-02	721,715
	371,125	2,958E-02	721,502
	372,016	2,957E-02	721,304
	372,906	2,957E-02	721,117
	373,813	2,956E-02	720,909
	374,703	2,955E-02	720,709
	375,594	2,954E-02	720,517
	376,484	2,953E-02	720,308
	377,391	2,952E-02	720,103
	378,281	2,952E-02	719,900
	379,172	2,951E-02	719,699
	380,063	2,950E-02	719,500
	380,969	2,949E-02	719,308
	381,859	2,948E-02	719,111
	382,750	2,948E-02	718,924
	383,641	2,947E-02	718,706
	384,547	2,946E-02	718,498
	385,438	2,945E-02	718,314
	386,328	2,944E-02	718,116
	387,234	2,944E-02	717,922
	388,125	2,943E-02	717,691
	389,016	2,942E-02	717,535
	389,906	2,941E-02	717,320
	390,813	2,940E-02	717,148
	391,703	2,939E-02	716,909
	392,594	2,939E-02	716,720
	393,484	2,938E-02	716,520
	394,391	2,937E-02	716,319
	395,281	2,936E-02	716,152
	396,172	2,935E-02	715,937
	397,078	2,934E-02	715,722
	397,969	2,934E-02	715,552
	398,859	2,933E-02	715,348
	399,750	2,932E-02	715,150
	400,656	2,931E-02	714,950
	401,547	2,931E-02	714,757
	402,438	2,930E-02	714,579
	403,328	2,929E-02	714,338
	404,234	2,928E-02	714,159
	405,125	2,927E-02	713,974
	406,016	2,926E-02	713,770
	406,906	2,926E-02	713,579
	407,813	2,925E-02	713,379
	408,703	2,924E-02	713,189
	409,594	2,923E-02	712,979
	410,500	2,922E-02	712,788
	411,391	2,922E-02	712,594
	412,281	2,921E-02	712,399
	413,172	2,920E-02	712,202
	414,078	2,919E-02	712,002
	414,969	2,918E-02	711,809
	415,859	2,918E-02	711,633
	416,766	2,917E-02	711,411
	417,656	2,916E-02	711,223
	418,547	2,915E-02	711,029
	419,438	2,915E-02	710,848
	420,344	2,914E-02	710,621
	421,234	2,913E-02	710,439
	422,125	2,912E-02	710,271
	423,031	2,911E-02	710,051
	423,922	2,910E-02	709,857
	424,813	2,910E-02	709,654
	425,703	2,909E-02	709,480
	426,609	2,908E-02	709,271
	427,500	2,907E-02	709,079
	428,391	2,907E-02	708,896
	429,297	2,906E-02	708,706
	430,188	2,905E-02	708,495
	431,078	2,904E-02	708,296
	431,984	2,903E-02	708,086
	432,875	2,902E-02	707,900
	433,766	2,902E-02	707,738
	434,656	2,901E-02	707,530
	435,563	2,900E-02	707,324
	436,453	2,899E-02	707,133
	437,344	2,899E-02	706,960
	438,250	2,898E-02	706,759
	439,141	2,897E-02	706,531
	440,031	2,896E-02	706,371
	440,922	2,895E-02	706,158
	441,828	2,894E-02	705,967
	442,719	2,894E-02	705,773
	443,609	2,893E-02	705,590
	444,516	2,892E-02	705,398
	445,406	2,891E-02	705,206
	446,297	2,891E-02	705,009
	447,203	2,890E-02	704,825
	448,094	2,889E-02	704,615
	448,984	2,888E-02	704,440
	449,875	2,887E-02	704,244
	450,781	2,887E-02	704,066
	451,672	2,886E-02	703,863
	452,563	2,885E-02	703,680
	453,453	2,884E-02	703,455
	454,359	2,883E-02	703,275
	455,250	2,883E-02	703,077
	456,141	2,882E-02	702,909
	457,047	2,881E-02	702,711
	457,938	2,880E-02	702,491
	458,828	2,879E-02	702,305
	459,719	2,879E-02	702,121
	460,625	2,878E-02	701,940
	461,516	2,877E-02	701,759
	462,406	2,876E-02	701,569
	463,297	2,876E-02	701,367
	464,203	2,875E-02	701,182
	465,094	2,874E-02	700,993
	465,984	2,873E-02	700,792
	466,891	2,873E-02	700,611
	467,781	2,872E-02	700,417
	468,672	2,871E-02	700,225
	469,563	2,870E-02	700,038
	470,469	2,869E-02	699,847
	471,359	2,869E-02	699,658
	472,250	2,868E-02	699,481
	473,156	2,867E-02	699,262
	474,047	2,866E-02	699,084
	474,938	2,866E-02	698,904
	475,844	2,865E-02	698,703
	476,734	2,864E-02	698,510
	477,625	2,863E-02	698,308
	478,516	2,862E-02	698,148
	479,422	2,862E-02	697,945
	480,313	2,861E-02	697,760
	481,219	2,860E-02	697,556
	482,109	2,859E-02	697,379
	483,000	2,858E-02	697,186
	483,891	2,858E-02	696,984
	484,797	2,857E-02	696,801
	485,688	2,856E-02	696,623
	486,578	2,855E-02	696,418
	487,469	2,855E-02	696,236
	488,375	2,854E-02	696,051
	489,266	2,853E-02	695,864
	490,156	2,852E-02	695,682
	491,063	2,851E-02	695,479
	491,953	2,851E-02	695,298
	492,844	2,850E-02	695,121
	493,750	2,849E-02	694,912
	494,641	2,848E-02	694,743
	495,531	2,848E-02	694,558
	496,438	2,847E-02	694,367
	497,328	2,846E-02	694,171
	498,219	2,845E-02	693,992
	499,125	2,845E-02	693,785
	500,016	2,844E-02	693,589
	500,906	2,843E-02	693,430
	501,797	2,842E-02	693,225
	502,703	2,841E-02	693,038
	503,594	2,841E-02	692,848
	504,484	2,840E-02	692,688
	505,375	2,839E-02	692,492
	506,281	2,838E-02	692,305
	507,172	2,838E-02	692,116
	508,063	2,837E-02	691,940
	508,969	2,836E-02	691,752
	509,859	2,835E-02	691,529
	510,750	2,835E-02	691,353
	511,641	2,834E-02	691,188
	512,547	2,833E-02	691,004
	513,438	2,832E-02	690,800
	514,328	2,832E-02	690,622
	515,234	2,831E-02	690,421
	516,125	2,830E-02	690,249
	517,016	2,829E-02	690,079
	517,906	2,829E-02	689,903
	518,813	2,828E-02	689,700
	519,703	2,827E-02	689,516
	520,594	2,826E-02	689,309
	521,500	2,826E-02	689,140
	522,391	2,825E-02	688,947
	523,281	2,824E-02	688,772
	524,188	2,823E-02	688,574
	525,078	2,822E-02	688,397
	525,969	2,822E-02	688,238
	526,859	2,821E-02	688,032
	527,766	2,820E-02	687,830
	528,656	2,819E-02	687,664
	529,547	2,819E-02	687,482
	530,453	2,818E-02	687,260
	531,344	2,817E-02	687,113
	532,234	2,816E-02	686,927
	533,125	2,816E-02	686,722
	534,031	2,815E-02	686,560
	534,922	2,814E-02	686,374
	535,813	2,813E-02	686,153
	536,719	2,813E-02	686,005
	537,609	2,812E-02	685,810
	538,500	2,811E-02	685,614
	539,406	2,810E-02	685,442
	540,297	2,810E-02	685,252
	541,188	2,809E-02	685,079
	542,078	2,808E-02	684,887
	542,984	2,807E-02	684,707
	543,875	2,807E-02	684,531
	544,766	2,806E-02	684,351
	545,672	2,805E-02	684,143
	546,563	2,804E-02	683,984
	547,453	2,804E-02	683,777
	548,359	2,803E-02	683,623
	549,250	2,802E-02	683,435
	550,141	2,801E-02	683,251
	551,047	2,801E-02	683,078
	551,938	2,800E-02	682,871
	552,828	2,799E-02	682,684
	553,719	2,798E-02	682,529
	554,625	2,798E-02	682,339
	555,516	2,797E-02	682,164
	556,406	2,796E-02	681,987
	557,313	2,795E-02	681,792
	558,203	2,795E-02	681,619
	559,094	2,794E-02	681,434
	560,000	2,793E-02	681,259
	560,891	2,792E-02	681,085
	561,781	2,792E-02	680,889
	562,688	2,791E-02	680,710
	563,578	2,790E-02	680,522
	564,469	2,789E-02	680,342
	565,375	2,789E-02	680,154
	566,266	2,788E-02	679,972
	567,156	2,787E-02	679,800
	568,047	2,786E-02	679,614
	568,953	2,786E-02	679,435
	569,844	2,785E-02	679,257
	570,734	2,784E-02	679,058
	571,641	2,783E-02	678,886
	572,531	2,783E-02	678,718
	573,422	2,782E-02	678,521
	574,625	2,781E-02	678,307
	575,859	2,780E-02	678,117
	576,750	2,779E-02	677,865
	577,641	2,779E-02	677,686
	578,547	2,778E-02	677,501
	579,438	2,777E-02	677,311
	580,328	2,776E-02	677,153
	581,234	2,776E-02	676,982
	582,125	2,775E-02	676,771
	583,016	2,774E-02	676,623
	583,922	2,773E-02	676,417
	584,813	2,773E-02	676,235
	585,703	2,772E-02	676,057
	586,594	2,771E-02	675,869
	587,500	2,770E-02	675,712
	588,391	2,770E-02	675,543
	589,281	2,769E-02	675,345
	590,188	2,768E-02	675,184
	591,078	2,767E-02	674,993
	591,969	2,767E-02	674,816
	592,875	2,766E-02	674,642
	593,766	2,765E-02	674,458
	594,656	2,765E-02	674,285
	595,547	2,764E-02	674,096
	596,453	2,763E-02	673,920
	597,344	2,762E-02	673,744
	598,234	2,762E-02	673,569
	599,141	2,761E-02	673,387
	600,031	2,760E-02	673,204
	600,922	2,759E-02	673,035
	601,828	2,759E-02	672,860
	602,719	2,758E-02	672,659
	603,609	2,757E-02	672,501
	604,516	2,756E-02	672,309
	605,406	2,756E-02	672,125
	606,297	2,755E-02	671,964
	607,203	2,754E-02	671,785
	608,094	2,754E-02	671,604
	608,984	2,753E-02	671,422
	609,875	2,752E-02	671,245
	610,781	2,752E-02	671,099
	611,672	2,751E-02	670,912
	612,563	2,750E-02	670,733
	613,469	2,749E-02	670,542
	614,359	2,749E-02	670,376
	615,250	2,748E-02	670,193
	616,141	2,747E-02	670,036
	617,047	2,747E-02	669,873
	617,938	2,746E-02	669,667
	618,844	2,745E-02	669,475
	619,734	2,744E-02	669,311
	620,625	2,744E-02	669,152
	621,516	2,743E-02	668,952
	622,422	2,742E-02	668,801
	623,313	2,742E-02	668,719
	624,203	2,742E-02	668,672
	625,109	2,741E-02	668,642
	626,000	2,742E-02	668,661
	626,891	2,742E-02	668,665
	627,781	2,742E-02	668,682
	628,688	2,742E-02	668,676
	629,578	2,742E-02	668,680
	630,469	2,742E-02	668,707
	631,375	2,742E-02	668,686
	632,266	2,742E-02	668,675
	633,156	2,742E-02	668,680
	634,063	2,742E-02	668,653
	634,953	2,741E-02	668,647
	635,844	2,741E-02	668,628
	636,734	2,741E-02	668,649
	637,641	2,741E-02	668,632
	638,531	2,741E-02	668,620
	639,422	2,741E-02	668,605
	640,328	2,741E-02	668,596
	641,219	2,741E-02	668,593
	642,109	2,741E-02	668,585
	643,016	2,741E-02	668,577
	643,906	2,741E-02	668,577
	644,797	2,741E-02	668,555
	645,703	2,741E-02	668,548
	646,594	2,741E-02	668,565
	647,484	2,741E-02	668,530
	648,375	2,741E-02	668,527
	649,281	2,741E-02	668,535
	650,172	2,741E-02	668,534
	651,078	2,741E-02	668,539
	651,969	2,741E-02	668,538
	652,859	2,741E-02	668,564
	653,750	2,741E-02	668,581
	654,656	2,741E-02	668,593
	655,547	2,741E-02	668,617
	656,438	2,741E-02	668,614
	657,344	2,741E-02	668,634
	658,234	2,742E-02	668,654
	659,125	2,742E-02	668,657
	660,031	2,742E-02	668,690
	660,922	2,742E-02	668,687
	661,813	2,742E-02	668,712
	662,719	2,742E-02	668,715
	663,609	2,742E-02	668,741
	664,500	2,742E-02	668,751
	665,406	2,742E-02	668,763
	666,297	2,742E-02	668,773
	667,188	2,742E-02	668,776
	668,094	2,742E-02	668,796
	668,984	2,742E-02	668,816
	669,875	2,742E-02	668,793
	670,766	2,742E-02	668,823
	671,672	2,742E-02	668,845
	672,563	2,742E-02	668,843
	673,453	2,742E-02	668,856
	674,344	2,742E-02	668,840
	675,250	2,742E-02	668,864
	676,141	2,742E-02	668,869
	677,031	2,742E-02	668,869
	677,938	2,743E-02	668,906
	678,828	2,742E-02	668,886
	679,734	2,743E-02	668,901
	680,625	2,743E-02	668,926
	681,516	2,743E-02	668,933
	682,406	2,743E-02	668,936
	683,313	2,743E-02	668,938
	684,203	2,743E-02	668,931
	685,094	2,743E-02	668,919
	686,000	2,743E-02	668,956
	686,891	2,743E-02	668,930
	687,781	2,743E-02	668,949
	688,672	2,743E-02	668,970
	689,578	2,743E-02	668,956
	690,469	2,743E-02	668,977
	691,375	2,743E-02	668,951
	692,266	2,743E-02	668,975
	693,156	2,743E-02	668,977
	694,047	2,743E-02	668,969
	694,953	2,743E-02	668,986
	695,844	2,743E-02	668,984
	696,734	2,743E-02	669,009
	697,641	2,743E-02	669,001
	698,531	2,743E-02	668,995
	699,422	2,743E-02	668,995
	700,328	2,743E-02	669,020
	701,219	2,743E-02	669,008
	702,109	2,743E-02	669,027
	703,016	2,743E-02	669,017
	703,906	2,743E-02	668,998
	704,797	2,743E-02	669,020
	705,688	2,743E-02	669,034
	706,594	2,743E-02	669,018
	707,484	2,743E-02	669,034
	708,391	2,743E-02	669,043
	709,281	2,743E-02	669,049
	710,172	2,743E-02	669,058
	711,078	2,743E-02	669,065
	711,969	2,743E-02	669,061
	712,859	2,743E-02	669,037
	713,766	2,743E-02	669,054
	714,656	2,743E-02	669,070
	715,547	2,743E-02	669,067
	716,438	2,743E-02	669,063
	717,344	2,743E-02	669,072
	718,234	2,743E-02	669,065
	719,125	2,743E-02	669,059
	720,031	2,743E-02	669,086
	720,922	2,743E-02	669,088
	721,813	2,743E-02	669,090
	722,719	2,743E-02	669,100
	723,609	2,743E-02	669,102
	724,500	2,743E-02	669,103
	725,391	2,743E-02	669,090
	726,297	2,743E-02	669,064
	727,188	2,743E-02	669,078
	728,078	2,743E-02	669,094
	728,984	2,743E-02	669,084
	729,875	2,743E-02	669,099
	730,766	2,743E-02	669,070
	731,672	2,743E-02	669,093
	732,563	2,743E-02	669,107
	733,453	2,743E-02	669,111
	734,359	2,743E-02	669,107
	735,250	2,743E-02	669,096
	736,141	2,743E-02	669,112
	737,047	2,743E-02	669,109
	737,938	2,743E-02	669,110
	738,828	2,743E-02	669,134
	739,734	2,743E-02	669,137
	740,625	2,743E-02	669,111
	741,516	2,743E-02	669,136
	742,406	2,743E-02	669,108
	743,313	2,743E-02	669,112
	744,203	2,743E-02	669,127
	745,109	2,743E-02	669,127
	746,000	2,744E-02	669,147
	746,891	2,744E-02	669,149
	747,797	2,743E-02	669,136
	748,688	2,743E-02	669,134
	749,578	2,743E-02	669,125
	750,469	2,743E-02	669,128
	751,375	2,744E-02	669,148
	752,266	2,743E-02	669,138
	753,156	2,743E-02	669,126
	754,063	2,743E-02	669,135
	754,953	2,744E-02	669,162
	755,844	2,744E-02	669,159
	756,750	2,744E-02	669,143
	757,641	2,743E-02	669,139
	758,531	2,744E-02	669,154
	759,438	2,744E-02	669,147
	760,328	2,744E-02	669,162
	761,219	2,744E-02	669,154
	762,109	2,744E-02	669,160
	763,016	2,744E-02	669,152
	763,906	2,744E-02	669,158
	764,797	2,744E-02	669,157
	765,703	2,744E-02	669,179
	766,594	2,744E-02	669,157
	767,484	2,744E-02	669,172
	768,391	2,744E-02	669,155
	769,281	2,744E-02	669,174
	770,172	2,744E-02	669,182
	771,078	2,744E-02	669,176
	771,969	2,744E-02	669,176
	772,859	2,744E-02	669,143
	773,766	2,744E-02	669,178
	774,656	2,744E-02	669,163
	775,547	2,744E-02	669,148
	776,453	2,744E-02	669,172
	777,344	2,744E-02	669,168
	778,234	2,744E-02	669,189
	779,141	2,744E-02	669,172
	780,031	2,744E-02	669,184
	780,922	2,744E-02	669,170
	781,813	2,744E-02	669,172
	782,719	2,744E-02	669,178
	783,609	2,744E-02	669,180
	784,500	2,744E-02	669,173
	785,391	2,744E-02	669,162
	786,297	2,744E-02	669,181
	787,188	2,744E-02	669,171
	788,078	2,744E-02	669,177
	788,984	2,744E-02	669,188
	789,875	2,744E-02	669,182
	790,766	2,744E-02	669,172
	791,672	2,744E-02	669,179
	792,563	2,744E-02	669,178
	793,453	2,744E-02	669,185
	794,359	2,744E-02	669,194
	795,250	2,744E-02	669,185
	796,141	2,744E-02	669,195
	797,047	2,744E-02	669,176
	797,938	2,744E-02	669,208
	798,828	2,744E-02	669,187
	799,734	2,744E-02	669,201
	800,625	2,744E-02	669,209
	801,516	2,744E-02	669,184
	802,422	2,744E-02	669,201
	803,313	2,744E-02	669,195
	804,203	2,744E-02	669,179
	805,094	2,744E-02	669,198
	806,000	2,744E-02	669,196
	806,891	2,744E-02	669,199
	807,781	2,744E-02	669,190
	808,688	2,744E-02	669,201
	809,578	2,744E-02	669,215
	810,469	2,744E-02	669,178
	811,375	2,744E-02	669,203
	812,266	2,744E-02	669,207
	813,156	2,744E-02	669,186
	814,047	2,744E-02	669,202
	814,953	2,744E-02	669,196
	815,844	2,744E-02	669,197
	816,734	2,744E-02	669,201
	817,641	2,744E-02	669,206
	818,531	2,744E-02	669,165
	819,422	2,744E-02	669,199
	820,328	2,744E-02	669,182
	821,219	2,744E-02	669,194
	822,109	2,744E-02	669,187
	823,016	2,744E-02	669,206
	823,922	2,744E-02	669,183
	824,813	2,744E-02	669,210
	825,703	2,744E-02	669,205
	826,594	2,744E-02	669,204
	827,500	2,744E-02	669,191
	828,391	2,744E-02	669,175
	829,281	2,744E-02	669,189
	830,188	2,744E-02	669,172
	831,078	2,744E-02	669,186
	831,969	2,744E-02	669,204
	832,875	2,744E-02	669,215
	833,766	2,744E-02	669,200
	834,656	2,744E-02	669,206
	835,563	2,744E-02	669,181
	836,453	2,744E-02	669,203
	837,344	2,744E-02	669,182
	838,234	2,744E-02	669,193
	839,141	2,744E-02	669,194
	840,031	2,744E-02	669,194
	840,922	2,744E-02	669,197
	841,828	2,744E-02	669,162
	842,719	2,744E-02	669,167
	843,609	2,744E-02	669,182
	844,516	2,744E-02	669,190
	845,406	2,744E-02	669,196
	846,297	2,744E-02	669,188
	847,203	2,744E-02	669,168
	848,094	2,744E-02	669,164
	848,984	2,744E-02	669,171
	849,891	2,744E-02	669,171
	850,781	2,744E-02	669,169
	851,672	2,744E-02	669,164
	852,563	2,744E-02	669,165
	853,469	2,744E-02	669,163
	854,359	2,744E-02	669,174
	855,250	2,744E-02	669,143
	856,156	2,744E-02	669,152
	857,047	2,744E-02	669,161
	857,938	2,743E-02	669,135
	858,844	2,744E-02	669,150
	859,734	2,744E-02	669,144
	860,625	2,744E-02	669,149
	861,531	2,743E-02	669,135
	862,422	2,743E-02	669,125
	863,313	2,743E-02	669,122
	864,219	2,743E-02	669,130
	865,109	2,743E-02	669,133
	866,000	2,743E-02	669,132
	866,906	2,743E-02	669,115
	867,797	2,743E-02	669,106
	868,688	2,744E-02	669,146
	869,594	2,743E-02	669,124
	870,484	2,743E-02	669,114
	871,375	2,743E-02	669,128
	872,281	2,743E-02	669,104
	873,172	2,743E-02	669,116
	874,078	2,743E-02	669,104
	874,969	2,743E-02	669,100
	875,859	2,743E-02	669,084
	876,766	2,743E-02	669,106
	877,656	2,743E-02	669,100
	878,547	2,743E-02	669,073
	879,453	2,743E-02	669,079
	880,344	2,743E-02	669,074
	881,234	2,743E-02	669,057
	882,141	2,743E-02	669,098
	883,031	2,743E-02	669,074
	883,922	2,743E-02	669,056
	884,828	2,743E-02	669,036
	885,719	2,743E-02	669,041
	886,609	2,743E-02	669,049
	887,515625	2,74E-02	669,036207132
	888,40625	2,74E-02	669,026558448
	889,296875	2,74E-02	668,997885564
	890,203125	2,74E-02	669,010353732
	891,09375	2,74E-02	669,014239059
	891,984375	2,74E-02	669,003251364
	892,890625	2,74E-02	668,991270996
	893,78125	2,74E-02	669,002736735
	894,671875	2,74E-02	669,002707467
	895,578125	2,74E-02	668,985271056
	896,46875	2,74E-02	668,96470053
	897,359375	2,74E-02	668,950539696
	898,265625	2,74E-02	668,951625051
	899,15625	2,74E-02	668,949147027
	900,046875	2,74E-02	668,939791023
	900,953125	2,74E-02	668,948973858
	901,84375	2,74E-02	668,940083703
	902,734375	2,74E-02	668,917440027
	903,625	2,74E-02	668,891484189
	904,53125	2,74E-02	668,886291558
	905,421875	2,74E-02	668,899742643
	906,3125	2,74E-02	668,89270125
	907,21875	2,74E-02	668,882569644
	908,109375	2,74E-02	668,853772371
	909	2,74E-02	668,858650371
	909,90625	2,74E-02	668,851296786
	910,796875	2,74E-02	668,839613976
	911,703125	2,74E-02	668,844216369
	912,59375	2,74E-02	668,824916562
	913,484375	2,74E-02	668,822180004
	914,390625	2,74E-02	668,78055603
	915,28125	2,74E-02	668,793260781
	916,171875	2,74E-02	668,7947754
	917,078125	2,74E-02	668,758648932
	917,96875	2,74E-02	668,754163611
	918,859375	2,74E-02	668,750631939
	919,765625	2,74E-02	668,749914873
	920,65625	2,74E-02	668,745573453
	921,546875	2,74E-02	668,727910215
	922,453125	2,74E-02	668,697756858
	923,34375	2,74E-02	668,707049448
	924,234375	2,74E-02	668,694278844
	925,140625	2,74E-02	668,686725261
	926,03125	2,74E-02	668,652442677
	926,921875	2,74E-02	668,63726478
	927,828125	2,74E-02	668,649818313
	928,71875	2,74E-02	668,617489368
	929,609375	2,74E-02	668,600011494
	930,5	2,74E-02	668,610052857
	931,40625	2,74E-02	668,586279924
	932,296875	2,74E-02	668,557838745
	933,203125	2,74E-02	668,549282733
	934,09375	2,74E-02	668,531524374
	934,984375	2,74E-02	668,521614717
	935,890625	2,74E-02	668,521026918
	936,78125	2,74E-02	668,509258743
	937,671875	2,74E-02	668,482317549
	938,578125	2,74E-02	668,469644505
	939,46875	2,74E-02	668,436415569
	940,359375	2,74E-02	668,438708229
	941,265625	2,74E-02	668,434232664
	942,15625	2,74E-02	668,410532901
	943,046875	2,74E-02	668,3864868
	943,953125	2,74E-02	668,368426005
	944,84375	2,74E-02	668,34582867
	945,734375	2,74E-02	668,335084875
	946,640625	2,74E-02	668,315111904
	947,53125	2,74E-02	668,284478064
	948,421875	2,74E-02	668,287324377
	949,328125	2,74E-02	668,267370918
	950,21875	2,74E-02	668,233310283
	951,125	2,74E-02	668,219405544
	952,015625	2,74E-02	668,20851297
	952,90625	2,74E-02	668,208222729
	953,796875	2,74E-02	668,170647495
	954,703125	2,74E-02	668,134550295
	955,59375	2,74E-02	668,123194311
	956,5	2,74E-02	668,115023661
	957,390625	2,74E-02	668,089455624
	958,28125	2,74E-02	668,071292391
	959,171875	2,74E-02	668,050480404
	960,078125	2,74E-02	668,04168537
	960,96875	2,74E-02	667,999056528
	961,859375	2,74E-02	668,013200289
	962,765625	2,74E-02	667,974837258
	963,65625	2,74E-02	667,966293441
	964,546875	2,74E-02	667,928688939
	965,453125	2,74E-02	667,897755102
	966,34375	2,74E-02	667,880933319
	967,234375	2,74E-02	667,854553095
	968,140625	2,74E-02	667,859982309
	969,03125	2,74E-02	667,820436363
	969,921875	2,74E-02	667,790707392
	970,828125	2,74E-02	667,76581008
	971,71875	2,74E-02	667,736003061
	972,609375	2,74E-02	667,726569009
	973,515625	2,74E-02	667,697920515
	974,40625	2,74E-02	667,668008619
	975,296875	2,74E-02	667,660533084
	976,203125	2,74E-02	667,632262635
	977,09375	2,74E-02	667,599911739
	977,984375	2,74E-02	667,593314244
	978,890625	2,74E-02	667,569655944
	979,78125	2,74E-02	667,552117095
	980,671875	2,74E-02	667,510946775
	981,578125	2,74E-02	667,469234997
	982,46875	2,74E-02	667,460015577
	983,359375	2,74E-02	667,418211117
	984,265625	2,74E-02	667,388928483
	985,15625	2,74E-02	667,361343393
	986,046875	2,74E-02	667,361140956
	986,953125	2,74E-02	667,312317054
	987,84375	2,74E-02	667,297775736
	988,734375	2,74E-02	667,254466413
	989,640625	2,74E-02	667,209657105
	990,53125	2,74E-02	667,176594021
	991,421875	2,74E-02	667,136616372
	992,328125	2,74E-02	667,119106791
	993,21875	2,74E-02	667,115809263
	994,109375	2,74E-02	667,076365755
	995,015625	2,73E-02	667,035168606
	995,90625	2,73E-02	667,002732345
	996,796875	2,73E-02	666,985152033
	997,703125	2,73E-02	666,963413226
	998,59375	2,73E-02	666,904660155
	999,484375	2,73E-02	666,880094547
	1000,390625	2,73E-02	666,824853636
	1001,28125	2,73E-02	666,801005094
	1002,171875	2,73E-02	666,778290687
	1003,078125	2,73E-02	666,739703268
	1003,96875	2,73E-02	666,712879146
	1004,859375	2,73E-02	666,655994349
	1005,765625	2,73E-02	666,616204503
	1006,65625	2,73E-02	666,571585437
	1007,546875	2,73E-02	666,534915072
	1008,453125	2,73E-02	666,504576351
	1009,34375	2,73E-02	666,432752679
	1010,25	2,73E-02	666,438745302
	1011,140625	2,73E-02	666,365394816
	1012,046875	2,73E-02	666,317195298
	1012,9375	2,73E-02	666,275388399
	1013,828125	2,73E-02	666,216506061
	1014,71875	2,73E-02	666,189303894
	1015,625	2,73E-02	666,108333972
	1016,515625	2,73E-02	666,053734518
	1017,40625	2,73E-02	666,019532421
	1018,3125	2,73E-02	665,949903849
	1019,203125	2,73E-02	665,883311832
	1020,109375	2,73E-02	665,810185734
	1021	2,73E-02	665,716052529
	1021,890625	2,73E-02	665,645704452
	1022,796875	2,73E-02	665,600982948
	1023,6875	2,73E-02	665,509164354
	1024,578125	2,73E-02	665,366085297
	1025,484375	2,73E-02	665,308195632
	1026,375	2,73E-02	665,187070014
	1027,265625	2,73E-02	665,072819937
	1028,171875	2,73E-02	664,94732607
	1029,0625	2,73E-02	664,840944207
	1029,96875	2,73E-02	664,689448161
	1030,859375	2,72E-02	664,558425081
	1031,75	2,72E-02	664,386309729
	1032,65625	2,72E-02	664,236913662
	1033,546875	2,72E-02	664,049820411
	1034,453125	2,72E-02	663,860471085
	1035,34375	2,72E-02	663,664553532
	1036,234375	2,72E-02	663,463179936
	1037,140625	2,72E-02	663,261467319
	1038,03125	2,72E-02	663,02817453
	1038,9375	2,72E-02	662,812113276
	1039,828125	2,72E-02	662,573266884
	1040,71875	2,72E-02	662,332466853
	1041,625	2,71E-02	662,052289167
	1042,515625	2,71E-02	661,805596512
	1043,40625	2,71E-02	661,515362829
	1044,3125	2,71E-02	661,232731509
	1045,203125	2,71E-02	660,927044322
	1046,09375	2,71E-02	660,636766737
	1047	2,71E-02	660,319355277
	1047,890625	2,71E-02	660,013343703
	1048,78125	2,70E-02	659,675334888
	1049,6875	2,70E-02	659,369423313
	1050,578125	2,70E-02	659,003083074
	1051,484375	2,70E-02	658,681547265
	1052,375	2,70E-02	658,326250818
	1053,265625	2,70E-02	657,9824445
	1054,171875	2,70E-02	657,62825292
	1055,0625	2,69E-02	657,278032032
	1055,953125	2,69E-02	656,9341623
	1056,859375	2,69E-02	656,581217049
	1057,75	2,69E-02	656,221135284
	1058,640625	2,69E-02	655,868643687
	1059,546875	2,69E-02	655,486125561
	1060,4375	2,69E-02	655,149897216
	1061,34375	2,68E-02	654,778030203
	1062,234375	2,68E-02	654,407994879
	1063,125	2,68E-02	654,033783987
	1064,03125	2,68E-02	653,672726622
	1064,921875	2,68E-02	653,315803362
	1065,828125	2,68E-02	652,962526407
	1066,71875	2,68E-02	652,595008131
	1067,609375	2,67E-02	652,205012031
	1068,5	2,67E-02	651,861069129
	1069,40625	2,67E-02	651,49865568
	1070,296875	2,67E-02	651,115813167
	1071,203125	2,67E-02	650,758831371
	1072,09375	2,67E-02	650,40954462
	1072,984375	2,67E-02	650,059004223
	1073,890625	2,66E-02	649,695110301
	1074,78125	2,66E-02	649,318648212
	1075,671875	2,66E-02	648,970251696
	1076,578125	2,66E-02	648,601594407
	1077,46875	2,66E-02	648,264317292
	1078,375	2,66E-02	647,908086708
	1079,265625	2,65E-02	647,509756545
	1080,171875	2,65E-02	647,202169377
	1081,0625	2,65E-02	646,813319607
	1081,953125	2,65E-02	646,480598544
	1082,859375	2,65E-02	646,132494708
	1083,75	2,65E-02	645,788629854
	1084,640625	2,65E-02	645,430479777
	1085,546875	2,64E-02	645,096729456
	1086,4375	2,64E-02	644,732425782
	1087,328125	2,64E-02	644,396119389
	1088,234375	2,64E-02	644,043752181
	1089,125	2,64E-02	643,711043313
	1090,03125	2,64E-02	643,365927252
	1090,921875	2,64E-02	643,01671611
	1091,8125	2,64E-02	642,694919328
	1092,71875	2,63E-02	642,35530809
	1093,609375	2,63E-02	642,03355521
	1094,5	2,63E-02	641,693773242
	1095,40625	2,63E-02	641,344369419
	1096,296875	2,63E-02	641,033870085
	1097,1875	2,63E-02	640,717795197
	1098,09375	2,63E-02	640,382232699
	1098,984375	2,62E-02	640,059645681
	1099,890625	2,62E-02	639,728941671
	1100,78125	2,62E-02	639,402315669
	1101,671875	2,62E-02	639,090967563
	1102,578125	2,62E-02	638,769892725
	1103,46875	2,62E-02	638,445869136
	1104,375	2,62E-02	638,113913919
	1105,265625	2,62E-02	637,823009511
	1106,15625	2,61E-02	637,508573631
	1107,0625	2,61E-02	637,181767143
	1107,953125	2,61E-02	636,880487229
	1108,859375	2,61E-02	636,570448866
	1109,75	2,61E-02	636,274054269
	1110,640625	2,61E-02	635,94271368
	1111,546875	2,61E-02	635,640172803
	1112,4375	2,60E-02	635,33918313
	1113,328125	2,60E-02	635,038005654
	1114,234375	2,60E-02	634,737479391
	1115,125	2,60E-02	634,453194429
	1116,03125	2,60E-02	634,139368299
	1116,921875	2,60E-02	633,845168802
	1117,8125	2,60E-02	633,531052431
	1118,71875	2,60E-02	633,249194274
	1119,609375	2,60E-02	632,930214537
	1120,5	2,59E-02	632,655568503
	1121,40625	2,59E-02	632,341052136
	1122,296875	2,59E-02	632,060828109
	1123,203125	2,59E-02	631,787933277
	1124,09375	2,59E-02	631,495624005
	1124,984375	2,59E-02	631,206051291
	1125,890625	2,59E-02	630,904407966
	1126,78125	2,59E-02	630,607391424
	1127,6875	2,58E-02	630,33964776
	1128,578125	2,58E-02	630,030843531
	1129,46875	2,58E-02	629,78118993
	1130,375	2,58E-02	629,482717305
	1131,265625	2,58E-02	629,203863996
	1132,171875	2,58E-02	628,924435083
	1133,0625	2,58E-02	628,638925743
	1133,953125	2,58E-02	628,364794338
	1134,859375	2,58E-02	628,110967608
	1135,75	2,57E-02	627,809809644
	1136,65625	2,57E-02	627,544444005
	1137,546875	2,57E-02	627,284317338
	1138,4375	2,57E-02	627,017354154
	1139,34375	2,57E-02	626,752273878
	1140,234375	2,57E-02	626,471479125
	1141,140625	2,57E-02	626,196979431
	1142,03125	2,57E-02	625,908387195
	1142,921875	2,57E-02	625,635599679
	1143,828125	2,56E-02	625,38798996
	1144,71875	2,56E-02	625,131165699
	1145,609375	2,56E-02	624,860885475
	1146,515625	2,56E-02	624,616478163
	1147,40625	2,56E-02	624,353812497
	1148,296875	2,56E-02	624,062422728
	1149,203125	2,56E-02	623,8159569
	1150,09375	2,56E-02	623,543101092
	1151	2,56E-02	623,289823137
	1151,890625	2,55E-02	623,028328191
	1152,78125	2,55E-02	622,783803807
	1153,6875	2,55E-02	622,51477479
	1154,578125	2,55E-02	622,268860176
	1155,484375	2,55E-02	622,025499195
	1156,375	2,55E-02	621,77222124
	1157,265625	2,55E-02	621,506731212
	1158,171875	2,55E-02	621,28944558
	1159,0625	2,55E-02	621,02057022
	1159,953125	2,55E-02	620,773350741
	1160,859375	2,54E-02	620,510448492
	1161,75	2,54E-02	620,256226644
	1162,65625	2,54E-02	620,021792403
	1163,546875	2,54E-02	619,776294858
	1164,4375	2,54E-02	619,526663208
	1165,34375	2,54E-02	619,289648505
	1166,234375	2,54E-02	619,023160926
	1167,125	2,54E-02	618,771785391
	1168,03125	2,54E-02	618,523646409
	1168,921875	2,54E-02	618,292924326
	1169,828125	2,53E-02	618,050943819
	1170,71875	2,53E-02	617,823458289
	1171,609375	2,53E-02	617,564526732
	1172,515625	2,53E-02	617,330646144
	1173,40625	2,53E-02	617,096692386
	1174,3125	2,53E-02	616,851253377
	1175,203125	2,53E-02	616,594636431
	1176,09375	2,53E-02	616,359743658
	1177	2,53E-02	616,135141026
	1177,890625	2,53E-02	615,909404259
	1178,78125	2,52E-02	615,649660515
	1179,6875	2,52E-02	615,427889562
	1180,578125	2,52E-02	615,187316358
	1181,484375	2,52E-02	614,966160033
	1182,375	2,52E-02	614,718794214
	1183,265625	2,52E-02	614,478540519
	1184,171875	2,52E-02	614,239989246
	1185,0625	2,52E-02	614,030003541
	1185,96875	2,52E-02	613,778052402
	1186,859375	2,52E-02	613,567113048
	1187,75	2,51E-02	613,337949486
	1188,65625	2,51E-02	613,103100615
	1189,546875	2,51E-02	612,865946889
	1190,4375	2,51E-02	612,660422115
	1191,34375	2,51E-02	612,418751361
	1192,234375	2,51E-02	612,162856359
	1193,140625	2,51E-02	611,962199829
	1194,03125	2,51E-02	611,740167903
	1194,921875	2,51E-02	611,507945835
	1195,828125	2,51E-02	611,284226121
	1196,71875	2,51E-02	611,055394263
	1197,609375	2,50E-02	610,84284273
	1198,515625	2,50E-02	610,612920639
	1199,40625	2,50E-02	610,389859455
	1200,3125	2,50E-02	610,158042261
	1201,203125	2,50E-02	609,952929678
	1202,109375	2,50E-02	609,708168711
	1203,015625	2,50E-02	609,492405015
	1203,90625	2,50E-02	609,281082738
	1204,8125	2,50E-02	609,044194863
	1205,703125	2,50E-02	608,839706664
	1206,59375	2,50E-02	608,628038049
	1207,5	2,49E-02	608,402059821
	1208,390625	2,49E-02	608,179298634
	1209,296875	2,49E-02	607,956186231
	1210,1875	2,49E-02	607,754151666
	1211,078125	2,49E-02	607,541470866
	1211,984375	2,49E-02	607,339116792
	1212,875	2,49E-02	607,101014295
	1213,78125	2,49E-02	606,906557703
	1214,671875	2,49E-02	606,674384415
	1215,5625	2,49E-02	606,455974404
	1216,46875	2,49E-02	606,265793379
	1217,359375	2,48E-02	606,035776167
	1218,25	2,48E-02	605,84042934
	1219,15625	2,48E-02	605,629719252
	1220,046875	2,48E-02	605,399209362
	1220,953125	2,48E-02	605,214989253
	1221,84375	2,48E-02	604,999110924
	1222,734375	2,48E-02	604,782237483
	1223,640625	2,48E-02	604,551025161
	1224,53125	2,48E-02	604,362678264
	1225,4375	2,48E-02	604,149451128
	1226,328125	2,48E-02	603,943880013
	1227,21875	2,48E-02	603,725018787
	1228,125	2,47E-02	603,514611135
	1229,015625	2,47E-02	603,329830056
	1229,90625	2,47E-02	603,095820201
	1230,8125	2,47E-02	602,908251345
	1231,703125	2,47E-02	602,707458231
	1232,609375	2,47E-02	602,492570136
	1233,5	2,47E-02	602,269796754
	1234,40625	2,47E-02	602,088113205
	1235,296875	2,47E-02	601,901051661
	1236,1875	2,47E-02	601,688122083
	1237,09375	2,47E-02	601,490792349
	1237,984375	2,47E-02	601,297794279
	1238,875	2,46E-02	601,069784364
	1239,78125	2,46E-02	600,873666813
	1240,671875	2,46E-02	600,686324784
	1241,578125	2,46E-02	600,469192809
	1242,46875	2,46E-02	600,27519231
	1243,359375	2,46E-02	600,078116232
	1244,265625	2,46E-02	599,866530543
	1245,15625	2,46E-02	599,682407994
	1246,0625	2,46E-02	599,465405286
	1247,109375	2,46E-02	599,264887779
	1248,125	2,46E-02	599,032892538
	1249,046875	2,46E-02	598,816658115
	1250,015625	2,45E-02	598,618084491
	1251	2,45E-02	598,408969509
	1251,90625	2,45E-02	598,179932775
	1252,8125	2,45E-02	597,99387366
	1253,703125	2,45E-02	597,781958706
	1254,609375	2,45E-02	597,603326346
	1255,5	2,45E-02	597,418876971
	1256,40625	2,45E-02	597,205047402
	1257,296875	2,45E-02	597,024727254
	1258,28125	2,45E-02	596,810405007
	1259,34375	2,45E-02	596,571151302
	1260,234375	2,45E-02	596,375141067
	1261,140625	2,44E-02	596,209732965
	1262,125	2,44E-02	596,003993559
	1263,03125	2,44E-02	595,77779826
	1263,921875	2,44E-02	595,59760494
	1264,9375	2,44E-02	595,389880188
	1265,828125	2,44E-02	595,177757919
	1266,71875	2,44E-02	594,98731836
	1267,625	2,44E-02	594,824834619
	1268,515625	2,44E-02	594,624602475
	1269,40625	2,44E-02	594,429316623
	1270,3125	2,44E-02	594,243501408
	1271,203125	2,44E-02	594,037274202
	1272,203125	2,43E-02	593,85732966
	1273,28125	2,43E-02	593,633839212
	1274,171875	2,43E-02	593,433743652
	1275,078125	2,43E-02	593,214589746
	1275,96875	2,43E-02	593,062047369
	1276,875	2,43E-02	592,848444627
	1277,765625	2,43E-02	592,672204926
	1278,65625	2,43E-02	592,490984787
	1279,625	2,43E-02	592,298325738
	1280,515625	2,43E-02	592,108391052
	1281,421875	2,43E-02	591,906656484
	1282,3125	2,43E-02	591,743119095
	1283,21875	2,43E-02	591,542513784
	1284,109375	2,42E-02	591,351301062
	1285	2,42E-02	591,153459138
	1285,90625	2,42E-02	590,998126545
	1286,796875	2,42E-02	590,814838134
	1287,6875	2,42E-02	590,64514227
	1288,59375	2,42E-02	590,43875409
	1289,484375	2,42E-02	590,254492518
	1290,390625	2,42E-02	590,088113694
	1291,28125	2,42E-02	589,878110916
	1292,171875	2,42E-02	589,722144183
	1293,078125	2,42E-02	589,552070274
	1293,96875	2,42E-02	589,3358139
	1294,859375	2,42E-02	589,159098594
	1295,765625	2,41E-02	589,000209939
	1296,65625	2,41E-02	588,798514395
	1297,5625	2,41E-02	588,619794231
	1298,453125	2,41E-02	588,447791073
	1299,34375	2,41E-02	588,26006856
	1300,25	2,41E-02	588,101001858
	1301,140625	2,41E-02	587,921759748
	1302,03125	2,41E-02	587,717959347
	1302,9375	2,41E-02	587,548892745
	1303,828125	2,41E-02	587,379250539
	1304,734375	2,41E-02	587,187659772
	1305,625	2,41E-02	586,995003162
	1306,515625	2,41E-02	586,845260757
	1307,421875	2,41E-02	586,660023585
	1308,3125	2,40E-02	586,488774078
	1309,203125	2,40E-02	586,30630761
	1310,109375	2,40E-02	586,138865382
	1311,015625	2,40E-02	585,967901238
	1312,046875	2,40E-02	585,746301015
	1312,953125	2,40E-02	585,578702691
	1313,84375	2,40E-02	585,404514189
	1314,75	2,40E-02	585,203121081
	1315,640625	2,40E-02	585,035825193
	1316,546875	2,40E-02	584,883460863
	1317,4375	2,40E-02	584,69886027
	1318,328125	2,40E-02	584,54064234
	1319,234375	2,40E-02	584,348088168
	1320,125	2,40E-02	584,175238677
	1321,015625	2,39E-02	583,975589454
	1321,921875	2,39E-02	583,823166588
	1322,8125	2,39E-02	583,643541555
	1323,71875	2,39E-02	583,472731068
	1324,625	2,39E-02	583,305401034
	1325,515625	2,39E-02	583,12794915
	1326,453125	2,39E-02	582,947163153
	1327,390625	2,39E-02	582,766401546
	1328,28125	2,39E-02	582,582752163
	1329,1875	2,39E-02	582,438392631
	1330,078125	2,39E-02	582,261789519
	1330,96875	2,39E-02	582,075779184
	1331,875	2,39E-02	581,893471251
	1332,765625	2,39E-02	581,729985081
	1333,671875	2,38E-02	581,551396623
	1334,5625	2,38E-02	581,396510367
	1335,453125	2,38E-02	581,227319376
	1336,359375	2,38E-02	581,056533279
	1337,25	2,38E-02	580,881661857
	1338,140625	2,38E-02	580,71021723
	1339,046875	2,38E-02	580,558857768
	1339,953125	2,38E-02	580,37136696
	1340,84375	2,38E-02	580,210217352
	1341,734375	2,38E-02	580,031194752
	1342,640625	2,38E-02	579,864754953
	1343,53125	2,38E-02	579,691249371
	1344,421875	2,38E-02	579,530858292
	1345,328125	2,38E-02	579,386928024
	1346,21875	2,37E-02	579,205851786
	1347,125	2,37E-02	579,021970698
	1348,015625	2,37E-02	578,850413877
	1348,90625	2,37E-02	578,709910404
	1349,8125	2,37E-02	578,522951298
	1350,703125	2,37E-02	578,353418847
	1351,59375	2,37E-02	578,199078927
	1352,5	2,37E-02	578,013110055
	1353,390625	2,37E-02	577,853870184
	1354,296875	2,37E-02	577,673123211
	1355,1875	2,37E-02	577,530066105
	1356,078125	2,37E-02	577,360904382
	1356,984375	2,37E-02	577,191079251
	1357,875	2,37E-02	577,023198003
	1358,765625	2,37E-02	576,841124214
	1359,671875	2,36E-02	576,715127913
	1360,5625	2,36E-02	576,521044488
	1361,46875	2,36E-02	576,367516755
	1362,359375	2,36E-02	576,205052526
	1363,25	2,36E-02	576,019754379
	1364,15625	2,36E-02	575,879287491
	1365,046875	2,36E-02	575,744064453
	1365,9375	2,36E-02	575,53590312
	1366,84375	2,36E-02	575,379336393
	1367,734375	2,36E-02	575,19332118
	1368,640625	2,36E-02	575,050247001
	1369,53125	2,36E-02	574,884514512
	1370,421875	2,36E-02	574,745291514
	1371,328125	2,36E-02	574,551217845
	1372,21875	2,36E-02	574,409041218
	1373,109375	2,35E-02	574,241591673
	1374,015625	2,35E-02	574,081193277
	1374,90625	2,35E-02	573,918443685
	1375,8125	2,35E-02	573,75362826
	1376,703125	2,35E-02	573,616234512
	1377,59375	2,35E-02	573,425885196
	1378,5	2,35E-02	573,286045131
	1379,390625	2,35E-02	573,117985836
	1380,296875	2,35E-02	572,923204857
	1381,1875	2,35E-02	572,785959888
	1382,078125	2,35E-02	572,614354287
	1382,984375	2,35E-02	572,464867977
	1383,875	2,35E-02	572,297055021
	1384,78125	2,35E-02	572,151568671
	1385,671875	2,35E-02	571,979443563
	1386,5625	2,34E-02	571,825371933
	1387,46875	2,34E-02	571,656456549
	1388,359375	2,34E-02	571,492172826
	1389,25	2,34E-02	571,359193668
	1390,15625	2,34E-02	571,195217259
	1391,046875	2,34E-02	571,034379843
	1391,953125	2,34E-02	570,877766775
	1392,84375	2,34E-02	570,707356284
	1393,734375	2,34E-02	570,571969833
	1394,640625	2,34E-02	570,383196111
	1395,53125	2,34E-02	570,246485283
	1396,4375	2,34E-02	570,086618589
	1397,328125	2,34E-02	569,916512973
	1398,21875	2,34E-02	569,771987589
	1399,125	2,34E-02	569,599399071
	1400,015625	2,33E-02	569,465222364
	1400,921875	2,33E-02	569,304367875
	1401,8125	2,33E-02	569,129854986
	1402,703125	2,33E-02	569,006214759
	1403,609375	2,33E-02	568,808124057
	1404,5	2,33E-02	568,668259602
	1405,40625	2,33E-02	568,506141711
	1406,296875	2,33E-02	568,376762517
	1407,1875	2,33E-02	568,206437391
	1408,09375	2,33E-02	568,02544164
	1408,984375	2,33E-02	567,879306516
	1409,890625	2,33E-02	567,7201764
	1410,78125	2,33E-02	567,578746107
	1411,671875	2,33E-02	567,405250281
	1412,578125	2,33E-02	567,259173693
	1413,46875	2,33E-02	567,092619261
	1414,375	2,32E-02	566,94269637
	1415,265625	2,32E-02	566,829046287
	1416,15625	2,32E-02	566,643533508
	1417,0625	2,32E-02	566,483576571
	1417,953125	2,32E-02	566,337846321
	1418,859375	2,32E-02	566,176291839
	1419,75	2,32E-02	566,029544526
	1420,78125	2,32E-02	565,83960984
	1421,671875	2,32E-02	565,707452625
	1422,578125	2,32E-02	565,541122581
	1423,46875	2,32E-02	565,379682732
	1424,359375	2,32E-02	565,221925773
	1425,265625	2,32E-02	565,063332237
	1426,15625	2,32E-02	564,909341094
	1427,0625	2,32E-02	564,789713022
	1427,953125	2,32E-02	564,629880474
	1428,859375	2,31E-02	564,464906514
	1429,75	2,31E-02	564,309647091
	1430,65625	2,31E-02	564,166787544
	1431,546875	2,31E-02	564,011613486
	1432,4375	2,31E-02	563,859188181
	1433,34375	2,31E-02	563,695058115
	1434,234375	2,31E-02	563,53602312
	1435,140625	2,31E-02	563,405385402
	1436,03125	2,31E-02	563,267777022
	1436,921875	2,31E-02	563,072557023
	1437,828125	2,31E-02	562,942738809
	1438,71875	2,31E-02	562,816627875
	1439,625	2,31E-02	562,629071214
	1440,515625	2,31E-02	562,504157829
	1441,40625	2,31E-02	562,354171524
	1442,3125	2,30E-02	562,18001229
	1443,203125	2,30E-02	562,042247814
	1444,09375	2,30E-02	561,888678618
	1445	2,30E-02	561,726780237
	1445,890625	2,30E-02	561,564333081
	1446,796875	2,30E-02	561,441470895
	1447,6875	2,30E-02	561,289733388
	1448,59375	2,30E-02	561,13246179
	1449,484375	2,30E-02	560,981938905
	1450,390625	2,30E-02	560,810818665
	1451,28125	2,30E-02	560,669254227
	1452,1875	2,30E-02	560,523465441
	1453,078125	2,30E-02	560,389161906
	1453,984375	2,30E-02	560,240243883
	1454,9375	2,30E-02	560,058062778
	1455,875	2,30E-02	559,903074084
	1456,78125	2,29E-02	559,746358578
	1457,671875	2,29E-02	559,622620791
	1458,578125	2,29E-02	559,461951666
	1459,46875	2,29E-02	559,311589755
	1460,375	2,29E-02	559,158664455
	1461,265625	2,29E-02	559,010575692
	1462,171875	2,29E-02	558,873896571
	1463,0625	2,29E-02	558,713246958
	1463,953125	2,29E-02	558,554380254
	1464,859375	2,29E-02	558,432969273
	1465,828125	2,29E-02	558,302248629
	1466,71875	2,29E-02	558,12436992
	1467,625	2,29E-02	557,972905581
	1468,515625	2,29E-02	557,833928922
	1469,40625	2,29E-02	557,675457336
	1470,3125	2,29E-02	557,513617491
	1471,203125	2,29E-02	557,399918628
	1472,109375	2,28E-02	557,232310548
	1473	2,28E-02	557,080887672
	1473,90625	2,28E-02	556,927742862
	1474,796875	2,28E-02	556,76982249
	1475,703125	2,28E-02	556,622431281
	1476,59375	2,28E-02	556,497691065
	1477,5	2,28E-02	556,341282873
	1478,40625	2,28E-02	556,183984446
	1479,296875	2,28E-02	556,043139513
	1480,1875	2,28E-02	555,920643177
	1481,09375	2,28E-02	555,761908179
	1481,984375	2,28E-02	555,602975622
	1482,890625	2,28E-02	555,469279398
	1483,78125	2,28E-02	555,31503216
	1484,6875	2,28E-02	555,164021475
	1485,578125	2,28E-02	555,02574237
	1486,484375	2,27E-02	554,869753686
	1487,375	2,27E-02	554,733994068
	1488,28125	2,27E-02	554,568285969
	1489,171875	2,27E-02	554,47072353
	1490,078125	2,27E-02	554,307088581
	1490,96875	2,27E-02	554,146295067
	1491,859375	2,27E-02	554,029596234
	1492,765625	2,27E-02	553,865927139
	1493,65625	2,27E-02	553,714938405
	1494,5625	2,27E-02	553,578654402
	1495,453125	2,27E-02	553,431529044
	1496,359375	2,27E-02	553,278430575
	1497,25	2,27E-02	553,125780882
	1498,140625	2,27E-02	552,976011648
	1499,046875	2,27E-02	552,870712701
	1499,9375	2,27E-02	552,717433746
	1500,84375	2,27E-02	552,568898646
	1501,734375	2,26E-02	552,406407588
	1502,640625	2,26E-02	552,262489515
	1503,53125	2,26E-02	552,138956604
	1504,4375	2,26E-02	551,983733766
	1505,328125	2,26E-02	551,855559438
	1506,234375	2,26E-02	551,691258642
	1507,125	2,26E-02	551,563125777
	1508,03125	2,26E-02	551,424536919
	1508,921875	2,26E-02	551,267494587
	1509,828125	2,26E-02	551,126481363
	1510,71875	2,26E-02	550,97463654
	1511,609375	2,26E-02	550,863942525
	1512,515625	2,26E-02	550,686773565
	1513,40625	2,26E-02	550,561123602
	1514,3125	2,26E-02	550,406000763
	1515,203125	2,26E-02	550,265389974
	1516,109375	2,26E-02	550,129564503
	1517	2,25E-02	549,97535385
	1517,90625	2,25E-02	549,85228191
	1518,796875	2,25E-02	549,670952016
	1519,6875	2,25E-02	549,561540915
	1520,59375	2,25E-02	549,396474273
	1521,484375	2,25E-02	549,276119379
	1522,390625	2,25E-02	549,131757408
	1523,28125	2,25E-02	548,996512419
	1524,1875	2,25E-02	548,843762727
	1525,078125	2,25E-02	548,707325067
	1525,984375	2,25E-02	548,568348408
	1526,875	2,25E-02	548,440544808
	1527,765625	2,25E-02	548,291434104
	1528,671875	2,25E-02	548,146179459
	1529,5625	2,25E-02	548,016610023
	1530,46875	2,25E-02	547,855221393
	1531,359375	2,25E-02	547,715856933
	1532,265625	2,25E-02	547,586260668
	1533,15625	2,24E-02	547,438445073
	1534,0625	2,24E-02	547,276602789
	1534,953125	2,24E-02	547,168774599
	1535,84375	2,24E-02	547,017929766
	1536,75	2,24E-02	546,873162921
	1537,640625	2,24E-02	546,736783797
	1538,546875	2,24E-02	546,601446126
	1539,4375	2,24E-02	546,442801371
	1540,34375	2,24E-02	546,321592827
	1541,234375	2,24E-02	546,177840606
	1542,140625	2,24E-02	546,026849433
	1543,03125	2,24E-02	545,878999692
	1543,9375	2,24E-02	545,753335095
	1544,828125	2,24E-02	545,618697417
	1545,734375	2,24E-02	545,472950094
	1546,625	2,24E-02	545,331990528
	1547,53125	2,24E-02	545,193404109
	1548,421875	2,23E-02	545,040593442
	1549,328125	2,23E-02	544,924045827
	1550,21875	2,23E-02	544,767120567
	1551,125	2,23E-02	544,652672931
	1552,015625	2,23E-02	544,495696452
	1552,90625	2,23E-02	544,375248876
	1553,8125	2,23E-02	544,211862705
	1554,703125	2,23E-02	544,084959096
	1555,609375	2,23E-02	543,945882438
	1556,5	2,23E-02	543,804422877
	1557,40625	2,23E-02	543,659053599
	1558,296875	2,23E-02	543,520757421
	1559,203125	2,23E-02	543,367700415
	1560,09375	2,23E-02	543,252935709
	1561	2,23E-02	543,107295702
	1561,890625	2,23E-02	542,969297082
	1562,796875	2,23E-02	542,819822967
	1563,6875	2,23E-02	542,705341185
	1564,59375	2,22E-02	542,549381769
	1565,484375	2,22E-02	542,432431719
	1566,390625	2,22E-02	542,298535497
	1567,296875	2,22E-02	542,134081044
	1568,1875	2,22E-02	541,981570374
	1569,09375	2,22E-02	541,842447375
	1569,984375	2,22E-02	541,726599753
	1570,890625	2,22E-02	541,609147269
	1571,78125	2,22E-02	541,449434232
	1572,6875	2,22E-02	541,329501285
	1573,578125	2,22E-02	541,179919854
	1574,484375	2,22E-02	541,041623676
	1575,375	2,22E-02	540,900017775
	1576,28125	2,22E-02	540,765472779
	1577,171875	2,22E-02	540,629198532
	1578,078125	2,22E-02	540,494755974
	1578,96875	2,22E-02	540,360764631
	1579,875	2,21E-02	540,235263447
	1580,765625	2,21E-02	540,072874827
	1581,671875	2,21E-02	539,963341776
	1582,5625	2,21E-02	539,800545843
	1583,46875	2,21E-02	539,678173896
	1584,359375	2,21E-02	539,520973029
	1585,265625	2,21E-02	539,430571494
	1586,15625	2,21E-02	539,267892633
	1587,0625	2,21E-02	539,133550074
	1587,953125	2,21E-02	539,00375625
	1588,859375	2,21E-02	538,858604043
	1589,75	2,21E-02	538,699951971
	1590,65625	2,21E-02	538,588682352
	1591,546875	2,21E-02	538,441364313
	1592,453125	2,21E-02	538,314760701
	1593,34375	2,21E-02	538,168503627
	1594,25	2,21E-02	538,051321872
	1595,140625	2,21E-02	537,886491813
	1596,046875	2,20E-02	537,785453799
	1596,9375	2,20E-02	537,630296814
	1597,84375	2,20E-02	537,513951636
	1598,734375	2,20E-02	537,362467785
	1599,640625	2,20E-02	537,225961833
	1600,5625	2,20E-02	537,11175078
	1601,484375	2,20E-02	536,951569455
	1602,375	2,20E-02	536,816609829
	1603,28125	2,20E-02	536,693418378
